{
  "addClass": "g-form-focus",
  "contentIcon": "align-items-center g-font--18 ",
  "currency": false,
  "image": {
    "src": "../../images/messages/icon_mail.svg",
    "srcClass": "w-px--5"
  },
  "type" : "text",
  "value": "",
  "label" : "Etiqueta",
  "requerid": true,
  "error" : ""
}