{
  "addClass": "g-form-focus",
  "currency": "",
  "type": "password",
  "value": "",
  "iconFile": "icon-mapfre_057_circle-check",
  "iconColor": "g-c--green1",
  "label": "Nueva contraseña",
  "requerid": false,
  "error": ""
}