{
  "dataGroup" : "true",
  "item" : [
    {
      "dataOpen" : "true",
      "itemClass" : "",
      "titleClass" : "",
      "boxClass" : "",
      "clickClass" : "g-pl--20 g-pr--15 g-py--10",
      "clickOn" : {
        "iconFile" : "icon-mapfre_008_angle-down",
        "iconClass" : "g-c--pointer"
      },
      "clickOff" : {
        "iconFile" : "icon-mapfre_007_angle-up",
        "iconClass" : "g-c--pointer"
      },
      "textClass" : "",
      "text" : "Datos del seguro",
      "icon" : {
        "iconBox" : " g-px--20  g-bl--1 g-py--15",
        "iconFile" : "g-font--25 g-font-md--21 icon-mapfre_035_edit",
        "iconClass" : "g-c--green1 g-c--pointer"
      },
      "contentClass" : "g-b--1 g-pl--20",
      "content" : false,
      "list" : [
        {
          "iconFile" : "icon-mapfre_014_perfil",
          "text" : "RUC: 6438793939"
        },
        {
          "iconFile" : "icon-mapfre_014_perfil",
          "text" : "Razón social: Valvulas asociadas"
        },
        {
          "iconFile" : "icon-mapfre_021_-briefcase",
          "text" : "Valvulas Asociados"
        },
        {
          "iconFile" : "icon-mapfre_128_telephone",
          "text" : "979 342 244"
        },
        {
          "iconFile" : "icon-mapfre_060_mail",
          "text" : "falso@gmail.com"
        },
        {
          "iconFile" : "icon-mapfre_015_location-pin",
          "text" : "German Schereiber  277, San Isidro, Lima"
        },
        {
          "iconFile" : "icon-mapfre_063_agendar",
          "text" : "Vigencia del 12/05/2018 a 12/08/2018"
        }
      ]
    },
    {
      "dataOpen" : "",
      "itemClass" : "g-b--1",
      "titleClass" : "",
      "boxClass" : "",
      "clickClass" : "g-pl--20 g-pr--15 g-py--10",
      "clickOn" : {
        "iconFile" : "icon-mapfre_008_angle-down",
        "iconClass" : "g-c--pointer"
      },
      "clickOff" : {
        "iconFile" : "icon-mapfre_007_angle-up",
        "iconClass" : "g-c--pointer"
      },
      "textClass" : "",
      "text" : " Contratante",
      "icon" : {
        "iconBox" : " g-px--20  g-bl--1 g-py--15",
        "iconFile" : "g-font--25 g-font-md--21 icon-mapfre_035_edit",
        "iconClass" : "g-c--green1 g-c--pointer"
      },
      "contentClass" : "g-b--1 g-pl--20",
      "content" : false,
      "list" : [
        {
          "iconFile" : "icon-mapfre_014_perfil",
          "text" : "RUC: 6438793939"
        },
        {
          "iconFile" : "icon-mapfre_014_perfil",
          "text" : "Razón social: Valvulas asociadas"
        },
        {
          "iconFile" : "icon-mapfre_021_-briefcase",
          "text" : "Valvulas Asociados"
        },
        {
          "iconFile" : "icon-mapfre_128_telephone",
          "text" : "979 342 244"
        },
        {
          "iconFile" : "icon-mapfre_060_mail",
          "text" : "falso@gmail.com"
        },
        {
          "iconFile" : "icon-mapfre_015_location-pin",
          "text" : "German Schereiber  277, San Isidro, Lima"
        },
        {
          "iconFile" : "icon-mapfre_063_agendar",
          "text" : "Vigencia del 12/05/2018 a 12/08/2018"
        }
      ]
    }
  ]
}