{
	"classAccordion" : "g-bg-c--gray8 g-c--gray7",
	"dataGroup" : "true",
	"item" : [
		{
			"dataOpen" : "true",
      "itemClass" : "",
      "titleClass" : "",
      "boxClass" : "",
      "clickClass" : " g-pl--20   g-pr--15   g-py--10 ",
      "icon" : {
      	"iconFile" : "g-font--25 g-font-md--21 icon-mapfre_022_car2",
        "iconClass" : " g-pr--10 g-pl--10 "
      },
      "arrow" : {
	      "clickOn" : {
	        "iconFile" : "icon-mapfre_008_angle-down",
	        "iconClass" : "g-c--pointer"
	      },
	      "clickOff" : {
	        "iconFile" : "icon-mapfre_007_angle-up",
	        "iconClass" : "g-c--pointer"
	      }
	   	},
      "textClass" : "g-text--uppercase g-font--bold",
      "text" : "VEHÍCULOS",
      "contentClass" : "",
      "content" : false,
      "list" : [
        {
          "iconFile" : "",
          "text" : "Seguro Vehicular"
        },
        {
          "iconFile" : "",
          "text" : "SOAT"
        },
        {
          "iconFile" : "",
          "text" : "Accidentes"
        },
        {
          "text" : "Robo"
        },
        {
          "text" : "Talleres"
        },
        {
          "text" : "Cotización"
        }
      ],
      "classContent" : "g-hover-nav"
		},
		{
			"dataOpen" : "",
      "itemClass" : "",
      "titleClass" : "",
      "boxClass" : "",
      "clickClass" : " g-pl--20   g-pr--15   g-py--10 ",
      "icon" : {
      	"iconFile" : "g-font--25 g-font-md--21 icon-mapfre_023_cross2",
        "iconClass" : "g-c--pointer  g-pr--10 g-pl--10 "
      },
      "arrow" : {
	      "clickOn" : {
	        "iconFile" : "icon-mapfre_008_angle-down",
	        "iconClass" : "g-c--pointer"
	      },
	      "clickOff" : {
	        "iconFile" : "icon-mapfre_007_angle-up",
	        "iconClass" : "g-c--pointer"
	      }
	   	},
      "textClass" : "g-text--uppercase g-font--bold",
      "text" : "SALUD",
      "contentClass" : "",
      "content" : false,
      "list" : [
        {
          "iconFile" : "",
          "text" : "Seguro Vehicular"
        },
        {
          "iconFile" : "",
          "text" : "SOAT"
        },
        {
          "iconFile" : "",
          "text" : "Accidentes"
        },
        {
          "text" : "Robo"
        },
        {
          "text" : "Talleres"
        },
        {
          "text" : "Cotización"
        }
      ],
      "classContent" : "g-hover-nav"
		},
		{
			"dataOpen" : "",
      "itemClass" : "",
      "titleClass" : "",
      "boxClass" : "",
      "clickClass" : " g-pl--20   g-pr--15   g-py--10 ",
      "icon" : {
      	"iconFile" : "g-font--25 g-font-md--21 icon-mapfre_024_house2",
        "iconClass" : "g-c--pointer  g-pr--10 g-pl--10 "
      },
      "arrow" : {
	      "clickOn" : {
	        "iconFile" : "icon-mapfre_008_angle-down",
	        "iconClass" : "g-c--pointer"
	      },
	      "clickOff" : {
	        "iconFile" : "icon-mapfre_007_angle-up",
	        "iconClass" : "g-c--pointer"
	      }
	   	},
      "textClass" : "g-text--uppercase g-font--bold",
      "text" : "HOGAR",
      "contentClass" : "",
      "content" : false,
      "list" : [
        {
          "iconFile" : "",
          "text" : "Seguro Vehicular"
        },
        {
          "iconFile" : "",
          "text" : "SOAT"
        },
        {
          "iconFile" : "",
          "text" : "Accidentes"
        },
        {
          "text" : "Robo"
        },
        {
          "text" : "Talleres"
        },
        {
          "text" : "Cotización"
        }
      ],
      "classContent" : "g-hover-nav"
		},
		{
			"dataOpen" : "",
      "itemClass" : "",
      "titleClass" : "",
      "boxClass" : "",
      "clickClass" : " g-pl--20   g-pr--15   g-py--10 ",
      "icon" : {
      	"iconFile" : "g-font--25 g-font-md--21 icon-mapfre_025_heart2",
        "iconClass" : "g-c--pointer  g-pr--10 g-pl--10 "
      },
      "arrow" : {
	      "clickOn" : {
	        "iconFile" : "icon-mapfre_008_angle-down",
	        "iconClass" : "g-c--pointer"
	      },
	      "clickOff" : {
	        "iconFile" : "icon-mapfre_007_angle-up",
	        "iconClass" : "g-c--pointer"
	      }
	   	},
      "textClass" : "g-text--uppercase g-font--bold",
      "text" : "VIDA Y AHORROS",
      "contentClass" : "",
      "content" : false,
      "list" : [
        {
          "iconFile" : "",
          "text" : "Seguro Vehicular"
        },
        {
          "iconFile" : "",
          "text" : "SOAT"
        },
        {
          "iconFile" : "",
          "text" : "Accidentes"
        },
        {
          "text" : "Robo"
        },
        {
          "text" : "Talleres"
        },
        {
          "text" : "Cotización"
        }
      ],
      "classContent" : "g-hover-nav"
		},
		{
			"dataOpen" : "",
      "itemClass" : "",
      "titleClass" : "",
      "boxClass" : "",
      "clickClass" : " g-pl--20   g-pr--15   g-py--10 ",
      "icon" : {
      	"iconFile" : "g-font--25 g-font-md--21 icon-mapfre_026_decesos",
        "iconClass" : "g-c--pointer  g-pr--10 g-pl--10 "
      },
      "arrow" : false,
      "textClass" : "g-text--uppercase g-font--bold",
      "text" : "DECESOS",
      "contentClass" : "",
      "content" : false,
      "classContent" : "g-hover-nav"
		},
		{
			"dataOpen" : "",
      "itemClass" : "",
      "titleClass" : "",
      "boxClass" : "",
      "clickClass" : " g-pl--20   g-pr--15   g-py--10 ",
      "icon" : {
      	"iconFile" : "g-font--25 g-font-md--21 icon-mapfre_027_box",
        "iconClass" : "g-c--pointer  g-pr--10 g-pl--10 "
      },
      "arrow" : false,
      "textClass" : "g-text--uppercase g-font--bold",
      "text" : "SERVICIOS MAPFRE",
      "contentClass" : "",
      "content" : false,
      "classContent" : "g-hover-nav"
		},
		{
			"dataOpen" : "",
      "itemClass" : "",
      "titleClass" : "",
      "boxClass" : "",
      "clickClass" : " g-pl--20   g-pr--15   g-py--10 ",
      "icon" : {
      	"iconFile" : "g-font--25 g-font-md--21 icon-mapfre_028_pagos",
        "iconClass" : "g-c--pointer  g-pr--10 g-pl--10 "
      },
      "arrow" : false,
      "textClass" : "g-text--uppercase g-font--bold",
      "text" : "Mis Pagos",
      "contentClass" : "",
      "content" : false,
      "classContent" : "g-hover-nav"
		},
		{
			"dataOpen" : "",
      "itemClass" : "",
      "titleClass" : "",
      "boxClass" : "",
      "clickClass" : " g-pl--20   g-pr--15   g-py--10 ",
      "icon" : {
      	"iconFile" : "g-font--25 g-font-md--21 icon-mapfre_029_location-pin2",
        "iconClass" : "g-c--pointer  g-pr--10 g-pl--10 "
      },
      "arrow" : false,
      "textClass" : "g-text--uppercase g-font--bold",
      "text" : "Red de Oficinas",
      "contentClass" : "",
      "content" : false,
      "classContent" : "g-hover-nav"
		}
	]
}