{
  "addClass": "d-flex g-mt--20",
  "cardApps": [
    {
      "contentClass": "g-banner--apps g-banner--ios g-c--pointer g-mr--10 ",
      "linkClass": "g-block ",
      "link": "https://play.google.com/store/apps/details?id=com.mapfreperu.appmapfre",
      "hoverClass": "g-banner--hover ",
      "srcHover": "http://devmultiplica.com/images/buttons/play_store.png",
      "defaultClass": "g-banner--default ",
      "srcDefault": "http://devmultiplica.com/images/app/play_store_white.png"
    },
    {
      "contentClass": "g-banner--apps g-banner--android g-c--pointer",
      "linkClass": "g-block ",
      "link": "http://itunes.apple.com/us/app/id1350593815",
      "hoverClass": "g-banner--hover ",
      "srcHover": "http://devmultiplica.com/images/buttons/app_store.png",
      "defaultClass": "g-banner--default ",
      "srcDefault": "http://devmultiplica.com/images/app/app_store_white.png"
    }
  ]
}