{
  "addClass" : " g-mb--10 ",
  "icon" : {
    "addClass" : "g-items-icon g-c--gray3 g-font--55 g-font-lg--75",
    "iconFile" : "icon-mapfre_067_face"
  },
  "text": "¡No tienes pagos pendientes!",
  "secondText": "Por ser un gran cliente hemos decidido regalarte",
  "thirdText": "¡30 Mapfre dólares!"
}