{
  "addClass" : "",
  "iconFile" : "icon-mapfre_044_logo_landing ",
  "iconClass" : "g-font--55",
  "title1" : "¿Necesitas",
  "title2" : "asistencia?",
  "tel1" : "Lima: 213-3333",
  "tel2" : "Provincias: 0-801-1-1133",
  "consult" : "Escríbenos tu consulta",
  "copyright" : "© Copyright MAPFRE PERÚ. Todos los derechos reservados"
}