{
  "addClass" : "",
  "iconLogo" : "icon-mapfre_044_logo_landing",
  "iconSize" : "",
  "block" : {
    "iconFile" : "icon-mapfre_045_call",
    "tel1" : "Lima: 213-3333",
    "tel2" : "Provincias: 0-801-1-1133"
  },
  "ico-font" : "icon-mapfre_003_check",
  "list": [
    { "text" : "Lore ipsum"},
    { "text" : "Lore ipsum"},
    { "text" : "Lore ipsum"},
    { "text" : "Lore ipsum"}
  ]
}