{
  "addClass" : "",
  "iconFile" : "icon-mapfre_001_cliente",
  "iconClass" : "g-c--gray9 g-font--55",
  "dateList": {
    "addClass" : "",
    "list" : [
      {
        "itemClass" : "",
        "iconFile" : "",
        "iconClass" : "",
        "textClass" : "g-font--14 g-font-md--18 g-font--bold",
        "text" : "Mis datos"
      },
      {
        "itemClass" : "",
        "iconFile" : "",
        "iconClass" : "",
        "textClass" : "g-font--light",
        "text" : "Marco Cuadrado Aro"
      },
      {
        "itemClass" : "",
        "iconFile" : "",
        "iconClass" : "",
        "textClass" : "g-font--light",
        "text" : "DNI: 56478364"
      }
    ]
  },
  "btnAdd": false,
  "btnIconAdd": {
    "iconClass" : "g-c--pointer g-c--green1 g-font--25 g-font-md--21",
    "iconFile" : "icon-mapfre_003_check"
  }
}