{
  "addClass" : "",
  "iconFile" : "icon-mapfre_057_circle-check",
  "iconClass" : "g-c--green1 g-font--30 text-right g-ml--10 ",
  "input": {
    "label": "Nueva contraseña",
    "type": "password"
  }
}