{
  "boxClass": "g-p--15 g-bg-c--gray5",
  "navText": [
    {
      "text": "Modificar mis datos",
      "textClass": "w-100 g-font--medium",
      "iconRight": false
    },
    {
      "text": "",
      "textClass": "ml-auto",
      "iconRight": {
        "iconFile": "icon-mapfre_033_angle2-right",
        "iconClass": "g-font--10 g-font--bold"
      }
    }
  ]
}