{
  "title" : "Medio:",
  "list": [
    { "label" : "Lore1", "id" : "d1"},
    { "label" : "Lore2", "id" : "d2"},
    { "label" : "Lore3", "id" : "d3"},
    { "label" : "Lore4", "id" : "d4"}
  ],
  "class-border" : "head-card"
}