{
  "icon": {
    "iconFile": "icon--mail  g-mr--10 ",
    "iconClass": ""
  },
  "title": {
    "titleClass": "g-c--black1 g-font--18",
    "titleText": "Solicitud enviada correctamente"
  },
  "description": {
    "descriptionClass": "g-c--gray2 g-font--13",
    "descriptionText": "Te contactaremos en un plazo máximo de 5 días para confirmar el cambio"
  }
}
