{
  "addClass" : "justify-content-between  g-px--10 ",
  "boxClass" : "g-br-lg-1-gray11  g-p--10   g-pr--15 ",
  "number" : "8",
  "copy" : "Asegurados",
  "optionsClass" : "g-bl--1 g-bc--gray11  g-p--10   g-pl--15  align-items-center",
  "icon" : true,
  "iconFile" : "icon-mapfre_035_edit",
  "iconClass" : "g-c--pointer g-c--green1 g-font--25 g-font-md--21",
  "toggle" : true,
  "toggleClass" : "",
  "toggleCopy" : "Ver más",
  "accordionOpen" : "open",
  "accordionId" : "content",
  "accordionText" : "Ver menos"
}