{
  "addClass" : "",
  "tableClass" : "",
  "tableHead" : {
    "bodyClass": "g-font--14 g-font--light",
    "text" : "Tipo de accesorio"
  },
  "tableBody" : {
    "bodyClass": "",
    "headTitle": "",
    "text" : "Radio pen"
  }
}