{
  "listTab": [
    {
      "addActive": "g-tablist__tab--active",
      "text": "Todos"
    },
    {
      "addActive": false,
      "text": "Autos"
    },
    {
      "addActive": false,
      "text": "Salud"
    },
    {
      "addActive": false,
      "text": "Hogar"
    },
    {
      "addActive": false,
      "text": "Decesos"
    },
    {
      "addActive": false,
      "text": "Platino"
    }
  ],
  "select" : {
    "addClass" : "g-form-focus",
    "label" : "Etiqueta",
    "disabled" : false,
    "listOption" : [
      { "value" : "Todos" },
      { "value" : "Autos" },
      { "value" : "Salud" },
      { "value" : "Hogar" },
      { "value" : "Decesos" },
      { "value" : "Platino" }
    ],
    "error" : ""
  },
  "search" : {
    "addClass": "g-b--1 g-bc--gray11  g-p--10  g-b-radius--5",
    "iconLeft": {
      "iconFile": "icon-mapfre_099_search",
      "iconClass": "g-font--21  g-pr--10  g-c--gray9"
    },
    "input": {
      "type": "text",
      "value": "",
      "inputClass": "w-10",
      "placeholder": "Buscar"
    },
    "iconRight": {
      "iconFile": "icon-mapfre_049_close2",
      "iconClass": "g-font--21  g-pl--10  g-c--gray9"
    }
  }
}
