{
  "iconFile": "icon-mapfre_044_logo_landing ",
  "addClass": "g-font--45",
  "acordion": [
    {
      "classAccordion": "g-bg-c--gray8 g-c--gray10 g-pt--5",
      "dataGroup": "true",
      "item": [
        {
          "dataOpen": "true",
          "itemClass": "",
          "titleClass": "",
          "boxClass": "",
          "clickClass": "g-pl--20 g-pr--15 g-py--10",
          "icon": {
            "iconFile": "icon-mapfre_022_car2",
            "iconClass": "g-px--15 g-font--20 "
          },
          "arrow": {
            "clickOn": {
              "iconFile": "icon-mapfre_101_ico-dow",
              "iconClass": "g-font--10 g-c-pointer g-c--white1"
            },
            "clickOff": {
              "iconFile": "icon-mapfre_102_ico-up",
              "iconClass": "g-c--pointer g-font--10"
            }
          },
          "textClass": "g-text--uppercase g-font--bold",
          "text": "VEHÍCULOS",
          "contentClass": "",
          "content": false,
          "list": [
            {
              "iconFile": "",
              "text": "Seguro Vehicular"
            },
            {
              "iconFile": "",
              "text": "SOAT"
            },
            {
              "iconFile": "",
              "text": "Accidentes"
            },
            {
              "text": "Robo"
            },
            {
              "text": "Talleres"
            },
            {
              "text": "Cotización"
            }
          ],
          "classContent": "g-hover-nav g-font--12"
        },
        {
          "dataOpen": "",
          "itemClass": "",
          "titleClass": "",
          "boxClass": "",
          "clickClass": "g-pl--20 g-pr--15 g-py--10",
          "icon": {
            "iconFile": "icon-mapfre_023_cross2",
            "iconClass": "g-px--15 g-font--20 "
          },
          "arrow": {
            "clickOn": {
              "iconFile": "icon-mapfre_101_ico-dow",
              "iconClass": "g-font--10 g-c-pointer g-c--white1"
            },
            "clickOff": {
              "iconFile": "icon-mapfre_102_ico-up",
              "iconClass": "g-c--pointer g-font--10"
            }
          },
          "textClass": "g-text--uppercase g-font--bold",
          "text": "SALUD",
          "contentClass": "",
          "content": false,
          "list": [
            {
              "iconFile": "",
              "text": "Seguro Vehicular"
            },
            {
              "iconFile": "",
              "text": "SOAT"
            },
            {
              "iconFile": "",
              "text": "Accidentes"
            },
            {
              "text": "Robo"
            },
            {
              "text": "Talleres"
            },
            {
              "text": "Cotización"
            }
          ],
          "classContent": "g-hover-nav"
        },
        {
          "dataOpen": "",
          "itemClass": "",
          "titleClass": "",
          "boxClass": "",
          "clickClass": "g-pl--20 g-pr--15 g-py--10",
          "icon": {
            "iconFile": "icon-mapfre_024_house2",
            "iconClass": "g-px--15 g-font--20 "
          },
          "arrow": {
            "clickOn": {
              "iconFile": "icon-mapfre_101_ico-dow",
              "iconClass": "g-font--10 g-c-pointer g-c--white1"
            },
            "clickOff": {
              "iconFile": "icon-mapfre_102_ico-up",
              "iconClass": "g-c--pointer"
            }
          },
          "textClass": "g-text--uppercase g-font--bold",
          "text": "HOGAR",
          "contentClass": "",
          "content": false,
          "list": [
            {
              "iconFile": "",
              "text": "Seguro Vehicular"
            },
            {
              "iconFile": "",
              "text": "SOAT"
            },
            {
              "iconFile": "",
              "text": "Accidentes"
            },
            {
              "text": "Robo"
            },
            {
              "text": "Talleres"
            },
            {
              "text": "Cotización"
            }
          ],
          "classContent": "g-hover-nav"
        },
        {
          "dataOpen": "",
          "itemClass": "",
          "titleClass": "",
          "boxClass": "",
          "clickClass": "g-pl--20 g-pr--15 g-py--10",
          "icon": {
            "iconFile": "icon-mapfre_025_heart2",
            "iconClass": "g-px--15 g-font--20 "
          },
          "arrow": {
            "clickOn": {
              "iconFile": "icon-mapfre_101_ico-dow",
              "iconClass": "g-font--10 g-c-pointer g-c--white1"
            },
            "clickOff": {
              "iconFile": "icon-mapfre_102_ico-up",
              "iconClass": "g-c--pointer"
            }
          },
          "textClass": "g-text--uppercase g-font--bold",
          "text": "VIDA Y AHORROS",
          "contentClass": "",
          "content": false,
          "list": [
            {
              "iconFile": "",
              "text": "Seguro Vehicular"
            },
            {
              "iconFile": "",
              "text": "SOAT"
            },
            {
              "iconFile": "",
              "text": "Accidentes"
            },
            {
              "text": "Robo"
            },
            {
              "text": "Talleres"
            },
            {
              "text": "Cotización"
            }
          ],
          "classContent": "g-hover-nav"
        },
        {
          "dataOpen": "",
          "itemClass": "",
          "titleClass": "",
          "boxClass": "",
          "clickClass": "g-pl--20 g-pr--15 g-py--10",
          "icon": {
            "iconFile": "icon-mapfre_026_decesos",
            "iconClass": "g-px--15 g-font--20 "
          },
          "arrow": false,
          "textClass": "g-text--uppercase g-font--bold",
          "text": "DECESOS",
          "contentClass": "",
          "content": false,
          "classContent": "g-hover-nav"
        },
        {
          "dataOpen": "",
          "itemClass": "",
          "titleClass": "",
          "boxClass": "",
          "clickClass": "g-pl--20 g-pr--15 g-py--10",
          "icon": {
            "iconFile": "icon-mapfre_027_box",
            "iconClass": "g-px--15 g-font--20 "
          },
          "arrow": false,
          "textClass": "g-text--uppercase g-font--bold",
          "text": "SERVICIOS MAPFRE",
          "contentClass": "",
          "content": false,
          "classContent": "g-hover-nav"
        },
        {
          "dataOpen": "",
          "itemClass": "",
          "titleClass": "",
          "boxClass": "",
          "clickClass": "g-pl--20 g-pr--15 g-py--10",
          "icon": {
            "iconFile": "icon-mapfre_028_pagos",
            "iconClass": "g-px--15 g-font--20 "
          },
          "arrow": false,
          "textClass": "g-text--uppercase g-font--bold",
          "text": "Mis Pagos",
          "contentClass": "",
          "content": false,
          "classContent": "g-hover-nav"
        },
        {
          "dataOpen": "",
          "itemClass": "",
          "titleClass": "",
          "boxClass": "",
          "clickClass": "g-pl--20 g-pr--15 g-py--10",
          "icon": {
            "iconFile": "icon-mapfre_029_location-pin2",
            "iconClass": "g-px--15 g-font--20 "
          },
          "arrow": false,
          "textClass": "g-text--uppercase g-font--bold",
          "text": "Red de Oficinas",
          "contentClass": "",
          "content": false,
          "classContent": "g-hover-nav"
        }
      ]
    }
  ],
  "list-btn": [
    {
      "iconFile": "icon-mapfre_030_call",
      "addClass": "g-font--30"
    },
    {
      "iconFile": "icon-mapfre_031_qanda",
      "addClass": "g-font--30"
    }
  ],
  "headerOIM": {
    "icoNav": {
      "iconFile": "icon-mapfre_047_bars",
      "addClass": "g-font--30",
      "iconFileOIM": "icon-mapfre_044_logo_landing",
      "addClassOIM": "g-font--30"
    },
    "headOimMobile": {
      "llamadaClass": "g-font--light",
      "llamada": "BUSCADOR DE CLÍNICAS",
      "bajada": "CLÍNICA MAPFRE INDEPENDENCIA",
      "iconFile": "",
      "addClass": "",
      "icoBack": {
        "icon": "icon-mapfre_010_arrow-left",
        "addClass": "g-items-icon g-c--gray3 g-font--25 g-font-md--21"
      }
    },
    "datos": {
      "icoCircle": "icon-mapfre_066_circle",
      "sizeCircle": "g-font--40 g-c--gray1",
      "icoUser": "icon-mapfre_037_user",
      "addClass": "g-c--white1 g-ico--center g-font--20",
      "tittle": "MIS NOTIFICACIONES",
      "icoAlert": "icon-mapfre_036_notification",
      "icoClose": "icon-mapfre_049_close2",
      "sizeClose": "g-font--40",
      "nameUser": "Hola <b>Gonzalo!</b>",
      "numb": 3,
      "alertBadge": {
        "icoCircle": "icon-mapfre_066_circle",
        "addClass": "g-font--30 g-c--green1",
        "addClassNum": "g-ico--center g-font--11 g-c--white1"
      },
      "list": [
        {
          "tipo": "Mi prefil"
        },
        {
          "tipo": "Cerrar sesión"
        }
      ]
    },
    "alert": {
      "ico": "icon-mapfre_014_perfil",
      "icoCircle": "icon-mapfre_066_circle",
      "sizeCircle": "g-font--40 g-c--gray1",
      "addClass": "g-c--white1 g-ico--center g-font--20",
      "tittle": "MIS NOTIFICACIONES",
      "icoAlert": "icon-mapfre_036_notification",
      "icoClose": "icon-mapfre_049_close2",
      "sizeClose": "g-font--40",
      "numb": 3,
      "alertBadge": {
        "icoCircle": "icon-mapfre_066_circle",
        "addClass": "g-font--30 g-c--green1",
        "addClassNum": "g-ico--center g-font--11 g-c--white1"
      },
      "list": [
        {
          "ico-drow": "icon-mapfre_057_circle-check",
          "fech": "HOY 10:23am",
          "tipo": "Solicitud de chofer de reemplazo confirmada",
          "desc": "Lunes 1 NOV - 9:30am"
        },
        {
          "ico-drow": "icon-mapfre_049_close2",
          "fech": "24/02  10:23am",
          "tipo": "Solicitud de chofer de reemplazo cancelada",
          "desc": "Servicio cancelado"
        },
        {
          "ico-drow": "icon-mapfre_057_circle-check",
          "fech": "24/02 10:23am",
          "tipo": "Pago automático emitido",
          "desc": "Fondo universitario"
        },
        {
          "ico-drow": "icon-mapfre_049_close2",
          "fech": "24/02 10:23am",
          "tipo": "Pago fallido",
          "desc": "Seguro SCTR"
        },
        {
          "ico-drow": "icon-mapfre_057_circle-check",
          "fech": "24/02 10:23am",
          "tipo": "Pago pendiente",
          "desc": "Seguro vehicular - Vence 17/05/18"
        },
        {
          "ico-drow": "icon-mapfre_049_close2",
          "fech": "24/02 10:23am",
          "tipo": "Póliza sin cobertura por inpago",
          "desc": "Salud - Venció 12/05/18"
        }
      ]
    }
  },
  "clinicaDetalle": {
    "cardFile": {
      "cardFileClass": "d-flex flex-column flex-md-row g-bg-c--white1 g-box--shadow1 g-mt--20",
      "title": {
        "title": {
          "textClass": "g-font--18 g-font--medium g-line--10 g-pb--5",
          "text": "MAPFRE INDEPENDENCIA <span class='icon-mapfre_025_heart2 g-c--red1 g-font--18  g-pl--5'></span>"
        },
        "description": {
          "textClass": "g-font--13 g-font--light g-c--gray2",
          "text": "Emergencias ambulatorias y hospitalización de emergencias"
        }
      },
      "contentInfo": {
        "info": [
          {
            "infoClass": "d-flex g-mb--5 g-mb-xl--20 w-10 g-w-xl-50",
            "iconClass": "g-font--16",
            "iconFile": "icon-mapfre_015_location-pin",
            "textClass": "g-font--light g-font--13 g-pl--5 g-pr--15",
            "text": "Av. Guardia Civil 385, Distrito de Lima - 0.2 km"
          },
          {
            "infoClass": "d-flex g-mb--5 g-mb-xl--20 w-10 g-w-lg-50",
            "iconClass": "g-font--16",
            "iconFile": "icon-mapfre_128_telephone",
            "textClass": "g-font--light g-font--13 g-pl--5 g-pr--15",
            "text": "(01) 657-733"
          },
          {
            "infoClass": "d-flex g-mb--5 g-mb-xl--20 w-10 g-w-xl-50",
            "iconClass": "g-font--16",
            "iconFile": "icon-mapfre_062_reloj",
            "textClass": "g-font--light g-font--13 g-pl--5 g-pr--15",
            "text": "9:00pm - 2:00pm <span class='g-c--green1 g-font--italic'>(Horarios pueden variar)</span>"
          },
          {
            "infoClass": "d-flex g-mb--5 g-mb-xl--20 w-10 g-w-lg-50",
            "iconClass": "g-font--16",
            "iconFile": "icon-mapfre_208_planet",
            "textClass": "g-font--medium g-font--13 g-pl--5 g-c--green1 g-link--green1",
            "text": "www.mapfreindependencia.com"
          }
        ]
      },
      "right": {
        "rightClass": "g-ml-md-auto w-px-md--30 g-mt--15 g-mt-md--0 d-flex flex-column align-items-center justify-content-center",
        "btns": [
          {
            "addClass": "g-btn-outline g-text--uppercase g-px--40 g-mb--30 g-mb-md--0",
            "data": "",
            "text": "Cómo llegar",
            "onclick": ""
          }
        ]
      }
    },
    "contentTabs": {
      "contentTabs": "g-mt--20 g-mb--20",
      "tabs": false,
      "cardTitle": {
        "addClass": "d-flex align-items-lg-center g-py--20 g-px--10 g-px-lg--15 g-mb--20 g-bb--1 g-bc--gray5",
        "contentCard": [
          {
            "contentClass": "",
            "text": {
              "textClass": "icon-mapfre_020_cross g-items-icon g-font--30 g-c--gray18",
              "text": ""
            }
          },
          {
            "contentClass": "g-pl--10",
            "text": [
              {
                "textClass": "g-font--bold g-c--gray2 g-f--uppercase g-line--10",
                "text": "TREBOL SALUD"
              },
              {
                "textClass": "g-font--light g-font--13 g-c--gray2",
                "text": "Nro. 12391842981414 - <span class='g-c--green1 g-font--medium g-c--pointer g-font--14'>Cambiar póliza</span>"
              }
            ]
          }
        ]
      },
      "boxHead": {
        "addClass": "",
        "icon": false,
        "title": false,
        "searchHead": {
          "searchContentClass": "g-ml--10 g-ml-md--20 g-ml-lg--0 w-10",
          "addClass": "g-b--1 g-bc--gray11 g-p--10 g-b-radius--5 w-10 w-px-md--30 w-px-lg--38",
          "iconLeft": {
            "iconFile": "icon-mapfre_099_search",
            "iconClass": "g-font--21  g-pr--10  g-c--gray2"
          },
          "input": {
            "type": "text",
            "value": "",
            "inputClass": "w-10 g-c--",
            "placeholder": "Buscar por coberturas"
          },
          "iconRight": false
        },
        "payment": false,
        "dots": true,
        "filter": false,
        "mont": false,
        "search": false,
        "dropdown": {
          "lists": [
            {
              "icon": {
                "iconFile": "icon-mapfre_031_qanda",
                "iconClass": "g-font--25 g-font-md--21 g-c--green1"
              },
              "textClass": "g-font--medium g-c--green1",
              "text": "Preguntas frecuentes"
            }
          ],
          "inputs": false
        },
        "accordion": false
      },
      "contentSearch": "w-10 w-md-auto",
      "title": {
        "textClass": "g-font--16 g-font--bold g-pb--20",
        "text": "12 Coberturas"
      },
      "cardInfo": [
        {
          "cardInfoClass": "d-flex flex-column flex-lg-row align-items-stretch g-b--1 g-bc--gray7 g-b-radius--5",
          "cardContent1": {
            "cardContent1Class": "d-flex h-100 g-p--10 g-p-md--20 g-py--15 w-px-md--23",
            "iconClass": " g-font--25 g-pt-md--15 g-c--gray18",
            "iconFile": "icon-mapfre_209_stethoscope",
            "textClass": "g-font--medium  g-pl--10 g-pt-md--15 g-c--gray2",
            "text": "Atención ambulatoria"
          },
          "cardContent2": {
            "cardContent2Class": "d-flex flex-column g-p--10 g-p-md--15 g-py--15 g-pr-md--40 w-10 w-px-lg--33",
            "cardContentItem": [
              {
                "addClass": "g-pb--15",
                "itemClass": "d-flex text-left w-px--12 w-px-md--12 g-ie-flex--0-1-auto",
                "iconClass": "g-c--gray18 g-font--21",
                "iconFile": "icon-mapfre_104_ico-coin",
                "textClass": "g-c--gray18 g-pl--15",
                "text": "DEDUCIBLE",
                "text2": {
                  "text2Class": "g-font--bold g-pl-lg--10",
                  "text2": "Un dia de cuarto"
                }
              },
              {
                "addClass": "",
                "itemClass": "d-flex text-left w-px--12 w-px-md--12 g-ie-flex--0-1-auto",
                "iconClass": "g-c--gray18 g-font--21",
                "iconFile": "icon-mapfre_120_cobertura",
                "textClass": "g-c--gray18 g-pl--15",
                "text": "COBERTURA",
                "text2": {
                  "text2Class": "g-font--bold g-pl-lg--10",
                  "text2": "90%"
                }
              }
            ]
          },
          "cardContent3": {
            "cardContent3Class": "d-flex  flex-column g-p--10 g-p-md--20 g-py--20",
            "cardContentItem": {
              "addClass": "",
              "itemClass": "",
              "iconClass": "g-c--gray18 g-font--21",
              "iconFile": "icon-mapfre_058_file",
              "itemTextClass": "g-pl--15",
              "textClass": "g-font--light g-line--10 g-pb--5",
              "text": "INFORMACIÓN DE COBERTURA",
              "text2Class": " ",
              "text2": "Vigencia hasta 15 días de la orden médica para procedimientos y exámenes auxiliares. "
            }
          }
        },
        {
          "cardInfoClass": "d-flex flex-column flex-lg-row align-items-stretch g-b--1 g-bc--gray7 g-b-radius--5 g-mt--20",
          "cardContent1": {
            "cardContent1Class": "d-flex h-100 g-p--10 g-p-md--20 g-py--15 w-px-md--23",
            "iconClass": " g-font--25 g-pt-md--15 g-c--gray18",
            "iconFile": "icon-mapfre_209_stethoscope",
            "textClass": "g-font--medium  g-pl--10 g-pt-md--15 g-c--gray2",
            "text": "Atención ambulatoria"
          },
          "cardContent2": {
            "cardContent2Class": "d-flex flex-column g-p--10 g-p-md--15 g-py--15 g-pr-md--40 w-10 w-px-lg--33",
            "cardContentItem": [
              {
                "addClass": "g-pb--15",
                "itemClass": "d-flex text-left w-px--12 w-px-md--12 g-ie-flex--0-1-auto",
                "iconClass": "g-c--gray18 g-font--21",
                "iconFile": "icon-mapfre_104_ico-coin",
                "textClass": "g-c--gray18 g-pl--15",
                "text": "DEDUCIBLE",
                "text2": {
                  "text2Class": "g-font--bold g-pl-lg--10",
                  "text2": "Sin copago"
                }
              },
              {
                "addClass": "",
                "itemClass": "d-flex text-left w-px--12 w-px-md--12 g-ie-flex--0-1-auto",
                "iconClass": "g-c--gray18 g-font--21",
                "iconFile": "icon-mapfre_120_cobertura",
                "textClass": "g-c--gray18 g-pl--15",
                "text": "COBERTURA",
                "text2": {
                  "text2Class": "g-font--bold g-pl-lg--10",
                  "text2": "90%"
                }
              }
            ]
          },
          "cardContent3": {
            "cardContent3Class": "d-flex  flex-column g-p--10 g-p-md--20 g-py--20",
            "cardContentItem": {
              "addClass": "",
              "itemClass": "",
              "iconClass": "g-c--gray18 g-font--21",
              "iconFile": "icon-mapfre_058_file",
              "itemTextClass": "g-pl--15",
              "textClass": "g-font--light g-line--10 g-pb--5",
              "text": "INFORMACIÓN DE COBERTURA",
              "text2Class": " ",
              "text2": "Vigencia hasta 15 días de la orden médica para procedimientos y exámenes auxiliares. "
            }
          }
        },
        {
          "cardInfoClass": "d-flex flex-column flex-lg-row align-items-stretch g-b--1 g-bc--gray7 g-b-radius--5 g-mt--20",
          "cardContent1": {
            "cardContent1Class": "d-flex h-100 g-p--10 g-p-md--20 g-py--15 w-px-md--23",
            "iconClass": " g-font--25 g-pt-md--15 g-c--gray18",
            "iconFile": "icon-mapfre_209_stethoscope",
            "textClass": "g-font--medium  g-pl--10 g-pt-md--15 g-c--gray2",
            "text": "Atención ambulatoria"
          },
          "cardContent2": {
            "cardContent2Class": "d-flex flex-column g-p--10 g-p-md--15 g-py--15 g-pr-md--40 w-10 w-px-lg--33",
            "cardContentItem": [
              {
                "addClass": "g-pb--15",
                "itemClass": "d-flex text-left w-px--12 w-px-md--12 g-ie-flex--0-1-auto",
                "iconClass": "g-c--gray18 g-font--21",
                "iconFile": "icon-mapfre_104_ico-coin",
                "textClass": "g-c--gray18 g-pl--15",
                "text": "DEDUCIBLE",
                "text2": {
                  "text2Class": "g-font--bold g-pl-lg--10",
                  "text2": "Cada uno por sesión"
                }
              },
              {
                "addClass": "",
                "itemClass": "d-flex text-left w-px--12 w-px-md--12 g-ie-flex--0-1-auto",
                "iconClass": "g-c--gray18 g-font--21",
                "iconFile": "icon-mapfre_120_cobertura",
                "textClass": "g-c--gray18 g-pl--15",
                "text": "COBERTURA",
                "text2": {
                  "text2Class": "g-font--bold g-pl-lg--10",
                  "text2": "90%"
                }
              }
            ]
          },
          "cardContent3": {
            "cardContent3Class": "d-flex  flex-column g-p--10 g-p-md--20 g-py--20",
            "cardContentItem": {
              "addClass": "",
              "itemClass": "",
              "iconClass": "g-c--gray18 g-font--21",
              "iconFile": "icon-mapfre_058_file",
              "itemTextClass": "g-pl--15",
              "textClass": "g-font--light g-line--10 g-pb--5",
              "text": "INFORMACIÓN DE COBERTURA",
              "text2Class": " ",
              "text2": "Vigencia hasta 15 días de la orden médica para procedimientos y exámenes auxiliares. "
            }
          }
        },
        {
          "cardInfoClass": "d-flex flex-column flex-lg-row align-items-stretch g-b--1 g-bc--gray7 g-b-radius--5 g-mt--20",
          "cardContent1": {
            "cardContent1Class": "d-flex h-100 g-p--10 g-p-md--20 g-py--15 w-px-md--23",
            "iconClass": " g-font--25 g-pt-md--15 g-c--gray18",
            "iconFile": "icon-mapfre_209_stethoscope",
            "textClass": "g-font--medium  g-pl--10 g-pt-md--15 g-c--gray2",
            "text": "Atención ambulatoria"
          },
          "cardContent2": {
            "cardContent2Class": "d-flex flex-column g-p--10 g-p-md--15 g-py--15 g-pr-md--40 w-10 w-px-lg--33",
            "cardContentItem": [
              {
                "addClass": "g-pb--15",
                "itemClass": "d-flex text-left w-px--12 w-px-md--12 g-ie-flex--0-1-auto",
                "iconClass": "g-c--gray18 g-font--21",
                "iconFile": "icon-mapfre_104_ico-coin",
                "textClass": "g-c--gray18 g-pl--15",
                "text": "DEDUCIBLE",
                "text2": {
                  "text2Class": "g-font--bold g-pl-lg--10",
                  "text2": "S/ 15"
                }
              },
              {
                "addClass": "",
                "itemClass": "d-flex text-left w-px--12 w-px-md--12 g-ie-flex--0-1-auto",
                "iconClass": "g-c--gray18 g-font--21",
                "iconFile": "icon-mapfre_120_cobertura",
                "textClass": "g-c--gray18 g-pl--15",
                "text": "COBERTURA",
                "text2": {
                  "text2Class": "g-font--bold g-pl-lg--10",
                  "text2": "90%"
                }
              }
            ]
          },
          "cardContent3": {
            "cardContent3Class": "d-flex  flex-column g-p--10 g-p-md--20 g-py--20",
            "cardContentItem": {
              "addClass": "",
              "itemClass": "",
              "iconClass": "g-c--gray18 g-font--21",
              "iconFile": "icon-mapfre_058_file",
              "itemTextClass": "g-pl--15",
              "textClass": "g-font--light g-line--10 g-pb--5",
              "text": "INFORMACIÓN DE COBERTURA",
              "text2Class": " ",
              "text2": "Vigencia hasta 15 días de la orden médica para procedimientos y exámenes auxiliares. "
            }
          }
        },
        {
          "cardInfoClass": "d-flex flex-column flex-lg-row align-items-stretch g-b--1 g-bc--gray7 g-b-radius--5 g-mt--20",
          "cardContent1": {
            "cardContent1Class": "d-flex h-100 g-p--10 g-p-md--20 g-py--15 w-px-md--23",
            "iconClass": " g-font--25 g-pt-md--15 g-c--gray18",
            "iconFile": "icon-mapfre_209_stethoscope",
            "textClass": "g-font--medium  g-pl--10 g-pt-md--15 g-c--gray2",
            "text": "Atención ambulatoria"
          },
          "cardContent2": {
            "cardContent2Class": "d-flex flex-column g-p--10 g-p-md--15 g-py--15 g-pr-md--40 w-10 w-px-lg--33",
            "cardContentItem": [
              {
                "addClass": "g-pb--15",
                "itemClass": "d-flex text-left w-px--12 w-px-md--12 g-ie-flex--0-1-auto",
                "iconClass": "g-c--gray18 g-font--21",
                "iconFile": "icon-mapfre_104_ico-coin",
                "textClass": "g-c--gray18 g-pl--15",
                "text": "DEDUCIBLE",
                "text2": {
                  "text2Class": "g-font--bold g-pl-lg--10",
                  "text2": "S/ 15"
                }
              },
              {
                "addClass": "",
                "itemClass": "d-flex text-left w-px--12 w-px-md--12 g-ie-flex--0-1-auto",
                "iconClass": "g-c--gray18 g-font--21",
                "iconFile": "icon-mapfre_120_cobertura",
                "textClass": "g-c--gray18 g-pl--15",
                "text": "COBERTURA",
                "text2": {
                  "text2Class": "g-font--bold g-pl-lg--10",
                  "text2": "90%"
                }
              }
            ]
          },
          "cardContent3": {
            "cardContent3Class": "d-flex  flex-column g-p--10 g-p-md--20 g-py--20",
            "cardContentItem": {
              "addClass": "",
              "itemClass": "",
              "iconClass": "g-c--gray18 g-font--21",
              "iconFile": "icon-mapfre_058_file",
              "itemTextClass": "g-pl--15",
              "textClass": "g-font--light g-line--10 g-pb--5",
              "text": "INFORMACIÓN DE COBERTURA",
              "text2Class": " ",
              "text2": "Vigencia hasta 15 días de la orden médica para procedimientos y exámenes auxiliares. "
            }
          }
        }
      ]
    }
  }
}