{
  "htmlClass": "hidden",
  "bodyClass": "hidden",
  "iconFile": "icon-mapfre_044_logo_landing ",
  "addClass": "g-font--45",
  "acordion": [{
    "classAccordion": "g-bg-c--gray8 g-c--gray7 g-min-h--100",
    "dataGroup": "true",
    "item": false
  }],
  "list-btn": [{
      "iconFile": "icon-mapfre_030_call",
      "addClass": "g-font--30"
    },
    {
      "iconFile": "icon-mapfre_031_qanda",
      "addClass": "g-font--30"
    }
  ],
  "headerOIM": {
    "icoNav": {
      "iconFile": "icon-mapfre_047_bars",
      "addClass": "g-font--30",
      "iconFileOIM": "icon-mapfre_044_logo_landing",
      "addClassOIM": "g-font--30"
    },
    "headOimMobile": {
      "llamadaClass": "g-font--light",
      "llamada": "",
      "bajada": "BUSCADOR DE CLÍNICAS",
      "iconFile": "",
      "addClass": "",
      "icoBack": {
        "icon": "icon-mapfre_099_search",
        "addClass": "g-font--40 g-c--gray9"
      }
    },
    "datos": {
      "icoCircle": "icon-mapfre_066_circle",
      "sizeCircle": "g-font--40 g-c--gray1",
      "icoUser": "icon-mapfre_037_user",
      "addClass": "g-c--white1 g-ico--center g-font--20",
      "tittle": "MIS NOTIFICACIONES",
      "icoAlert": "icon-mapfre_036_notification",
      "icoClose": "icon-mapfre_049_close2",
      "sizeClose": "g-font--40",
      "nameUser": "Hola <b>Gonzalo!</b>",
      "numb": 3,
      "alertBadge": {
        "icoCircle": "icon-mapfre_066_circle",
        "addClass": "g-font--30 g-c--green1",
        "addClassNum": "g-ico--center g-font--11 g-c--white1"
      },
      "list": [{
          "tipo": "Mi prefil"
        },
        {
          "tipo": "Cerrar sesión"
        }
      ]
    },
    "alert": {
      "ico": "icon-mapfre_014_perfil",
      "icoCircle": "icon-mapfre_066_circle",
      "sizeCircle": "g-font--40 g-c--gray1",
      "addClass": "g-c--white1 g-ico--center g-font--20",
      "tittle": "MIS NOTIFICACIONES",
      "icoAlert": "icon-mapfre_036_notification",
      "icoClose": "icon-mapfre_049_close2",
      "sizeClose": "g-font--40",
      "numb": 3,
      "alertBadge": {
        "icoCircle": "icon-mapfre_066_circle",
        "addClass": "g-font--30 g-c--green1",
        "addClassNum": "g-ico--center g-font--11 g-c--white1"
      },
      "list": [{
          "ico-drow": "icon-mapfre_057_circle-check",
          "fech": "HOY 10:23am",
          "tipo": "Solicitud de chofer de reemplazo confirmada",
          "desc": "Lunes 1 NOV - 9:30am"
        },
        {
          "ico-drow": "icon-mapfre_049_close2",
          "fech": "24/02  10:23am",
          "tipo": "Solicitud de chofer de reemplazo cancelada",
          "desc": "Servicio cancelado"
        },
        {
          "ico-drow": "icon-mapfre_057_circle-check",
          "fech": "24/02 10:23am",
          "tipo": "Pago automático emitido",
          "desc": "Fondo universitario"
        },
        {
          "ico-drow": "icon-mapfre_049_close2",
          "fech": "24/02 10:23am",
          "tipo": "Pago fallido",
          "desc": "Seguro SCTR"
        },
        {
          "ico-drow": "icon-mapfre_057_circle-check",
          "fech": "24/02 10:23am",
          "tipo": "Pago pendiente",
          "desc": "Seguro vehicular - Vence 17/05/18"
        },
        {
          "ico-drow": "icon-mapfre_049_close2",
          "fech": "24/02 10:23am",
          "tipo": "Póliza sin cobertura por inpago",
          "desc": "Salud - Venció 12/05/18"
        }
      ]
    }
  },
  "filter": {
    "addClass": "",
    "title": {
      "titleClass": "",
      "title": "LISTADO DE TALLERES"
    },
    "filterClick": {
      "addClass": "",
      "list": [{
        "itemClass": "d-flex align-items-center g-c--green1",
        "icon": {
          "iconFile": "icon-mapfre_098_filter",
          "iconClass": " g-mr--10 g-font--21 g-c--pointer"
        },
        "title": {
          "textClass": "g-font--medium g-c--pointer d-none d-lg-block",
          "text": "Filtrar"
        },
        "subtitle": false,
        "imgSrc": false
      }]
    },
    "filterOpen": {
      "filterAddClass": "g-none",
      "select1": [{
        "addClass": "g-form-focus",
        "label": "Seleccione póliza",
        "disabled": false,
        "listOption": [{
          "value": "Trebol Salud"
        }],
        "error": ""
      }],
      "input": [{
        "label": "Escribe la especialidad",
        "type": "text",
        "error": "",
        "addClass": "",
        "disabled": false,
        "requerid": false,
        "tooltip": false,
        "title": ""
      }],
      "checkbox": [{
          "addClass": "d-inline-block g-m--0",
          "label": "Todos"
        },
        {
          "addClass": "d-inline-block g-m--0",
          "label": "Centro médico"
        },
        {
          "addClass": "d-inline-block g-m--0",
          "label": "Centro especializado"
        },
        {
          "addClass": "d-inline-block g-m--0",
          "label": "Centro odontológico"
        },
        {
          "addClass": "d-inline-block g-m--0",
          "label": "Centro oftalmológico"
        },
        {
          "addClass": "d-inline-block g-m--0",
          "label": "Clínica"
        }
      ],
      "select2": [{
        "addClass": "g-form-focus",
        "label": "Ordenar por",
        "disabled": false,
        "listOption": [{
          "value": "Menor deducible"
        }],
        "error": ""
      }]
    },
    "filterNotFound": false,
    "search": {
      "addClass": "g-b--1 g-bc--gray11  g-p--10  g-b-radius--5",
      "iconLeft": {
        "iconFile": "icon-mapfre_099_search",
        "iconClass": "g-font--21  g-pr--10  g-c--gray9"
      },
      "input": {
        "type": "text",
        "value": "Nombre, Departamento, Pro...",
        "inputClass": "w-10",
        "placeholder": "Buscar"
      },
      "iconRight": false
    },
    "listItems": [{
        "addClass": "g-bt--1 g-bc--gray11",
        "title": "Clínica Internacional",
        "description": "Copago S/ 150.00",
        "address": {
          "addressIcon": "icon-mapfre_015_location-pin",
          "addressValueClass": "g-font--light g-font--13",
          "addressValue": "Av. Guardia Civil 385, Distrito de Lima - 0.2 km"
        },
        "phone": {
          "phoneIcon": "icon-mapfre_128_telephone",
          "phoneValueClass": "g-font--light g-font--13",
          "phoneValue": "(01) 657-733 / 999-323-276"
        },
        "schedule": {
          "scheduleIcon": "icon-mapfre_062_reloj",
          "scheduleValueClass": "g-font--light g-font--13",
          "scheduleValue": "9:00pm - 2:00pm"
        },
        "btnActions": {
          "btn1": {
            "textBtnClass": "g-c--green1 g-font--14  g-px--10  g-c--pointer g-font--medium",
            "textBtn1": "Ver en el mapa"
          },
          "btn2": {
            "textBtnClass": "g-c--green1 g-font--14  g-pl--10  g-c--pointer g-font--medium",
            "textBtn2": "Ver detalle"
          }
        },
        "favorite": {
          "favoriteIcon": "icon-mapfre_016_heart",
          "favoriteIconClass": "g-c--red1"
        }
      },
      {
        "addClass": "g-bt--1 g-bc--gray11",
        "title": "Clínica Internacional",
        "description": "Copago S/ 150.00",
        "address": {
          "addressIcon": "icon-mapfre_015_location-pin",
          "addressValueClass": "g-font--light",
          "addressValue": "Av. Guardia Civil 385, Distrito de Lima - 0.2 km"
        },
        "phone": false,
        "schedule": {
          "scheduleIcon": "icon-mapfre_062_reloj",
          "scheduleValueClass": "g-font--light",
          "scheduleValue": "9:00pm - 2:00pm"
        },
        "btnActions": {
          "btn1": {
            "textBtnClass": "g-c--green1 g-font--14  g-px--10  g-c--pointer g-font--medium",
            "textBtn1": "Ver en el mapa"
          },
          "btn2": {
            "textBtnClass": "g-c--green1 g-font--14  g-pl--10  g-c--pointer g-font--medium",
            "textBtn2": "Ver detalle"

          }

        },
        "favorite": {
          "favoriteIcon": "icon-mapfre_016_heart",
          "favoriteIconClass": "g-c--red1"
        }
      },
      {
        "addClass": "g-bt--1 g-bc--gray11",
        "title": "Clínica Internacional",
        "description": "Copago S/ 150.00",
        "address": {
          "addressIcon": "icon-mapfre_015_location-pin",
          "addressValueClass": "g-font--light",
          "addressValue": "Av. Guardia Civil 385, Distrito de Lima - 0.2 km"
        },
        "phone": false,
        "schedule": {
          "scheduleIcon": "icon-mapfre_062_reloj",
          "scheduleValueClass": "g-font--light",
          "scheduleValue": "9:00pm - 2:00pm"
        },
        "btnActions": {
          "btn1": {
            "textBtnClass": "g-c--green1 g-font--14  g-px--10  g-c--pointer g-font--medium",
            "textBtn1": "Ver en el mapa"
          },
          "btn2": {
            "textBtnClass": "g-c--green1 g-font--14  g-pl--10  g-c--pointer g-font--medium",
            "textBtn2": "Ver detalle"

          }

        },
        "favorite": {
          "favoriteIcon": "icon-mapfre_025_heart2",
          "favoriteIconClass": "g-c--red1"
        }
      },
      {
        "addClass": "g-bt--1 g-bc--gray11",
        "title": "Clínica Internacional",
        "description": "Copago S/ 150.00",
        "address": {
          "addressIcon": "icon-mapfre_015_location-pin",
          "addressValueClass": "g-font--light",
          "addressValue": "Av. Guardia Civil 385, Distrito de Lima - 0.2 km"
        },
        "phone": false,
        "schedule": {
          "scheduleIcon": "icon-mapfre_062_reloj",
          "scheduleValueClass": "g-font--light",
          "scheduleValue": "9:00pm - 2:00pm"
        },
        "btnActions": {
          "btn1": {
            "textBtnClass": "g-c--green1 g-font--14  g-px--10  g-c--pointer g-font--medium",
            "textBtn1": "Ver en el mapa"
          },
          "btn2": {
            "textBtnClass": "g-c--green1 g-font--14  g-pl--10  g-c--pointer g-font--medium",
            "textBtn2": "Ver detalle"

          }

        },
        "favorite": {
          "favoriteIcon": "icon-mapfre_025_heart2",
          "favoriteIconClass": "g-c--red1"
        }
      },
      {
        "addClass": "g-bt--1 g-bc--gray11 ",
        "title": "Clínica Internacional",
        "description": "Copago S/ 150.00",
        "address": {
          "addressIcon": "icon-mapfre_015_location-pin",
          "addressValueClass": "g-font--light",
          "addressValue": "Av. Guardia Civil 385, Distrito de Lima - 0.2 km"
        },
        "phone": false,
        "schedule": {
          "scheduleIcon": "icon-mapfre_062_reloj",
          "scheduleValueClass": "g-font--light",
          "scheduleValue": "9:00pm - 2:00pm"
        },
        "btnActions": {
          "btn1": {
            "textBtnClass": "g-c--green1 g-font--14  g-px--10  g-c--pointer g-font--medium",
            "textBtn1": "Ver en el mapa"
          },
          "btn2": {
            "textBtnClass": "g-c--green1 g-font--14  g-pl--10  g-c--pointer g-font--medium",
            "textBtn2": "Ver detalle"

          }

        },
        "favorite": {
          "favoriteIcon": "icon-mapfre_025_heart2",
          "favoriteIconClass": "g-c--red1"
        }
      },
      {
        "addClass": "g-bt--1 g-bc--gray11 ",
        "title": "Clínica Internacional",
        "description": "Copago S/ 150.00",
        "address": {
          "addressIcon": "icon-mapfre_015_location-pin",
          "addressValueClass": "g-font--light",
          "addressValue": "Av. Guardia Civil 385, Distrito de Lima - 0.2 km"
        },
        "phone": false,
        "schedule": {
          "scheduleIcon": "icon-mapfre_062_reloj",
          "scheduleValueClass": "g-font--light",
          "scheduleValue": "9:00pm - 2:00pm"
        },
        "btnActions": {
          "btn1": {
            "textBtnClass": "g-c--green1 g-font--14  g-px--10  g-c--pointer g-font--medium",
            "textBtn1": "Ver en el mapa"
          },
          "btn2": {
            "textBtnClass": "g-c--green1 g-font--14  g-pl--10  g-c--pointer g-font--medium",
            "textBtn2": "Ver detalle"

          }

        },
        "favorite": {
          "favoriteIcon": "icon-mapfre_025_heart2",
          "favoriteIconClass": "g-c--red1"
        }
      },
      {
        "addClass": "g-bt--1 g-bc--gray11 ",
        "title": "Clínica Internacional",
        "description": "Copago S/ 150.00",
        "address": {
          "addressIcon": "icon-mapfre_015_location-pin",
          "addressValueClass": "g-font--light",
          "addressValue": "Av. Guardia Civil 385, Distrito de Lima - 0.2 km"
        },
        "phone": false,
        "schedule": {
          "scheduleIcon": "icon-mapfre_062_reloj",
          "scheduleValueClass": "g-font--light",
          "scheduleValue": "9:00pm - 2:00pm"
        },
        "btnActions": {
          "btn1": {
            "textBtnClass": "g-c--green1 g-font--14  g-px--10  g-c--pointer g-font--medium",
            "textBtn1": "Ver en el mapa"
          },
          "btn2": {
            "textBtnClass": "g-c--green1 g-font--14  g-pl--10  g-c--pointer g-font--medium",
            "textBtn2": "Ver detalle"

          }

        },
        "favorite": {
          "favoriteIcon": "icon-mapfre_025_heart2",
          "favoriteIconClass": "g-c--red1"
        }
      }
    ]
  }
}
