<?xml version="1.0" encoding="UTF-8"?>
<svg width="71px" height="69px" viewBox="0 0 71 69" version="1.1" xmlns="http://www.w3.org/2000/svg" xmlns:xlink="http://www.w3.org/1999/xlink">
    <!-- Generator: sketchtool 49.2 (51160) - http://www.bohemiancoding.com/sketch -->
    <title>81353E23-DAF8-472B-BF70-BE2357821CA4</title>
    <desc>Created with sketchtool.</desc>
    <defs>
        <linearGradient x1="50%" y1="0%" x2="50%" y2="100%" id="linearGradient-1">
            <stop stop-color="#FFFFFF" offset="0%"></stop>
            <stop stop-color="#B9C6D1" offset="100%"></stop>
        </linearGradient>
    </defs>
    <g id="Symbols" stroke="none" stroke-width="1" fill="none" fill-rule="evenodd">
        <g id="imagemaking-/-sin-tramite" transform="translate(-65.000000, -16.000000)">
            <g id="img_sintramites_pendientes" transform="translate(65.000000, 16.000000)">
                <g id="Group-55">
                    <g id="noun_643354_cc" fill="#797B7F" fill-rule="nonzero">
                        <path d="M30.5740736,51 L7.43478261,51 C5.01186622,51 3.04013378,48.981 3.04013378,46.5 L3.04013378,12 L67.4949833,12 L67.4949833,41.439 C67.4949833,42.267 68.1512508,42.939 68.9598662,42.939 C69.7684816,42.939 70.4247492,42.267 70.4247492,41.439 L70.4247492,7.5 C70.4247492,3.363 67.1404816,0 63.1003344,0 L7.43478261,0 C3.39463545,0 0.110367893,3.363 0.110367893,7.5 L0.110367893,46.5 C0.110367893,50.637 3.39463545,54 7.43478261,54 L30.5740736,54 C31.3856187,54 32.0389565,53.328 32.0389565,52.5 C32.0389565,51.672 31.382689,51 30.5740736,51 Z M37.5791438,49.755 C37.4853913,49.659 37.3418328,49.503 37.1719064,49.248 C37.3652709,49.341 37.5498462,49.446 37.7227023,49.551 C37.6758261,49.62 37.6260201,49.686 37.5791438,49.755 Z M35.6660067,42.54 C36.2080134,41.922 36.1552776,40.977 35.5546756,40.422 C34.5790635,39.525 33.4012977,38.883 32.1502876,38.562 L28.2185418,37.557 C30.8992776,36.939 32.3172843,36.099 32.3875987,36.054 C32.7919064,35.808 33.0380067,35.358 33.0790234,34.875 C33.1200401,34.395 32.9120268,33.903 32.5545953,33.588 C32.534087,33.573 30.556495,31.767 30.556495,25.629 C30.556495,19.443 28.992,16.305 25.9069565,16.305 L25.8542207,16.305 C24.8581003,15.39 23.9703813,15 22.083612,15 C19.4263144,15 13.6107291,17.679 13.6107291,25.629 C13.6107291,31.749 11.6448562,33.564 11.6507157,33.564 C11.2581271,33.864 11.0413244,34.341 11.0676923,34.839 C11.0911304,35.337 11.3548094,35.79 11.7737659,36.048 C11.84701,36.093 13.2474381,36.939 15.9428227,37.56 L12.0198662,38.562 C8.46020067,39.474 5.96989967,42.738 5.96989967,46.5 C5.96989967,47.328 6.62616722,48 7.43478261,48 L29.5750234,48 C30.3836388,48 31.0399064,47.328 31.0399064,46.5 C31.0399064,45.672 30.3836388,45 29.5750234,45 L9.11646823,44.997 C9.61745819,43.284 10.9680803,41.922 12.7317993,41.472 L17.9819398,40.131 C18.5063679,39.996 18.9165351,39.579 19.0483746,39.039 L19.593311,36.813 C19.6929231,36.402 19.6196789,35.964 19.3852977,35.613 C19.1538462,35.259 18.7846957,35.025 18.3715987,34.965 C16.8481204,34.749 15.664495,34.425 14.8236522,34.134 C15.6586355,32.598 16.5434247,29.952 16.5434247,25.632 C16.5434247,19.329 21.1724548,18.003 22.0865418,18.003 C23.3873579,18.003 23.5338462,18.153 24.23699,18.87 C24.5094582,19.149 24.8815385,19.308 25.2711973,19.308 L25.9098863,19.308 C26.7653779,19.308 27.6296589,21.264 27.6296589,25.632 C27.6296589,29.946 28.5144482,32.595 29.3465017,34.131 C28.4997993,34.419 27.3161739,34.746 25.7985552,34.962 C25.3854582,35.022 25.0192375,35.256 24.787786,35.61 C24.5534047,35.961 24.4801605,36.396 24.5797726,36.81 L25.124709,39.039 C25.2565485,39.576 25.663786,39.996 26.1911438,40.131 L31.4412843,41.472 C32.2411104,41.679 32.9676923,42.075 33.597592,42.654 C34.2011237,43.209 35.1269298,43.161 35.6660067,42.54 Z" id="Shape"></path>
                    </g>
                    <path d="M64.3333333,20 L57.6666667,20 C56.7466667,20 56,20.672 56,21.5 C56,22.328 56.7466667,23 57.6666667,23 L64.3333333,23 C65.2533333,23 66,22.328 66,21.5 C66,20.672 65.2533333,20 64.3333333,20 Z" id="Path" fill="#B9C6D1"></path>
                    <path d="M3,7.25 C3,4.3555 4.95781818,2 7.36363636,2 L62.6363636,2 C65.0421818,2 67,4.3555 67,7.25 L67,9 L3,9 L3,7.25 Z" id="Path" fill="url(#linearGradient-1)"></path>
                    <path d="M41.5,23 L50.5,23 C51.328,23 52,22.328 52,21.5 C52,20.672 51.328,20 50.5,20 L41.5,20 C40.672,20 40,20.672 40,21.5 C40,22.328 40.672,23 41.5,23 Z" id="Path" fill="#B9C6D1"></path>
                    <path d="M41.5,34 L62.5,34 C63.328,34 64,33.328 64,32.5 C64,31.672 63.328,31 62.5,31 L41.5,31 C40.672,31 40,31.672 40,32.5 C40,33.328 40.672,34 41.5,34 Z" id="Path" fill="#B9C6D1"></path>
                </g>
                <g id="noun_98757" transform="translate(38.000000, 40.000000)" fill="#797B7F">
                    <path d="M14.4996361,29 C6.50496876,29 0,22.4953614 0,14.5001835 C0,6.50500563 6.50496876,0 14.4996361,0 C22.4953951,0 29,6.50500563 29,14.5001835 C29,22.4953614 22.4953951,29 14.4996361,29 Z M14.4996361,2.18313906 C7.7086627,2.18313906 2.18324174,7.70888864 2.18324174,14.5001835 C2.18324174,21.2918454 7.7086627,26.8168609 14.4996361,26.8168609 C21.2917012,26.8168609 26.8171221,21.2918454 26.8171221,14.5001835 C26.8171221,7.70888864 21.2917012,2.18313906 14.4996361,2.18313906 Z M17.3742377,14.0747871 C17.9178649,14.5622129 18.1900424,15.180304 18.1900424,15.9301616 C18.1900424,16.3695055 18.0921604,16.7721457 17.897488,17.1388161 C17.7020879,17.5058536 17.4524706,17.8119629 17.1482722,18.057878 C16.8440739,18.3030591 16.5209541,18.4814393 16.1789129,18.5922846 C15.8365078,18.7031299 15.4180532,18.7684626 14.9224573,18.7882826 C14.9224573,18.7882826 14.9224573,19.9305033 14.9224573,19.9305033 C14.9224573,19.9305033 14.0407915,19.9305033 14.0407915,19.9305033 C14.0407915,19.9305033 14.0407915,18.7882826 14.0407915,18.7882826 C13.4494969,18.7365304 12.9688198,18.6407336 12.6009436,18.5019934 C12.2319757,18.3628862 11.914314,18.1709256 11.646503,17.9250104 C11.3783282,17.6798294 11.1723757,17.4148283 11.027554,17.1311083 C10.8823684,16.8470213 10.7735702,16.5038412 10.7011594,16.1015681 C10.7011594,16.1015681 13.140932,15.8171141 13.140932,15.8171141 C13.2133429,16.2157168 13.310861,16.5038412 13.4338503,16.6814874 C13.5568396,16.8583995 13.7591533,17.0154915 14.0407915,17.1516624 C14.0407915,17.1516624 14.0407915,15.0177064 14.0407915,15.0177064 C13.2275339,14.7923454 12.6504304,14.5970814 12.3109363,14.4311805 C11.9703506,14.2663806 11.6756129,14.0013796 11.4259956,13.6369113 C11.1760145,13.272076 11.0515697,12.8279607 11.0515697,12.3041981 C11.0515697,11.5873739 11.3015509,10.9876346 11.8033326,10.5064485 C12.3043866,10.0245282 13.0506914,9.758059 14.0407915,9.70557264 C14.0407915,9.70557264 14.0407915,9.10766855 14.0407915,9.10766855 C14.0407915,9.10766855 14.9224573,9.10766855 14.9224573,9.10766855 C14.9224573,9.10766855 14.9224573,9.70557264 14.9224573,9.70557264 C15.8245,9.76136234 16.5136766,9.97534521 16.9914427,10.345686 C17.4681171,10.7160269 17.779593,11.2232727 17.9244147,11.8674235 C17.9244147,11.8674235 15.6771312,12.224184 15.6771312,12.224184 C15.5650581,11.9382618 15.4635374,11.7400615 15.3725689,11.6292162 C15.2823283,11.5183709 15.1320485,11.4067915 14.9224573,11.2937439 C14.9224573,11.2937439 14.9224573,13.0412095 14.9224573,13.0412095 C16.1461643,13.3675058 16.9641522,13.712154 17.3742377,14.0747871 Z M14.9224573,17.2122236 C15.2652262,17.1355128 15.5152074,17.0096189 15.6745841,16.834175 C15.8335968,16.657997 15.9132852,16.4608978 15.9132852,16.2428776 C15.9132852,16.0531192 15.8456047,15.8784093 15.7113353,15.7191151 C15.5770659,15.5590867 15.3139853,15.4115376 14.9224573,15.2742656 C14.9224573,15.2742656 14.9224573,17.2122236 14.9224573,17.2122236 Z M14.0407915,11.2640139 C13.7835328,11.3484325 13.6041431,11.4537723 13.5033501,11.5792991 C13.4025572,11.7044589 13.3527065,11.852375 13.3527065,12.0223133 C13.3527065,12.2006936 13.4032849,12.3548493 13.5055334,12.4862488 C13.6077819,12.6176482 13.78608,12.7277594 14.0407915,12.8165825 C14.0407915,12.8165825 14.0407915,11.2640139 14.0407915,11.2640139 Z" id="Shape"></path>
                </g>
            </g>
        </g>
    </g>
</svg>