<?xml version="1.0" encoding="UTF-8"?>
<svg width="200px" height="100px" viewBox="0 0 200 100" version="1.1" xmlns="http://www.w3.org/2000/svg" xmlns:xlink="http://www.w3.org/1999/xlink">
    <!-- Generator: Sketch 52 (66869) - http://www.bohemiancoding.com/sketch -->
    <title>imagemaking / ALERTA</title>
    <desc>Created with Sketch.</desc>
    <g id="imagemaking-/-ALERTA" stroke="none" stroke-width="1" fill="none" fill-rule="evenodd">
        <g id="Asset-95" transform="translate(37.000000, 1.000000)">
            <path d="M31.4644898,9.07663366 L31.4644898,43.060099 C31.4644898,72.6816832 63.3502041,80.3076238 63.3502041,80.3076238 C63.3502041,80.3076238 95.2359184,74.1519802 95.2359184,43.060099 L95.2359184,9.07663366 L88.6530612,11.1644554 C81.0625226,13.5706647 72.7673969,11.2950967 67.4644898,5.35188119 L63.3502041,0.735148515 L58.4522449,5.83217822 C53.0545407,11.4978363 44.8770193,13.5434818 37.4497959,11.0860396 L31.4644898,9.07663366 Z" id="Path" fill="#FFFFFF"></path>
            <path d="M38.2040816,11.1644554 C38.9160565,11.3756931 39.6386985,11.5491037 40.3689796,11.6839604 L40.3689796,34.5225743 C40.3689796,65.6340594 72.2546939,71.770099 72.2546939,71.770099 C78.1514163,70.1419877 83.7155587,67.4875965 88.6922449,63.9285149 C79.3469388,76.5142574 63.4873469,80.3762376 63.4873469,80.3762376 C63.4873469,80.3762376 31.6016327,74.2205941 31.6016327,43.1287129 L31.6016327,9.07663366 L38.2040816,11.1644554 Z" id="Path" fill="#E0E0E0"></path>
            <path d="M63.3502041,81.0623762 C63.2951008,81.071888 63.2387767,81.071888 63.1836735,81.0623762 C62.8604082,80.9839604 30.7297959,72.9365347 30.7297959,43.079703 L30.7297959,9.08643564 C30.7289683,8.84984466 30.8419875,8.6273143 31.0334694,8.48851485 C31.2273348,8.35250236 31.4727584,8.31277691 31.6995918,8.38069307 L37.7240816,10.3410891 C44.8764573,12.7015005 52.7478931,10.7505237 57.9722449,5.32247525 L62.8212245,0.225445545 C62.9590607,0.0748385508 63.1560498,-0.00758968308 63.36,6.47539748e-16 C63.565455,0.00482991359 63.7600451,0.0933346846 63.8987755,0.245049505 L68.0130612,4.9009901 C73.1299262,10.6214585 81.1197792,12.8147554 88.437551,10.5077228 L95.0204082,8.38069307 C95.2440641,8.3129676 95.4864606,8.35278865 95.6767347,8.48851485 C95.8632786,8.63043446 95.9721565,8.85195645 95.9706122,9.08643564 L95.9706122,43.060099 C95.9706122,74.4264356 63.8204082,80.9937624 63.4873469,81.0525743 L63.3502041,81.0623762 Z M32.1991837,10.0960396 L32.1991837,43.060099 C32.1991837,70.7114851 60.9795918,78.9451485 63.3697959,79.5724752 C65.76,79.0431683 94.5012245,72.0837624 94.5012245,43.060099 L94.5012245,10.0862376 L88.8783673,11.870198 C81.0173054,14.3583328 72.4284144,12.0162009 66.9159184,5.88118812 L63.3404082,1.86237624 L59.0302041,6.38108911 C53.4048061,12.2287674 44.922141,14.3221479 37.2244898,11.7623762 L32.1991837,10.0960396 Z" id="Shape" fill="#303030" fill-rule="nonzero"></path>
            <path d="M24.7640816,64.2029703 L14.5861224,64.2029703 C14.1803622,64.2029703 13.8514286,63.8738331 13.8514286,63.4678218 C13.8514286,63.0618105 14.1803622,62.7326733 14.5861224,62.7326733 L24.7640816,62.7326733 C25.1698419,62.7326733 25.4987755,63.0618105 25.4987755,63.4678218 C25.4987755,63.8738331 25.1698419,64.2029703 24.7640816,64.2029703 Z" id="Path" fill="#303030"></path>
            <path d="M19.2685714,71.299604 L0.734693878,71.299604 C0.328933653,71.299604 4.9691296e-17,70.9704668 0,70.5644554 C-4.9691296e-17,70.1584441 0.328933653,69.8293069 0.734693878,69.8293069 L19.2685714,69.8293069 C19.6743317,69.8293069 20.0032653,70.1584441 20.0032653,70.5644554 C20.0032653,70.9704668 19.6743317,71.299604 19.2685714,71.299604 Z" id="Path" fill="#303030"></path>
            <path d="M33.9918367,81.0623762 L15.4579592,81.0623762 C15.052199,81.0623762 14.7232653,80.733239 14.7232653,80.3272277 C14.7232653,79.9212164 15.052199,79.5920792 15.4579592,79.5920792 L33.9918367,79.5920792 C34.397597,79.5920792 34.7265306,79.9212164 34.7265306,80.3272277 C34.7265306,80.733239 34.397597,81.0623762 33.9918367,81.0623762 Z" id="Path" fill="#303030"></path>
            <ellipse id="Oval" fill="#E0E0E0" cx="63.2228571" cy="95.5987129" rx="21.002449" ry="3.15623762"></ellipse>
            <ellipse id="Oval" fill="#8DB602" cx="63.2620408" cy="45.049901" rx="3.36979592" ry="3.37188119"></ellipse>
            <ellipse id="Oval" fill="#8DB602" cx="63.2620408" cy="54.2735644" rx="3.36979592" ry="3.37188119"></ellipse>
            <rect id="Rectangle" fill="#8DB602" x="59.9020408" y="39.3745545" width="6.73959184" height="5.85178218"></rect>
            <ellipse id="Oval" fill="#8DB602" cx="63.2914286" cy="28.9648515" rx="3.36979592" ry="3.37188119"></ellipse>
            <polygon id="Rectangle" fill="#8DB602" transform="translate(63.285937, 34.233334) rotate(-179.960000) translate(-63.285937, -34.233334) " points="59.9161392 28.8324411 66.6557311 28.8324441 66.6557357 39.6342262 59.9161439 39.6342233"></polygon>
        </g>
    </g>
</svg>