{
  "htmlClass": "hidden",
  "bodyClass": "hidden",
  "iconFile": "icon-mapfre_044_logo_landing ",
  "addClass": "g-font--45",
  "acordion": [
    {
      "classAccordion": "g-bg-c--gray8 g-c--gray10 g-pt--5",
      "dataGroup": "true",
      "item": [
        {
          "dataOpen": "true",
          "itemClass": "",
          "titleClass": "",
          "boxClass": "",
          "clickClass": "g-pl--20 g-pr--15 g-py--10",
          "icon": {
            "iconFile": "icon-mapfre_022_car2",
            "iconClass": "g-px--15 g-font--20 "
          },
          "arrow": {
            "clickOn": {
              "iconFile": "icon-mapfre_101_ico-dow",
              "iconClass": "g-font--10 g-c-pointer g-c--white1"
            },
            "clickOff": {
              "iconFile": "icon-mapfre_102_ico-up",
              "iconClass": "g-c--pointer g-font--10"
            }
          },
          "textClass": "g-text--uppercase g-font--bold",
          "text": "VEHÍCULOS",
          "contentClass": "",
          "content": false,
          "list": [
            {
              "iconFile": "",
              "text": "Seguro Vehicular"
            },
            {
              "iconFile": "",
              "text": "SOAT"
            },
            {
              "iconFile": "",
              "text": "Accidentes"
            },
            {
              "text": "Robo"
            },
            {
              "text": "Talleres"
            },
            {
              "text": "Cotización"
            }
          ],
          "classContent": "g-hover-nav g-font--12"
        },
        {
          "dataOpen": "",
          "itemClass": "",
          "titleClass": "",
          "boxClass": "",
          "clickClass": "g-pl--20 g-pr--15 g-py--10",
          "icon": {
            "iconFile": "icon-mapfre_023_cross2",
            "iconClass": "g-px--15 g-font--20 "
          },
          "arrow": {
            "clickOn": {
              "iconFile": "icon-mapfre_101_ico-dow",
              "iconClass": "g-font--10 g-c-pointer g-c--white1"
            },
            "clickOff": {
              "iconFile": "icon-mapfre_102_ico-up",
              "iconClass": "g-c--pointer g-font--10"
            }
          },
          "textClass": "g-text--uppercase g-font--bold",
          "text": "SALUD",
          "contentClass": "",
          "content": false,
          "list": [
            {
              "iconFile": "",
              "text": "Seguro Vehicular"
            },
            {
              "iconFile": "",
              "text": "SOAT"
            },
            {
              "iconFile": "",
              "text": "Accidentes"
            },
            {
              "text": "Robo"
            },
            {
              "text": "Talleres"
            },
            {
              "text": "Cotización"
            }
          ],
          "classContent": "g-hover-nav"
        },
        {
          "dataOpen": "",
          "itemClass": "",
          "titleClass": "",
          "boxClass": "",
          "clickClass": "g-pl--20 g-pr--15 g-py--10",
          "icon": {
            "iconFile": "icon-mapfre_024_house2",
            "iconClass": "g-px--15 g-font--20 "
          },
          "arrow": {
            "clickOn": {
              "iconFile": "icon-mapfre_101_ico-dow",
              "iconClass": "g-font--10 g-c-pointer g-c--white1"
            },
            "clickOff": {
              "iconFile": "icon-mapfre_102_ico-up",
              "iconClass": "g-c--pointer"
            }
          },
          "textClass": "g-text--uppercase g-font--bold",
          "text": "HOGAR",
          "contentClass": "",
          "content": false,
          "list": [
            {
              "iconFile": "",
              "text": "Seguro Vehicular"
            },
            {
              "iconFile": "",
              "text": "SOAT"
            },
            {
              "iconFile": "",
              "text": "Accidentes"
            },
            {
              "text": "Robo"
            },
            {
              "text": "Talleres"
            },
            {
              "text": "Cotización"
            }
          ],
          "classContent": "g-hover-nav"
        },
        {
          "dataOpen": "",
          "itemClass": "",
          "titleClass": "",
          "boxClass": "",
          "clickClass": "g-pl--20 g-pr--15 g-py--10",
          "icon": {
            "iconFile": "icon-mapfre_025_heart2",
            "iconClass": "g-px--15 g-font--20 "
          },
          "arrow": {
            "clickOn": {
              "iconFile": "icon-mapfre_101_ico-dow",
              "iconClass": "g-font--10 g-c-pointer g-c--white1"
            },
            "clickOff": {
              "iconFile": "icon-mapfre_102_ico-up",
              "iconClass": "g-c--pointer"
            }
          },
          "textClass": "g-text--uppercase g-font--bold",
          "text": "VIDA Y AHORROS",
          "contentClass": "",
          "content": false,
          "list": [
            {
              "iconFile": "",
              "text": "Seguro Vehicular"
            },
            {
              "iconFile": "",
              "text": "SOAT"
            },
            {
              "iconFile": "",
              "text": "Accidentes"
            },
            {
              "text": "Robo"
            },
            {
              "text": "Talleres"
            },
            {
              "text": "Cotización"
            }
          ],
          "classContent": "g-hover-nav"
        },
        {
          "dataOpen": "",
          "itemClass": "",
          "titleClass": "",
          "boxClass": "",
          "clickClass": "g-pl--20 g-pr--15 g-py--10",
          "icon": {
            "iconFile": "icon-mapfre_026_decesos",
            "iconClass": "g-px--15 g-font--20 "
          },
          "arrow": false,
          "textClass": "g-text--uppercase g-font--bold",
          "text": "DECESOS",
          "contentClass": "",
          "content": false,
          "classContent": "g-hover-nav"
        },
        {
          "dataOpen": "",
          "itemClass": "",
          "titleClass": "",
          "boxClass": "",
          "clickClass": "g-pl--20 g-pr--15 g-py--10",
          "icon": {
            "iconFile": "icon-mapfre_027_box",
            "iconClass": "g-px--15 g-font--20 "
          },
          "arrow": false,
          "textClass": "g-text--uppercase g-font--bold",
          "text": "SERVICIOS MAPFRE",
          "contentClass": "",
          "content": false,
          "classContent": "g-hover-nav"
        },
        {
          "dataOpen": "",
          "itemClass": "",
          "titleClass": "",
          "boxClass": "",
          "clickClass": "g-pl--20 g-pr--15 g-py--10",
          "icon": {
            "iconFile": "icon-mapfre_028_pagos",
            "iconClass": "g-px--15 g-font--20 "
          },
          "arrow": false,
          "textClass": "g-text--uppercase g-font--bold",
          "text": "Mis Pagos",
          "contentClass": "",
          "content": false,
          "classContent": "g-hover-nav"
        },
        {
          "dataOpen": "",
          "itemClass": "",
          "titleClass": "",
          "boxClass": "",
          "clickClass": "g-pl--20 g-pr--15 g-py--10",
          "icon": {
            "iconFile": "icon-mapfre_029_location-pin2",
            "iconClass": "g-px--15 g-font--20 "
          },
          "arrow": false,
          "textClass": "g-text--uppercase g-font--bold",
          "text": "Red de Oficinas",
          "contentClass": "",
          "content": false,
          "classContent": "g-hover-nav"
        }
      ]
    }
  ],
  "list-btn": [
    {
      "iconFile": "icon-mapfre_030_call",
      "addClass": "g-font--30"
    },
    {
      "iconFile": "icon-mapfre_031_qanda",
      "addClass": "g-font--30"
    }
  ],
  "headerOIM": {
    "contentClass": "d-none d-md-block",
    "icoNav": {
      "iconFile": "icon-mapfre_047_bars",
      "addClass": "g-font--30",
      "iconFileOIM": "icon-mapfre_044_logo_landing",
      "addClassOIM": "g-font--30"
    },
    "headOimMobile": {
      "llamadaClass": "g-font--light",
      "llamada": "SERVICIOS MAPFRE",
      "bajada": "CHOFER DE REEMPLAZO",
      "iconFile": "",
      "addClass": "",
      "icoBack": {
        "icon": "icon-mapfre_010_arrow-left",
        "addClass": "g-font--25 g-font-md--21 g-c--gray9"
      }
    },
    "datos": {
      "icoCircle": "icon-mapfre_066_circle",
      "sizeCircle": "g-font--40 g-c--gray1",
      "icoUser": "icon-mapfre_037_user",
      "addClass": "g-c--white1 g-ico--center g-font--20",
      "tittle": "MIS NOTIFICACIONES",
      "icoAlert": "icon-mapfre_036_notification",
      "icoClose": "icon-mapfre_049_close2",
      "sizeClose": "g-font--40",
      "nameUser": "Hola <b>Gonzalo!</b>",
      "numb": 3,
      "alertBadge": {
        "icoCircle": "icon-mapfre_066_circle",
        "addClass": "g-font--30 g-c--green1",
        "addClassNum": "g-ico--center g-font--11 g-c--white1"
      },
      "list": [
        {
          "tipo": "Mi prefil"
        },
        {
          "tipo": "Cerrar sesión"
        }
      ]
    },
    "alert": {
      "ico": "icon-mapfre_014_perfil",
      "icoCircle": "icon-mapfre_066_circle",
      "sizeCircle": "g-font--40 g-c--gray1",
      "addClass": "g-c--white1 g-ico--center g-font--20",
      "tittle": "MIS NOTIFICACIONES",
      "icoAlert": "icon-mapfre_036_notification",
      "icoClose": "icon-mapfre_049_close2",
      "sizeClose": "g-font--40",
      "numb": 3,
      "alertBadge": {
        "icoCircle": "icon-mapfre_066_circle",
        "addClass": "g-font--30 g-c--green1",
        "addClassNum": "g-ico--center g-font--11 g-c--white1"
      },
      "list": [
        {
          "ico-drow": "icon-mapfre_057_circle-check",
          "fech": "HOY 10:23am",
          "tipo": "Solicitud de chofer de reemplazo confirmada",
          "desc": "Lunes 1 NOV - 9:30am"
        },
        {
          "ico-drow": "icon-mapfre_049_close2",
          "fech": "24/02  10:23am",
          "tipo": "Solicitud de chofer de reemplazo cancelada",
          "desc": "Servicio cancelado"
        },
        {
          "ico-drow": "icon-mapfre_057_circle-check",
          "fech": "24/02 10:23am",
          "tipo": "Pago automático emitido",
          "desc": "Fondo universitario"
        },
        {
          "ico-drow": "icon-mapfre_049_close2",
          "fech": "24/02 10:23am",
          "tipo": "Pago fallido",
          "desc": "Seguro SCTR"
        },
        {
          "ico-drow": "icon-mapfre_057_circle-check",
          "fech": "24/02 10:23am",
          "tipo": "Pago pendiente",
          "desc": "Seguro vehicular - Vence 17/05/18"
        },
        {
          "ico-drow": "icon-mapfre_049_close2",
          "fech": "24/02 10:23am",
          "tipo": "Póliza sin cobertura por inpago",
          "desc": "Salud - Venció 12/05/18"
        }
      ]
    }
  },
  "googlemaps": {
    "iframeClass": "w-100 h-10 g-map--full"
  },
  "filter": false,
  "scheduledDriver": {
    "headerFixed": {
      "contentClass": "g-p--10",
      "llamadaClass": "g-font--light",
      "llamada": "SERVICIOS MAPFRE",
      "bajada": "CHOFER DE REEMPLAZO",
      "iconFile": "",
      "addClass": "",
      "icoBack": {
        "icon": "icon-mapfre_010_arrow-left",
        "addClass": "g-font--25 g-font-md--21 g-c--gray9"
      }
    },
    "addClass": "d-none d-md-block",
    "contentClass": "d-flex flex-column g-px--40 g-pt--50",
    "image": {
      "imageFile": "../../images/messages/icon_driver.svg",
      "imageClass": "mx-auto"
    },
    "iconText": [
      {
        "addClass": "d-flex g-pt--15 justify-content-center ",
        "icon": false,
        "textClass": "text-center g-font--medium g-c--gray2 ",
        "text": "CHOFER PROGRAMADO"
      },
      {
        "addClass": "d-flex g-pt--10 justify-content-center g-pb--20 g-bb--1 g-bc--gray11",
        "icon": false,
        "textClass": "text-center g-font--light g-c--gray2 g-font--13 g-line--11 ",
        "text": "El chofer llegará a recogerte en el lugar y hora acordada, recuerda contar con S/. 20 en efectivo."
      },
      {
        "addClass": "d-flex g-pt--15 align-items-center ",
        "icon": {
          "iconFile": "icon-mapfre_037_user",
          "iconClass": " g-font--16 g-c--gray2 g-pr--10 "
        },
        "textClass": "g-c-gray2 g-font--light",
        "text": "CHOFER: JUAN RODRIGUEZ"
      },
      {
        "addClass": "d-flex g-pt--15 align-items-center g-pb--20 g-bb--1 g-bc--gray11 ",
        "icon": {
          "iconFile": "icon-mapfre_019_car",
          "iconClass": " g-font--16 g-c--gray2 g-pr--10 "
        },
        "textClass": "g-c-gray2 g-font--light",
        "text": "Lamborghini Centenario LP-770 - 2018"
      },
      {
        "addClass": "d-flex g-pt--15 align-items-center ",
        "icon": false,
        "textClass": "g-c-gray2 g-font--light g-font--13 g-line--11",
        "text": "FECHA"
      },
      {
        "addClass": "d-flex g-pt--5 align-items-center ",
        "icon": false,
        "textClass": "g-c-gray2 g-font--medium g-line--11",
        "text": "LUNES 23 JUL - 9:30am"
      },
      {
        "addClass": "d-flex g-pt--15 align-items-center ",
        "icon": false,
        "textClass": "g-c-gray2 g-font--light g-font--13 g-line--11",
        "text": "DESDE"
      },
      {
        "addClass": "d-flex g-pt--5 align-items-center ",
        "icon": false,
        "textClass": "g-c-gray2 g-font--medium g-line--11",
        "text": "Av. Javier Prado Este 499 <span class='g-c-gray11 g-font--light '> - San Isidro</span>"
      },
      {
        "addClass": "d-flex g-pt--15 align-items-center ",
        "icon": false,
        "textClass": "g-c-gray2 g-font--light g-font--13 g-line--11",
        "text": "HASTA"
      },
      {
        "addClass": "d-flex g-pt--5 align-items-center ",
        "icon": false,
        "textClass": "g-c-gray2 g-font--medium g-line--11",
        "text": "Calle Alcanfores 110  <span class='g-c-gray11 g-font--light'> - Miraflores</span>"
      },
      {
        "addClass": "d-flex g-pt--15 align-items-center ",
        "icon": false,
        "textClass": "g-c-gray2 g-font--light g-font--13 g-line--11",
        "text": "NÚMERO DE CONTACTO"
      },
      {
        "addClass": "d-flex g-pt--5 align-items-center ",
        "icon": false,
        "textClass": "g-c-gray2 g-font--medium g-line--11",
        "text": "987 654 321"
      }
    ],
    "footerBtns": {
      "footerClass": "d-flex g-py--30 mt-auto g-pt--10 g-bt--1 g-bc--gray11 g-mt--30 g-ie-flex--0-1-auto",
      "btns": [
        {
          "addClass": "d-flex align-items-center justify-content-center w-50",
          "icon": {
            "iconFile": "icon-mapfre_035_edit ",
            "iconClass": " g-c--green1 g-pr--10 g-font--18  g-c--pointer"
          },
          "textClass": "g-c--green1 g-font--medium g-c--pointer",
          "text": "Modificar"
        },
        {
          "addClass": "d-flex align-items-center justify-content-center w-50",
          "icon": {
            "iconFile": "icon-mapfre_053_eliminar ",
            "iconClass": " g-c--green1 g-pr--10 g-font--18  g-c--pointer"
          },
          "textClass": "g-c--green1 g-font--medium g-c--pointer",
          "text": "Cancelar servicio"
        }
      ]
    }
  },
  "menumobile": false,
  "openClick": {
    "click": "data-traspaso"
  },
  "formModal": {
    "addClass": "",
    "data": "data-traspaso",
    "modalContainer": "",
    "modalWrapper": "g-full-modal--alternative",
    "classHeader": "",
    "page": "CHOFER DE REMPLAZO",
    "title": "",
    "formContent": false,
    "contentRadio": false,
    "textIcon": false,
    "modalDriver": [
      {
        "contentClass": "",
        "icon": false,
        "conteiner": {
          "addClass": "text-center",
          "content": [
            {
              "textClass": "g-font--18 g-font--medium",
              "text": "CÓMO FUNCIONA EL SERVICIO DE CHOFER DE REEMPLAZO"
            }
          ]
        },
        "alertHead": {
          "addClass": "g-bg-c--red7 g-b--1 g-bc--orange1  g-p--10 g-mt--20",
          "icon": {
            "iconFile": "icon-mapfre_051_alerta",
            "iconClass": "g-font--30 g-c--orange1"
          },
          "titleClass": "g-c--orange1",
          "titleText": "El servicio se debe reservar con un mínimo de 3 horas de antelación.",
          "subTitle": false,
          "btnDetalle": false
        },
        "description": {
          "addClass": "g-pt--20",
          "content": [
            {
              "textClass": "",
              "text": "Si no puedes conducir, por ser cliente MAPFRE puedes disfrutar del servicio de chofer de reemplazo. Cada póliza tiene asignado un número de servicios por vigencia, que se irán descontando a medida que los utilizes."
            }
          ]
        }
      },
      {
        "contentClass": "",
        "icon": false,
        "conteiner": false
      },
      {
        "contentClass": "",
        "icon": false,
        "conteiner": {
          "addClass": "",
          "content": [
            {
              "textClass": "g-font--medium g-mt--25 g-mb--20",
              "text": "Pasos para utilizar el servicio:"
            }
          ]
        },
        "stepDrivers": {
          "addClass": "d-flex flex-column flex-md-row justify-content-center",
          "conteiner": [
            {
              "conteinerClass": "w-10 w-md-25 g-px--5 text-center",
              "img": {
                "src": "../../images/services/icon-tech-track.svg"
              },
              "number": {
                "textClass": "g-mt--15 mx-auto g-br--circle g-bc--gray2 g-b--1",
                "text": "1"
              },
              "content": {
                "contentClass": "text-center g-mt--10",
                "textClass": "g-font--light g-line--14",
                "text": "Indicanos dónde y cuando necesitarás el servicio."
              }
            },
            {
              "conteinerClass": "w-10 w-md-25 g-px--5 text-center",
              "img": {
                "src": "../../images/services/icon-document-aprove.svg"
              },
              "number": {
                "textClass": "g-mt--15 mx-auto g-br--circle g-bc--gray2 g-b--1",
                "text": "2"
              },
              "content": {
                "contentClass": "text-center g-mt--10",
                "textClass": "g-font--light g-line--14",
                "text": "Te asignaremos un chofer que ira a recogerte en el día y hora indicados."
              }
            },
            {
              "conteinerClass": "w-10 w-md-25 g-px--5 text-center",
              "img": {
                "src": "../../images/services/icon-mobile-alert.svg"
              },
              "number": {
                "textClass": "g-mt--15 mx-auto g-br--circle g-bc--gray2 g-b--1",
                "text": "3"
              },
              "content": {
                "contentClass": "text-center g-mt--10",
                "textClass": "g-font--light g-line--14",
                "text": "Te llamaremos unas horas antes para confirmar el servicio."
              }
            },
            {
              "conteinerClass": "w-10 w-md-25 g-px--5 text-center",
              "img": {
                "src": "../../images/services/icon-car-aprove.svg"
              },
              "number": {
                "textClass": "g-mt--15 mx-auto g-br--circle g-bc--gray2 g-b--1",
                "text": "4"
              },
              "content": {
                "contentClass": "text-center g-mt--10",
                "textClass": "g-font--light g-line--14",
                "text": "El chofer te llevará a la dirección que indicaste en tu reserva."
              }
            }
          ]
        },
        "alert": false
      },
      {
        "contentClass": "g-mt--20",
        "icon": false,
        "stepDrivers": false,
        "alert": false
      }
    ],
    "footerClass": "g-b--0",
    "btnOne": false,
    "btnTwo": false
  }
}