{
  "htmlClass": "hidden",
  "bodyClass": "hidden",
  "iconFile": "icon-mapfre_044_logo_landing ",
  "addClass": "g-font--45",
  "acordion": [
    {
      "classAccordion": "g-bg-c--gray8 g-c--gray10 g-pt--5",
      "dataGroup": "true",
      "item": [
        {
          "dataOpen": "true",
          "itemClass": "",
          "titleClass": "",
          "boxClass": "",
          "clickClass": "g-pl--20 g-pr--15 g-py--10",
          "icon": {
            "iconFile": "icon-mapfre_022_car2",
            "iconClass": "g-px--15 g-font--20 "
          },
          "arrow": {
            "clickOn": {
              "iconFile": "icon-mapfre_101_ico-dow",
              "iconClass": "g-font--10 g-c-pointer g-c--white1"
            },
            "clickOff": {
              "iconFile": "icon-mapfre_102_ico-up",
              "iconClass": "g-c--pointer g-font--10"
            }
          },
          "textClass": "g-text--uppercase g-font--bold",
          "text": "VEHÍCULOS",
          "contentClass": "",
          "content": false,
          "list": [
            {
              "iconFile": "",
              "text": "Seguro Vehicular"
            },
            {
              "iconFile": "",
              "text": "SOAT"
            },
            {
              "iconFile": "",
              "text": "Accidentes"
            },
            {
              "text": "Robo"
            },
            {
              "text": "Talleres"
            },
            {
              "text": "Cotización"
            }
          ],
          "classContent": "g-hover-nav g-font--12"
        },
        {
          "dataOpen": "",
          "itemClass": "",
          "titleClass": "",
          "boxClass": "",
          "clickClass": "g-pl--20 g-pr--15 g-py--10",
          "icon": {
            "iconFile": "icon-mapfre_023_cross2",
            "iconClass": "g-px--15 g-font--20 "
          },
          "arrow": {
            "clickOn": {
              "iconFile": "icon-mapfre_101_ico-dow",
              "iconClass": "g-font--10 g-c-pointer g-c--white1"
            },
            "clickOff": {
              "iconFile": "icon-mapfre_102_ico-up",
              "iconClass": "g-c--pointer g-font--10"
            }
          },
          "textClass": "g-text--uppercase g-font--bold",
          "text": "SALUD",
          "contentClass": "",
          "content": false,
          "list": [
            {
              "iconFile": "",
              "text": "Seguro Vehicular"
            },
            {
              "iconFile": "",
              "text": "SOAT"
            },
            {
              "iconFile": "",
              "text": "Accidentes"
            },
            {
              "text": "Robo"
            },
            {
              "text": "Talleres"
            },
            {
              "text": "Cotización"
            }
          ],
          "classContent": "g-hover-nav"
        },
        {
          "dataOpen": "",
          "itemClass": "",
          "titleClass": "",
          "boxClass": "",
          "clickClass": "g-pl--20 g-pr--15 g-py--10",
          "icon": {
            "iconFile": "icon-mapfre_024_house2",
            "iconClass": "g-px--15 g-font--20 "
          },
          "arrow": {
            "clickOn": {
              "iconFile": "icon-mapfre_101_ico-dow",
              "iconClass": "g-font--10 g-c-pointer g-c--white1"
            },
            "clickOff": {
              "iconFile": "icon-mapfre_102_ico-up",
              "iconClass": "g-c--pointer"
            }
          },
          "textClass": "g-text--uppercase g-font--bold",
          "text": "HOGAR",
          "contentClass": "",
          "content": false,
          "list": [
            {
              "iconFile": "",
              "text": "Seguro Vehicular"
            },
            {
              "iconFile": "",
              "text": "SOAT"
            },
            {
              "iconFile": "",
              "text": "Accidentes"
            },
            {
              "text": "Robo"
            },
            {
              "text": "Talleres"
            },
            {
              "text": "Cotización"
            }
          ],
          "classContent": "g-hover-nav"
        },
        {
          "dataOpen": "",
          "itemClass": "",
          "titleClass": "",
          "boxClass": "",
          "clickClass": "g-pl--20 g-pr--15 g-py--10",
          "icon": {
            "iconFile": "icon-mapfre_025_heart2",
            "iconClass": "g-px--15 g-font--20 "
          },
          "arrow": {
            "clickOn": {
              "iconFile": "icon-mapfre_101_ico-dow",
              "iconClass": "g-font--10 g-c-pointer g-c--white1"
            },
            "clickOff": {
              "iconFile": "icon-mapfre_102_ico-up",
              "iconClass": "g-c--pointer"
            }
          },
          "textClass": "g-text--uppercase g-font--bold",
          "text": "VIDA Y AHORROS",
          "contentClass": "",
          "content": false,
          "list": [
            {
              "iconFile": "",
              "text": "Seguro Vehicular"
            },
            {
              "iconFile": "",
              "text": "SOAT"
            },
            {
              "iconFile": "",
              "text": "Accidentes"
            },
            {
              "text": "Robo"
            },
            {
              "text": "Talleres"
            },
            {
              "text": "Cotización"
            }
          ],
          "classContent": "g-hover-nav"
        },
        {
          "dataOpen": "",
          "itemClass": "",
          "titleClass": "",
          "boxClass": "",
          "clickClass": "g-pl--20 g-pr--15 g-py--10",
          "icon": {
            "iconFile": "icon-mapfre_026_decesos",
            "iconClass": "g-px--15 g-font--20 "
          },
          "arrow": false,
          "textClass": "g-text--uppercase g-font--bold",
          "text": "DECESOS",
          "contentClass": "",
          "content": false,
          "classContent": "g-hover-nav"
        },
        {
          "dataOpen": "",
          "itemClass": "",
          "titleClass": "",
          "boxClass": "",
          "clickClass": "g-pl--20 g-pr--15 g-py--10",
          "icon": {
            "iconFile": "icon-mapfre_027_box",
            "iconClass": "g-px--15 g-font--20 "
          },
          "arrow": false,
          "textClass": "g-text--uppercase g-font--bold",
          "text": "SERVICIOS MAPFRE",
          "contentClass": "",
          "content": false,
          "classContent": "g-hover-nav"
        },
        {
          "dataOpen": "",
          "itemClass": "",
          "titleClass": "",
          "boxClass": "",
          "clickClass": "g-pl--20 g-pr--15 g-py--10",
          "icon": {
            "iconFile": "icon-mapfre_028_pagos",
            "iconClass": "g-px--15 g-font--20 "
          },
          "arrow": false,
          "textClass": "g-text--uppercase g-font--bold",
          "text": "Mis Pagos",
          "contentClass": "",
          "content": false,
          "classContent": "g-hover-nav"
        },
        {
          "dataOpen": "",
          "itemClass": "",
          "titleClass": "",
          "boxClass": "",
          "clickClass": "g-pl--20 g-pr--15 g-py--10",
          "icon": {
            "iconFile": "icon-mapfre_029_location-pin2",
            "iconClass": "g-px--15 g-font--20 "
          },
          "arrow": false,
          "textClass": "g-text--uppercase g-font--bold",
          "text": "Red de Oficinas",
          "contentClass": "",
          "content": false,
          "classContent": "g-hover-nav"
        }
      ]
    }
  ],
  "list-btn": [
    {
      "iconFile": "icon-mapfre_030_call",
      "addClass": "g-font--30"
    },
    {
      "iconFile": "icon-mapfre_031_qanda",
      "addClass": "g-font--30"
    }
  ],
  "headerOIM": {
    "contentClass": "d-none d-md-block",
    "icoNav": {
      "iconFile": "icon-mapfre_047_bars",
      "addClass": "g-font--30",
      "iconFileOIM": "icon-mapfre_044_logo_landing",
      "addClassOIM": "g-font--30"
    },
    "headOimMobile": {
      "llamadaClass": "g-font--light",
      "llamada": "SERVICIOS MAPFRE",
      "bajada": "CHOFER DE REEMPLAZO",
      "iconFile": "",
      "addClass": "",
      "icoBack": {
        "icon": "icon-mapfre_010_arrow-left",
        "addClass": "g-font--25 g-font-md--21 g-c--gray9"
      }
    },
    "datos": {
      "icoCircle": "icon-mapfre_066_circle",
      "sizeCircle": "g-font--40 g-c--gray1",
      "icoUser": "icon-mapfre_037_user",
      "addClass": "g-c--white1 g-ico--center g-font--20",
      "tittle": "MIS NOTIFICACIONES",
      "icoAlert": "icon-mapfre_036_notification",
      "icoClose": "icon-mapfre_049_close2",
      "sizeClose": "g-font--40",
      "nameUser": "Hola <b>Gonzalo!</b>",
      "numb": 3,
      "alertBadge": {
        "icoCircle": "icon-mapfre_066_circle",
        "addClass": "g-font--30 g-c--green1",
        "addClassNum": "g-ico--center g-font--11 g-c--white1"
      },
      "list": [
        {
          "tipo": "Mi prefil"
        },
        {
          "tipo": "Cerrar sesión"
        }
      ]
    },
    "alert": {
      "ico": "icon-mapfre_014_perfil",
      "icoCircle": "icon-mapfre_066_circle",
      "sizeCircle": "g-font--40 g-c--gray1",
      "addClass": "g-c--white1 g-ico--center g-font--20",
      "tittle": "MIS NOTIFICACIONES",
      "icoAlert": "icon-mapfre_036_notification",
      "icoClose": "icon-mapfre_049_close2",
      "sizeClose": "g-font--40",
      "numb": 3,
      "alertBadge": {
        "icoCircle": "icon-mapfre_066_circle",
        "addClass": "g-font--30 g-c--green1",
        "addClassNum": "g-ico--center g-font--11 g-c--white1"
      },
      "list": [
        {
          "ico-drow": "icon-mapfre_057_circle-check",
          "fech": "HOY 10:23am",
          "tipo": "Solicitud de chofer de reemplazo confirmada",
          "desc": "Lunes 1 NOV - 9:30am"
        },
        {
          "ico-drow": "icon-mapfre_049_close2",
          "fech": "24/02  10:23am",
          "tipo": "Solicitud de chofer de reemplazo cancelada",
          "desc": "Servicio cancelado"
        },
        {
          "ico-drow": "icon-mapfre_057_circle-check",
          "fech": "24/02 10:23am",
          "tipo": "Pago automático emitido",
          "desc": "Fondo universitario"
        },
        {
          "ico-drow": "icon-mapfre_049_close2",
          "fech": "24/02 10:23am",
          "tipo": "Pago fallido",
          "desc": "Seguro SCTR"
        },
        {
          "ico-drow": "icon-mapfre_057_circle-check",
          "fech": "24/02 10:23am",
          "tipo": "Pago pendiente",
          "desc": "Seguro vehicular - Vence 17/05/18"
        },
        {
          "ico-drow": "icon-mapfre_049_close2",
          "fech": "24/02 10:23am",
          "tipo": "Póliza sin cobertura por inpago",
          "desc": "Salud - Venció 12/05/18"
        }
      ]
    }
  },
  "googlemaps": {
    "iframeClass": "w-100 h-10 g-map--full"
  },
  "filter": false,
  "scheduledDriver": false,
  "modifyNow": {
    "headerFixed":{
      "contentClass": "g-p--10",
      "llamadaClass": "g-font--light",
      "llamada": "SERVICIOS MAPFRE",
      "bajada": "CHOFER DE REEMPLAZO",
      "iconFile": "",
      "addClass": "",
      "icoBack": {
        "icon": "icon-mapfre_010_arrow-left",
        "addClass": "g-font--25 g-font-md--21 g-c--gray9"
      }
    },
    "addClass": "",
    "title": {
      "titleClass": "",
      "title": "SOLICITAR CHOFER DE REEMPLAZO"
    },
    "contentClass": " g-px--30 g-pt--20 ",
    "alert": {
      "addClass": "g-b--1 g-bc--orange1 g-mb--20",
      "boxClass": "g-p--10",
      "icon": {
        "iconFile": "icon-mapfre_051_alerta",
        "iconClass": "g-font--30 g-c--orange1 "
      },
      "textClass": "",
      "titleClass": "g-c--orange1 g-line--11",
      "titleText": "Has cancelado tu solicitud de chofer de reemplazo para el lunes 23 de Julio.",
      "subTitle": false,
      "btnDetalle": false
    },
    "formsContent": [
      {
        "titleContent": {
          "titleClass": "g-c--gray2 g-font--medium",
          "title": "1. ¿Cuándo y dónde requieres el servicio?"
        },
        "form": [
          {
            "addClass": "",
            "select": {
              "addClass": " g-mr-lg--5",
              "label": "Fecha ",
              "disabled": false,
              "listOption": [
                {
                  "value": ""
                },
                {
                  "value": "23/07/2018"
                }
              ],
              "error": ""
            },
            "inputIcon": {
              "addClass": " g-ml-lg--10",
              "currency": "",
              "type": "text",
              "value": "",
              "iconFile": "icon-mapfre_062_reloj",
              "iconColor": "g-c--green1",
              "label": "Hora",
              "requerid": false,
              "error": ""
            }
          },
          {
            "addClass": "d-flex flex-column",
            "inputIcon": [
              {
                "addClass": " w-100",
                "currency": "",
                "type": "text",
                "value": "",
                "iconFile": "icon-mapfre_100_mask",
                "iconColor": "g-c--gray2",
                "label": "Punto de partida",
                "requerid": false,
                "error": ""
              },
              {
                "addClass": " w-100",
                "currency": "",
                "type": "text",
                "value": "",
                "iconFile": "icon-mapfre_100_mask",
                "iconColor": "g-c--gray2",
                "label": "Punto de llegada",
                "requerid": false,
                "error": ""
              }
            ]
          }
        ]
      },
      {
        "titleContent": {
          "titleClass": "g-c--gray2 g-font--medium g-mt--30",
          "title": "2. Selecciona el vehículo para la asistencia"
        },
        "form": [
          {
            "addClass": "",
            "select": {
              "addClass": "g-form-focus g-mr-lg--10 w-10",
              "label": "Tipo de vehículo ",
              "disabled": false,
              "listOption": [
                {
                  "value": " "
                },
                {
                  "value": "Placa DE450 - TOYOTA T 2013 "
                }
              ],
              "error": ""
            },
            "textBaged": false
          },
          {
            "addClass": "d-flex flex-column",
            "inputIcon": [
              {
                "addClass": "g-form-focus w-100",
                "currency": "",
                "type": "text",
                "value": "",
                "iconFile": "",
                "iconColor": "g-c--gray2",
                "label": "Teléfono de contacto",
                "requerid": false,
                "error": ""
              }
            ]
          }
        ]
      }
    ],
    "bgContent": {
      "addClass": "g-bg-c--gray12 g-b-radius--5 g-p--20 g-mt--30 d-flex",
      "content": [
        {
          "contentClass": "w-10",
          "textContent": [
            {
              "textClass": "g-font--medium g-line--11",
              "text": "Precio:  "
            }
          ]
        },
        {
          "contentClass": "",
          "textContent": [
            {
              "textClass": "g-c--gray2 text-nowrap g-line--11",
              "text": "S/. 00.00"
            }
          ]
        }
      ]
    },
    "btns": {
      "btnsClass": "mt-auto g-bt--1 g-bc--gray11 g-p--20 d-flex w-10 g-ie-flex--0-1-auto",
      "btn": [
        {
          "contentClass": "w-10 text-center",
          "btnClass": "g-btn g-btn-outline disabled g-text--uppercase g-c--pointer g-px--40",
          "text": "SOLICITAR"
        }
      ]
    }
  },
  "menumobile": false
}