{
  "extends": "../../tslint.json",
  "rules": {
    "directive-selector": [
      false,
      "attribute",
      "sctr",
      "camelCase"
    ],
    "component-selector": [
      false,
      "element",
      "sctr",
      "kebab-case"
    ]
  }
}
