<?xml version="1.0" encoding="UTF-8"?>
<svg width="200px" height="100px" viewBox="0 0 200 100" version="1.1" xmlns="http://www.w3.org/2000/svg" xmlns:xlink="http://www.w3.org/1999/xlink">
    <!-- Generator: Sketch 58 (84663) - https://sketch.com -->
    <title>imagemaking /empresas04_transportes@1x</title>
    <desc>Created with Sketch.</desc>
    <g id="imagemaking-/empresas04_transportes" stroke="none" stroke-width="1" fill="none" fill-rule="evenodd">
        <g id="transporte" transform="translate(25.000000, 0.000000)" fill-rule="nonzero">
            <path d="M28.5813953,92.3023256 L11.1395349,62.1627907 C11.089265,62.013886 11.0465746,61.862529 11.0116279,61.7093023 L3.70930233,61.7093023 C2.3255814,61.744186 1.63953488,62.7906977 2.3255814,64.5348837 L18,91.7906977 C20.1632723,95.6193542 24.2072455,98.0005095 28.6046512,98.0348837 L34.8837209,98.0348837 C32.2327769,96.8337275 30.0276251,94.8279344 28.5813953,92.3023256 Z" id="Path" fill="#E0E0E0"></path>
            <path d="M56.9767442,23.255814 L55.2325581,23.255814 C53.7151071,23.2622168 52.4883721,24.4941633 52.4883721,26.0116279 L52.4883721,39.6046512 C52.4883721,41.1202233 53.716986,42.3488372 55.2325581,42.3488372 L56.9767442,42.3488372 L56.9767442,23.255814 Z" id="Path" fill="#E0E0E0"></path>
            <path d="M56.9767442,42.8488372 L55.2325581,42.8488372 C53.716986,42.8488372 52.4883721,44.0774512 52.4883721,45.5930233 L52.4883721,59.2209302 C52.4883721,60.7365023 53.716986,61.9651163 55.2325581,61.9651163 L56.9767442,61.9651163 L56.9767442,42.8488372 Z" id="Path" fill="#E0E0E0"></path>
            <path d="M75.8488372,23.255814 L74.0930233,23.255814 C72.5755722,23.2622168 71.3488372,24.4941633 71.3488372,26.0116279 L71.3488372,39.6046512 C71.3488372,41.1202233 72.5774512,42.3488372 74.0930233,42.3488372 L75.8488372,42.3488372 L75.8488372,23.255814 Z" id="Path" fill="#E0E0E0"></path>
            <path d="M75.8488372,42.8488372 L74.0930233,42.8488372 C72.5774512,42.8488372 71.3488372,44.0774512 71.3488372,45.5930233 L71.3488372,59.2209302 C71.3488372,60.7365023 72.5774512,61.9651163 74.0930233,61.9651163 L75.8488372,61.9651163 L75.8488372,42.8488372 Z" id="Path" fill="#E0E0E0"></path>
            <path d="M95,42.8488372 L93.255814,42.8488372 C91.7383494,42.8488372 90.5064028,44.0755722 90.5,45.5930233 L90.5,59.2209302 C90.5064028,60.7383813 91.7383494,61.9651163 93.255814,61.9651163 L95,61.9651163 L95,42.8488372 Z" id="Path" fill="#E0E0E0"></path>
            <path d="M61.9302326,47.8953488 L61.9302326,42.8488372 L58.7790698,42.8488372 L58.7790698,48.5348837 C58.7755435,48.6827146 58.8548109,48.8201552 58.9845342,48.8911359 C59.1142576,48.9621166 59.2727481,48.95477 59.3953488,48.872093 L61.1162791,47.7093023 C61.2487872,47.6159919 61.4256314,47.6159919 61.5581395,47.7093023 L61.9534884,47.9651163 C61.9426927,47.9429882 61.9348729,47.9195287 61.9302326,47.8953488 L61.9302326,47.8953488 Z" id="Path" fill="#E0E0E0"></path>
            <path d="M61.9302326,28.744186 L61.9302326,23.6976744 L58.7790698,23.6976744 L58.7790698,29.372093 C58.7755435,29.5199239 58.8548109,29.6573645 58.9845342,29.7283452 C59.1142576,29.7993259 59.2727481,29.7919793 59.3953488,29.7093023 L61.1162791,28.5465116 C61.2487872,28.4532012 61.4256314,28.4532012 61.5581395,28.5465116 L61.9534884,28.8023256 C61.9439499,28.783709 61.9361644,28.7642453 61.9302326,28.744186 L61.9302326,28.744186 Z" id="Path" fill="#E0E0E0"></path>
            <path d="M81.1860465,47.8953488 L81.1860465,42.8488372 L78.0232558,42.8488372 L78.0232558,48.5348837 C78.0249181,48.6831194 78.1070524,48.8187259 78.2376554,48.8888645 C78.3682584,48.9590032 78.526669,48.9525782 78.6511628,48.872093 L80.3604651,47.7093023 C80.4976231,47.6172804 80.6767955,47.6172804 80.8139535,47.7093023 L81.1976744,47.9651163 C81.1909732,47.9424204 81.1870683,47.9189913 81.1860465,47.8953488 Z" id="Path" fill="#E0E0E0"></path>
            <path d="M99.755814,47.8953488 L99.755814,42.8488372 L96.6046512,42.8488372 L96.6046512,48.5348837 C96.6063134,48.6831194 96.6884478,48.8187259 96.8190508,48.8888645 C96.9496538,48.9590032 97.1080643,48.9525782 97.2325581,48.872093 L98.9418605,47.7093023 C99.0790184,47.6172804 99.2581909,47.6172804 99.3953488,47.7093023 L99.7790698,47.9651163 C99.7682741,47.9429882 99.7604543,47.9195287 99.755814,47.8953488 Z" id="Path" fill="#E0E0E0"></path>
            <path d="M81.1860465,28.744186 L81.1860465,23.6976744 L78.0232558,23.6976744 L78.0232558,29.372093 C78.0249181,29.5203287 78.1070524,29.6559352 78.2376554,29.7260738 C78.3682584,29.7962125 78.526669,29.7897875 78.6511628,29.7093023 L80.3604651,28.5465116 C80.4976231,28.4544897 80.6767955,28.4544897 80.8139535,28.5465116 L81.1976744,28.8023256 C81.1920382,28.7833397 81.1881461,28.7638792 81.1860465,28.744186 Z" id="Path" fill="#E0E0E0"></path>
            <path d="M33.8139535,33.1395349 C33.0089411,32.3422646 32.6706894,31.1869373 32.9186047,30.0813953 C31.9172604,30.6759819 31.3031237,31.7540349 31.3023256,32.9186047 C31.3139679,34.6147316 32.5960513,36.0323277 34.2824866,36.2137608 C35.9689219,36.3951939 37.5231972,35.2827439 37.8953488,33.627907 C36.5860578,34.4304297 34.8969351,34.2283124 33.8139535,33.1395349 Z" id="Path" fill="#E0E0E0"></path>
            <path d="M23.4186047,33.1395349 C22.6135923,32.3422646 22.2753405,31.1869373 22.5232558,30.0813953 C21.5308387,30.6817468 20.9261361,31.7587353 20.9302326,32.9186047 C20.9135385,34.6296755 22.1980082,36.0741279 23.8993085,36.2574835 C25.6006088,36.4408392 27.1633559,35.3032423 27.5116279,33.627907 C26.1997071,34.436665 24.5034047,34.2342653 23.4186047,33.1395349 Z" id="Path" fill="#E0E0E0"></path>
            <path d="M126.627907,63.3372093 C125.416309,62.1169024 124.900553,60.3685767 125.255814,58.6860465 C123.273138,59.8988248 122.360008,62.2978207 123.034479,64.5219887 C123.70895,66.7461568 125.800728,68.2339254 128.123063,68.1412244 C130.445398,68.0485235 132.411934,66.3987586 132.906977,64.127907 C130.882442,65.3457248 128.287314,65.018931 126.627907,63.3372093 Z" id="Path" fill="#E0E0E0"></path>
            <path d="M18.0930233,55.9883721 C16.5305121,55.950276 15.2930889,54.655661 15.3255814,53.0930233 L15.3255814,30.2906977 C15.3100022,29.5412615 15.5928557,28.8163473 16.1118854,28.2755096 C16.6309151,27.734672 17.3435806,27.4222387 18.0930233,27.4069767 L25.1627907,27.4069767 L25.1627907,3.30232558 C25.1944477,2.00406048 26.2595059,0.970023396 27.5581395,0.97671161 L21.0465116,0.97671161 C19.7300189,0.97671161 18.6627907,2.0439724 18.6627907,3.36046512 L18.6627907,23.255814 L11.627907,23.255814 C10.8784643,23.2710759 10.1657988,23.5835092 9.64676908,24.1243468 C9.12773937,24.6651845 8.8448859,25.3900987 8.86046512,26.1395349 L8.86046512,58.6976744 C8.83224519,59.4550418 9.10946513,60.1919967 9.62985227,60.7429948 C10.1502394,61.293993 10.8701638,61.612838 11.627907,61.627907 L41.9883721,61.627907 C42.7378148,61.6126451 43.4504803,61.3002118 43.96951,60.7593741 C44.4885397,60.2185364 44.7713932,59.4936222 44.755814,58.744186 L44.755814,55.9883721 L18.0930233,55.9883721 Z" id="Path" fill="#E0E0E0"></path>
            <path d="M129.372093,90.255814 C127.526725,94.2611025 123.526207,96.8328637 119.116279,96.8488372 L28.2209302,96.8488372 C24.1741595,96.8115927 20.4494111,94.6351364 18.4302326,91.127907 L17.4418605,89.3837209 L129.813953,89.3837209 L129.372093,90.255814 Z" id="Path" fill="#E0E0E0"></path>
            <path d="M118.686047,98.9069767 L28.6046512,98.9069767 C23.8969211,98.8620415 19.5689336,96.3148636 17.244186,92.2209302 L1.44186047,64.8139535 C0.998458866,63.8654795 1.05510434,62.758714 1.59302326,61.8604651 C2.08205199,61.1984298 2.8632393,60.816516 3.68604651,60.8372093 L110.837209,60.8372093 C111.104651,60.8372093 111.697674,60.1046512 111.883721,59.872093 L120.825581,49.1395349 C121.407794,48.4105086 122.287973,47.9832373 123.22093,47.9767442 L145.732558,47.9767442 C146.811875,47.9786175 147.813971,48.5368024 148.383721,49.4534884 C148.996759,50.4181997 149.071407,51.630138 148.581395,52.6627907 L130.581395,91.2093023 C128.426357,95.8490949 123.801478,98.8419298 118.686047,98.9069767 L118.686047,98.9069767 Z M3.05813953,64.1744186 L18.755814,91.3488372 C20.7687854,94.9027919 24.5204628,97.1174775 28.6046512,97.1627907 L118.686047,97.1627907 C123.13792,97.1390871 127.167448,94.5223931 129,90.4651163 L147,51.9534884 C147.232113,51.4593485 147.197067,50.8810958 146.906977,50.4186047 C146.663585,50.0063303 146.2229,49.7507329 145.744186,49.744186 L123.255814,49.744186 C122.844214,49.7473808 122.455792,49.9351895 122.197674,50.255814 L113.255814,60.9418605 C112.697674,61.6162791 111.906977,62.5813953 110.848837,62.5813953 L3.70930233,62.5813953 C3.45210055,62.5632521 3.20031785,62.6614046 3.02325581,62.8488372 C2.85196945,63.2766706 2.86458828,63.7561862 3.05813953,64.1744186 Z" id="Shape" fill="#303030"></path>
            <rect id="Rectangle" fill="#303030" x="16.4069767" y="87.5930233" width="114.77907" height="1.74418605"></rect>
            <path d="M41.6162791,62.3953488 L11.2093023,62.3953488 C9.16977547,62.357146 7.54383119,60.6792546 7.56946142,58.6395349 L7.56946142,26.0813953 C7.54383119,24.0416756 9.16977547,22.3637842 11.2093023,22.3255814 L41.6162791,22.3255814 C43.6558059,22.3637842 45.2817502,24.0416756 45.25612,26.0813953 L45.25612,58.6395349 C45.2817502,60.6792546 43.6558059,62.357146 41.6162791,62.3953488 L41.6162791,62.3953488 Z M11.2093023,24.0232558 C10.6859617,24.0384078 10.1903042,24.2617732 9.83229265,24.6437977 C9.4742811,25.0258222 9.28351836,25.5349175 9.30232558,26.0581395 L9.30232558,58.6162791 C9.27616843,59.6928911 10.1214124,60.5899905 11.1976744,60.627907 L41.6162791,60.627907 C42.6925411,60.5899905 43.5377851,59.6928911 43.5116279,58.6162791 L43.5116279,26.0581395 C43.5377851,24.9815276 42.6925411,24.0844281 41.6162791,24.0465116 L11.2093023,24.0232558 Z M34.6046512,37.2790698 C32.7757179,37.3406972 31.0925069,36.2858101 30.3505711,34.6129903 C29.6086352,32.9401706 29.9565587,30.9844264 31.229899,29.6701208 C32.5032392,28.3558151 34.44699,27.9461582 36.142457,28.6347703 C37.8379239,29.3233824 38.9455633,30.9723581 38.9418605,32.8023256 C38.9742651,35.2338022 37.0359351,37.2344914 34.6046512,37.2790698 L34.6046512,37.2790698 Z M34.6046512,30.0581395 C33.4837914,30.0010738 32.4411481,30.6322848 31.9720921,31.6518776 C31.503036,32.6714703 31.7021144,33.8739262 32.4747432,34.6879458 C33.2473719,35.5019654 34.4378126,35.7634672 35.4804745,35.3482091 C36.5231363,34.9329509 37.2078506,33.9246361 37.2093023,32.8023256 C37.2280491,32.092958 36.9641076,31.4052204 36.4755898,30.890532 C35.987072,30.3758436 35.3140313,30.0764036 34.6046512,30.0581395 L34.6046512,30.0581395 Z M24.2093023,37.2790698 C22.3803691,37.3406972 20.6971581,36.2858101 19.9552222,34.6129903 C19.2132864,32.9401706 19.5612098,30.9844264 20.8345501,29.6701208 C22.1078904,28.3558151 24.0516412,27.9461582 25.7471081,28.6347703 C27.4425751,29.3233824 28.5502145,30.9723581 28.5465116,32.8023256 C28.5789162,35.2338022 26.6405863,37.2344914 24.2093023,37.2790698 L24.2093023,37.2790698 Z M24.2093023,30.0581395 C23.0876909,29.9962632 22.0416219,30.624213 21.5688433,31.6431935 C21.0960647,32.662174 21.2920532,33.866404 22.0635522,34.6828782 C22.8350512,35.4993525 24.0262578,35.7631856 25.0703639,35.3488386 C26.1144699,34.9344916 26.8006201,33.9256412 26.8023256,32.8023256 C26.8414273,31.3295045 25.6819756,30.1024614 24.2093023,30.0581395 L24.2093023,30.0581395 Z" id="Shape" fill="#303030"></path>
            <path d="M127.906977,69.9767442 C125.143993,70.0763315 122.597378,68.4880297 121.471391,65.962926 C120.345404,63.4378224 120.865689,60.4819371 122.786211,58.4930698 C124.706732,56.5042026 127.642625,55.8809142 130.205543,56.9179495 C132.768462,57.9549848 134.444809,60.4445264 134.44186,63.2093023 C134.500195,66.8803177 131.577788,69.9067255 127.906977,69.9767442 Z M127.906977,58.1395349 C125.851268,58.0397194 123.941776,59.2011298 123.084959,61.0724305 C122.228143,62.9437312 122.596529,65.1481191 124.015242,66.6391444 C125.433954,68.1301697 127.617321,68.6076011 129.528873,67.8447962 C131.440425,67.0819913 132.695253,65.2325477 132.697674,63.1744186 C132.762712,60.462082 130.619196,58.2093091 127.906977,58.1395349 Z" id="Shape" fill="#303030"></path>
            <path d="M31.0116279,24.0465116 L17.4418605,24.0465116 L17.4418605,2.86046512 C17.4418605,1.29419713 18.7012903,0.0191008248 20.2674419,0 L28.1511628,0 C29.7309541,0 31.0116279,1.28067386 31.0116279,2.86046512 L31.0116279,24.0465116 Z M19.1511628,22.3023256 L29.2674419,22.3023256 L29.2674419,2.86046512 C29.2674419,2.21827355 28.7468427,1.69767442 28.1046512,1.69767442 L20.2674419,1.69767442 C19.6252503,1.69767442 19.1046512,2.21827355 19.1046512,2.86046512 L19.1511628,22.3023256 Z" id="Shape" fill="#303030"></path>
            <path d="M127.906977,83.6395349 C121.516714,83.6396914 116.323802,78.4831294 116.27907,72.0930233 C116.27907,71.1297359 117.059968,70.3488372 118.023256,70.3488372 C118.986543,70.3488372 119.767442,71.1297359 119.767442,72.0930233 C119.767442,76.5883641 123.411636,80.2325578 127.906977,80.2325578 C132.402318,80.2325578 136.046511,76.5883641 136.046512,72.0930233 C136.046512,71.1297359 136.82741,70.3488372 137.790698,70.3488372 C138.753985,70.3488372 139.534884,71.1297359 139.534884,72.0930233 C139.490152,78.4831294 134.297239,83.6396914 127.906977,83.6395349 Z" id="Path" fill="#8DB602"></path>
            <circle id="Oval" fill="#8DB602" cx="127.848837" cy="63.372093" r="3.01162791"></circle>
            <path d="M127.906977,83.6395349 C126.943689,83.6395349 126.162791,82.8586362 126.162791,81.8953488 L126.162791,62.5581395 C126.162791,61.5948522 126.943689,60.8139535 127.906977,60.8139535 C128.870264,60.8139535 129.651163,61.5948522 129.651163,62.5581395 L129.651163,81.8953488 C129.651163,82.8586362 128.870264,83.6395349 127.906977,83.6395349 L127.906977,83.6395349 Z" id="Path" fill="#8DB602"></path>
            <path d="M68.7209302,62.3953488 L54.7674419,62.3953488 C52.8408672,62.3953488 51.2790698,60.8335515 51.2790698,58.9069767 L51.2790698,45 C51.2790698,43.0734253 52.8408672,41.5116279 54.7674419,41.5116279 L68.7209302,41.5116279 C70.6475049,41.5116279 72.2093217,43.0734253 72.2093217,45 L72.2093217,58.8953488 C72.212393,59.8225357 71.846234,60.7128069 71.191702,61.3695207 C70.53717,62.0262344 69.6481222,62.3953488 68.7209302,62.3953488 L68.7209302,62.3953488 Z M54.7674419,43.244147 C54.3028332,43.244147 53.8574214,43.429533 53.5299867,43.7591505 C53.2025521,44.0887681 53.0201584,44.5354017 53.023217,45 L53.023217,58.8953488 C53.0201584,59.3599471 53.2025521,59.8065808 53.5299867,60.1361983 C53.8574214,60.4658159 54.3028332,60.6512019 54.7674419,60.6512019 L68.7209302,60.6512019 C69.1875509,60.6542841 69.6359649,60.4702996 69.9659229,60.1403415 C70.295881,59.8103835 70.4798655,59.3619695 70.4767833,58.8953488 L70.4767833,45 C70.4798655,44.5333793 70.295881,44.0849653 69.9659229,43.7550073 C69.6359649,43.4250493 69.1875509,43.2410647 68.7209302,43.244147 L54.7674419,43.244147 Z" id="Shape" fill="#303030"></path>
            <path d="M59.4302326,50.2906977 C59.1815099,50.2924685 58.9367631,50.2282726 58.7209302,50.1046512 C58.218249,49.8431329 57.9040413,49.3224458 57.9069564,48.755814 L57.9069564,42.372093 L59.6511628,42.372093 L59.6511628,48.3488372 L61.7790698,46.8953488 L63.9534884,48.3488372 L63.9534884,42.372093 L65.6977486,42.372093 L65.6977486,48.755814 C65.7033031,49.3231845 65.3883111,49.8451713 64.8837209,50.1046512 C64.3665589,50.3877478 63.7324708,50.346985 63.255814,50 L61.7790698,48.9883721 L60.2906977,50 C60.0397694,50.1814847 59.7398124,50.2828215 59.4302326,50.2906977 Z" id="Path" fill="#303030"></path>
            <path d="M87.8837209,62.3953488 L73.9302326,62.3953488 C72.0036578,62.3953488 70.4418605,60.8335515 70.4418605,58.9069767 L70.4418605,45 C70.4418605,43.0734253 72.0036578,41.5116279 73.9302326,41.5116279 L87.8837209,41.5116279 C89.8102956,41.5116279 91.3721124,43.0734253 91.3721124,45 L91.3721124,58.8953488 C91.3751837,59.8225357 91.0090247,60.7128069 90.3544927,61.3695207 C89.6999607,62.0262344 88.8109129,62.3953488 87.8837209,62.3953488 L87.8837209,62.3953488 Z M73.9302326,43.244186 C72.9605233,43.244186 72.1744186,44.0302907 72.1744186,45 L72.1744186,58.8953488 C72.1744186,59.8650581 72.9605233,60.6511628 73.9302326,60.6511628 L87.8837209,60.6511628 C88.3483296,60.6511628 88.7937414,60.4658159 89.1211761,60.1361983 C89.4486107,59.8065808 89.6310044,59.3599471 89.6279458,58.8953488 L89.6279458,45 C89.6310044,44.5354017 89.4486107,44.0887681 89.1211761,43.7591505 C88.7937414,43.429533 88.3483296,43.244186 87.8837209,43.244186 L73.9302326,43.244186 Z" id="Shape" fill="#303030"></path>
            <path d="M78.5813953,50.2907333 C78.3326727,50.2924685 78.0879259,50.2282726 77.872093,50.1046512 C77.3694117,49.8431329 77.0552041,49.3224458 77.0581191,48.755814 L77.0581191,42.372093 L78.8023256,42.372093 L78.8023256,48.3488372 L80.9302326,46.8953488 L83.0581395,48.3488372 L83.0581395,42.372093 L84.8023258,42.372093 L84.8023258,48.755814 C84.8026236,49.3217157 84.4891781,49.8411397 83.9883721,50.1046512 C83.4820658,50.3630444 82.8748178,50.3228589 82.4069767,50 L80.9302326,48.9883721 L79.4418605,50 C79.1909322,50.1814847 78.8909752,50.2828215 78.5813953,50.2907333 Z" id="Path" fill="#303030"></path>
            <path d="M106.55814,62.3953488 L92.6046512,62.3953488 C90.6780765,62.3953488 89.1162791,60.8335515 89.1162791,58.9069767 L89.1162791,45 C89.1162791,43.0734253 90.6780765,41.5116279 92.6046512,41.5116279 L106.55814,41.5116279 C108.484714,41.5116279 110.046531,43.0734253 110.046531,45 L110.046531,58.8953488 C110.049602,59.8225357 109.683443,60.7128069 109.028911,61.3695207 C108.374379,62.0262344 107.485332,62.3953488 106.55814,62.3953488 L106.55814,62.3953488 Z M92.6046512,43.244186 C92.1389803,43.244186 91.6923822,43.4291731 91.3631032,43.758452 C91.0338242,44.087731 90.8488372,44.5343292 90.8488372,45 L90.8488372,58.8953488 C90.8488372,59.3610197 91.0338242,59.8076178 91.3631032,60.1368968 C91.6923822,60.4661758 92.1389803,60.6511628 92.6046512,60.6511628 L106.55814,60.6511628 C107.022748,60.6511628 107.46816,60.4658159 107.795595,60.1361983 C108.123029,59.8065808 108.305423,59.3599471 108.302364,58.8953488 L108.302364,45 C108.305423,44.5354017 108.123029,44.0887681 107.795595,43.7591505 C107.46816,43.429533 107.022748,43.244186 106.55814,43.244186 L92.6046512,43.244186 Z" id="Shape" fill="#303030"></path>
            <path d="M97.255814,50.2907333 C97.0070913,50.2924685 96.7623445,50.2282726 96.5465116,50.1046512 C96.0438304,49.8431329 95.7296227,49.3224458 95.7325377,48.755814 L95.7325377,42.372093 L97.4767442,42.372093 L97.4767442,48.3488372 L99.6046512,46.8953488 L101.732558,48.3488372 L101.732558,42.372093 L103.488372,42.372093 L103.488372,48.755814 C103.48867,49.3217157 103.175225,49.8411397 102.674419,50.1046512 C102.165059,50.3677275 101.551961,50.327451 101.081395,50 L99.6046512,48.9883721 L98.1162791,50 C97.8653508,50.1814847 97.5653938,50.2828215 97.255814,50.2907333 L97.255814,50.2907333 Z" id="Path" fill="#303030"></path>
            <path d="M68.7209302,43.244186 L54.7674419,43.244186 C52.8408672,43.244186 51.2790698,41.6823887 51.2790698,39.755814 L51.2790698,25.8023256 C51.2790698,23.8757509 52.8408672,22.3139535 54.7674419,22.3139535 L68.7209302,22.3139535 C70.6475049,22.3139535 72.2093023,23.8757509 72.2093023,25.8023256 L72.2093023,39.755814 C72.2093023,41.6823887 70.6475049,43.244186 68.7209302,43.244186 Z M54.7674419,24.0929844 C53.8041545,24.0929844 53.0232558,24.8739219 53.0232558,25.8372093 L53.0232558,39.7906977 C53.0232558,40.7558841 53.8022766,41.5401197 54.7674419,41.5465116 L68.7209302,41.5465116 C69.6906395,41.5465116 70.4767442,40.7604069 70.4767442,39.7906977 L70.4767442,25.8372093 C70.4767442,25.3726007 70.2913973,24.9271888 69.9617797,24.5997542 C69.6321622,24.2723195 69.1855285,24.0899259 68.7209302,24.0929844 L54.7674419,24.0929844 Z" id="Shape" fill="#303030"></path>
            <path d="M59.4302326,31.127907 C58.5889616,31.127907 57.9069767,30.4459221 57.9069767,29.6046512 L57.9069767,23.255814 L59.6511628,23.255814 L59.6511628,29.2325581 L61.7790698,27.7790698 L63.9534884,29.1976744 L63.9534884,23.255814 L65.6976744,23.255814 L65.6976744,29.6395349 C65.6972554,30.2044624 65.3842208,30.7227627 64.8844118,30.9860767 C64.3846028,31.2493907 63.7801144,31.2144684 63.3139535,30.8953488 L61.8372093,29.8837209 L60.3488372,30.8953488 C60.0772112,31.0733064 59.7538154,31.1551788 59.4302326,31.127907 Z" id="Path" fill="#303030"></path>
            <path d="M87.8837209,43.244186 L73.9302326,43.244186 C72.0036578,43.244186 70.4418605,41.6823887 70.4418605,39.755814 L70.4418605,25.8023256 C70.4418605,23.8757509 72.0036578,22.3139535 73.9302326,22.3139535 L87.8837209,22.3139535 C89.8102956,22.3139535 91.372093,23.8757509 91.372093,25.8023256 L91.372093,39.755814 C91.372093,41.6823887 89.8102956,43.244186 87.8837209,43.244186 Z M73.9302326,24.0930233 C72.9650462,24.0930233 72.1808106,24.8720441 72.1744186,25.8372093 L72.1744186,39.7906977 C72.1807603,40.757768 72.9631623,41.54017 73.9302326,41.5465116 L87.8837209,41.5465116 C88.8488861,41.5401197 89.627907,40.7558841 89.627907,39.7906977 L89.627907,25.8372093 C89.627907,24.8739219 88.8470083,24.0930233 87.8837209,24.0930233 L73.9302326,24.0930233 Z" id="Shape" fill="#303030"></path>
            <path d="M78.5813953,31.127907 C77.7401244,31.127907 77.0581395,30.4459221 77.0581395,29.6046512 L77.0581395,23.255814 L78.8023256,23.255814 L78.8023256,29.2325581 L80.9302326,27.7790698 L83.0581395,29.2325581 L83.0581395,23.255814 L84.8023414,23.255814 L84.8023414,29.6395349 C84.8049103,30.208446 84.490245,30.7313828 83.9863762,30.9955471 C83.4825074,31.2597113 82.8734228,31.2210705 82.4069767,30.8953488 L80.9302326,29.8837209 L79.4418605,30.8953488 C79.1864727,31.0610709 78.8854944,31.1424164 78.5813953,31.127907 Z" id="Path" fill="#303030"></path>
            <circle id="Oval" fill="#8DB602" cx="56.0581395" cy="75.2790698" r="3.24418605"></circle>
            <circle id="Oval" fill="#8DB602" cx="69.1046512" cy="75.2790698" r="3.24418605"></circle>
            <circle id="Oval" fill="#8DB602" cx="82.1395349" cy="75.2790698" r="3.24418605"></circle>
        </g>
    </g>
</svg>