<?xml version="1.0" encoding="UTF-8"?>
<svg width="200px" height="100px" viewBox="0 0 200 100" version="1.1" xmlns="http://www.w3.org/2000/svg" xmlns:xlink="http://www.w3.org/1999/xlink">
    <!-- Generator: Sketch 58 (84663) - https://sketch.com -->
    <title>imagemaking /empresas06_estado de cuenta unificado@1x</title>
    <desc>Created with Sketch.</desc>
    <g id="imagemaking-/empresas06_estado-de-cuenta-unificado" stroke="none" stroke-width="1" fill="none" fill-rule="evenodd">
        <g id="estado_cuenta" transform="translate(55.000000, 0.000000)" fill-rule="nonzero">
            <path d="M11.48,93.17 C10.9774209,93.17 10.57,92.7625791 10.57,92.26 L10.57,0.74 L5.66,0.74 C2.94275903,0.74 0.74,2.94275903 0.74,5.66 L0.74,94.15 C0.74,96.867241 2.94275903,99.07 5.66,99.07 L68.94,99.07 C71.657241,99.07 73.86,96.867241 73.86,94.15 L73.86,93.15 L11.48,93.17 Z" id="Path" fill="#E0E0E0"></path>
            <rect id="Rectangle" fill="#303030" x="57.21" y="78.87" width="1.97" height="1.48"></rect>
            <path d="M55.8,80.35 L53.37,80.35 L53.37,78.87 L55.8,78.87 L55.8,80.35 Z M51.96,80.35 L49.53,80.35 L49.53,78.87 L52,78.87 L51.96,80.35 Z M48.12,80.35 L45.69,80.35 L45.69,78.87 L48.12,78.87 L48.12,80.35 Z M44.28,80.35 L41.84,80.35 L41.84,78.87 L44.28,78.87 L44.28,80.35 Z M40.44,80.35 L38,80.35 L38,78.87 L40.44,78.87 L40.44,80.35 Z M36.6,80.35 L34.16,80.35 L34.16,78.87 L36.6,78.87 L36.6,80.35 Z M32.76,80.35 L30.32,80.35 L30.32,78.87 L32.76,78.87 L32.76,80.35 Z M28.91,80.35 L26.48,80.35 L26.48,78.87 L28.91,78.87 L28.91,80.35 Z M25.07,80.35 L22.64,80.35 L22.64,78.87 L25.07,78.87 L25.07,80.35 Z M21.23,80.35 L18.8,80.35 L18.8,78.87 L21.23,78.87 L21.23,80.35 Z" id="Shape" fill="#303030"></path>
            <rect id="Rectangle" fill="#303030" x="15.42" y="78.87" width="1.97" height="1.48"></rect>
            <rect id="Rectangle" fill="#303030" x="57.21" y="68.28" width="1.97" height="1.48"></rect>
            <path d="M55.8,69.75 L53.37,69.75 L53.37,68.28 L55.8,68.28 L55.8,69.75 Z M51.96,69.75 L49.53,69.75 L49.53,68.28 L52,68.28 L51.96,69.75 Z M48.12,69.75 L45.69,69.75 L45.69,68.28 L48.12,68.28 L48.12,69.75 Z M44.28,69.75 L41.84,69.75 L41.84,68.28 L44.28,68.28 L44.28,69.75 Z M40.44,69.75 L38,69.75 L38,68.28 L40.44,68.28 L40.44,69.75 Z M36.6,69.75 L34.16,69.75 L34.16,68.28 L36.6,68.28 L36.6,69.75 Z M32.76,69.75 L30.32,69.75 L30.32,68.28 L32.76,68.28 L32.76,69.75 Z M28.91,69.75 L26.48,69.75 L26.48,68.28 L28.91,68.28 L28.91,69.75 Z M25.07,69.75 L22.64,69.75 L22.64,68.28 L25.07,68.28 L25.07,69.75 Z M21.23,69.75 L18.8,69.75 L18.8,68.28 L21.23,68.28 L21.23,69.75 Z" id="Shape" fill="#303030"></path>
            <rect id="Rectangle" fill="#303030" x="15.42" y="68.28" width="1.97" height="1.48"></rect>
            <path d="M68.94,99.81 L5.66,99.81 C2.53635109,99.8044958 0.00550423997,97.2736489 0,94.15 L0,5.66 C0.00550423997,2.53635109 2.53635109,0.00550423997 5.66,0 L68.94,0 C72.0636489,0.00550423997 74.5944958,2.53635109 74.6,5.66 L74.6,94.15 C74.5944958,97.2736489 72.0636489,99.8044958 68.94,99.81 Z M5.66,1.48 C3.35144975,1.48 1.48,3.35144975 1.48,5.66 L1.48,94.15 C1.48,95.2586049 1.92039159,96.3218043 2.70429365,97.1057063 C3.48819572,97.8896084 4.55139507,98.33 5.66,98.33 L68.94,98.33 C71.2485503,98.33 73.12,96.4585503 73.12,94.15 L73.12,5.66 C73.12,4.55139507 72.6796084,3.48819572 71.8957063,2.70429365 C71.1118043,1.92039159 70.0486049,1.48 68.94,1.48 L5.66,1.48 Z" id="Shape" fill="#303030"></path>
            <circle id="Oval" fill="#8DB602" cx="73.86" cy="72.65" r="15.8"></circle>
            <path d="M74.49,73.19 C74.2522585,72.7563147 73.9290867,72.3753121 73.54,72.07 C73.1655487,71.8118763 72.7629632,71.597164 72.34,71.43 C71.9,71.24 70.45,70.85 70.18,70.78 C70.096926,70.754585 70.016542,70.7210916 69.94,70.68 L69.78,70.61 C69.6712597,70.5574794 69.5703037,70.4901754 69.48,70.41 C69.4143018,70.365042 69.3623738,70.3027284 69.33,70.23 C69.3128323,70.1542944 69.3128323,70.0757056 69.33,70 C69.3120552,69.8166331 69.3740051,69.6344274 69.5,69.5 C69.6530984,69.3470994 69.8478905,69.2427465 70.06,69.2 L71.06,69.2 C71.2004043,69.2383265 71.3349634,69.2955141 71.46,69.37 C71.5467067,69.4083691 71.6275158,69.4588748 71.7,69.52 C72.319163,69.9985184 73.1953164,69.9517335 73.76,69.41 C74.1096192,69.0733633 74.280086,68.5916093 74.22,68.11 C74.1626341,67.6176612 73.8775495,67.1807783 73.45,66.93 C73.2062984,66.784024 72.9482852,66.6633945 72.68,66.57 C72.4486783,66.4830561 72.2113985,66.4128748 71.97,66.36 C71.0157517,66.1728969 70.0342483,66.1728969 69.08,66.36 C68.89,66.42 68.72,66.49 68.55,66.56 C68.109296,66.742488 67.7033512,66.9995864 67.35,67.32 C66.995623,67.6414674 66.7069595,68.028616 66.5,68.46 C66.2634881,68.9381761 66.1468025,69.4666932 66.16,70 C66.1468611,70.5450518 66.2597965,71.0857728 66.49,71.58 C66.6958278,72.0201526 66.9963157,72.4094209 67.37,72.72 C67.7232972,73.0150841 68.1173661,73.2575881 68.54,73.44 C68.919441,73.6137787 69.3145544,73.7510638 69.72,73.85 C70.3,74.01 71.01,74.21 71.13,74.26 C71.2605468,74.3056058 71.38231,74.373252 71.49,74.46 C71.5659311,74.5174777 71.6303831,74.5887142 71.68,74.67 C71.6941133,74.7460172 71.6941133,74.8239828 71.68,74.9 C71.6832433,75.0129814 71.6628052,75.125391 71.62,75.23 C71.5715877,75.3210936 71.5110349,75.4051946 71.44,75.48 C71.3239812,75.5649898 71.200081,75.6386602 71.07,75.7 L70.89,75.78 L70.89,75.78 C70.5889533,75.8326731 70.2810467,75.8326731 69.98,75.78 C69.7063911,75.7608388 69.440231,75.6823557 69.2,75.55 C69.0808176,75.4874301 68.9699526,75.4101605 68.87,75.32 C68.3079332,74.7567918 67.4038944,74.7304606 66.81,75.26 L66.67,75.38 C66.3503335,75.6727057 66.1688142,76.0865696 66.17,76.52 C66.1706816,76.9493784 66.3565638,77.3575902 66.68,77.64 C67.0330548,77.950748 67.4396672,78.1947154 67.88,78.36 C68.2566032,78.5085247 68.6492625,78.6125627 69.05,78.67 C70.025971,78.87537 71.0365939,78.8479633 72,78.59 C72.14,78.59 72.3,78.5 72.46,78.43 C72.8993434,78.2374216 73.3019724,77.9701301 73.65,77.64 C74.0256484,77.3011912 74.3284538,76.889512 74.54,76.43 C75.0072082,75.4005286 75.0072082,74.2194714 74.54,73.19 L74.49,73.19 Z" id="Path" fill="#FFFFFF"></path>
            <rect id="Rectangle" fill="#FFFFFF" transform="translate(78.432209, 73.004018) rotate(-160.440000) translate(-78.432209, -73.004018) " x="77.5522086" y="66.8590183" width="1.76" height="12.29" rx="0.87"></rect>
            <path d="M50.76,62 L24.68,62 C24.2713093,62 23.94,61.6686907 23.94,61.26 L23.94,19 C23.94,18.5913093 24.2713093,18.26 24.68,18.26 L50.76,18.26 C51.1686907,18.26 51.5,18.5913093 51.5,19 L51.5,61.27 C51.4945295,61.6747801 51.1648171,62 50.76,62 Z M25.42,60.54 L50,60.54 L50,19.74 L25.42,19.74 L25.42,60.54 Z" id="Shape" fill="#303030"></path>
            <path d="M54.75,62 L20.69,62 C20.3170686,61.9564265 20.0358778,61.6404684 20.0358778,61.265 C20.0358778,60.8895316 20.3170686,60.5735735 20.69,60.53 L54.75,60.53 C55.1229314,60.5735735 55.4041222,60.8895316 55.4041222,61.265 C55.4041222,61.6404684 55.1229314,61.9564265 54.75,62 L54.75,62 Z" id="Path" fill="#303030"></path>
            <path d="M42.19,62 L39.54,62 C38.0913874,62 36.915508,60.8286021 36.91,59.38 L36.91,52.78 C36.91,52.0824806 37.1870885,51.4135298 37.6803092,50.9203092 C38.1735298,50.4270885 38.8424806,50.15 39.54,50.15 L42.19,50.15 C43.6425089,50.15 44.82,51.3274911 44.82,52.78 L44.82,59.38 C44.814492,60.8286021 43.6386126,62 42.19,62 L42.19,62 Z M39.54,51.67 C38.9048725,51.67 38.39,52.1848725 38.39,52.82 L38.39,59.42 C38.39,60.0551275 38.9048725,60.57 39.54,60.57 L42.19,60.57 C42.8251275,60.57 43.34,60.0551275 43.34,59.42 L43.34,52.82 C43.34,52.1848725 42.8251275,51.67 42.19,51.67 L39.54,51.67 Z" id="Shape" fill="#303030"></path>
            <path d="M31.36,54.05 C30.9513093,54.05 30.62,53.7186907 30.62,53.31 L30.62,50.93 C30.62,50.5213093 30.9513093,50.19 31.36,50.19 C31.7686907,50.19 32.1,50.5213093 32.1,50.93 L32.1,53.31 C32.1,53.7186907 31.7686907,54.05 31.36,54.05 Z" id="Path" fill="#303030"></path>
            <path d="M31.36,45.44 C31.1637398,45.44 30.9755179,45.3620359 30.836741,45.223259 C30.6979641,45.0844821 30.62,44.8962602 30.62,44.7 L30.62,42.32 C30.62,41.9113093 30.9513093,41.58 31.36,41.58 C31.7686907,41.58 32.1,41.9113093 32.1,42.32 L32.1,44.7 C32.1,45.1086907 31.7686907,45.44 31.36,45.44 Z" id="Path" fill="#303030"></path>
            <path d="M31.36,37.18 C30.9513093,37.18 30.62,36.8486907 30.62,36.44 L30.62,34.06 C30.62,33.6513093 30.9513093,33.32 31.36,33.32 C31.7686907,33.32 32.1,33.6513093 32.1,34.06 L32.1,36.44 C32.1,36.8486907 31.7686907,37.18 31.36,37.18 Z" id="Path" fill="#303030"></path>
            <path d="M31.36,28.57 C30.9513093,28.57 30.62,28.2386907 30.62,27.83 L30.62,25.45 C30.62,25.0413093 30.9513093,24.71 31.36,24.71 C31.7686907,24.71 32.1,25.0413093 32.1,25.45 L32.1,27.83 C32.1,28.2386907 31.7686907,28.57 31.36,28.57 L31.36,28.57 Z" id="Path" fill="#303030"></path>
            <path d="M37.65,45.44 C37.4537398,45.44 37.2655179,45.3620359 37.126741,45.223259 C36.9879641,45.0844821 36.91,44.8962602 36.91,44.7 L36.91,42.32 C36.91,41.9113093 37.2413093,41.5800001 37.65,41.5800001 C38.0586907,41.5800001 38.39,41.9113093 38.39,42.32 L38.39,44.7 C38.39,45.1086907 38.0586907,45.44 37.65,45.44 L37.65,45.44 Z" id="Path" fill="#303030"></path>
            <path d="M37.65,37.18 C37.2413093,37.18 36.91,36.8486907 36.91,36.44 L36.91,34.06 C36.91,33.7956234 37.0510432,33.5513294 37.28,33.4191411 C37.5089568,33.2869529 37.7910432,33.2869529 38.02,33.4191411 C38.2489568,33.5513294 38.39,33.7956234 38.39,34.06 L38.39,36.44 C38.39,36.8486907 38.0586907,37.18 37.65,37.18 L37.65,37.18 Z" id="Path" fill="#303030"></path>
            <path d="M37.65,28.57 C37.2413093,28.57 36.91,28.2386907 36.91,27.83 L36.91,25.45 C36.91,25.1856234 37.0510432,24.9413294 37.28,24.8091411 C37.5089568,24.6769529 37.7910432,24.6769529 38.02,24.8091411 C38.2489568,24.9413294 38.39,25.1856234 38.39,25.45 L38.39,27.83 C38.39,28.2386907 38.0586907,28.57 37.65,28.57 L37.65,28.57 Z" id="Path" fill="#303030"></path>
            <path d="M43.94,45.44 C43.7437398,45.44 43.5555179,45.3620359 43.416741,45.223259 C43.2779641,45.0844821 43.2,44.8962602 43.2,44.7 L43.2,42.32 C43.2,41.9113093 43.5313093,41.5800001 43.94,41.5800001 C44.3486907,41.5800001 44.68,41.9113093 44.68,42.32 L44.68,44.7 C44.68,45.1086907 44.3486907,45.44 43.94,45.44 Z" id="Path" fill="#303030"></path>
            <path d="M43.94,37.18 C43.5313093,37.18 43.2,36.8486907 43.2,36.44 L43.2,34.06 C43.2,33.6513093 43.5313093,33.3200001 43.94,33.3200001 C44.3486907,33.3200001 44.68,33.6513093 44.68,34.06 L44.68,36.44 C44.68,36.8486907 44.3486907,37.18 43.94,37.18 Z" id="Path" fill="#303030"></path>
            <path d="M43.94,28.57 C43.5313093,28.57 43.2,28.2386907 43.2,27.83 L43.2,25.45 C43.2,25.0413093 43.5313093,24.7100001 43.94,24.7100001 C44.3486907,24.7100001 44.68,25.0413093 44.68,25.45 L44.68,27.83 C44.68,28.2386907 44.3486907,28.57 43.94,28.57 L43.94,28.57 Z" id="Path" fill="#303030"></path>
        </g>
    </g>
</svg>