<?xml version="1.0" encoding="UTF-8"?>
<svg width="200px" height="100px" viewBox="0 0 200 100" version="1.1" xmlns="http://www.w3.org/2000/svg" xmlns:xlink="http://www.w3.org/1999/xlink">
    <!-- Generator: Sketch 58 (84663) - https://sketch.com -->
    <title>imagemaking /empresas10_web ajustador@1x</title>
    <desc>Created with Sketch.</desc>
    <g id="imagemaking-/empresas10_web-ajustador" stroke="none" stroke-width="1" fill="none" fill-rule="evenodd">
        <g id="web_ajustador" transform="translate(41.000000, 0.000000)" fill-rule="nonzero">
            <path d="M100.782178,88.8415842 L22.4851485,88.8415842 C22.0586316,88.8415842 21.7128713,88.4958239 21.7128713,88.0693069 L21.7128713,4.23762376 C21.7128713,2.83230514 22.8521071,1.69306931 24.2574257,1.69306931 L3.88118812,1.69306931 C2.4758695,1.69306931 1.33663366,2.83230514 1.33663366,4.23762376 L1.33663366,96.5247525 C1.33663366,97.9300711 2.4758695,99.0693069 3.88118812,99.0693069 L24.2574257,99.0693069 C23.8303259,99.0655791 23.4112124,98.953134 23.039604,98.7425743 L100.782178,98.7425743 L100.782178,88.8415842 Z" id="Path" fill="#E0E0E0"></path>
            <polygon id="Rectangle" fill="#30302F" transform="translate(47.790298, 67.026355) rotate(-78.090000) translate(-47.790298, -67.026355) " points="46.9734662 58.7837807 48.6071295 58.7837807 48.6071295 75.2689292 46.9734662 75.2689292"></polygon>
            <path d="M68.3168317,72.1584158 C68.2114479,72.1682043 68.1053838,72.1682043 68,72.1584158 L64.8613861,71.4950495 L65.1980198,69.9009901 L68.1683168,70.5346535 L69.7920792,62.3762376 L69.1782178,62.4752475 L68.960396,62.3663366 C68.4158416,62.1287129 68.3465347,61.6534653 68.5049505,60.9306931 L67.8514851,61.4158416 L67.4059406,61.7722772 L66.8910891,61.4950495 C66.3663366,61.1782178 66.3564356,60.970297 66.8118812,58.9207921 L30.3069307,51.2178218 L28.029703,62.029703 L30.6930693,62.5841584 L30.3564356,64.1881188 L27.5643564,63.6039604 C26.7522754,63.4305291 26.2311866,62.635648 26.3960396,61.8217822 L28.7128713,50.7524752 C28.8860717,49.9411076 29.6832385,49.4229491 30.4950495,49.5940594 L68.7524752,57.6138614 L68.5742574,58.4257426 C68.5742574,58.5742574 68.5049505,58.7227723 68.4752475,58.8712871 L69.4653465,58.1782178 L69.7326733,58.049505 L70.1980198,57.9306931 L70.5445545,58.2871287 C70.9108911,58.6732673 70.8019802,58.980198 70.5445545,59.9207921 L70.3267327,60.6039604 L71.8316832,60.3960396 L69.7920792,70.950495 C69.6541918,71.6551502 69.0348407,72.1622699 68.3168317,72.1584158 L68.3168317,72.1584158 Z" id="Path" fill="#30302F"></path>
            <path d="M35.1386139,69.88126 C34.7520634,69.8832715 34.3665991,69.8400729 33.990099,69.7524752 C31.4217796,69.206976 29.5961728,66.9235911 29.6293,64.298189 C29.6624273,61.6727869 31.545067,59.4361925 34.1263327,58.9556705 C36.7075983,58.4751485 39.2689509,59.8844603 40.2445962,62.3220718 C41.2202415,64.7596834 40.3385921,67.5470443 38.1386139,68.980198 C37.247941,69.5668003 36.2051029,69.8799959 35.1386139,69.88126 Z M35.1386139,60.4752475 C33.0905145,60.4660204 31.3858779,62.0460369 31.2398918,64.0889477 C31.0939057,66.1318584 32.5565529,67.9382086 34.5851533,68.2203019 C36.6137537,68.5023952 38.5137521,67.1636481 38.9306931,65.1584158 L38.9306931,65.1584158 C39.1610752,64.1354691 38.9644211,63.0628104 38.3861386,62.1881188 C37.6607888,61.1007427 36.4456247,60.4412939 35.1386139,60.4257426 L35.1386139,60.4752475 Z" id="Shape" fill="#30302F"></path>
            <path d="M60.4554455,75.2475255 C60.0695557,75.2472218 59.6847108,75.2074103 59.3069307,75.1287129 C56.7260808,74.5902927 54.8852644,72.3033371 54.910725,69.6670454 C54.9361856,67.0307536 56.8208282,64.7797776 59.4115955,64.2913035 C62.0023629,63.8028295 64.5772894,65.2129799 65.5609903,67.6590001 C66.5446911,70.1050204 65.6630396,72.9052814 63.4554455,74.3465347 C62.5655194,74.9347335 61.5221911,75.2480763 60.4554455,75.2475255 Z M60.4554455,65.8514851 C58.7964569,65.8486849 57.3191166,66.9006431 56.7790888,68.4692799 C56.2390611,70.0379166 56.7557637,71.7763553 58.0649016,72.795379 C59.3740395,73.8144026 61.1861197,73.888672 62.5742574,72.980198 C63.4411885,72.4217463 64.0448673,71.5358745 64.2475248,70.5247525 L64.2475248,70.5247525 C64.6941815,68.436231 63.365066,66.3805324 61.2772277,65.9306931 C61.0050679,65.8627525 60.7260214,65.8262107 60.4455446,65.8217822 L60.4554455,65.8514851 Z" id="Shape" fill="#30302F"></path>
            <path d="M62.5346535,58.019802 L32.1782178,51.6138614 L34.6831683,39.7326733 C34.9405509,38.5593026 36.0887925,37.8070064 37.2673267,38.039604 L57.9207921,42.3960396 C58.874704,42.5941138 59.579387,43.4040943 59.6435644,44.3762376 L62.5346535,58.019802 Z M34.1089109,50.3564356 L60.3960396,55.9009901 L58.029703,44.5544554 C58.0338327,44.2802355 57.8497089,44.0388287 57.5841584,43.970297 L36.9306931,39.6039604 C36.6340752,39.5483269 36.3461794,39.7358953 36.2772277,40.029703 L34.1089109,50.3564356 Z" id="Shape" fill="#30302F"></path>
            <path d="M70.8316832,67.6336634 C70.6934535,67.6482582 70.5540713,67.6482582 70.4158416,67.6336634 L70.4158416,67.6336634 L68.9009901,67.3168317 L69.990099,62.1584158 L71.5049505,62.4851485 C72.0364858,62.5904031 72.50167,62.9088754 72.7920792,63.3663366 C73.0875419,63.8195591 73.1908277,64.3716038 73.0792079,64.9009901 L72.8316832,66.0594059 C72.6143892,66.9867845 71.7841557,67.6402852 70.8316832,67.6336634 L70.8316832,67.6336634 Z M71.2871287,64.0594059 L70.8811881,66.039604 C71.0710498,66.039604 71.2355508,65.9080032 71.2772277,65.7227723 L71.5148515,64.5643564 C71.5530135,64.4656048 71.5530135,64.3561773 71.5148515,64.2574257 C71.4630483,64.1679554 71.3829257,64.0982835 71.2871287,64.0594059 L71.2871287,64.0594059 Z" id="Shape" fill="#30302F"></path>
            <path d="M70.1188119,54.4554455 C69.8818706,54.2821363 69.7569408,53.9944193 69.7920792,53.7029703 L70.2277228,50.1980198 C70.3191696,49.782496 70.7126534,49.5054814 71.134675,49.5595208 C71.5566966,49.6135601 71.8676867,49.9807818 71.8514851,50.4059406 L71.4158416,53.9009901 C71.3591557,54.3482448 70.9527201,54.6663248 70.5049505,54.6138614 C70.363875,54.5985228 70.2300122,54.5436048 70.1188119,54.4554455 L70.1188119,54.4554455 Z" id="Path" fill="#30302F"></path>
            <path d="M75.7722772,58.5841584 C75.6608844,58.5021967 75.5722747,58.3931387 75.5148515,58.2673267 C75.3332509,57.8516349 75.5182568,57.3670956 75.9306931,57.1782178 L79.1386139,55.7326733 C79.4093072,55.5875462 79.7383373,55.6054852 79.9916481,55.7791815 C80.2449589,55.9528779 80.3802645,56.2533359 80.3424376,56.5581406 C80.3046107,56.8629452 80.0999659,57.1212147 79.8118812,57.2277228 L76.6039604,58.6732673 C76.3308779,58.7952744 76.0133135,58.7612496 75.7722772,58.5841584 L75.7722772,58.5841584 Z" id="Path" fill="#30302F"></path>
            <path d="M73.1881188,56.0693069 C73.0121699,55.9406475 72.8945433,55.7473565 72.8611203,55.5319634 C72.8276972,55.3165703 72.881216,55.0967223 73.009901,54.9207921 L75.1485149,52.029703 C75.4219232,51.66607 75.9383472,51.5929284 76.3019802,51.8663367 C76.6656132,52.139745 76.7387548,52.656169 76.4653465,53.019802 L74.3267327,55.9207921 C74.0504668,56.2712254 73.5450297,56.337152 73.1881188,56.0693069 Z" id="Path" fill="#30302F"></path>
            <path d="M99.1188119,99.009901 L2.97029703,99.009901 C1.32984728,99.009901 0,97.6800537 0,96.039604 L0,2.97029703 C0,1.32984728 1.32984728,0 2.97029703,0 L99.0891089,0 C100.729559,0 102.059406,1.32984728 102.059406,2.97029703 L102.059406,96.039604 C102.059406,97.6685236 100.74765,98.9936118 99.1188119,99.009901 Z M2.97029703,1.63366337 C2.23871286,1.64940178 1.64940178,2.23871286 1.63366337,2.97029703 L1.63366337,96.039604 C1.64940178,96.7711881 2.23871286,97.3604992 2.97029703,97.3765678 L99.0891089,97.3765678 C99.4515083,97.3842015 99.8022199,97.2478323 100.064047,96.9971467 C100.325874,96.7464611 100.477356,96.4020071 100.485149,96.039604 L100.485149,2.97029703 C100.485149,2.21569014 99.8734188,1.6039604 99.1188119,1.6039604 L2.97029703,1.63366337 Z" id="Shape" fill="#303030"></path>
            <path d="M102.118812,23.1980198 L0,23.1980198 L0,2.97029703 C0,1.32984728 1.32984728,0 2.97029703,0 L99.0891089,0 C100.729559,0 102.059406,1.32984728 102.059406,2.97029703 L102.118812,23.1980198 Z M1.63366333,21.5643564 L100.485149,21.5643564 L100.485149,2.97029703 C100.485149,2.21569014 99.8734188,1.6039604 99.1188119,1.6039604 L2.97029703,1.6039604 C2.22731491,1.62011598 1.63366333,2.22713931 1.63366333,2.97029703 L1.63366333,21.5643564 Z" id="Shape" fill="#303030"></path>
            <circle id="Oval" fill="#303030" cx="81.1782178" cy="11.6039604" r="2.92079208"></circle>
            <circle id="Oval" fill="#303030" cx="91.5643564" cy="11.6039604" r="2.92079208"></circle>
            <circle id="Oval" fill="#8DB602" cx="101.336634" cy="57.2673267" r="17.2376238"></circle>
            <path d="M106.782178,58.2673267 L106.643564,58.1782178 C106.544554,58.4455446 106.425743,58.7128713 106.306931,58.970297 C106.475248,58.7425743 106.633663,58.5148515 106.782178,58.2673267 Z" id="Path" fill="#FFFFFF"></path>
            <path d="M105.188119,57.2673267 C104.859419,58.2065687 104.347926,59.0713972 103.683168,59.8118812 L111.049505,64.3564356 C111.749527,64.7823293 112.66222,64.5608019 113.089109,63.8613861 L113.089109,63.8613861 C113.508292,63.1634897 113.287492,62.2582098 112.594059,61.8316832 L105.188119,57.2673267 Z" id="Path" fill="#FFFFFF"></path>
            <path d="M106.851485,53.7227723 C105.871134,49.7023419 101.817942,47.237212 97.79712,48.2159544 C93.7762976,49.1946969 91.3095458,53.2469013 92.286679,57.2681151 C93.2638123,61.2893288 97.3150292,63.7577021 101.336634,62.7821782 C103.271345,62.3155876 104.940588,61.0977225 105.975435,59.3977498 C107.010282,57.6977771 107.325523,55.6556725 106.851485,53.7227723 L106.851485,53.7227723 Z M100.564356,59.6633663 C98.2942119,60.2019512 96.0146203,58.8086107 95.4586781,56.5426544 C94.9027358,54.2766981 96.2785901,51.9865102 98.5402255,51.4132431 C100.801861,50.839976 103.102511,52.1982635 103.693069,54.4554455 C103.97039,55.556075 103.795666,56.721914 103.207873,57.6928885 C102.62008,58.663863 101.66812,59.359192 100.564356,59.6237624 L100.564356,59.6633663 Z" id="Shape" fill="#FFFFFF"></path>
        </g>
    </g>
</svg>