<?xml version="1.0" encoding="UTF-8"?>
<svg width="200px" height="100px" viewBox="0 0 200 100" version="1.1" xmlns="http://www.w3.org/2000/svg" xmlns:xlink="http://www.w3.org/1999/xlink">
    <!-- Generator: Sketch 58 (84663) - https://sketch.com -->
    <title>imagemaking / aplicaciones default@1x</title>
    <desc>Created with Sketch.</desc>
    <g id="imagemaking-/-aplicaciones-default" stroke="none" stroke-width="1" fill="none" fill-rule="evenodd">
        <g id="Home_default" transform="translate(50.000000, 0.000000)" fill="#E0E0E0">
            <path d="M60.1683168,0.99009901 C39.6572937,-3.14875457 18.7591207,6.05512691 7.96571983,23.9809373 C-2.82768103,41.9067477 -1.1850874,64.6827648 12.068837,80.8742955 C25.3227615,97.0658263 47.325356,103.175728 67.0302241,96.1365272 C86.7350922,89.097326 99.8862603,70.4293897 99.8814201,49.5049505 C99.9530846,25.9156974 83.3068374,5.57996783 60.1683168,0.99009901 Z M60.1683168,93.2475248 C36.0154283,98.6254659 12.0759609,83.4053638 6.6980198,59.2524752 C1.3200787,35.0995867 16.5401808,11.1601193 40.6930693,5.78217822 C64.7040763,0.720805937 88.3176442,15.9211299 93.6526011,39.8728351 C98.9875579,63.8245403 84.057603,87.6099746 60.1683168,93.2178218 L60.1683168,93.2475248 Z" id="Shape"></path>
            <path d="M83.009901,50.4950495 C82.4171661,47.2063081 81.2616128,44.0444465 79.5940594,41.1485149 C77.7986002,38.1487645 75.512772,35.4713669 72.8316832,33.2277228 C71.140138,31.9392606 68.9611819,31.4744166 66.8910891,31.960396 C66.0784433,29.6697894 64.3548146,27.8171573 62.1287129,26.8415842 C61.4752475,26.6039604 60.8217822,26.3762376 60.1485149,26.1782178 C56.9956248,25.2414146 53.7247526,24.7612866 50.4356436,24.7524752 C47.1383738,24.7538155 43.8580354,25.2238639 40.6930693,26.1485149 C40.039604,26.3465347 39.3960396,26.5544554 38.7722772,26.7722772 C38.4304982,26.901062 38.0994341,27.0566622 37.7821782,27.2376238 C35.8724143,28.2194478 34.4431271,29.9345924 33.8217822,31.990099 C31.675311,31.6605666 29.4852534,32.1867492 27.7227723,33.4554455 C22.5155431,37.7893716 19.0085077,43.8249796 17.8217822,50.4950495 C17.769945,50.822927 17.7368878,51.1534989 17.7227723,51.4851485 C17.6362994,53.5410891 18.4207336,55.5381918 19.883308,56.985688 C21.3458824,58.4331843 23.3510064,59.1968817 25.4059406,59.0891089 L40.6732673,59.0891089 L41.5049505,59.0891089 C42.6237624,59.0891089 45.6633663,59.0891089 47.990099,59.1485149 L47.990099,74.2574257 L52.8316832,74.2574257 L52.8316832,59.0990099 C55.1386139,59.0990099 58.1881188,59.0990099 59.3168317,59.039604 L60.1485149,59.039604 L75.4059406,59.039604 C76.8139766,59.1109242 78.2118996,58.7666082 79.4257426,58.049505 C82.004116,56.4570936 83.4074002,53.4993427 83.009901,50.4950495 L83.009901,50.4950495 Z M42.8217822,53.5841584 C42.5673781,53.9891271 42.110763,54.2212398 41.6336634,54.1881188 L40.6930693,54.1881188 L25.2772277,54.1881188 C24.7728247,54.2367977 24.266117,54.1222679 23.8316832,53.8613861 C23.0065815,53.3781065 22.5269423,52.4687107 22.5940594,51.5148515 C23.0682978,48.7143814 24.0407775,46.0216187 25.4653465,43.5643564 C26.8578273,41.1404432 28.6601064,38.9763683 30.7920792,37.1683168 L30.8811881,37.1683168 C31.6703525,36.56198 32.7498033,36.4991756 33.6039604,37.009901 C34.0386001,37.2708344 34.3838401,37.6575031 34.5940594,38.1188119 L40.6633663,48.7128713 L42.7326733,52.3267327 C42.9740968,52.703508 43.0076586,53.177102 42.8217822,53.5841584 Z M51.7326733,53.3960396 C51.4871689,53.9066778 50.9725124,54.233139 50.4059406,54.2376238 C49.8130896,54.2351919 49.2725537,53.8978362 49.009901,53.3663366 L40.6930693,38.9405941 L38.960396,35.970297 C38.5984499,35.4582614 38.4078312,34.8448156 38.4158416,34.2178218 C38.4179095,33.0489603 39.0921781,31.9855424 40.1485149,31.4851485 L40.6930693,31.2871287 C43.8196049,30.1698643 47.115479,29.6004551 50.4356436,29.603922 C53.7485466,29.5986173 57.0387236,30.1508851 60.1683168,31.2376238 L60.4851485,31.3564356 L60.6039604,31.4257426 C61.7449599,31.8800765 62.4886886,32.989767 62.4754267,34.2178218 C62.4652176,34.8511755 62.2613461,35.4662454 61.8910891,35.980198 L60.1683168,38.950495 L51.7326733,53.3960396 Z M76.990099,53.9009901 C76.5561982,54.163198 76.0490466,54.2778281 75.5445545,54.2277228 L60.1386139,54.2277228 L59.1485149,54.2277228 C58.6803668,54.2562683 58.2347309,54.0239282 57.990099,53.6237624 C57.7466697,53.2154614 57.7700378,52.7013647 58.049505,52.3168317 L60.1188119,48.7128713 L66.2079208,38.1089109 C66.4046127,37.6389237 66.7532306,37.2484717 67.1980198,37 C68.0559232,36.490345 69.1374291,36.5530409 69.9306931,37.1584158 L69.990099,37.1584158 C72.1529794,38.9637307 73.9855437,41.1313159 75.4059406,43.5643564 C76.8157737,46.0371055 77.7682991,48.7437533 78.2178218,51.5544554 C78.304963,52.5023222 77.8386517,53.4156757 77.019802,53.9009901 L76.990099,53.9009901 Z" id="Shape"></path>
        </g>
    </g>
</svg>