{
  "addClass": "g-bg-c--gray3 g-border-radius--tlr5 g-text--uppercase",
  "titleHead": "Resumen de tu pago",
  "listItem": [{
    "addClass": " g-px--5  g-py--15 align-items-center",
    "title" : {
      "addTitleClass" : "g-font--18 g-font-md--20",
      "title" : "Cobertura SCTR"
    },
    "description" : "Actividad de Riesgo: Soldadura",
    "addRightClass" : "",
    "amount" : "S/ 11,000"
  },
  {
    "addClass": " g-px--5  g-py--15 g-b--1 g-bc--gray12 align-items-center",
    "title" : {
      "addTitleClass" : "g-font--18 g-font-md--20",
      "title" : "Cobertura SCTR"
    },
    "description" : "Actividad de Riesgo: Soldadura",
    "addRightClass" : "",
    "amount" : "S/ 11,000"
  }],
  "addfooterClass" : " g-px--20  g-py--15 g-bg-c--gray12",
  "TextLeft" : "PRECIO FINAL",
  "amount" : "S/ 22,000"
}