{
  "$schema": "../../../node_modules/@angular-devkit/schematics/collection-schema.json",
  "schematics": {
    "component": {
      "description": "A custom component schematic with inline templating on by default",
      "aliases": [ "c" ],
      "factory": "./component",
      "schema": "./component/schema.json"
    },
    "module": {
      "description": "",
      "factory": "./lib",
      "extends": "@schematics/angular:module"
    }
  }
}
