<?xml version="1.0" encoding="UTF-8"?>
<svg width="200px" height="100px" viewBox="0 0 200 100" version="1.1" xmlns="http://www.w3.org/2000/svg" xmlns:xlink="http://www.w3.org/1999/xlink">
    <!-- Generator: Sketch 52 (66869) - http://www.bohemiancoding.com/sketch -->
    <title>imagemaking / computo rota</title>
    <desc>Created with Sketch.</desc>
    <g id="imagemaking-/-computo-rota" stroke="none" stroke-width="1" fill="none" fill-rule="evenodd">
        <g id="Imagemaking_tecnologico" transform="translate(41.000000, 4.000000)">
            <polygon id="Path" fill="#E0E0E0" points="31.43 67.25 14.84 67.25 14.99 8.15 31.43 8.31 31.43 0.75 8.09 0.75 8.09 74.81 113.33 74.81 113.33 67.25"></polygon>
            <path d="M32.51,85.76 C27.9321235,85.581027 24.3580069,81.7388516 24.51,77.16 L24.51,74.81 L3.51,74.81 C2.17710005,74.858845 1.13501294,75.9769643 1.18,77.31 L1.18,82.15 C1.02800694,86.7288516 4.60212354,90.571027 9.18,90.75 L109.91,90.75 C113.12013,90.6951507 115.986494,88.7264936 117.19,85.75 L32.51,85.76 Z" id="Path" fill="#E0E0E0"></path>
            <path d="M113,75.56 L7.71,75.56 C7.30916464,75.5437778 6.99425074,75.2111223 7,74.81 L7,0.75 C6.99943203,0.350917569 7.31148513,0.0212840137 7.71,0 L113,0 C113.411962,0.00538581231 113.744614,0.338037936 113.75,0.75 L113.75,74.81 C113.75,75.0089124 113.670982,75.1996778 113.53033,75.3403301 C113.389678,75.4809824 113.198912,75.56 113,75.56 Z M8.46,74.06 L112.2,74.06 L112.2,1.5 L8.46,1.5 L8.46,74.06 Z" id="Shape" fill="#303030" fill-rule="nonzero"></path>
            <path d="M104.58,68 L14.84,68 C14.6402668,68.0027178 14.4479182,67.9245733 14.3066725,67.7833275 C14.1654267,67.6420818 14.0872822,67.4497332 14.09,67.25 L14.09,8.31 C14.0872822,8.11026685 14.1654267,7.91791822 14.3066725,7.77667248 C14.4479182,7.63542674 14.6402668,7.55728216 14.84,7.56 L104.58,7.56 C104.779733,7.55728216 104.972082,7.63542674 105.113328,7.77667248 C105.254573,7.91791822 105.332718,8.11026685 105.33,8.31 L105.33,67.25 C105.332718,67.4497332 105.254573,67.6420818 105.113328,67.7833275 C104.972082,67.9245733 104.779733,68.0027178 104.58,68 Z M15.58,66.5 L103.82,66.5 L103.82,9.06 L15.59,9.06 L15.58,66.5 Z" id="Shape" fill="#303030" fill-rule="nonzero"></path>
            <path d="M109.25,91.5 L9.06,91.5 C4.06086329,91.4890008 0.0109992406,87.4391367 0,82.44 L0,77.23 C-8.69174322e-06,75.4831552 1.41316385,74.0655106 3.16,74.06 L115.16,74.06 C116.910743,74.06 118.33,75.4792573 118.33,77.23 L118.33,82.44 C118.318971,87.4469333 114.256945,91.5000121 109.25,91.5 Z M3.16,75.56 C2.2415921,75.5654995 1.49998353,76.3115756 1.5,77.23 L1.5,82.44 C1.5055089,86.6129887 4.88701128,89.9944911 9.06,90 L109.25,90 C113.424617,89.9945071 116.808989,86.6146058 116.82,82.44 L116.82,77.23 C116.82,76.7870885 116.644054,76.3623174 116.330868,76.0491317 C116.017683,75.7359459 115.592912,75.56 115.15,75.56 L3.16,75.56 Z" id="Shape" fill="#303030" fill-rule="nonzero"></path>
            <path d="M38.1,75.54 L83.73,75.54 L83.73,75.72 C83.7135245,78.6370132 81.3470547,80.994553 78.43,81 L43.43,81 C40.497368,81 38.12,78.622632 38.12,75.69 L38.12,75.51 L38.1,75.54 Z" id="Path" fill="#E0E0E0"></path>
            <ellipse id="Oval" fill="#D81E05" cx="60.46" cy="37.68" rx="17.46" ry="18.68"></ellipse>
            <path d="M63.8535657,37.7998717 L67.4977485,41.4798787 L67.4946843,41.482973 C67.8494075,41.8801324 68.0653529,42.4061507 68.0653529,42.9831017 C68.0653529,44.2205412 67.0719754,45.2236842 65.8465821,45.2236842 C65.2752477,45.2236842 64.75435,45.0056159 64.3610569,44.6474056 L64.3599326,44.6485409 L64.3339768,44.6223299 C64.2958072,44.5863971 64.2588943,44.5491213 64.2233117,44.5105769 L60.5817861,40.8332533 L60.4492626,40.9670796 L56.9780315,44.4721344 C56.5716355,44.9332406 55.9794483,45.2236842 55.3200846,45.2236842 C54.0946913,45.2236842 53.1013137,44.2205412 53.1013137,42.9831017 C53.1013137,42.4031649 53.3195001,41.8746892 53.6775009,41.4768171 L53.6730295,41.4723018 L57.44683,37.6614029 L53.6909104,33.8685606 L53.6925601,33.8668948 C53.2660239,33.4585673 53,32.880947 53,32.2405826 C53,31.003143 53.9933776,30 55.2187709,30 C55.8612709,30 56.4399868,30.2757771 56.8451738,30.7165076 L60.5847946,34.4928908 L64.2918705,30.7493723 C64.6982104,30.2895294 65.2895706,30 65.9478958,30 C67.1732891,30 68.1666667,31.003143 68.1666667,32.2405826 C68.1666667,32.881002 67.900597,33.4586666 67.4739967,33.867 L67.4771104,33.8701443 L63.7226104,37.661553 L63.8565741,37.7968337 L63.8535657,37.7998717 Z" id="Rectangle-2" fill="#FFFFFF"></path>
        </g>
    </g>
</svg>