{
  "boxSlideInfo" : [
    {
      "addClass": "carousel-item active text-center",
      "text" : "hola 1",
      "contentHealth" : {
        "addClass" : "",
        "iconMore": {
          "addClass": "info--box--block",
          "img": "/images/block-1.png",
          "iconFile": "icon-mapfre_020_cross",
          "size": "g-font--55 g-font-lg--75",
          "color": "g-c--green2",
          "circle-addClass": "g-icon--circle--big"
        },
        "title": "SCTR SALUD",
        "textBox": {
          "addClass": "",
          "color": "g-bg-c--green1",
          "size": "g-font--12",
          "text": "iGV incluido"
        },
        "coverage": "Coberturas",
        "listItem": {
          "addClass": "green g-mb-lg--10  g-mt-lg--5 g-mb--20",
          "ico-font": "icon-mapfre_003_check",
          "list" : [
            {"text" : "Asistencia y asesoramiento preventivo promocional en salud ocupacional."},
            {"text" : "Atención médica, farmacológica, hospitalaria y quirúrgica, cualquiera que fuere el nivel de complejidad; hasta la recuperación total del"},
            {"text" : " Asegurado o la declaración de una invalidez permanente total o parcial o fallecimiento."},
            {"text" : "Rehabilitación y readaptación laboral al Asegurado inválido bajo este seguro."},
            {"text" : "Aparatos de prótesis y ortopédicos necesarios al Asegurado inválido bajo este seguro."},
            {"text" : "Esta cobertura no comprende los subsidios económicos que son otorgados por cuenta del Seguro Social de Salud."}
          ]
        },
        "linkButton": {
          "addClass": "g-btn-outline g-pl-lg--40 g-pr-lg--40 g-text--uppercase g-modal--link g-font--medium",
          "text": "VER MÁS INFORMACIÓN",
          "data": "cobertura"
        }
      }
    },
    {
      "addClass": "carousel-item  text-center",
      "text" : "hola 2",
      "contentHealth" :{
        "addClass" : "",
        "iconMore": {
          "addClass": "info--box--block",
          "img": "/images/block-2.png",
          "iconFile": "icon-mapfre_020_cross",
          "size": "g-font--55 g-font-lg--75",
          "color": "g-c--green2",
          "circle-addClass": "g-icon--circle--big"
        },
        "title": "SCTR Pensión",
        "textBox": {
          "addClass": "",
          "color": "g-bg-c--green1",
          "size": "g-font--12",
          "text": "iGV incluido"
        },
        "coverage": "Coberturas",
        "listItem": {
          "addClass": "green  g-mb-lg--10  g-mt-lg--5 g-mb--20",
          "ico-font": "icon-mapfre_003_check",
          "list" : [
            {"addClass": " g-mb--10 ", "text" : "Asistencia y asesoramiento preventivo promocional en salud ocupacional."},
            {"addClass": " g-mb--10 ", "text" : "Atención médica, farmacológica, hospitalaria y quirúrgica, cualquiera que fuere el nivel de complejidad; hasta la recuperación total del"},
            {"addClass": " g-mb--10 ", "text" : " Asegurado o la declaración de una invalidez permanente total o parcial o fallecimiento."},
            {"addClass": " g-mb--10 ", "text" : "Rehabilitación y readaptación laboral al Asegurado inválido bajo este seguro."},
            {"addClass": " g-mb--10 ", "text" : "Aparatos de prótesis y ortopédicos necesarios al Asegurado inválido bajo este seguro."},
            {"addClass": " g-mb--10 ", "text" : "Esta cobertura no comprende los subsidios económicos que son otorgados por cuenta del Seguro Social de Salud."}
          ]
        },
        "linkButton": {
          "addClass": "g-btn-outline g-pl-lg--40 g-pr-lg--40 g-text--uppercase g-modal--link g-font--medium",
          "text": "VER MÁS INFORMACIÓN",
          "data": "cobertura"
        }
      }
    }
  ]
}