{
  "title" : {
    "addClass" : "gh1-sctr",
    "title1" : "OFRECEMOS COBERTURAS SCTR"
  },
  "subtitle" : "En las profesiones y sus subactividades más demandadas",
  "items" : [
    {
      "img" : "/images/card-1.png",
      "title" : "Construcción",
      "subtitle" : "Subactividad",
      "addClass" : "green",
      "ico-font" : "icon-mapfre_003_check",
      "description" : "Soldadura, Subacuático, Limpieza, Limpieza en alturas, Reparación en bajas temperaturas y Electricidad."
    },
    {
      "img" : "/images/card-2.png",
      "title" : "Metalmecánica",
      "subtitle" : "Subactividad",
      "addClass" : "green",
      "ico-font" : "icon-mapfre_003_check",
      "description" : "Soldadura, Subacuático, Limpieza, Limpieza en alturas, Reparación en bajas temperaturas y Electricidad."
    },
    {
      "img" : "/images/card-3.png",
      "title" : "Servicios",
      "subtitle" : "Subactividad",
      "addClass" : "green",
      "ico-font" : "icon-mapfre_003_check",
      "description" : "Soldadura, Subacuático, Limpieza, Limpieza en alturas, Reparación en bajas temperaturas y Electricidad."
    },
    {
      "img"  : "/images/card-4.png",
      "title" : "Transporte",
      "subtitle" : "Subactividad",
      "addClass" : "green",
      "ico-font" : "icon-mapfre_003_check",
      "description" : "Soldadura, Subacuático, Limpieza, Limpieza en alturas, Reparación en bajas temperaturas y Electricidad."
    }
  ],
  "copy" : {
    "addClass" : "g-font--bold g-c--red1",
    "title1" : "¿No ves la profesión que necesitas asegurar?",
    "title2" : "<a href='#'>contacte con un asesor MAPFRE.</a>"
  },
  "linkButton" : {
    "addClass" : "g-font--18 g-font-md--20  g-pl--25   g-pr--25 ",
    "text" : "EMPEZAR A COTIZAR"
  }
}