{
  "numTrab" : [
    {
      "addClass" : "text-center g-br--1  g-pt--10 g-pb--10 g-px--10  g-px--15  text-nowrap",
      "text1" : "10",
      "text2" : "Trabajadores"
    }
  ],
  "monTrab" : [
    {
      "addClass" : "text-center g-br--1  g-pt--10 g-pb--10 g-px--10  g-px--15  text-nowrap",
      "text1" : "S/10.000",
      "text2" : "Monto de planilla"
    }
  ],
  "timeTrab" : [
    {
      "addClass" : "text-center g-br--1  g-pt--10 g-pb--10 g-px--10  g-px--15  text-nowrap",
      "text1" : "2 - Meses",
      "text2" : "Duración"
    }
  ],
  "desTrab" : [
    {
      "addClass" : " g-pt--10 g-pb--10 g-px--10  g-px--15  w-100",
      "text1" : "Construcción - Alquiler de maquinaria de equipa Alquiler de maquinaria de equipa Alquiler de maquinaria de equipa Alquiler de maquinaria de equipa",
      "text2" : "Sociedad de mampostería y arquitectura de Forjaz"
    }
  ]
}