{
  "addClass" : "",
  "icon" : false,
  "titleClass": " g-pl--15  pl-lg-0",
  "title": "Historial de asistencia",
  "payment": false,
  "dots": false,
  "filter": true,
  "mont": false,
  "dropdown": {
    "lists": false,
    "inputs": [
      {
        "textClass": " g-mr--15 ",
        "text": "Tipo de asistencia",
        "combo": {
          "addClass" : " g-p--0 ",
          "label" : "",
          "disabled" : false,
          "selectClass": "g-m--0",
          "listOption" : [
            { "value" : "Todos" }
          ],
          "error" : ""
        }
      },
      {
        "textClass": " g-mr--15 ",
        "text": "Desde",
        "combo": {
          "addClass" : " g-p--0 ",
          "label" : "",
          "disabled" : false,
          "selectClass": "g-m--0",
          "listOption" : [
            { "value" : "2018" }
          ],
          "error" : ""
        }
      }
    ]
  },
  "accordion": false
}