<?xml version="1.0" encoding="UTF-8"?>
<svg width="200px" height="100px" viewBox="0 0 200 100" version="1.1" xmlns="http://www.w3.org/2000/svg" xmlns:xlink="http://www.w3.org/1999/xlink">
    <!-- Generator: Sketch 52 (66869) - http://www.bohemiancoding.com/sketch -->
    <title>imagemaking / servicio auxilio mecanico</title>
    <desc>Created with Sketch.</desc>
    <g id="imagemaking-/-servicio-auxilio-mecanico" stroke="none" stroke-width="1" fill="none" fill-rule="evenodd">
        <g id="Imagemaking_auxiliomecanico" transform="translate(56.000000, 2.000000)">
            <path d="M43.3921569,21.7745098 C41.8440346,21.7439189 40.5717277,20.5437094 40.4509804,19 L24.8921569,19 C24.0913071,19 23.323258,19.3181363 22.7569717,19.8844227 C22.1906854,20.450709 21.872549,21.2187581 21.872549,22.0196078 L21.872549,22.4607843 C21.8699433,23.2633314 22.186929,24.0339015 22.753498,24.60231 C23.320067,25.1707185 24.0896055,25.4902003 24.8921569,25.4901961 L61.6666667,25.4901961 C62.4726105,25.4954339 63.2472033,25.1782627 63.8180236,24.6092838 C64.3888439,24.0403049 64.7085161,23.2667408 64.7058824,22.4607843 L64.7058824,22.0196078 C64.7112631,21.9379971 64.7112631,21.8561206 64.7058824,21.7745098 L43.3921569,21.7745098 Z" id="Path" fill="#E0E0E0"></path>
            <path d="M64.6372549,16.3137255 L40.3823529,16.3137255 C40.2549579,15.3834261 40.2549579,14.4401033 40.3823529,13.5098039 C40.3823529,8.54901961 43.245098,4.11764706 47.745098,1.09803922 C46.2705216,0.855911987 44.7786366,0.73459386 43.2843137,0.735294118 C31.4509804,0.735294118 21.8627451,8.10784314 21.8627451,17.2058824 C21.7353077,18.139462 21.7353077,19.0860282 21.8627451,20.0196078 L64.7058824,20.0196078 C64.7842689,19.0833372 64.7842689,18.142153 64.7058824,17.2058824 C64.7058824,16.9019608 64.7058824,16.6078431 64.6372549,16.3137255 Z" id="Path" fill="#E0E0E0"></path>
            <path d="M38.1666667,95.0980392 L38.1666667,78.1568627 C38.1739525,77.6546902 38.2531898,77.1561554 38.4019608,76.6764706 L24.8333333,76.6764706 C21.978277,76.6818779 19.6666615,78.9978797 19.6666667,81.8529412 L19.6666667,98.7745098 L66.8529412,98.7745098 L66.8529412,95.0980392 L38.1666667,95.0980392 Z" id="Path" fill="#E0E0E0"></path>
            <path d="M27.0392157,95.0980392 L27.0392157,80.5392157 C27.0392157,68.3921569 39.3823529,62.245098 51.5490196,62.245098 L51.9607843,58.5392157 L51.9607843,53.4901961 C46.583455,56.8520311 39.8066112,57.035899 34.254902,53.9705882 L34.254902,62.245098 L23.1372549,62.245098 C17.3016948,62.2424958 11.7043966,64.5595106 7.57803203,68.6858752 C3.45166747,72.8122397 1.13465265,78.4095379 1.1372549,84.245098 L1.13725271,98.7745098 L71.9803922,98.7745098 L71.9803922,95.0980392 L27.0392157,95.0980392 Z" id="Path" fill="#E0E0E0"></path>
            <path d="M42.6764706,56.8627451 C32.6066872,56.8519638 24.4431718,48.697217 24.4215686,38.627451 L24.4215686,25.4901961 C24.4189041,25.2943793 24.4955164,25.1058022 24.6339926,24.967326 C24.7724688,24.8288497 24.9610459,24.7522374 25.1568627,24.754902 L60.1960784,24.754902 C60.3918952,24.7522374 60.5804723,24.8288497 60.7189485,24.967326 C60.8574248,25.1058022 60.9340371,25.2943793 60.9313725,25.4901961 L60.9313725,38.627451 C60.9097693,48.697217 52.746254,56.8519638 42.6764706,56.8627451 Z M25.8921569,26.2156863 L25.8921569,38.627451 C25.892157,47.8971714 33.4067502,55.4117645 42.6764706,55.4117645 C51.946191,55.4117645 59.4607842,47.8971714 59.4607843,38.627451 L59.4607843,26.2156863 L25.8921569,26.2156863 Z" id="Shape" fill="#303030" fill-rule="nonzero"></path>
            <circle id="Oval" fill="#303030" cx="33.4215686" cy="34.2745098" r="2.29411765"></circle>
            <circle id="Oval" fill="#303030" cx="51.9313725" cy="34.2745098" r="2.29411765"></circle>
            <path d="M61.2352941,26.2156863 L24.5098039,26.2156863 C22.4360288,26.2156863 20.754902,24.5345594 20.754902,22.4607843 L20.754902,22.0196078 C20.754902,19.9458328 22.4360288,18.2647059 24.5098039,18.2647059 L61.2352941,18.2647059 C63.3052395,18.2701105 64.9803992,19.9496554 64.9803922,22.0196078 L64.9803922,22.4607843 C64.9803992,24.5307368 63.3052395,26.2102817 61.2352941,26.2156863 Z M24.5098039,19.7352941 C23.2482123,19.7352941 22.2254902,20.7580162 22.2254902,22.0196078 L22.2254902,22.4607843 C22.2254902,23.7223759 23.2482123,24.745098 24.5098039,24.745098 L61.2352941,24.745098 C62.4930554,24.7396999 63.5098155,23.7185572 63.5098039,22.4607843 L63.5098039,22.0196078 C63.5124114,21.4146735 63.2739279,20.8336212 62.8470916,20.4049451 C62.4202553,19.976269 61.8402341,19.7352885 61.2352941,19.7352941 L24.5098039,19.7352941 Z" id="Shape" fill="#303030" fill-rule="nonzero"></path>
            <path d="M0.735294118,99.5098039 C0.32920239,99.5098039 4.97318935e-17,99.1806015 0,98.7745098 L0,84.2352941 C0.0162142952,71.6872476 10.1872418,61.5206061 22.7352941,61.5098039 L33.0882353,61.5098039 L33.0882353,53.9705882 C33.0875245,53.7105462 33.2242196,53.4694682 33.4477359,53.3365666 C33.6712523,53.203665 33.9483436,53.1987078 34.1764706,53.3235294 C39.4895868,56.2061442 45.9237392,56.0982885 51.1372549,53.0392157 C51.3646308,52.8958474 51.6521184,52.887978 51.8869968,53.0186929 C52.1218752,53.1494079 52.2667073,53.3978726 52.2647059,53.6666667 L52.2647059,61.5098039 L62.9411765,61.5098039 C75.4869941,61.5259944 85.6548689,71.6894846 85.6764706,84.2352941 L85.6764706,98.7647059 C85.6711904,99.1685903 85.3450608,99.4947198 84.9411765,99.5 L0.735294118,99.5098039 Z M22.7352941,62.9803922 C10.9994246,62.9911925 1.4868005,72.4994308 1.47058824,84.2352941 L1.47058824,98.0392157 L84.2058824,98.0392157 L84.2058824,84.2352941 C84.1896701,72.4994308 74.677046,62.9911925 62.9411765,62.9803922 L51.5294118,62.9803922 C51.1255274,62.9751119 50.7993979,62.6489824 50.7941176,62.245098 L50.7941176,54.754902 C45.7381407,57.3989885 39.7423343,57.5510561 34.5588235,55.1666667 L34.5588235,62.245098 C34.5535433,62.6489824 34.2274138,62.9751119 33.8235294,62.9803922 L22.7352941,62.9803922 Z" id="Shape" fill="#303030" fill-rule="nonzero"></path>
            <path d="M42.6764706,68.627451 C40.1706693,68.6334088 37.7561712,67.6872339 35.9215686,65.9803922 L32.6960784,62.9803922 L33.6764706,61.9019608 L36.8921569,64.9019608 C40.1377628,67.9135474 45.1563548,67.9135474 48.4019608,64.9019608 L51.6176471,61.9019608 L52.5980392,62.9803922 L49.372549,65.9803922 C47.5528225,67.6734116 45.1619566,68.6185563 42.6764706,68.627451 Z" id="Path" fill="#303030"></path>
            <path d="M42.6764706,49.8333333 C40.1675209,49.8285242 37.8496771,48.4923115 36.5882353,46.3235294 C36.3824822,45.9715832 36.500995,45.5194786 36.8529412,45.3137255 C37.2048873,45.1079723 37.656992,45.2264852 37.8627451,45.5784314 C38.9166052,47.4088996 40.9168059,48.4839687 43.0249045,48.3529921 C45.1330032,48.2220156 46.9847463,46.9076245 47.8039216,44.9607843 C47.8794486,44.7766962 48.0263588,44.6310771 48.2111065,44.557178 C48.3958542,44.4832789 48.6026644,44.4874098 48.7843137,44.5686275 C48.9666029,44.6463035 49.1104443,44.79339 49.1840349,44.9773665 C49.2576255,45.161343 49.2549034,45.3670547 49.1764706,45.5490196 C48.0727108,48.1578098 45.5091143,49.8475409 42.6764706,49.8333333 Z" id="Path" fill="#303030"></path>
            <rect id="Rectangle" fill="#303030" x="71.245098" y="64.3823529" width="1.47058824" height="16.9215686"></rect>
            <rect id="Rectangle" fill="#303030" x="64.1176471" y="62.5686275" width="1.47058824" height="13.5686275"></rect>
            <rect id="Rectangle" fill="#303030" x="20.0882353" y="62.3921569" width="1.47058824" height="13.745098"></rect>
            <rect id="Rectangle" fill="#303030" x="12.9509804" y="64.3823529" width="1.47058824" height="16.9215686"></rect>
            <path d="M71.9803922,99.5098039 L13.7254902,99.5098039 C13.3216058,99.5045237 12.9954763,99.1783942 12.9901961,98.7745098 L12.9901961,81.8529412 C12.9901961,78.6042074 15.6238152,75.9705882 18.872549,75.9705882 L66.8137255,75.9705882 C70.0624593,75.9705882 72.6960784,78.6042074 72.6960784,81.8529412 L72.6960784,98.7745098 C72.6962202,99.1730658 72.3788065,99.4991758 71.9803922,99.5098039 Z M14.4215686,98.0392157 L71.2843137,98.0392157 L71.2843137,81.8529412 C71.2627427,79.4039643 69.262743,77.4346664 66.8137255,77.4509804 L18.8627451,77.4509804 C16.4121879,77.4563722 14.4269604,79.4415997 14.4215686,81.8921569 L14.4215686,98.0392157 Z" id="Shape" fill="#303030" fill-rule="nonzero"></path>
            <path d="M30.4411765,86.1372549 L30.4411765,86.2156863 L33.8333333,86.2156863 C34.9703902,86.2156863 35.8921569,87.137453 35.8921569,88.2745098 L35.8921569,88.5196078 C35.8921569,89.0656418 35.6752457,89.5893116 35.2891414,89.9754159 C34.9030371,90.3615202 34.3793673,90.5784314 33.8333333,90.5784314 L30.4411765,90.5784314 L30.4411765,90.6470588 L32.0392157,92.245098 C33.0618612,93.264855 34.4479617,93.8362247 35.8921569,93.8333333 C37.3331694,93.8347005 38.7156609,93.2633647 39.7352941,92.245098 L41.3333333,90.6470588 L41.3333333,90.5784314 L52.7254902,90.5784314 C53.9291058,90.5730339 54.9019729,89.5957846 54.9019608,88.3921569 C54.8965634,87.1885412 53.919314,86.2156742 52.7156863,86.2156863 L41.3333333,86.2156863 L41.3333333,86.1372549 L39.7352941,84.5490196 C38.716656,83.5280702 37.3343621,82.9532898 35.8921569,82.9509804 C34.4467683,82.9517675 33.0608662,83.5265818 32.0392157,84.5490196 L30.4411765,86.1372549 Z" id="Path" fill="#8DB602"></path>
            <path d="M20.9607843,23.9509804 C20.754902,23.3627451 20.7745098,21.4901961 20.872549,18.245098 C20.872549,17.745098 20.872549,17.372549 20.872549,17.2058824 C20.9019608,7.71568627 30.745098,0 42.8431373,0 C54.9411765,0 64.9607843,7.71568627 64.9607843,17.2058824 C64.9607843,17.3235294 64.9607843,17.6176471 64.9607843,18.0392157 C65.0797237,19.9989387 65.0600669,21.9646161 64.9019608,23.9215686 L63.5,23.5294118 C63.5980392,23.0294118 63.5,19.2843137 63.5,18.0588235 C63.5,17.627451 63.5,17.3137255 63.5,17.1960784 C63.5,8.51960784 54.2352941,1.50980392 42.8529412,1.50980392 C31.4705882,1.50980392 22.372549,8.52941176 22.372549,17.2058824 C22.372549,17.3823529 22.372549,17.7745098 22.372549,18.2941176 C22.2726863,20.0247044 22.2726863,21.7596094 22.372549,23.4901961 L20.9607843,23.9509804 Z" id="Path" fill="#303030"></path>
            <rect id="Rectangle" fill="#FFFFFF" x="39.1176471" y="6.79411765" width="9.45098039" height="4.00980392" rx="2.00490196"></rect>
            <path d="M46.5686275,11.5392157 L41.1176471,11.5392157 C39.6678508,11.4524576 38.5365268,10.2514094 38.5365268,8.79901961 C38.5365268,7.34662982 39.6678508,6.14558166 41.1176471,6.05882353 L46.5686275,6.05882353 C48.0184237,6.14558166 49.1497478,7.34662982 49.1497478,8.79901961 C49.1497478,10.2514094 48.0184237,11.4524576 46.5686275,11.5392157 Z M41.1176471,7.52941176 C40.4595768,7.58729545 39.9548116,8.13840856 39.9548116,8.79901961 C39.9548116,9.45963066 40.4595768,10.0107438 41.1176471,10.0686275 L46.5686275,10.0686275 C47.2266977,10.0107438 47.7314629,9.45963066 47.7314629,8.79901961 C47.7314629,8.13840856 47.2266977,7.58729545 46.5686275,7.52941176 L41.1176471,7.52941176 Z" id="Shape" fill="#303030" fill-rule="nonzero"></path>
        </g>
    </g>
</svg>