<?xml version="1.0" encoding="UTF-8"?>
<svg width="200px" height="100px" viewBox="0 0 200 100" version="1.1" xmlns="http://www.w3.org/2000/svg" xmlns:xlink="http://www.w3.org/1999/xlink">
    <!-- Generator: Sketch 52.2 (67145) - http://www.bohemiancoding.com/sketch -->
    <title>imagemaking / chofer de reemplazo paso2@1x</title>
    <desc>Created with Sketch.</desc>
    <g id="imagemaking-/-chofer-de-reemplazo-paso2" stroke="none" stroke-width="1" fill="none" fill-rule="evenodd">
        <g id="Asset-209" transform="translate(37.000000, 4.000000)">
            <path d="M26.4810811,71.5983784 C21.2046003,71.5778914 16.9341705,67.3019083 16.9205405,62.0254054 L16.9205405,3.65513514 C16.9338015,2.69080784 17.0973892,1.73444918 17.4054054,0.820540541 L10.7789189,0.820540541 C5.51698335,0.854581843 1.2635815,5.1190747 1.24324324,10.3810811 L1.24324324,68.8135135 C1.29067301,74.0560994 5.53622705,78.2905829 10.7789189,78.3243243 L101.287027,78.3243243 C105.455596,78.2938911 109.127882,75.5760977 110.375135,71.5983784 L26.4810811,71.5983784 Z" id="Path" fill="#DFE0DF"></path>
            <path d="M100.889189,79.1448649 L10.3810811,79.1448649 C4.6506083,79.1380143 0.00685054264,74.4942566 0,68.7637838 L0,10.3313514 C0.0341535997,4.62030872 4.66994029,0.00672938983 10.3810811,0 L100.889189,0 C106.619662,0.00685054264 111.26342,4.6506083 111.27027,10.3810811 L111.27027,68.8135135 C111.236117,74.5245561 106.60033,79.1381355 100.889189,79.1448649 Z M10.3810811,1.64108108 C5.5747111,1.64108108 1.67837838,5.5374138 1.67837838,10.3437838 L1.67837838,68.7762162 C1.67837838,73.5825862 5.5747111,77.4789189 10.3810811,77.4789189 L100.889189,77.4789189 C103.197289,77.4789189 105.410856,76.5620297 107.042929,74.9299563 C108.675003,73.297883 109.591892,71.0843165 109.591892,68.7762162 L109.591892,10.3437838 C109.591892,5.5374138 105.695559,1.64108108 100.889189,1.64108108 L10.3810811,1.64108108 Z" id="Shape" fill="#303030" fill-rule="nonzero"></path>
            <path d="M95.7297297,42.9664865 L73.5751351,42.9664865 C73.1219631,42.9664865 72.7545946,42.599118 72.7545946,42.1459459 C72.7545946,41.6927739 73.1219631,41.3254054 73.5751351,41.3254054 L95.7297297,41.3254054 C96.1829018,41.3254054 96.5502703,41.6927739 96.5502703,42.1459459 C96.5502703,42.599118 96.1829018,42.9664865 95.7297297,42.9664865 Z" id="Path" fill="#303030"></path>
            <path d="M67.1351351,42.9664865 L60.7945946,42.9664865 C60.3414226,42.9664865 59.9740541,42.599118 59.9740541,42.1459459 C59.9740541,41.6927739 60.3414226,41.3254054 60.7945946,41.3254054 L67.1351351,41.3254054 C67.5883072,41.3254054 67.9556757,41.6927739 67.9556757,42.1459459 C67.9556757,42.599118 67.5883072,42.9664865 67.1351351,42.9664865 Z" id="Path" fill="#303030"></path>
            <path d="M95.7297297,33.5675676 L90.072973,33.5675676 C89.7580183,33.6065577 89.4488188,33.460431 89.2789923,33.1923347 C89.1091657,32.9242384 89.1091657,32.5822481 89.2789923,32.3141518 C89.4488188,32.0460555 89.7580183,31.8999288 90.072973,31.9389189 L95.7297297,31.9389189 C96.1407804,31.9898053 96.4494602,32.3390548 96.4494602,32.7532432 C96.4494602,33.1674317 96.1407804,33.5166811 95.7297297,33.5675676 Z" id="Path" fill="#303030"></path>
            <path d="M83.2972973,33.5675676 L60.7945946,33.5675676 C60.4796399,33.6065577 60.1704405,33.460431 60.0006139,33.1923347 C59.8307873,32.9242384 59.8307873,32.5822481 60.0006139,32.3141518 C60.1704405,32.0460555 60.4796399,31.8999288 60.7945946,31.9389189 L83.2972973,31.9389189 C83.7083479,31.9898053 84.0170278,32.3390548 84.0170278,32.7532432 C84.0170278,33.1674317 83.7083479,33.5166811 83.2972973,33.5675676 Z" id="Path" fill="#303030"></path>
            <path d="M95.7297297,52.527027 L90.072973,52.527027 C89.7580183,52.5660172 89.4488188,52.4198904 89.2789923,52.1517941 C89.1091657,51.8836978 89.1091657,51.5417076 89.2789923,51.2736113 C89.4488188,51.005515 89.7580183,50.8593883 90.072973,50.8983784 L95.7297297,50.8983784 C96.1407804,50.9492648 96.4494602,51.2985143 96.4494602,51.7127027 C96.4494602,52.1268911 96.1407804,52.4761406 95.7297297,52.527027 Z" id="Path" fill="#303030"></path>
            <path d="M83.2972973,52.527027 L60.7945946,52.527027 C60.4796399,52.5660172 60.1704405,52.4198904 60.0006139,52.1517941 C59.8307873,51.8836978 59.8307873,51.5417076 60.0006139,51.2736113 C60.1704405,51.005515 60.4796399,50.8593883 60.7945946,50.8983784 L83.2972973,50.8983784 C83.7083479,50.9492648 84.0170278,51.2985143 84.0170278,51.7127027 C84.0170278,52.1268911 83.7083479,52.4761406 83.2972973,52.527027 Z" id="Path" fill="#303030"></path>
            <path d="M37.5335135,46.2486486 L34.2389189,46.2486486 L34.2389189,43.1281081 C36.1847018,41.992917 37.3820612,39.9105528 37.3843243,37.6578378 L37.3843243,32.8713514 L37.7697297,32.8713514 C38.0609099,32.8747179 38.3411472,32.7605332 38.5470564,32.554624 C38.7529657,32.3487148 38.8671504,32.0684775 38.8637838,31.7772973 L38.8637838,31.6156757 C38.8602162,31.3952493 38.7861483,31.1817594 38.6524324,31.0064865 C39.4652609,30.4982661 39.9800389,29.6263898 40.0324324,28.6691892 C40.0324324,25.3621622 35.9918919,22.6767568 31.0064865,22.6767568 C26.0210811,22.6767568 21.9681081,25.3621622 21.9681081,28.6691892 C22.0697871,29.6665529 22.5950445,30.5721691 23.4102703,31.1556757 C23.3257051,31.3081742 23.2788167,31.4786774 23.2735135,31.652973 L23.2735135,31.8145946 C23.2734946,32.1069227 23.3904658,32.3871005 23.5983375,32.5926366 C23.8062092,32.7981726 24.0876907,32.9119706 24.38,32.9086486 L24.6286486,32.9086486 L24.6286486,37.6951351 C24.6286486,41.1886486 28.6940541,43.787027 27.7864865,43.2772973 L27.7864865,46.2486486 L24.6037838,46.2486486 C22.481473,46.2486461 20.4462677,47.0925808 18.9467339,48.5944467 C17.4472,50.0963126 16.6064291,52.1328269 16.6097297,54.2551351 L16.60972,59.5389189 L45.54,59.5389189 L45.54,54.2551351 C45.54,49.8332747 41.9553739,46.2486486 37.5335135,46.2486486 Z" id="Path" fill="#8DB602"></path>
            <circle id="Oval" fill="#8DB602" cx="107.615135" cy="74.1345946" r="17.5172973"></circle>
            <circle id="Oval" fill="#FFFFFF" cx="104.382703" cy="79.1448649" r="2.10108108"></circle>
            <polygon id="Rectangle" fill="#FFFFFF" transform="translate(106.094707, 77.425331) rotate(-135.000000) translate(-106.094707, -77.425331) " points="103.999842 74.8828989 108.189571 74.8828989 108.189571 79.9677638 103.999842 79.9677638"></polygon>
            <circle id="Oval" fill="#FFFFFF" cx="114.415676" cy="69.1118919" r="2.10108108"></circle>
            <polygon id="Rectangle" fill="#FFFFFF" transform="translate(111.057172, 72.468865) rotate(45.000000) translate(-111.057172, -72.468865) " points="108.962307 67.7756219 113.152036 67.7756219 113.152036 77.1621083 108.962307 77.1621083"></polygon>
            <circle id="Oval" fill="#FFFFFF" cx="104.382703" cy="79.1448649" r="2.10108108"></circle>
            <circle id="Oval" fill="#FFFFFF" cx="100.827027" cy="75.5767568" r="2.10108108"></circle>
            <polygon id="Rectangle" fill="#FFFFFF" transform="translate(102.660086, 77.423883) rotate(-45.000000) translate(-102.660086, -77.423883) " points="100.565221 74.881451 104.754951 74.881451 104.754951 79.9663159 100.565221 79.9663159"></polygon>
        </g>
    </g>
</svg>