<?xml version="1.0" encoding="UTF-8"?>
<svg width="200px" height="100px" viewBox="0 0 200 100" version="1.1" xmlns="http://www.w3.org/2000/svg" xmlns:xlink="http://www.w3.org/1999/xlink">
    <!-- Generator: Sketch 52 (66869) - http://www.bohemiancoding.com/sketch -->
    <title>imagemaking / mail</title>
    <desc>Created with Sketch.</desc>
    <g id="imagemaking-/-mail" stroke="none" stroke-width="1" fill="none" fill-rule="evenodd">
        <g id="img_mail" transform="translate(15.000000, 10.000000)">
            <path d="M78.58,51.05 C75.0288091,51.05 72.15,48.1711909 72.15,44.62 L72.15,0.83 L57.15,0.83 C53.5988091,0.83 50.72,3.70880906 50.72,7.26 L50.72,51.06 C50.72,54.6111909 53.5988091,57.49 57.15,57.49 L131.5,57.49 C135.051191,57.49 137.93,54.6111909 137.93,51.06 L78.58,51.06 L78.58,51.05 Z" id="Path" fill="#E0E0E0"></path>
            <path d="M131,58.16 L56.63,58.16 C52.6746614,58.1545332 49.4664997,54.955308 49.45,51 L49.45,7.18 C49.4555082,3.2168793 52.6668793,0.0055081674 56.63,0 L131,0 C134.963121,0.0055081674 138.174492,3.2168793 138.18,7.18 L138.18,51 C138.1635,54.955308 134.955339,58.1545332 131,58.16 Z M56.63,1.5 C53.514849,1.53284601 51.0053019,4.06468032 51,7.18 L51,51 C51.0055043,54.1346946 53.5453054,56.6744957 56.68,56.68 L131,56.68 C134.125255,56.6634931 136.650044,54.1252989 136.65,51 L136.65,7.18 C136.650044,4.0547011 134.125255,1.51650686 131,1.5 L56.63,1.5 Z" id="Shape" fill="#303030" fill-rule="nonzero"></path>
            <path d="M92.57,30.43 C90.7463519,30.4263852 88.9572251,29.9324757 87.39,29 L50.76,3.14 L51.63,1.92 L88.21,27.75 C90.8519608,29.2983765 94.1161407,29.3326162 96.79,27.84 L136,1.9 L136.83,3.15 L97.58,29.15 C96.0443942,29.9916491 94.3211295,30.4319243 92.57,30.43 Z" id="Path" fill="#303030"></path>
            <path d="M34.33,43.21 L20.11,43.21 C19.6957864,43.21 19.36,42.8742136 19.36,42.46 C19.36,42.0457864 19.6957864,41.71 20.11,41.71 L34.33,41.71 C34.7442136,41.71 35.08,42.0457864 35.08,42.46 C35.08,42.8742136 34.7442136,43.21 34.33,43.21 Z" id="Path" fill="#303030"></path>
            <path d="M26.64,53.11 L0.75,53.11 C0.335786438,53.11 5.07265313e-17,52.7742136 0,52.36 C-5.07265313e-17,51.9457864 0.335786438,51.61 0.75,51.61 L26.64,51.61 C27.0542136,51.61 27.39,51.9457864 27.39,52.36 C27.39,52.7742136 27.0542136,53.11 26.64,53.11 Z" id="Path" fill="#303030"></path>
            <path d="M47.22,66.75 L21.32,66.75 C20.9057864,66.75 20.57,66.4142136 20.57,66 C20.57,65.5857864 20.9057864,65.25 21.32,65.25 L47.22,65.25 C47.6342136,65.25 47.97,65.5857864 47.97,66 C47.97,66.4142136 47.6342136,66.75 47.22,66.75 Z" id="Path" fill="#303030"></path>
            <ellipse id="Oval" fill="#E0E0E0" cx="92.8" cy="76.84" rx="42.6" ry="3.91"></ellipse>
            <circle id="Oval" fill="#8DB602" cx="135.4" cy="55.27" r="16.06"></circle>
            <circle id="Oval" fill="#FFFFFF" cx="132.44" cy="59.87" r="1.92"></circle>
            <rect id="Rectangle" fill="#FFFFFF" transform="translate(134.017875, 58.283366) rotate(-135.000000) translate(-134.017875, -58.283366) " x="132.097875" y="55.953366" width="3.84" height="4.66"></rect>
            <circle id="Oval" fill="#FFFFFF" cx="141.64" cy="50.66" r="1.92"></circle>
            <rect id="Rectangle" fill="#FFFFFF" transform="translate(138.566797, 53.736634) rotate(45.000000) translate(-138.566797, -53.736634) " x="136.646797" y="49.436634" width="3.84" height="8.6"></rect>
            <circle id="Oval" fill="#FFFFFF" cx="132.44" cy="59.87" r="1.92"></circle>
            <circle id="Oval" fill="#FFFFFF" cx="129.17" cy="56.6" r="1.92"></circle>
            <rect id="Rectangle" fill="#FFFFFF" transform="translate(130.859248, 58.295261) rotate(-45.000000) translate(-130.859248, -58.295261) " x="128.939248" y="55.9652609" width="3.84" height="4.66"></rect>
        </g>
    </g>
</svg>