<?xml version="1.0" encoding="UTF-8"?>
<svg width="200px" height="100px" viewBox="0 0 200 100" version="1.1" xmlns="http://www.w3.org/2000/svg" xmlns:xlink="http://www.w3.org/1999/xlink">
    <!-- Generator: Sketch 53 (72520) - https://sketchapp.com -->
    <title>imagemaking / pagos 1 mayor seguridad@1x</title>
    <desc>Created with Sketch.</desc>
    <defs>
        <polygon id="path-1" points="0.7497 0.0003 65.7497 0.0003 65.7497 55 0.7497 55"></polygon>
        <polygon id="path-3" points="0.421806667 1.84614375 73.8732067 1.84614375 73.8732067 10.3125 0.421806667 10.3125"></polygon>
    </defs>
    <g id="imagemaking-/-pagos-1-mayor-seguridad" stroke="none" stroke-width="1" fill="none" fill-rule="evenodd">
        <g id="Group-14" transform="translate(61.000000, 0.000000)">
            <g id="Group-3" transform="translate(0.000000, 24.806800)">
                <mask id="mask-2" fill="white">
                    <use xlink:href="#path-1"></use>
                </mask>
                <g id="Clip-2"></g>
                <path d="M14.6627,46.9883 C11.3497,46.9883 8.6627,44.3013 8.6627,40.9883 L8.6627,0.0003 L6.7497,0.0003 C3.4357,0.0003 0.7497,2.6863 0.7497,6.0003 L0.7497,49.0003 C0.7497,52.3143 3.4357,55.0003 6.7497,55.0003 L59.7497,55.0003 C63.0637,55.0003 65.7497,52.3143 65.7497,49.0003 L65.7497,46.9883 L14.6627,46.9883 Z" id="Fill-1" fill="#E0E0E0" mask="url(#mask-2)"></path>
            </g>
            <path d="M19.7388,24.0031 L19.7388,14.2611 C19.7388,6.7991 25.7878,0.7501 33.2498,0.7501 C40.7128,0.7501 46.7608,6.7991 46.7608,14.2611 L46.7608,24.0031" id="Stroke-4" stroke="#303030" stroke-width="2" stroke-linecap="round"></path>
            <path d="M59.7496,79.0031 L6.7496,79.0031 C3.4366,79.0031 0.7496,76.3161 0.7496,73.0031 L0.7496,30.0031 C0.7496,26.6901 3.4366,24.0031 6.7496,24.0031 L59.7496,24.0031 C63.0636,24.0031 65.7496,26.6901 65.7496,30.0031 L65.7496,73.0031 C65.7496,76.3161 63.0636,79.0031 59.7496,79.0031 Z" id="Stroke-6" stroke="#303030" stroke-width="2" stroke-linecap="round"></path>
            <path d="M39.2496,47.3761 C39.2496,44.0631 36.5636,41.3761 33.2496,41.3761 C29.9366,41.3761 27.2496,44.0631 27.2496,47.3761 C27.2496,49.6021 28.4756,51.5211 30.2736,52.5571 L27.2496,61.6301 L39.2496,61.6301 L36.2266,52.5571 C38.0246,51.5211 39.2496,49.6021 39.2496,47.3761" id="Fill-8" fill="#8DB602"></path>
            <path d="M82.065,55.1466 C82.065,64.0176 74.874,71.2086 66.003,71.2086 C57.132,71.2086 49.942,64.0176 49.942,55.1466 C49.942,46.2766 57.132,39.0846 66.003,39.0846 C74.874,39.0846 82.065,46.2766 82.065,55.1466" id="Fill-10" fill="#8DB602"></path>
            <path d="M74.1578,50.5431 C74.1578,49.4811 73.2988,48.6221 72.2368,48.6221 C71.6868,48.6221 71.1948,48.8561 70.8448,49.2261 L64.9028,55.1661 L64.8988,55.1631 L63.0368,57.0261 L61.1738,55.1631 L61.1688,55.1671 C60.8178,54.7931 60.3228,54.5561 59.7698,54.5561 C58.7088,54.5561 57.8478,55.4161 57.8478,56.4771 C57.8478,57.0301 58.0858,57.5251 58.4608,57.8761 L58.4558,57.8801 L61.6458,61.0701 C61.6688,61.0951 61.6918,61.1181 61.7168,61.1411 L61.7508,61.1751 L61.7538,61.1721 C62.0948,61.4801 62.5418,61.6721 63.0368,61.6721 C63.5318,61.6721 63.9778,61.4801 64.3188,61.1721 L64.3218,61.1751 L64.3558,61.1411 C64.3808,61.1181 64.4038,61.0951 64.4278,61.0701 L67.4738,58.0231 L67.4768,58.0261 L73.5608,51.9421 L73.5538,51.9361 C73.9248,51.5851 74.1578,51.0931 74.1578,50.5431" id="Fill-12" fill="#FFFFFF"></path>
        </g>
        <g id="Group-7" transform="translate(58.000000, 88.000000)">
            <mask id="mask-4" fill="white">
                <use xlink:href="#path-3"></use>
            </mask>
            <g id="Clip-6"></g>
            <path d="M73.8732067,6.08045625 C73.8732067,8.41726875 57.4308067,10.3127062 37.1464733,10.3127062 C16.8662733,10.3127062 0.421806667,8.41726875 0.421806667,6.08045625 C0.421806667,3.74158125 16.8662733,1.84614375 37.1464733,1.84614375 C57.4308067,1.84614375 73.8732067,3.74158125 73.8732067,6.08045625" id="Fill-5" fill="#DFE0DF" mask="url(#mask-4)"></path>
        </g>
    </g>
</svg>