<?xml version="1.0" encoding="UTF-8"?>
<svg width="200px" height="100px" viewBox="0 0 200 100" version="1.1" xmlns="http://www.w3.org/2000/svg" xmlns:xlink="http://www.w3.org/1999/xlink">
    <!-- Generator: Sketch 53.2 (72643) - https://sketchapp.com -->
    <title>imagemaking /paso 1</title>
    <desc>Created with Sketch.</desc>
    <g id="imagemaking-/paso-1" stroke="none" stroke-width="1" fill="none" fill-rule="evenodd">
        <g id="imagemaking-auto-inspección-1" transform="translate(37.000000, 0.000000)">
            <path d="M29.1219512,78.1707317 C23.3796349,78.1572836 18.7316916,73.4984296 18.7317073,67.7560976 L18.7317073,4.34146341 C18.734025,3.28008844 18.9069633,2.22598833 19.2439024,1.2195122 L12.0487805,1.2195122 C6.31597108,1.23292233 1.67194672,5.87694669 1.65853659,11.6097561 L1.65853659,75.0243902 C1.65852084,80.7667223 6.30646416,85.4255763 12.0487805,85.4390244 L110.439024,85.4390244 C114.928349,85.3580777 118.860402,82.4090374 120.195122,78.1219512 L29.1219512,78.1707317 Z" id="Path" fill="#DFE0DF"></path>
            <path d="M110,86.7073171 L11.6097561,86.7073171 C5.19392154,86.6938667 -1.40989845e-05,81.4890194 1.41164478e-15,75.0731707 L1.41164478e-15,11.6585366 C-0.00647547984,8.57296707 1.21305548,5.61120281 3.39030856,3.4248016 C5.56756164,1.2384004 8.52418655,0.00646191862 11.6097561,0 L110,0 C116.415849,-1.40989845e-05 121.620696,5.19392154 121.634146,11.6097561 L121.634146,75.0243902 C121.640622,78.1164285 120.418521,81.0843965 118.236694,83.2753717 C116.054867,85.466347 113.092038,86.7008551 110,86.7073171 Z M11.6097561,2.43902439 C6.55046259,2.45242656 2.45242656,6.55046259 2.43902439,11.6097561 L2.43902439,75.0243902 C2.43900656,80.0932061 6.54095806,84.2060671 11.6097561,84.2195122 L110,84.2195122 C115.078326,84.2195122 119.195122,80.1027159 119.195122,75.0243902 L119.195122,11.6097561 C119.181677,6.54095806 115.068816,2.43900656 110,2.43902439 L11.6097561,2.43902439 Z" id="Shape" fill="#000000" fill-rule="nonzero"></path>
            <circle id="Oval" fill="#8DB602" cx="34.097561" cy="35" r="8.07317073"></circle>
            <path d="M32.8536585,45.1219512 L35.2926829,45.1219512 C43.7251281,45.1219512 50.5609756,51.9577987 50.5609756,60.3902439 L50.5609756,62.1707317 L17.5853659,62.1707317 L17.5853659,60.3902439 C17.5853659,51.9577987 24.4212133,45.1219512 32.8536585,45.1219512 Z" id="Path" fill="#8DB602"></path>
            <path d="M104.414634,44.5609756 L80.3170732,44.5609756 C79.6435552,44.5609756 79.097561,44.0149814 79.097561,43.3414634 C79.1105368,42.673394 79.6490038,42.1349271 80.3170732,42.1219512 L104.414634,42.1219512 C105.088152,42.1219512 105.634146,42.6679454 105.634146,43.3414634 C105.634146,44.0149814 105.088152,44.5609756 104.414634,44.5609756 Z" id="Path" fill="#8DB602"></path>
            <path d="M73.3658537,44.5609756 L66.4146341,44.5609756 C65.7411162,44.5609756 65.195122,44.0149814 65.195122,43.3414634 C65.195122,42.6679454 65.7411162,42.1219512 66.4146341,42.1219512 L73.3658537,42.1219512 C74.0393716,42.1219512 74.5853659,42.6679454 74.5853659,43.3414634 C74.5853659,44.0149814 74.0393716,44.5609756 73.3658537,44.5609756 Z" id="Path" fill="#8DB602"></path>
            <path d="M104.414634,34.2926829 L98.2439024,34.2926829 C97.5703845,34.2926829 97.0243902,33.7466887 97.0243902,33.0731707 C97.0243902,32.3996527 97.5703845,31.8536585 98.2439024,31.8536585 L104.414634,31.8536585 C105.088152,31.8536585 105.634146,32.3996527 105.634146,33.0731707 C105.634146,33.7466887 105.088152,34.2926829 104.414634,34.2926829 Z" id="Path" fill="#8DB602"></path>
            <path d="M90.9268293,34.2926829 L66.5365854,34.2926829 C65.8630674,34.2926829 65.3170732,33.7466887 65.3170732,33.0731707 C65.3170732,32.3996527 65.8630674,31.8536585 66.5365854,31.8536585 L90.9268293,31.8536585 C91.6003473,31.8536585 92.1463415,32.3996527 92.1463415,33.0731707 C92.1463415,33.7466887 91.6003473,34.2926829 90.9268293,34.2926829 Z" id="Path" fill="#8DB602"></path>
            <path d="M104.414634,54.9756098 L98.2439024,54.9756098 C97.575833,54.9626339 97.0373661,54.424167 97.0243902,53.7560976 C97.0243902,53.0825796 97.5703845,52.5365854 98.2439024,52.5365854 L104.414634,52.5365854 C105.088152,52.5365854 105.634146,53.0825796 105.634146,53.7560976 C105.634146,54.4296155 105.088152,54.9756098 104.414634,54.9756098 Z" id="Path" fill="#8DB602"></path>
            <path d="M90.9268293,54.9756098 L66.5365854,54.9756098 C65.8630674,54.9756098 65.3170732,54.4296155 65.3170732,53.7560976 C65.3170732,53.0825796 65.8630674,52.5365854 66.5365854,52.5365854 L90.9268293,52.5365854 C91.6003473,52.5365854 92.1463415,53.0825796 92.1463415,53.7560976 C92.1463415,54.4296155 91.6003473,54.9756098 90.9268293,54.9756098 Z" id="Path" fill="#8DB602"></path>
            <circle id="Oval" fill="#8DB602" cx="102.682927" cy="76.1707317" r="21.7073171"></circle>
            <path d="M102.682927,98.5853659 C90.3068501,98.571899 80.2837133,88.53057 80.2926888,76.1544892 C80.3016643,63.7784085 90.3393551,53.7516282 102.715438,53.7561123 C115.091522,53.7605964 125.121944,63.7946477 125.121951,76.1707317 C125.108491,88.5539366 115.066139,98.5853732 102.682927,98.5853659 L102.682927,98.5853659 Z M102.682927,55.195122 C91.0984174,55.195122 81.7073171,64.5862223 81.7073171,76.1707317 C81.7073171,87.7552411 91.0984174,97.1463415 102.682927,97.1463415 C114.267436,97.1463415 123.658537,87.7552411 123.658537,76.1707317 C123.645096,64.5917941 114.261864,55.2085624 102.682927,55.195122 L102.682927,55.195122 Z" id="Shape" fill="#8DB602" fill-rule="nonzero"></path>
            <path d="M115.02439,69.195122 C114.98778,68.0570247 114.283612,67.0475195 113.228198,66.6200769 C112.172784,66.1926343 110.964592,66.4276333 110.146341,67.2195122 L110.146341,67.2195122 L101.146341,76.2195122 L101.146341,76.2195122 L98.195122,79.0243902 L95.3658537,76.195122 L95.3658537,76.195122 C94.8238194,75.5936946 94.0535294,75.2483922 93.2439024,75.2439024 C92.0525647,75.2458143 90.9833787,75.9755327 90.5474296,77.0842427 C90.1114806,78.1929526 90.397312,79.4554692 91.2682927,80.2682927 L91.2682927,80.2682927 L96.1463415,85.1463415 L96.1463415,85.1463415 L96.1463415,85.1463415 L96.1463415,85.1463415 C97.232345,86.1563852 98.9139965,86.1563852 100,85.1463415 L100,85.1463415 L100,85.1463415 L100,85.1463415 L104.878049,80.4878049 L104.878049,80.4878049 L114.073171,71.2682927 L114.073171,71.2682927 C114.667106,70.7413269 115.012273,69.9890393 115.02439,69.195122 L115.02439,69.195122 Z" id="Path" fill="#FFFFFF"></path>
        </g>
    </g>
</svg>