<?xml version="1.0" encoding="UTF-8"?>
<svg width="200px" height="100px" viewBox="0 0 200 100" version="1.1" xmlns="http://www.w3.org/2000/svg" xmlns:xlink="http://www.w3.org/1999/xlink">
    <!-- Generator: Sketch 52 (66869) - http://www.bohemiancoding.com/sketch -->
    <title>imagemaking / servicio tecnologico</title>
    <desc>Created with Sketch.</desc>
    <g id="imagemaking-/-servicio-tecnologico" stroke="none" stroke-width="1" fill="none" fill-rule="evenodd">
        <g id="Imagemaking_tecnologico" transform="translate(37.000000, 4.000000)">
            <polygon id="Path" fill="#E0E0E0" points="33.17 67.25 15.82 67.25 15.82 8.31 33.17 8.31 33.17 0.75 8.2 0.75 8.2 74.81 120.78 74.81 120.78 67.25"></polygon>
            <path d="M34.32,85.76 C29.5703512,85.76 25.72,81.9096488 25.72,77.16 L25.72,74.81 L3.25,74.81 C1.86928813,74.81 0.75,75.9292881 0.75,77.31 L0.75,82.15 C0.75,86.8996488 4.60035115,90.75 9.35,90.75 L117.12,90.75 C120.467243,90.7456944 123.505642,88.7929956 124.9,85.75 L34.32,85.76 Z" id="Path" fill="#E0E0E0"></path>
            <path d="M120.78,75.56 L8.19,75.56 C7.77578644,75.56 7.44,75.2242136 7.44,74.81 L7.44,0.75 C7.44538581,0.338037936 7.77803794,0.00538581231 8.19,0 L120.78,0 C121.191962,0.00538581231 121.524614,0.338037936 121.53,0.75 L121.53,74.81 C121.53,75.2242136 121.194214,75.56 120.78,75.56 Z M8.94,74.06 L120,74.06 L120,1.5 L8.94,1.5 L8.94,74.06 Z" id="Shape" fill="#303030" fill-rule="nonzero"></path>
            <path d="M111.83,68 L15.83,68 C15.4157864,68 15.08,67.6642136 15.08,67.25 L15.08,8.31 C15.08,7.89578644 15.4157864,7.56 15.83,7.56 L111.83,7.56 C112.029733,7.55728216 112.222082,7.63542674 112.363328,7.77667248 C112.504573,7.91791822 112.582718,8.11026685 112.58,8.31 L112.58,67.25 C112.582718,67.4497332 112.504573,67.6420818 112.363328,67.7833275 C112.222082,67.9245733 112.029733,68.0027178 111.83,68 Z M16.57,66.5 L111.08,66.5 L111.08,9.06 L16.57,9.06 L16.57,66.5 Z" id="Shape" fill="#303030" fill-rule="nonzero"></path>
            <path d="M117.12,91.5 L9.35,91.5 C4.18613759,91.5 9.80525307e-15,87.3138624 0,82.15 L0,77.31 C0.00549053249,75.5173537 1.45735374,74.0654905 3.25,74.06 L123.25,74.06 C125.042646,74.0654905 126.494509,75.5173537 126.5,77.31 L126.5,82.15 C126.500013,84.6349808 125.510809,87.0177476 123.75085,88.7720777 C121.990891,90.5264077 119.604968,91.5079732 117.12,91.5 Z M3.25,75.56 C2.28350169,75.56 1.5,76.3435017 1.5,77.31 L1.5,82.15 C1.50550942,86.4831512 5.01684884,89.9944906 9.35,90 L117.12,90 C119.206333,90.0053104 121.20918,89.1809232 122.687256,87.7084745 C124.165332,86.2360258 124.997352,84.2363381 125,82.15 L125,77.31 C125,76.3435017 124.216498,75.56 123.25,75.56 L3.25,75.56 Z" id="Shape" fill="#303030" fill-rule="nonzero"></path>
            <path d="M40.71,75.63 L89.53,75.63 C89.5273771,77.0912616 88.9423071,78.4911847 87.9043557,79.5197513 C86.8664044,80.5483179 85.4612251,81.1206491 84,81.11 L46.2,81.11 C43.1679567,81.11 40.71,78.6520433 40.71,75.62 L40.71,75.63 Z" id="Path" fill="#8DB602"></path>
            <path d="M15.82,68 C15.6352975,68.0022064 15.4566258,67.9343112 15.32,67.81 C15.1727173,67.6761176 15.0846932,67.4891809 15.075315,67.2903625 C15.0659368,67.0915441 15.1359736,66.8971517 15.27,66.75 L29.75,50.69 L29.75,37.85 L22.8,34 C22.5755091,33.8803319 22.428225,33.6537409 22.41,33.4 C22.3875673,33.1454481 22.5017383,32.8980776 22.71,32.75 L30,27.21 C30.3313709,26.9587104 30.8037104,27.0236292 31.055,27.355 C31.3062895,27.6863709 31.2413708,28.1587104 30.91,28.41 L24.49,33.25 L30.82,36.75 C31.0580608,36.8850508 31.2065392,37.1363219 31.21,37.41 L31.21,51 C31.2105177,51.1862623 31.1388316,51.3654774 31.01,51.5 L16.38,67.76 C16.2349711,67.914595 16.031968,68.0015964 15.82,68 Z" id="Path" fill="#303030"></path>
            <path d="M30.5,51.73 C30.2022865,51.718059 29.9398748,51.5310208 29.8314645,51.2534904 C29.7230542,50.9759601 29.7892073,50.6605762 30,50.45 L44.62,36 C44.7926574,35.8270673 45.0403921,35.7519962 45.28,35.8 L59.87,38.56 L59.87,22.11 C59.8703066,21.8459303 60.0113087,21.6020347 60.24,21.47 C60.4683902,21.3357137 60.7516098,21.3357137 60.98,21.47 L78.65,31.4 C79.0021777,31.6060997 79.1249633,32.0559401 78.9263339,32.4123846 C78.7277046,32.768829 78.2805527,32.9010707 77.92,32.71 L61.37,23.4 L61.37,39.48 C61.3700272,39.7031212 61.2666105,39.9136481 61.09,40.05 C60.9243585,40.1985685 60.6972375,40.2581412 60.48,40.21 L45.39,37.36 L31,51.51 C30.8700057,51.6480217 30.6895832,51.7274076 30.5,51.73 Z" id="Path" fill="#303030"></path>
            <path d="M46.3,63 C46.0628776,62.9877362 45.8465342,62.8609142 45.72,62.66 L40.44,54.38 L23.44,59.84 C23.2517291,59.9027798 23.0461313,59.8873038 22.8693799,59.7970478 C22.6926284,59.7067917 22.5595387,59.5493208 22.5,59.36 C22.4207476,59.164305 22.4276511,58.9442693 22.5190153,58.7539273 C22.6103794,58.5635853 22.7777407,58.4205694 22.98,58.36 L40.53,52.72 C40.8537188,52.6201044 41.2044684,52.7465374 41.39,53.03 L46.39,60.95 L54.56,51.36 C54.8232462,51.0827428 55.2514788,51.0442019 55.56,51.27 L61.72,56.45 C62.0366122,56.7170506 62.0810839,57.1884498 61.82,57.51 C61.6917074,57.6630218 61.5076886,57.7585645 61.3087182,57.7754583 C61.1097477,57.792352 60.912255,57.7292017 60.76,57.6 L55.17,52.9 L46.82,62.69 C46.6987977,62.8627516 46.5096062,62.9755388 46.3,63 Z" id="Path" fill="#303030"></path>
        </g>
    </g>
</svg>