<?xml version="1.0" encoding="UTF-8"?>
<svg width="200px" height="100px" viewBox="0 0 200 100" version="1.1" xmlns="http://www.w3.org/2000/svg" xmlns:xlink="http://www.w3.org/1999/xlink">
    <!-- Generator: Sketch 52.2 (67145) - http://www.bohemiancoding.com/sketch -->
    <title>imagemaking / servicio tecnologico</title>
    <desc>Created with Sketch.</desc>
    <g id="imagemaking-/-servicio-tecnologico" stroke="none" stroke-width="1" fill="none" fill-rule="evenodd">
        <g id="im_servicio-tecnologico-bug2" transform="translate(37.000000, 4.000000)">
            <polygon id="Path" fill="#E0E0E0" points="33.433254 67.989011 15.9455556 67.989011 15.9455556 8.40131868 33.433254 8.40131868 33.433254 0.758241758 8.26507937 0.758241758 8.26507937 75.6320879 121.738571 75.6320879 121.738571 67.989011"></polygon>
            <path d="M34.592381,86.7024176 C29.8050365,86.7024176 25.924127,82.8097549 25.924127,78.0079121 L25.924127,75.6320879 L3.27579365,75.6320879 C1.88412375,75.6320879 0.755952381,76.7636759 0.755952381,78.1595604 L0.755952381,83.0527473 C0.755952381,87.85459 4.63686187,91.7472527 9.42420635,91.7472527 L118.049524,91.7472527 C121.423332,91.7428998 124.485846,89.7687428 125.89127,86.6923077 L34.592381,86.7024176 Z" id="Path" fill="#E0E0E0"></path>
            <rect id="Rectangle" stroke="#303030" stroke-width="1.51648352" stroke-linejoin="round" x="8.255" y="0.758241758" width="113.473492" height="74.8738462"></rect>
            <rect id="Rectangle" stroke="#303030" stroke-width="1.51648352" stroke-linejoin="round" x="15.9455556" y="8.40131868" width="96.7719841" height="59.5978022"></rect>
            <path d="M3.27579365,75.6320879 L124.228175,75.6320879 C125.619845,75.6320879 126.748016,76.7636759 126.748016,78.1595604 L126.748016,83.0527473 C126.748016,87.85459 122.867106,91.7472527 118.079762,91.7472527 L9.42420635,91.7472527 C4.63686187,91.7472527 0.755952381,87.85459 0.755952381,83.0527473 L0.755952381,78.1595604 C0.755952381,76.7636759 1.88412375,75.6320879 3.27579365,75.6320879 Z" id="Path" stroke="#303030" stroke-width="1.51648352" stroke-linejoin="round"></path>
            <path d="M41.0330952,76.4610989 L90.2405556,76.4610989 C90.2379119,77.9384183 89.6481984,79.3537252 88.6020093,80.3935947 C87.5558203,81.4334643 86.1394888,82.0120848 84.6666667,82.0013187 L46.5666667,82.0013187 C43.5105596,82.0013187 41.0330952,79.5163514 41.0330952,76.450989 L41.0330952,76.4610989 Z" id="Path" fill="#8DB602"></path>
            <path d="M65.9996825,43.7556044 L65.9996825,38.7006593 C65.9990434,36.3095206 66.9368362,34.0142309 68.6102381,32.3112088 C67.4813217,31.8318408 66.2680545,31.5843272 65.0421429,31.5832967 C62.6275304,31.5698414 60.3072089,32.5225295 58.5950705,34.230365 C56.8829322,35.9382006 55.9202802,38.2602354 55.9203175,40.6821978 L55.9203175,45.7371429 C55.9202802,48.1591053 56.8829322,50.4811401 58.5950705,52.1889756 C60.3072089,53.8968111 62.6275304,54.8494993 65.0421429,54.836044 C67.4855959,54.8636883 69.8368308,53.9013917 71.5634921,52.167033 C68.186178,50.7467206 65.9915384,47.4288403 65.9996825,43.7556044 Z" id="Path" fill="#E0E0E0"></path>
            <path d="M64.9111111,24.9208791 C62.2168382,24.9208791 60.0326984,27.1116335 60.0326984,29.8140659 L60.0326984,32.9683516 C63.0080872,31.0646993 66.814135,31.0646993 69.7895238,32.9683516 L69.7895238,29.8140659 C69.7895238,27.1116335 67.605384,24.9208791 64.9111111,24.9208791 Z" id="Path" fill="#E0E0E0"></path>
            <rect id="Rectangle" stroke="#303030" stroke-width="1.51648352" stroke-linecap="round" stroke-linejoin="round" x="55.9303968" y="31.5428571" width="18.2234921" height="23.3740659" rx="9.11174603"></rect>
            <path d="M52.2111111,32.7358242 L52.2111111,33.4232967 C52.2111111,34.5119084 52.6422547,35.5559334 53.4096952,36.3256981 C54.1771358,37.0954628 55.2180085,37.5279121 56.3033333,37.5279121" id="Path" stroke="#303030" stroke-width="1.51648352" stroke-linecap="round" stroke-linejoin="round"></path>
            <path d="M55.7892857,43.6544907 L55.7388889,43.6545055 C53.4708,43.650273 51.2944805,44.5525427 49.6912698,46.1617582" id="Path" stroke="#303030" stroke-width="1.51648352" stroke-linecap="round" stroke-linejoin="round"></path>
            <path d="M56.182381,48.4263736 L55.1744444,49.4373626 C53.7312875,50.8899207 52.9196354,52.8561422 52.9166667,54.9068132" id="Path" stroke="#303030" stroke-width="1.51648352" stroke-linecap="round" stroke-linejoin="round"></path>
            <path d="M77.8731746,32.7358242 L77.8731746,33.4232967 C77.8731746,34.5119084 77.442031,35.5559334 76.6745905,36.3256981 C75.9071499,37.0954628 74.8662772,37.5279121 73.7809524,37.5279121" id="Path" stroke="#303030" stroke-width="1.51648352" stroke-linecap="round" stroke-linejoin="round"></path>
            <path d="M74.295,43.6545055 L74.3453968,43.6545055 C76.6139267,43.6480313 78.7910709,44.5506429 80.3930159,46.1617582" id="Path" stroke="#303030" stroke-width="1.51648352" stroke-linecap="round" stroke-linejoin="round"></path>
            <path d="M73.9119841,48.4263736 L74.9199206,49.4373626 C76.3668227,50.8874128 77.1791461,52.8552605 77.1777003,54.9068132" id="Path" stroke="#303030" stroke-width="1.51648352" stroke-linecap="round" stroke-linejoin="round"></path>
            <path d="M59.468254,21.4734066 L60.0830952,21.4734066 C61.9829704,21.4733984 63.5246829,23.0152584 63.5302381,24.9208791" id="Path" stroke="#303030" stroke-width="1.51648352" stroke-linecap="round" stroke-linejoin="round"></path>
            <path d="M70.4648413,21.4734066 L69.8399206,21.4734066 C67.9416829,21.4734066 66.4028571,23.0168926 66.4028571,24.9208791" id="Path" stroke="#303030" stroke-width="1.51648352" stroke-linecap="round" stroke-linejoin="round"></path>
            <path d="M64.9111111,31.5428571 C66.6394308,31.5421865 68.3319742,32.0367555 69.7895343,32.9683516 L69.7895238,29.8140659 C69.792207,28.5154889 69.2790946,27.2693233 68.3636324,26.3510888 C67.4481703,25.4328542 66.2057673,24.9181878 64.9111111,24.9208791 C62.2168382,24.9208791 60.0326984,27.1116335 60.0326984,29.8140659 L60.0326984,32.9683516 C61.490248,32.0367555 63.1827914,31.5421865 64.9111111,31.5428571 Z" id="Path" stroke="#303030" stroke-width="1.51648352" stroke-linecap="round" stroke-linejoin="round"></path>
        </g>
    </g>
</svg>