{
  "addClass" : "",
  "alert" : {
    "addClass" : "g-bg-c--red7 g-b--1 g-bc--orange1  g-p--10   g-mt--10 ",
    "icon" : {
      "iconFile" : "icon-mapfre_013_atention",
      "iconClass" : "g-font--30 g-c--orange1  g-pr--10 "
    },
    "textClass" : "",
    "titleClass" : "g-c--orange1",
    "titleText" : "Para solicitar una modificación de nombres, apellidos, fecha de nacimiento, tipo de documento o número de documento necesitaremos fotos de tu documento de identidad como confirmación.",
    "subTitle" : false,
    "btnDetalle": false
  },
  "data1" : [
    {
      "addClass" : "g-form-focus",
      "value" : "Gonsalo Antonio",
      "label" : "Nombres"
    }
  ],
  "data2" : [
    {
      "addClass" : "g-form-focus",
      "value" : "Gutierrez",
      "label" : "Apellido paterno"
    }
  ],
  "data3" : [
    {
      "addClass" : "g-form-focus",
      "value" : "Delgado",
      "label" : "Apellido materno"
    }
  ],
  "data4" : [
    {
      "addClass" : "g-form-focus",
      "iconFile": "icon-mapfre_050_agendar",
      "iconColor": "g-c--green1",
      "value" : "12/03/1985",
      "label" : "Fecha de nacimiento"
    }
  ],
  "data5" : [
    {
      "addClass" : "g-form-focus",
      "value" : "D.N.I",
      "listOption" : [
        { "value" : "DNI" },
        { "value" : "RUC" },
        { "value" : "CEX" }
      ],
      "label" : "Tipo de documento"
    }
  ],
  "data6" : [
    {
      "addClass" : "g-form-focus",
      "value" : "123456777",
      "label" : "Nro. de documento"
    }
  ],
  "data7" : [
    {
      "addClass" : "g-form-focus",
      "value" : "5784933",
      "label" : "Teléfono fijo (opcional)"
    }
  ],
  "data8" : [
    {
      "addClass" : "g-form-focus",
      "value" : "93404303",
      "label" : "Teléfono móvil (opcional)"
    }
  ],
  "data9" : [
    {
      "label" : "Aplicar estos cambios a todas mis pólizas"
    }
  ]
}