{
  "iconFile" : "icon-mapfre_044_logo_landing ",
  "addClass" : "g-font--45",
  "acordion": [
    {
      "classAccordion" : "g-bg-c--gray8 g-c--gray7",
      "dataGroup" : "true",
      "item" : [
        {
          "dataOpen" : "true",
          "itemClass" : "",
          "titleClass" : "",
          "boxClass" : "",
          "clickClass" : " g-pl--20   g-pr--15   g-py--10 ",
          "icon" : {
            "iconFile" : "g-font--25 g-font-md--21 icon-mapfre_022_car2",
            "iconClass" : "g-c--pointer  g-pr--10 g-pl--10 "
          },
          "arrow" : {
            "clickOn" : {
              "iconFile" : "icon-mapfre_008_angle-down",
              "iconClass" : "g-c--pointer"
            },
            "clickOff" : {
              "iconFile" : "icon-mapfre_007_angle-up",
              "iconClass" : "g-c--pointer"
            }
          },
          "textClass" : "g-text--uppercase g-font--bold",
          "text" : "VEHÍCULOS",
          "contentClass" : "",
          "content" : false,
          "list" : [
            {
              "iconFile" : "",
              "text" : "Seguro Vehicular"
            },
            {
              "iconFile" : "",
              "text" : "SOAT"
            },
            {
              "iconFile" : "",
              "text" : "Accidentes"
            },
            {
              "text" : "Robo"
            },
            {
              "text" : "Talleres"
            },
            {
              "text" : "Cotización"
            }
          ],
          "classContent" : "g-hover-nav"
        },
        {
          "dataOpen" : "",
          "itemClass" : "",
          "titleClass" : "",
          "boxClass" : "",
          "clickClass" : " g-pl--20   g-pr--15   g-py--10 ",
          "icon" : {
            "iconFile" : "g-font--25 g-font-md--21 icon-mapfre_023_cross2",
            "iconClass" : "g-c--pointer  g-pr--10 g-pl--10 "
          },
          "arrow" : {
            "clickOn" : {
              "iconFile" : "icon-mapfre_008_angle-down",
              "iconClass" : "g-c--pointer"
            },
            "clickOff" : {
              "iconFile" : "icon-mapfre_007_angle-up",
              "iconClass" : "g-c--pointer"
            }
          },
          "textClass" : "g-text--uppercase g-font--bold",
          "text" : "SALUD",
          "contentClass" : "",
          "content" : false,
          "list" : [
            {
              "iconFile" : "",
              "text" : "Seguro Vehicular"
            },
            {
              "iconFile" : "",
              "text" : "SOAT"
            },
            {
              "iconFile" : "",
              "text" : "Accidentes"
            },
            {
              "text" : "Robo"
            },
            {
              "text" : "Talleres"
            },
            {
              "text" : "Cotización"
            }
          ],
          "classContent" : "g-hover-nav"
        },
        {
          "dataOpen" : "",
          "itemClass" : "",
          "titleClass" : "",
          "boxClass" : "",
          "clickClass" : " g-pl--20   g-pr--15   g-py--10 ",
          "icon" : {
            "iconFile" : "g-font--25 g-font-md--21 icon-mapfre_024_house2",
            "iconClass" : "g-c--pointer  g-pr--10 g-pl--10 "
          },
          "arrow" : {
            "clickOn" : {
              "iconFile" : "icon-mapfre_008_angle-down",
              "iconClass" : "g-c--pointer"
            },
            "clickOff" : {
              "iconFile" : "icon-mapfre_007_angle-up",
              "iconClass" : "g-c--pointer"
            }
          },
          "textClass" : "g-text--uppercase g-font--bold",
          "text" : "HOGAR",
          "contentClass" : "",
          "content" : false,
          "list" : [
            {
              "iconFile" : "",
              "text" : "Seguro Vehicular"
            },
            {
              "iconFile" : "",
              "text" : "SOAT"
            },
            {
              "iconFile" : "",
              "text" : "Accidentes"
            },
            {
              "text" : "Robo"
            },
            {
              "text" : "Talleres"
            },
            {
              "text" : "Cotización"
            }
          ],
          "classContent" : "g-hover-nav"
        },
        {
          "dataOpen" : "",
          "itemClass" : "",
          "titleClass" : "",
          "boxClass" : "",
          "clickClass" : " g-pl--20   g-pr--15   g-py--10 ",
          "icon" : {
            "iconFile" : "g-font--25 g-font-md--21 icon-mapfre_025_heart2",
            "iconClass" : "g-c--pointer  g-pr--10 g-pl--10 "
          },
          "arrow" : {
            "clickOn" : {
              "iconFile" : "icon-mapfre_008_angle-down",
              "iconClass" : "g-c--pointer"
            },
            "clickOff" : {
              "iconFile" : "icon-mapfre_007_angle-up",
              "iconClass" : "g-c--pointer"
            }
          },
          "textClass" : "g-text--uppercase g-font--bold",
          "text" : "VIDA Y AHORROS",
          "contentClass" : "",
          "content" : false,
          "list" : [
            {
              "iconFile" : "",
              "text" : "Seguro Vehicular"
            },
            {
              "iconFile" : "",
              "text" : "SOAT"
            },
            {
              "iconFile" : "",
              "text" : "Accidentes"
            },
            {
              "text" : "Robo"
            },
            {
              "text" : "Talleres"
            },
            {
              "text" : "Cotización"
            }
          ],
          "classContent" : "g-hover-nav"
        },
        {
          "dataOpen" : "",
          "itemClass" : "",
          "titleClass" : "",
          "boxClass" : "",
          "clickClass" : " g-pl--20   g-pr--15   g-py--10 ",
          "icon" : {
            "iconFile" : "g-font--25 g-font-md--21 icon-mapfre_026_decesos",
            "iconClass" : "g-c--pointer  g-pr--10 g-pl--10 "
          },
          "arrow" : false,
          "textClass" : "g-text--uppercase g-font--bold",
          "text" : "DECESOS",
          "contentClass" : "",
          "content" : false,
          "classContent" : "g-hover-nav"
        },
        {
          "dataOpen" : "",
          "itemClass" : "",
          "titleClass" : "",
          "boxClass" : "",
          "clickClass" : " g-pl--20   g-pr--15   g-py--10 ",
          "icon" : {
            "iconFile" : "g-font--25 g-font-md--21 icon-mapfre_027_box",
            "iconClass" : "g-c--pointer  g-pr--10 g-pl--10 "
          },
          "arrow" : false,
          "textClass" : "g-text--uppercase g-font--bold",
          "text" : "SERVICIOS MAPFRE",
          "contentClass" : "",
          "content" : false,
          "classContent" : "g-hover-nav"
        },
        {
          "dataOpen" : "",
          "itemClass" : "",
          "titleClass" : "",
          "boxClass" : "",
          "clickClass" : " g-pl--20   g-pr--15   g-py--10 ",
          "icon" : {
            "iconFile" : "g-font--25 g-font-md--21 icon-mapfre_028_pagos",
            "iconClass" : "g-c--pointer  g-pr--10 g-pl--10 "
          },
          "arrow" : false,
          "textClass" : "g-text--uppercase g-font--bold",
          "text" : "Mis Pagos",
          "contentClass" : "",
          "content" : false,
          "classContent" : "g-hover-nav"
        },
        {
          "dataOpen" : "",
          "itemClass" : "",
          "titleClass" : "",
          "boxClass" : "",
          "clickClass" : " g-pl--20   g-pr--15   g-py--10 ",
          "icon" : {
            "iconFile" : "g-font--25 g-font-md--21 icon-mapfre_029_location-pin2",
            "iconClass" : "g-c--pointer  g-pr--10 g-pl--10 "
          },
          "arrow" : false,
          "textClass" : "g-text--uppercase g-font--bold",
          "text" : "Red de Oficinas",
          "contentClass" : "",
          "content" : false,
          "classContent" : "g-hover-nav"
        }
      ]
    }
  ],
	"list-btn" : [
		{
			"iconFile" : "icon-mapfre_030_call",
			"addClass" : "g-font--30"
		},
		{
			"iconFile" : "icon-mapfre_031_qanda",
			"addClass" : "g-font--30"
		}
	],
  "headerOIM": {
    "icoNav": {
      "iconFile" : "icon-mapfre_047_bars",
      "addClass" : "g-font--30",
      "iconFileOIM" : "icon-mapfre_044_logo_landing ",
      "addClassOIM" : "g-font--30"
    },
    "headOimMobile": {
      "llamada": "",
      "bajada": "Bienvenido a tu área privada",
      "iconFile": "",
      "addClass" : "",
      "icoBack": false
    },
    "datos" : {
      "icoCircle": "icon-mapfre_066_circle",
      "sizeCircle": "g-font--40 g-c--gray1",
      "icoUser": "icon-mapfre_037_user",
      "addClass": "g-c--white1 g-ico--center g-font--20",
      "tittle" : "MIS NOTIFICACIONES",
      "icoAlert": "icon-mapfre_036_notification",
      "icoClose": "icon-mapfre_049_close2",
      "sizeClose": "g-font--40",
      "nameUser": "Hola <b>Gonzalo!</b>",
      "numb" : 3,
      "alertBadge": {
        "icoCircle": "icon-mapfre_066_circle",
        "addClass": "g-font--30 g-c--green1",
        "addClassNum": "g-ico--center g-font--11 g-c--white1"
      },
      "list": [
        {
          "tipo" : "Mi prefil"
        },
        {
          "tipo" : "Cerrar sesión"
        }
      ]
    },
    "alert" : {
      "ico" : "icon-mapfre_014_perfil",
      "icoCircle": "icon-mapfre_066_circle",
      "sizeCircle": "g-font--40 g-c--gray1",
      "addClass": "g-c--white1 g-ico--center g-font--20",
      "tittle" : "MIS NOTIFICACIONES",
      "icoAlert": "icon-mapfre_036_notification",
      "icoClose": "icon-mapfre_049_close2",
      "sizeClose": "g-font--40",
      "numb" : 3,
      "alertBadge": {
        "icoCircle": "icon-mapfre_066_circle",
        "addClass": "g-font--30 g-c--green1",
        "addClassNum": "g-ico--center g-font--11 g-c--white1"
      },
      "list": [
        {
          "ico-drow" : "icon-mapfre_057_circle-check",
          "fech" : "HOY 10:23am",
          "tipo" : "Solicitud de chofer de reemplazo confirmada",
          "desc" : "Lunes 1 NOV - 9:30am"
        },
        {
          "ico-drow" : "icon-mapfre_049_close2",
          "fech" : "24/02  10:23am",
          "tipo" : "Solicitud de chofer de reemplazo cancelada",
          "desc" : "Servicio cancelado"
        },
        {
          "ico-drow" : "icon-mapfre_057_circle-check",
          "fech" : "24/02 10:23am",
          "tipo" : "Pago automático emitido",
          "desc" : "Fondo universitario"
        },
        {
          "ico-drow" : "icon-mapfre_049_close2",
          "fech" : "24/02 10:23am",
          "tipo" : "Pago fallido",
          "desc" : "Seguro SCTR"
        },
        {
          "ico-drow" : "icon-mapfre_057_circle-check",
          "fech" : "24/02 10:23am",
          "tipo" : "Pago pendiente",
          "desc" : "Seguro vehicular - Vence 17/05/18"
        },
        {
          "ico-drow" : "icon-mapfre_049_close2",
          "fech" : "24/02 10:23am",
          "tipo" : "Póliza sin cobertura por inpago",
          "desc" : "Salud - Venció 12/05/18"
        }
      ]
    }
  },
  "dateGeneral": {
    "icon" : {
      "addClass" : "d-none d-lg-flex g-bg-c--gray1 g-c--white1  g-mt--20   g-pl--10 ",
      "iconFile" : "icon-mapfre_014_perfil",
      "iconClass" : ""
    },
    "title" : "DATOS GENERALES",
    "subtitle" : "",
    "dateGeneral" : {
      "addClass" : "",
      "alert" : {
        "addClass" : "g-bg-c--red7 g-b--1 g-bc--orange1  g-p--10   g-mt--10 ",
        "icon" : {
          "iconFile" : "icon-mapfre_013_atention",
          "iconClass" : "g-font--30 g-c--orange1  g-pr--10 "
        },
        "textClass" : "g-font--13",
        "titleClass" : "g-c--orange1",
        "titleText" : "Para solicitar una modificación de nombres, apellidos, fecha de nacimiento, tipo de documento o número de documento necesitaremos fotos de tu documento de identidad como confirmación.",
        "subTitle" : false,
        "btnDetalle": false
      },
      "data1" : [
        {
          "addClass" : "g-form-focus",
          "value" : "Gonsalo Antonio",
          "label" : "Nombres"
        }
      ],
      "data2" : [
        {
          "addClass" : "g-form-focus",
          "value" : "Gutierrez",
          "label" : "Apellido paterno"
        }
      ],
      "data3" : [
        {
          "addClass" : "g-form-focus",
          "value" : "Delgado",
          "label" : "Apellido materno"
        }
      ],
      "data4" : [
        {
          "addClass" : "g-form-focus",
          "iconFile": "icon-mapfre_050_agendar",
          "iconColor": "g-c--green1",
          "value" : "12/03/1985",
          "label" : "Fecha de nacimiento"
        }
      ],
      "data5" : [
        {
          "addClass" : "g-form-focus",
          "value" : "D.N.I",
          "listOption" : [
            { "value" : "DNI" },
            { "value" : "RUC" },
            { "value" : "CEX" }
          ],
          "label" : "Tipo de documento"
        }
      ],
      "data6" : [
        {
          "addClass" : "g-form-focus",
          "value" : "123456777",
          "label" : "Nro. de documento"
        }
      ],
      "data7" : [
        {
          "addClass" : "g-form-focus",
          "value" : "5784933",
          "label" : "Teléfono fijo (opcional)"
        }
      ],
      "data8" : [
        {
          "addClass" : "g-form-focus",
          "value" : "93404303",
          "label" : "Teléfono móvil (opcional)"
        }
      ],
      "data9" : [
        {
          "label" : "Aplicar estos cambios a todas mis pólizas"
        }
      ]
    },
    "dataPrivacy" : "privacy",
    "onclickPrivacy" : "fullModal.open('privacy')",
    "privacy": {
      "closeButton": {
        "addClass" : "g-text--uppercase g-btn-outline  g-px--35  g-modal--close",
        "text" : "Cerrar",
        "data" : "",
        "onclick" : "fullModal.close('privacy')"
      }
    },
    "dataElectronic" : "privacy",
    "onclickElectronic" : "fullModal.open('privacy')",
    "electronic": {
      "closeButton": {
        "addClass" : "g-text--uppercase g-btn-outline  g-px--35  g-modal--close",
        "text" : "Cerrar",
        "data" : "",
        "onclick" : "fullModal.close('electronic')"
      }
    },
    "buttomLink" : {
      "addClass" : "g-text--uppercase g-btn-outline disabled",
      "data" : "terms",
      "text" : "Siguiente"
    }
  },
  "btnCancelar": {
    "btnClass" : "col-6 g-px--10",
    "addClass" : "w-10 w-lg-8 g-btn-outline g-px--0  g-text--uppercase",
    "data" : "",
    "text" : "cancelar",
    "onclick" : ""
  },
  "btnChangeDate": {
    "btnClass" : "col-6 g-px--10",
    "addClass" : "w-10 w-lg-8 g-px--0  g-text--uppercase",
    "data" : "",
    "text" : "CAMBIAR DATOS",
    "onclick" : ""
  },
  "header": {
    "title1": false,
    "title2": {
    },
    "datos" : {
      "label" : "Hola Gonzalo!",
      "list": [
        { "text" : "Mi perfil"},
        { "text" : "Cerrar sesión"}
      ]
    },
    "alert" : {
      "ico" : "icon-mapfre_036_notification",
      "numb" : 3,
      "tittle" : "MIS NOTIFICACIONES",
      "list": [
        {
           "ico-drow" : "icon-mapfre_014_perfil",
           "fech" : "HOY 10:23am",
           "tipo" : "Solicitud de electicista confirmada",
           "desc" : "Seguro vehicular"
         },
         {
           "ico-drow" : "icon-mapfre_014_perfil",
           "fech" : "HOY 10:23am",
           "tipo" : "Solicitud de auxilio mecánico cancelada",
           "desc" : "Seguro vehicular"
         },
         {
           "ico-drow" : "icon-mapfre_014_perfil",
           "fech" : "HOY 10:23am",
           "tipo" : "Solicitud de auxilio mecánico cancelada",
           "desc" : "Seguro vehicular"
         },
         {
           "ico-drow" : "icon-mapfre_014_perfil",
           "fech" : "HOY 10:23am",
           "tipo" : "Solicitud de auxilio mecánico cancelada",
           "desc" : "Seguro vehicular"
         },
         {
           "ico-drow" : "icon-mapfre_014_perfil",
           "fech" : "HOY 10:23am",
           "tipo" : "Solicitud de auxilio mecánico cancelada",
           "desc" : "Seguro vehicular"
         },
         {
           "ico-drow" : "icon-mapfre_014_perfil",
           "fech" : "HOY 10:23am",
           "tipo" : "Solicitud de auxilio mecánico cancelada",
           "desc" : "Seguro vehicular"
         },
         {
           "ico-drow" : "icon-mapfre_014_perfil",
           "fech" : "HOY 10:23am",
           "tipo" : "Solicitud de auxilio mecánico cancelada",
           "desc" : "Seguro vehicular"
         }
      ]
    }
  }
}