{
  "iconFile": "icon-mapfre_044_logo_landing ",
  "addClass": "g-font--45",
  "acordion": [{
    "classAccordion": "g-bg-c--gray8 g-c--gray7",
    "dataGroup": "true",
    "item": [{
        "dataOpen": "true",
        "itemClass": "",
        "titleClass": "",
        "boxClass": "",
        "clickClass": " g-pl--20   g-pr--15   g-py--10 ",
        "icon": {
          "iconFile": "g-font--25 g-font-md--21 icon-mapfre_022_car2",
          "iconClass": "g-c--pointer  g-pr--10 g-pl--10 "
        },
        "arrow": {
          "clickOn": {
            "iconFile": "icon-mapfre_008_angle-down",
            "iconClass": "g-c--pointer"
          },
          "clickOff": {
            "iconFile": "icon-mapfre_007_angle-up",
            "iconClass": "g-c--pointer"
          }
        },
        "textClass": "g-text--uppercase g-font--bold",
        "text": "VEHÍCULOS",
        "contentClass": "",
        "content": false,
        "list": [{
            "iconFile": "",
            "text": "Seguro Vehicular"
          },
          {
            "iconFile": "",
            "text": "SOAT"
          },
          {
            "iconFile": "",
            "text": "Accidentes"
          },
          {
            "text": "Robo"
          },
          {
            "text": "Talleres"
          },
          {
            "text": "Cotización"
          }
        ],
        "classContent": "g-hover-nav"
      },
      {
        "dataOpen": "",
        "itemClass": "",
        "titleClass": "",
        "boxClass": "",
        "clickClass": " g-pl--20   g-pr--15   g-py--10 ",
        "icon": {
          "iconFile": "g-font--25 g-font-md--21 icon-mapfre_023_cross2",
          "iconClass": "g-c--pointer  g-pr--10 g-pl--10 "
        },
        "arrow": {
          "clickOn": {
            "iconFile": "icon-mapfre_008_angle-down",
            "iconClass": "g-c--pointer"
          },
          "clickOff": {
            "iconFile": "icon-mapfre_007_angle-up",
            "iconClass": "g-c--pointer"
          }
        },
        "textClass": "g-text--uppercase g-font--bold",
        "text": "SALUD",
        "contentClass": "",
        "content": false,
        "list": [{
            "iconFile": "",
            "text": "Seguro Vehicular"
          },
          {
            "iconFile": "",
            "text": "SOAT"
          },
          {
            "iconFile": "",
            "text": "Accidentes"
          },
          {
            "text": "Robo"
          },
          {
            "text": "Talleres"
          },
          {
            "text": "Cotización"
          }
        ],
        "classContent": "g-hover-nav"
      },
      {
        "dataOpen": "",
        "itemClass": "",
        "titleClass": "",
        "boxClass": "",
        "clickClass": " g-pl--20   g-pr--15   g-py--10 ",
        "icon": {
          "iconFile": "g-font--25 g-font-md--21 icon-mapfre_024_house2",
          "iconClass": "g-c--pointer  g-pr--10 g-pl--10 "
        },
        "arrow": {
          "clickOn": {
            "iconFile": "icon-mapfre_008_angle-down",
            "iconClass": "g-c--pointer"
          },
          "clickOff": {
            "iconFile": "icon-mapfre_007_angle-up",
            "iconClass": "g-c--pointer"
          }
        },
        "textClass": "g-text--uppercase g-font--bold",
        "text": "HOGAR",
        "contentClass": "",
        "content": false,
        "list": [{
            "iconFile": "",
            "text": "Seguro Vehicular"
          },
          {
            "iconFile": "",
            "text": "SOAT"
          },
          {
            "iconFile": "",
            "text": "Accidentes"
          },
          {
            "text": "Robo"
          },
          {
            "text": "Talleres"
          },
          {
            "text": "Cotización"
          }
        ],
        "classContent": "g-hover-nav"
      },
      {
        "dataOpen": "",
        "itemClass": "",
        "titleClass": "",
        "boxClass": "",
        "clickClass": " g-pl--20   g-pr--15   g-py--10 ",
        "icon": {
          "iconFile": "g-font--25 g-font-md--21 icon-mapfre_025_heart2",
          "iconClass": "g-c--pointer  g-pr--10 g-pl--10 "
        },
        "arrow": {
          "clickOn": {
            "iconFile": "icon-mapfre_008_angle-down",
            "iconClass": "g-c--pointer"
          },
          "clickOff": {
            "iconFile": "icon-mapfre_007_angle-up",
            "iconClass": "g-c--pointer"
          }
        },
        "textClass": "g-text--uppercase g-font--bold",
        "text": "VIDA Y AHORROS",
        "contentClass": "",
        "content": false,
        "list": [{
            "iconFile": "",
            "text": "Seguro Vehicular"
          },
          {
            "iconFile": "",
            "text": "SOAT"
          },
          {
            "iconFile": "",
            "text": "Accidentes"
          },
          {
            "text": "Robo"
          },
          {
            "text": "Talleres"
          },
          {
            "text": "Cotización"
          }
        ],
        "classContent": "g-hover-nav"
      },
      {
        "dataOpen": "",
        "itemClass": "",
        "titleClass": "",
        "boxClass": "",
        "clickClass": " g-pl--20   g-pr--15   g-py--10 ",
        "icon": {
          "iconFile": "g-font--25 g-font-md--21 icon-mapfre_026_decesos",
          "iconClass": "g-c--pointer  g-pr--10 g-pl--10 "
        },
        "arrow": false,
        "textClass": "g-text--uppercase g-font--bold",
        "text": "DECESOS",
        "contentClass": "",
        "content": false,
        "classContent": "g-hover-nav"
      },
      {
        "dataOpen": "",
        "itemClass": "",
        "titleClass": "",
        "boxClass": "",
        "clickClass": " g-pl--20   g-pr--15   g-py--10 ",
        "icon": {
          "iconFile": "g-font--25 g-font-md--21 icon-mapfre_027_box",
          "iconClass": "g-c--pointer  g-pr--10 g-pl--10 "
        },
        "arrow": false,
        "textClass": "g-text--uppercase g-font--bold",
        "text": "SERVICIOS MAPFRE",
        "contentClass": "",
        "content": false,
        "classContent": "g-hover-nav"
      },
      {
        "dataOpen": "",
        "itemClass": "",
        "titleClass": "",
        "boxClass": "",
        "clickClass": " g-pl--20   g-pr--15   g-py--10 ",
        "icon": {
          "iconFile": "g-font--25 g-font-md--21 icon-mapfre_028_pagos",
          "iconClass": "g-c--pointer  g-pr--10 g-pl--10 "
        },
        "arrow": false,
        "textClass": "g-text--uppercase g-font--bold",
        "text": "Mis Pagos",
        "contentClass": "",
        "content": false,
        "classContent": "g-hover-nav"
      },
      {
        "dataOpen": "",
        "itemClass": "",
        "titleClass": "",
        "boxClass": "",
        "clickClass": " g-pl--20   g-pr--15   g-py--10 ",
        "icon": {
          "iconFile": "g-font--25 g-font-md--21 icon-mapfre_029_location-pin2",
          "iconClass": "g-c--pointer  g-pr--10 g-pl--10 "
        },
        "arrow": false,
        "textClass": "g-text--uppercase g-font--bold",
        "text": "Red de Oficinas",
        "contentClass": "",
        "content": false,
        "classContent": "g-hover-nav"
      }
    ]
  }],
  "list-btn": [{
      "iconFile": "icon-mapfre_030_call",
      "addClass": "g-font--30"
    },
    {
      "iconFile": "icon-mapfre_031_qanda",
      "addClass": "g-font--30"
    }
  ],
  "headerOIM": {
    "icoNav": {
      "iconFile" : "icon-mapfre_047_bars",
      "addClass" : "g-font--30",
      "iconFileOIM" : "icon-mapfre_044_logo_landing ",
      "addClassOIM" : "g-font--30"
    },
    "headOimMobile": {
      "llamada": "",
      "bajada": "Bienvenido a tu área privada",
      "iconFile": "",
      "addClass" : "",
      "icoBack": false
    },
    "datos" : {
      "icoCircle": "icon-mapfre_066_circle",
      "sizeCircle": "g-font--40 g-c--gray1",
      "icoUser": "icon-mapfre_037_user",
      "addClass": "g-c--white1 g-ico--center g-font--20",
      "tittle" : "MIS NOTIFICACIONES",
      "icoAlert": "icon-mapfre_036_notification",
      "icoClose": "icon-mapfre_049_close2",
      "sizeClose": "g-font--40",
      "nameUser": "Hola <b>Gonzalo!</b>",
      "numb" : 3,
      "alertBadge": {
        "icoCircle": "icon-mapfre_066_circle",
        "addClass": "g-font--30 g-c--green1",
        "addClassNum": "g-ico--center g-font--11 g-c--white1"
      },
      "list": [
        {
          "tipo" : "Mi prefil"
        },
        {
          "tipo" : "Cerrar sesión"
        }
      ]
    },
    "alert" : {
      "ico" : "icon-mapfre_014_perfil",
      "icoCircle": "icon-mapfre_066_circle",
      "sizeCircle": "g-font--40 g-c--gray1",
      "addClass": "g-c--white1 g-ico--center g-font--20",
      "tittle" : "MIS NOTIFICACIONES",
      "icoAlert": "icon-mapfre_036_notification",
      "icoClose": "icon-mapfre_049_close2",
      "sizeClose": "g-font--40",
      "numb" : 3,
      "alertBadge": {
        "icoCircle": "icon-mapfre_066_circle",
        "addClass": "g-font--30 g-c--green1",
        "addClassNum": "g-ico--center g-font--11 g-c--white1"
      },
      "list": [
        {
          "ico-drow" : "icon-mapfre_057_circle-check",
          "fech" : "HOY 10:23am",
          "tipo" : "Solicitud de chofer de reemplazo confirmada",
          "desc" : "Lunes 1 NOV - 9:30am"
        },
        {
          "ico-drow" : "icon-mapfre_049_close2",
          "fech" : "24/02  10:23am",
          "tipo" : "Solicitud de chofer de reemplazo cancelada",
          "desc" : "Servicio cancelado"
        },
        {
          "ico-drow" : "icon-mapfre_057_circle-check",
          "fech" : "24/02 10:23am",
          "tipo" : "Pago automático emitido",
          "desc" : "Fondo universitario"
        },
        {
          "ico-drow" : "icon-mapfre_049_close2",
          "fech" : "24/02 10:23am",
          "tipo" : "Pago fallido",
          "desc" : "Seguro SCTR"
        },
        {
          "ico-drow" : "icon-mapfre_057_circle-check",
          "fech" : "24/02 10:23am",
          "tipo" : "Pago pendiente",
          "desc" : "Seguro vehicular - Vence 17/05/18"
        },
        {
          "ico-drow" : "icon-mapfre_049_close2",
          "fech" : "24/02 10:23am",
          "tipo" : "Póliza sin cobertura por inpago",
          "desc" : "Salud - Venció 12/05/18"
        }
      ]
    }
  },
  "dateAddDni": {
    "icon": {
      "addClass": "d-none d-lg-flex g-bg-c--gray1 g-c--white1  g-mt--20   g-pl--10 ",
      "iconFile": "icon-mapfre_014_perfil",
      "iconClass": ""
    },
    "title": "NUEVOS DATOS",
    "subtitle": "",
    "dateGeneral": {
      "addClass": "",
      "alert": {
        "addClass": "g-bg-c--red7 g-b--1 g-bc--orange1  g-p--10   g-mt--10 ",
        "icon": {
          "iconFile": "icon-mapfre_013_atention",
          "iconClass": "g-font--30 g-c--orange1  g-pr--10 "
        },
        "textClass": "",
        "titleClass": "g-c--orange1",
        "titleText": "Hemos detectado que deseas cambiar información sensible, necesitamos fotos de tu documento de identidad como confirmación.",
        "subTitle": false,
        "btnDetalle": false
      },
      "dataCompares": [{
          "addClass": "justify-content-between g-bb--1 g-bc--gray7  g-pb--10 ",
          "labelClass": "g-c--gray2 g-font--light",
          "label": "Nombres",
          "text": "Gonsalo Antonio",
          "divCenter": {
            "addClass": "align-self-end",
            "icon": "icon-mapfre_075_arrow-right g-font--25 g-font-md--21 g-c--gray1"
          },
          "divRigth": {
            "addClass": "align-self-end mr-auto g-pt--10  g-pl--15   g-pl-lg--25 ",
            "addClassText": "g-font--medium g-font--14 g-font-md--18",
            "text": "Gonsalo Antonio"
          }

        },
        {
          "addClass": "justify-content-between g-bb--1 g-bc--gray7  g-pb--10 ",
          "labelClass": "g-c--gray2 g-font--light",
          "label": "Apellido paterno",
          "text": "Gutierrez",
          "divCenter": {
            "addClass": "align-self-end",
            "icon": "icon-mapfre_075_arrow-right g-font--25 g-font-md--21 g-c--gray1"
          },
          "divRigth": {
            "addClass": "align-self-end mr-auto g-pt--10  g-pl--15   g-pl-lg--25 ",
            "addClassText": "g-font--medium g-font--14 g-font-md--18",
            "text": "Almendariz"
          }

        },
        {
          "addClass": "justify-content-between g-bb--1 g-bc--gray7  g-pb--10 ",
          "labelClass": "g-c--gray2 g-font--light",
          "label": "Fecha de nacimiento",
          "text": "12/03/2000",
          "divCenter": {
            "addClass": "align-self-end",
            "icon": "icon-mapfre_075_arrow-right g-font--25 g-font-md--21 g-c--gray1"
          },
          "divRigth": {
            "addClass": "align-self-end mr-auto g-pt--10  g-pl--15   g-pl-lg--25 ",
            "addClassText": "g-font--medium g-font--14 g-font-md--18",
            "text": "20/03/1995"
          }

        }
      ]
    },
    "addPhoto": {
      "addClass": "mw--500",
      "iconClass": "icon-mapfre_076_upload g-font--21 g-c--red1",
      "textDescription": "Sube una foto de ambas caras de tu DNI para poder hacer el cambio",
      "frontImg": {
        "srcImg": "/images/icons/add-img.svg",
        "text": "Frontal &nbsp;"
      },
      "revImg": {
        "srcImg": "/images/icons/add-doc.svg",
        "text": "Reverso &nbsp;"
      },
      "textLink": {
        "link": "Agrega"
      },
      "text": "o arrastra las imágenes"
    },
    "dataPrivacy": "privacy",
    "onclickPrivacy": "fullModal.open('privacy')",
    "privacy": {
      "closeButton": {
        "addClass": "g-text--uppercase g-btn-outline  g-px--35  g-modal--close",
        "text": "Cerrar",
        "data": "",
        "onclick": "fullModal.close('privacy')"
      }
    },
    "dataElectronic": "privacy",
    "onclickElectronic": "fullModal.open('privacy')",
    "electronic": {
      "closeButton": {
        "addClass": "g-text--uppercase g-btn-outline  g-px--35  g-modal--close",
        "text": "Cerrar",
        "data": "",
        "onclick": "fullModal.close('electronic')"
      }
    },
    "buttomLink": {
      "addClass": "g-text--uppercase g-btn-outline disabled",
      "data": "terms",
      "text": "Siguiente"
    }
  },
  "btnCancelar": {
    "addClass": "g-btn-outline g-text--uppercase  g-px--20  px-md-5",
    "data": "",
    "text": "cancelar",
    "onclick": ""
  },
  "btnChangeDate": {
    "addClass": "g-text--uppercase g-btn-outline disabled   g-px--20  px-md-5",
    "data": "",
    "text": "Continuar",
    "onclick": ""
  },
  "header": {
    "title1": false,
    "title2": {},
    "datos": {
      "label": "Hola Gonzalo!",
      "list": [{
          "text": "Mi perfil"
        },
        {
          "text": "Cerrar sesión"
        }
      ]
    },
    "alert": {
      "ico": "icon-mapfre_036_notification",
      "numb": 3,
      "tittle": "NOTIFICACIONES",
      "list": [{
          "ico-drow": "icon-mapfre_014_perfil",
          "fech": "HOY 10:23am",
          "tipo": "Solicitud de electicista confirmada",
          "desc": "Seguro vehicular"
        },
        {
          "ico-drow": "icon-mapfre_014_perfil",
          "fech": "HOY 10:23am",
          "tipo": "Solicitud de auxilio mecánico cancelada",
          "desc": "Seguro vehicular"
        },
        {
          "ico-drow": "icon-mapfre_014_perfil",
          "fech": "HOY 10:23am",
          "tipo": "Solicitud de auxilio mecánico cancelada",
          "desc": "Seguro vehicular"
        },
        {
          "ico-drow": "icon-mapfre_014_perfil",
          "fech": "HOY 10:23am",
          "tipo": "Solicitud de auxilio mecánico cancelada",
          "desc": "Seguro vehicular"
        },
        {
          "ico-drow": "icon-mapfre_014_perfil",
          "fech": "HOY 10:23am",
          "tipo": "Solicitud de auxilio mecánico cancelada",
          "desc": "Seguro vehicular"
        },
        {
          "ico-drow": "icon-mapfre_014_perfil",
          "fech": "HOY 10:23am",
          "tipo": "Solicitud de auxilio mecánico cancelada",
          "desc": "Seguro vehicular"
        },
        {
          "ico-drow": "icon-mapfre_014_perfil",
          "fech": "HOY 10:23am",
          "tipo": "Solicitud de auxilio mecánico cancelada",
          "desc": "Seguro vehicular"
        }
      ]
    }
  }
}