{
  "htmlClass": "sg-main-none",
  "iconFile" : "icon-mapfre_044_logo_landing ",
  "addClass" : "g-font--45 min-height--70",
  "acordion": [
    {
      "classAccordion" : "g-bg-c--gray8 g-c--gray7",
      "dataGroup" : "true",
      "item" : [
        {
          "dataOpen" : "true",
          "itemClass" : "",
          "titleClass" : "",
          "boxClass" : "",
          "clickClass" : " g-pl--20   g-pr--15   g-py--10 ",
          "icon" : {
            "iconFile" : "g-font--25 g-font-md--21 icon-mapfre_022_car2",
            "iconClass" : "g-c--pointer  g-pr--10 g-pl--10 "
          },
          "arrow" : {
            "clickOn" : {
              "iconFile" : "icon-mapfre_008_angle-down",
              "iconClass" : "g-c--pointer"
            },
            "clickOff" : {
              "iconFile" : "icon-mapfre_007_angle-up",
              "iconClass" : "g-c--pointer"
            }
          },
          "textClass" : "g-text--uppercase g-font--bold",
          "text" : "VEHÍCULOS",
          "contentClass" : "",
          "content" : false,
          "list" : [
            {
              "iconFile" : "",
              "text" : "Seguro Vehicular"
            },
            {
              "iconFile" : "",
              "text" : "SOAT"
            },
            {
              "iconFile" : "",
              "text" : "Accidentes"
            },
            {
              "text" : "Robo"
            },
            {
              "text" : "Talleres"
            },
            {
              "text" : "Cotización"
            }
          ],
          "classContent" : "g-hover-nav"
        },
        {
          "dataOpen" : "",
          "itemClass" : "",
          "titleClass" : "",
          "boxClass" : "",
          "clickClass" : " g-pl--20   g-pr--15   g-py--10 ",
          "icon" : {
            "iconFile" : "g-font--25 g-font-md--21 icon-mapfre_023_cross2",
            "iconClass" : "g-c--pointer  g-pr--10 g-pl--10 "
          },
          "arrow" : {
            "clickOn" : {
              "iconFile" : "icon-mapfre_008_angle-down",
              "iconClass" : "g-c--pointer"
            },
            "clickOff" : {
              "iconFile" : "icon-mapfre_007_angle-up",
              "iconClass" : "g-c--pointer"
            }
          },
          "textClass" : "g-text--uppercase g-font--bold",
          "text" : "SALUD",
          "contentClass" : "",
          "content" : false,
          "list" : [
            {
              "iconFile" : "",
              "text" : "Seguro Vehicular"
            },
            {
              "iconFile" : "",
              "text" : "SOAT"
            },
            {
              "iconFile" : "",
              "text" : "Accidentes"
            },
            {
              "text" : "Robo"
            },
            {
              "text" : "Talleres"
            },
            {
              "text" : "Cotización"
            }
          ],
          "classContent" : "g-hover-nav"
        },
        {
          "dataOpen" : "",
          "itemClass" : "",
          "titleClass" : "",
          "boxClass" : "",
          "clickClass" : " g-pl--20   g-pr--15   g-py--10 ",
          "icon" : {
            "iconFile" : "g-font--25 g-font-md--21 icon-mapfre_024_house2",
            "iconClass" : "g-c--pointer  g-pr--10 g-pl--10 "
          },
          "arrow" : {
            "clickOn" : {
              "iconFile" : "icon-mapfre_008_angle-down",
              "iconClass" : "g-c--pointer"
            },
            "clickOff" : {
              "iconFile" : "icon-mapfre_007_angle-up",
              "iconClass" : "g-c--pointer"
            }
          },
          "textClass" : "g-text--uppercase g-font--bold",
          "text" : "HOGAR",
          "contentClass" : "",
          "content" : false,
          "list" : [
            {
              "iconFile" : "",
              "text" : "Seguro Vehicular"
            },
            {
              "iconFile" : "",
              "text" : "SOAT"
            },
            {
              "iconFile" : "",
              "text" : "Accidentes"
            },
            {
              "text" : "Robo"
            },
            {
              "text" : "Talleres"
            },
            {
              "text" : "Cotización"
            }
          ],
          "classContent" : "g-hover-nav"
        },
        {
          "dataOpen" : "",
          "itemClass" : "",
          "titleClass" : "",
          "boxClass" : "",
          "clickClass" : " g-pl--20   g-pr--15   g-py--10 ",
          "icon" : {
            "iconFile" : "g-font--25 g-font-md--21 icon-mapfre_025_heart2",
            "iconClass" : "g-c--pointer  g-pr--10 g-pl--10 "
          },
          "arrow" : {
            "clickOn" : {
              "iconFile" : "icon-mapfre_008_angle-down",
              "iconClass" : "g-c--pointer"
            },
            "clickOff" : {
              "iconFile" : "icon-mapfre_007_angle-up",
              "iconClass" : "g-c--pointer"
            }
          },
          "textClass" : "g-text--uppercase g-font--bold",
          "text" : "VIDA Y AHORROS",
          "contentClass" : "",
          "content" : false,
          "list" : [
            {
              "iconFile" : "",
              "text" : "Seguro Vehicular"
            },
            {
              "iconFile" : "",
              "text" : "SOAT"
            },
            {
              "iconFile" : "",
              "text" : "Accidentes"
            },
            {
              "text" : "Robo"
            },
            {
              "text" : "Talleres"
            },
            {
              "text" : "Cotización"
            }
          ],
          "classContent" : "g-hover-nav"
        },
        {
          "dataOpen" : "",
          "itemClass" : "",
          "titleClass" : "",
          "boxClass" : "",
          "clickClass" : " g-pl--20   g-pr--15   g-py--10 ",
          "icon" : {
            "iconFile" : "g-font--25 g-font-md--21 icon-mapfre_026_decesos",
            "iconClass" : "g-c--pointer  g-pr--10 g-pl--10 "
          },
          "arrow" : false,
          "textClass" : "g-text--uppercase g-font--bold",
          "text" : "DECESOS",
          "contentClass" : "",
          "content" : false,
          "classContent" : "g-hover-nav"
        },
        {
          "dataOpen" : "",
          "itemClass" : "",
          "titleClass" : "",
          "boxClass" : "",
          "clickClass" : " g-pl--20   g-pr--15   g-py--10 ",
          "icon" : {
            "iconFile" : "g-font--25 g-font-md--21 icon-mapfre_027_box",
            "iconClass" : "g-c--pointer  g-pr--10 g-pl--10 "
          },
          "arrow" : false,
          "textClass" : "g-text--uppercase g-font--bold",
          "text" : "SERVICIOS MAPFRE",
          "contentClass" : "",
          "content" : false,
          "classContent" : "g-hover-nav"
        },
        {
          "dataOpen" : "",
          "itemClass" : "",
          "titleClass" : "",
          "boxClass" : "",
          "clickClass" : " g-pl--20   g-pr--15   g-py--10 ",
          "icon" : {
            "iconFile" : "g-font--25 g-font-md--21 icon-mapfre_028_pagos",
            "iconClass" : "g-c--pointer  g-pr--10 g-pl--10 "
          },
          "arrow" : false,
          "textClass" : "g-text--uppercase g-font--bold",
          "text" : "Mis Pagos",
          "contentClass" : "",
          "content" : false,
          "classContent" : "g-hover-nav"
        },
        {
          "dataOpen" : "",
          "itemClass" : "",
          "titleClass" : "",
          "boxClass" : "",
          "clickClass" : " g-pl--20   g-pr--15   g-py--10 ",
          "icon" : {
            "iconFile" : "g-font--25 g-font-md--21 icon-mapfre_029_location-pin2",
            "iconClass" : "g-c--pointer  g-pr--10 g-pl--10 "
          },
          "arrow" : false,
          "textClass" : "g-text--uppercase g-font--bold",
          "text" : "Red de Oficinas",
          "contentClass" : "",
          "content" : false,
          "classContent" : "g-hover-nav"
        }
      ]
    }
  ],
	"list-btn" : [
		{
			"iconFile" : "icon-mapfre_030_call",
			"addClass" : "g-font--30"
		},
		{
			"iconFile" : "icon-mapfre_031_qanda",
			"addClass" : "g-font--30"
		}
	],
  "icoNav": {
    "iconFile" : "icon-mapfre_047_bars",
    "addClass" : "g-font--30"
  },
  "headOimMobile": {
    "title" : "MI PERFIL",
    "iconFile": "icon-mapfre_044_logo_landing ",
    "addClass" : "g-font--30"
  },
  "headOimDesktop" : {
    "title" : "MI PERFIL"
  },
  "datos" : {
    "label" : "Hola Gonzalo!",
    "ico": "icon-mapfre_037_user",
	  "list": [
	    { "text" : "Mi perfil"},
	    { "text" : "Cerrar sesión"}
	  ]
	},
	"alert" : {
    "ico" : "icon-mapfre_014_perfil",
    "icoCircle": "icon-mapfre_066_circle",
    "sizeCircle": "g-font--40 g-c--gray13",
    "addClass": "g-c--white1 g-ico--center g-font--20",
    "tittle" : "MIS NOTIFICACIONES",
    "icoAlert": "icon-mapfre_036_notification",
    "numb" : 3,
    "icoClose": "icon-mapfre_049_close2",
	  "sizeClose": "g-font--40",
    "alertBadge": {
      "icoCircle": "icon-mapfre_066_circle",
      "addClass": "g-font--30 g-c--green1",
      "addClassNum": "g-ico--center g-font--11 g-c--white1"
    },
    "list": [
      {
        "ico-drow" : "icon-mapfre_057_circle-check",
        "fech" : "HOY 10:23am",
        "tipo" : "Solicitud de chofer de reemplazo confirmada",
        "desc" : "Lunes 1 NOV - 9:30am"
      },
      {
        "ico-drow" : "icon-mapfre_049_close2",
        "fech" : "24/02  10:23am",
        "tipo" : "Solicitud de chofer de reemplazo cancelada",
        "desc" : "Servicio cancelado"
      },
      {
        "ico-drow" : "icon-mapfre_057_circle-check",
        "fech" : "24/02 10:23am",
        "tipo" : "Pago automático emitido",
        "desc" : "Fondo universitario"
      },
      {
        "ico-drow" : "icon-mapfre_049_close2",
        "fech" : "24/02 10:23am",
        "tipo" : "Pago fallido",
        "desc" : "Seguro SCTR"
      },
      {
        "ico-drow" : "icon-mapfre_019_car",
        "fech" : "24/02 10:23am",
        "tipo" : "Pago pendiente",
        "desc" : "Seguro vehicular - Vence 17/05/18"
      },
      {
        "ico-drow" : "icon-mapfre_049_close2",
        "fech" : "24/02 10:23am",
        "tipo" : "Póliza sin cobertura por inpago",
        "desc" : "Salud - Venció 12/05/18"
      }
    ]
  },
  "dataProfile" : {
    "addClass": " g-mr--10 ",
    "src": "",
    "alt" : "profile",
    "text" : "Gonzalo Antonio Gutierrez Delgado",
    "dataEdit" :  [
      {
        "addClass" : "g-font--normal",
        "text" : "gonsalo@gmail.com",
        "editIcon" : {
          "href" : "#",
          "addClass" : "g-border-right  g-px--10   g-ml--20 ",
          "iconFile" : "icon-mapfre_035_edit",
          "addIconClass" : "g-c--green1  g-mr--10 "
        },
        "profile" : false
      },
      {
        "addClass" : "g-font--normal  g-ml--30 ",
        "text" : "Contraseña: ************",
        "editIcon" : {
          "href" : "#",
          "addClass" : " g-px--10 ",
          "iconFile" : "icon-mapfre_035_edit",
          "addIconClass" : "g-c--green1"
        },
        "profile" : false
      }
    ]
  },
  "balanceProfile" : {
    "addClass": "text-center",
    "banlance": "748",
    "text": "MAPFRE DÓLARES",
    "href": "#",
    "tooltip" : {
      "iconTooltip" : true,
      "icon" : "icon-mapfre_048_tooltip",
      "iconClass" : " g-font--25 g-font-md--21 g-c--green1",
      "textArea" : false,
      "text" : "",
      "alignTooltip" : "",
      "addClass" : " g-p--15 ",
      "addClassTitle" : "text-left g-font--13 g-font--light g-pb--10",
      "title" : "¿Qué son los Mapfre dólares? ",
      "description" : "Cada año recibes una cantidad de puntos Mapfre, que son canjeables por nuevos productos o aplicables como descuentos en tu prima durante la renovación. La cantidad de Mapfre dólares que recibes varían según tu antiguedad, la cantidad de pólizas contratadas o la puntualidad en los pagos.",
      "link" : false
    },
    "title" : "Usuario",
    "user" : "PLATINO",
    "url" : "#",
    "linkClass" : "g-c--green1 g-c--green1--link",
    "link" : "Conocer mis beneficios"
  },
  "alerts" : {
    "addIco" : "icon-mapfre_013_atention",
    "text" : "Tienes dos servicios agendados: <span class='g-font--bold'> Chofer de reemplazo, médico a domicilio</span>",
    "addIconClass" : "g-font--25 g-font-md--21 ",
    "addClass" : " g-mb--0 "
  },
  "misDatos" : [
    {
      "boxHead" : {
        "addClass" : " g-p--15 ",
        "icon": {
          "iconFile" : "icon-mapfre_014_perfil",
          "iconClass" : "g-c--gray6 g-font--55 g-font-lg--75  g-px--10 "
        },
        "dateList": {
          "addClass" : "",
          "list" : [
            {
              "itemClass" : "",
              "icon": false,
              "textClass" : "g-font--14 g-font-md--18 g-font--medium",
              "text" : "Mis Datos"
            },
            {
              "itemClass" : "",
              "icon": false,
              "textClass" : "g-font--light",
              "text" : "Marco Cuadrado Aro"
            },
            {
              "itemClass" : "",
              "icon": false,
              "textClass" : "g-font--light",
              "text" : "DNI: 56478364"
            }
          ]
        },
        "btnAdd": false,
        "btnIconAdd": {
          "iconClass" : "g-c--pointer g-c--green1 g-font--25 g-font-md--21",
          "iconFile" : "icon-mapfre_035_edit"
        }
      },
      "boxContent": {
        "addClass" : "",
        "list" : [
          {
            "itemClass" : " g-p--15  d-flex align-items-center g-b--1 g-bc--gray11",
            "icon" : true,
            "iconFile" : "icon-mapfre_128_telephone",
            "iconClass" : " g-font--25 g-font-md--21  g-mr--15  g-c--gray3",
            "textClass" : "g-c--gray3",
            "text" : "987 67 56 45 / 01 354 4567"
          },
          {
            "itemClass" : " g-p--15  d-flex align-items-center g-b--1 g-bc--gray11",
            "icon" : true,
            "iconFile" : "icon-mapfre_063_agendar",
            "iconClass" : " g-font--25 g-font-md--21  g-mr--15  g-c--gray3",
            "textClass" : "g-c--gray3",
            "text" : "Fecha de nacimiento: 24/02/1991"
          },
          {
            "itemClass" : " g-p--15  d-flex align-items-center g-b--1 g-bc--gray11",
            "icon" : true,
            "iconFile" : "icon-mapfre_041_iso",
            "iconClass" : " g-font--25 g-font-md--21  g-mr--15  g-c--gray3",
            "textClass" : "g-c--gray3",
            "text" : "Cliente desde: 15 Enero 2015"
          }
        ]
      }
    },
    {
      "boxHead" : {
        "addClass" : " g-p--15 ",
        "icon": {
          "iconFile" : "icon-mapfre_021_-briefcase",
          "iconClass" : "g-c--gray6 g-font--55 g-font-lg--75  g-px--10 "
        },
        "dateList": {
          "addClass" : "",
          "list" : [
            {
              "itemClass" : "",
              "icon": false,
              "textClass" : "g-font--14 g-font-md--18 g-font--medium",
              "text" : "Mi trabajo"
            },
            {
              "itemClass" : "",
              "icon": false,
              "textClass" : "g-font--light",
              "text" : "Banco de Crédito BCP"
            },
            {
              "itemClass" : "",
              "icon": false,
              "textClass" : "g-font--light",
              "text" : "Consultor UX - 2 años"
            }
          ]
        },
        "btnAdd": false,
        "btnIconAdd": {
          "iconClass" : "g-c--pointer g-c--green1 g-font--25 g-font-md--21",
          "iconFile" : "icon-mapfre_035_edit"
        }
      },
      "boxContent": {
        "addClass" : "",
        "list" : [
          {
            "itemClass" : " g-p--15  d-flex align-items-center g-b--1 g-bc--gray11",
            "icon" : true,
            "iconFile" : "icon-mapfre_015_location-pin",
            "iconClass" : " g-font--25 g-font-md--21  g-mr--15  g-c--gray3",
            "textClass" : "g-c--gray3",
            "text" : "Calle Germán Schreiber 8329, San Isidro - Lima"
          },
          {
            "itemClass" : " g-p--15  d-flex align-items-center g-b--1 g-bc--gray11",
            "icon" : true,
            "iconFile" : "icon-mapfre_055_wallet",
            "iconClass" : " g-font--25 g-font-md--21  g-mr--15  g-c--gray3",
            "textClass" : "g-c--gray3",
            "text" : "Monto Salarial S/ : 4,000.00"
          },
          {
            "itemClass" : " g-p--15  d-flex align-items-center g-b--1 g-bc--gray11",
            "icon" : true,
            "iconFile" : "icon-mapfre_128_telephone",
            "iconClass" : " g-font--25 g-font-md--21  g-mr--15  g-c--gray3",
            "textClass" : "g-c--gray3",
            "text" : "01 354 4567"
          }
        ]
      }
    }
  ],
	"direction" : {
    "boxHead" : {
      "iconFile" : "",
      "addClass" : " g-p--0 g-p-md--10 ",
      "blockClass" : "align-items-center",
      "dateList": {
        "addClass" : "",
        "list" : [
          {
            "itemClass" : "",
            "iconFile" : "",
            "iconClass" : "",
            "textClass" : "g-font--14 g-font-md--18 g-text--uppercase",
            "text" : "DIRECCIÓN DE CORRESPONDENCIA"
          }
        ]
      },
      "btnAdd": false,
      "btnIconAdd": false
    },
    "cardboxCheck" : false,
    "cardboxDirection": [
      {
        "addClass" : " g-mb--20 ",
        "icon" : {
          "addClass" : "g-c--gray9 g-font--45",
          "iconFile" : "icon-mapfre_042_home"
        },
        "text": "Calle Germán Schreiber 8329",
        "secondText": "San Isidro - Lima",
        "second": false,
        "thrid": {
          "text": "Correspondencia",
          "icon" : {
            "addClass" : "g-c--gray9 g-font--25 g-font-md--21",
            "iconFile" : "icon-mapfre_043_cartel"
          }
        },
        "icoEdit": {
          "href": "#",
          "addClass" : "g-c--green1 g-font--25 g-font-md--21 text-right",
          "iconFile" : "icon-mapfre_035_edit"
        },
        "icoDelete": false
      }
    ],
    "cardboxPayments" : false,
    "btnVerTodos": false
  },
  "btnCancelar": {
    "addClass" : "g-btn-outline g-text--uppercase",
    "data" : "",
    "text" : "cancelar",
    "onclick" : ""
  },
  "btnChangeDate": {
    "addClass" : "g-text--uppercase",
    "data" : "",
    "text" : "CAMBIAR DATOS",
    "onclick" : ""
  },
  "preferent" : {
    "boxHead" : {
      "addClass" : "",
      "iconFile" : "",
      "iconClass" : "",
      "blockClass" : "align-items-center",
      "dateList": {
        "addClass" : "",
        "list" : [
          {
            "icon" : true,
            "itemClass" : "align-items-center",
            "iconFile" : "icon-mapfre_016_heart ",
            "iconClass" : "g-font--30  g-c--gray2  g-pr--10 ",
            "textClass" : "g-font--14 g-font-md--18 g-text--uppercase g-font--medium",
            "text" : "Preferencias de Contacto"
          }
        ]
      },
      "btnAdd": false,
      "btnIconAdd": false
    },
	  "cardboxCheck":
	  [
	    {
	      "title" : "Medio:",
	      "list": [
	        { "label" : "Email", "id" : "d1"},
	        { "label" : "Celular", "id" : "d2"}
	      ],
	      "class-border" : "g-bb--1  g-pt--10  g-mb--20"
	    },
	    {
	      "title" : "",
	      "list": [
	        { "label" : "Quiero recibir comunicaciones sobre descuentos, regalos y ofertas", "id" : "d3"},
	        { "label" : "Quiero recibir comunicaciones sobre descuentos, regalos y ofertas", "id" : "d4"},
	        { "label" : "Quiero recibir comunicaciones sobre descuentos, regalos y ofertas", "id" : "d5"}
        ]
	    }
    ]
  },
  "openClick": {
    "click": "data9"
  },
  "formModal": {
    "addClass": "",
    "data": "data9",
    "modalContainer": "",
    "modalWrapper": "g-full-modal--medium",
    "page": "MI PERFIL",
    "title": "AGREGAR DIRECCIÓN DE CORRESPONDENCIA",
    "contentClass": "g-pb--50 g-px-lg--50",
    "formContent": {
      "addClass": "",
      "error": false,
      "address": {
        "check": {
          "addClass": "g-c--gray8  g-mt--20   g-mb--0 ",
          "label": "Utilizar la dirección de mi póliza de Hogar"
        },
        "select": {
          "addClass" : "g-form-focus",
          "label" : "Seleccione dirección",
          "disabled" : false,
          "listOption" : [
            { "value" : "Calle Alcanfores de la casa de Davis 101 Miraflores, Lima, Lima." }
          ],
          "error" : ""
        },
        "list": {
          "addClass" : " g-mt--20 ",
          "list" : [
            {
              "itemClass" : "g-c--green1 d-flex",
              "icon" : {
                "iconFile": "icon-mapfre_035_edit",
                "iconClass": "g-font--21 g-c--pointer  g-mr--10 "
              },
              "textClass" : "",
              "text" : "Editar dirección actual",
              "imgSrc" : false
            }
          ]
        }
      },
      "itemInputs": [
        {
          "itemClass": "",
          "label" : "Dirección",
          "type" : "text",
          "value": "",
          "error" : "",
          "addClass": "",
          "disabled" : false,
          "requerid": false,
          "tooltip": false,
          "title": false
        }
      ],
      "itemWorks": false,
      "itemSelects": [
        {
          "addClass" : "",
          "label" : "Departamento",
          "disabled" : false,
          "listOption" : false,
          "error" : ""
        },
        {
          "addClass" : "",
          "label" : "Provincia",
          "disabled" : false,
          "listOption" : false,
          "error" : ""
        },
        {
          "addClass" : "",
          "label" : "Distrito",
          "disabled" : false,
          "listOption" : false,
          "error" : ""
        }
      ],
      "itemInputs2": false
    },
    "btnOne": {
      "data": "data9",
      "addClass1": "",
      "text1": "Cancelar",
      "addClass2": "",
      "text2": "Guardar"
    },
    "btnTwo": false
  }
}
