{
  "iconFile": "icon-mapfre_044_logo_landing ",
  "addClass": "g-font--45",
  "acordion": [
    {
      "classAccordion": "g-bg-c--gray8 g-c--gray7",
      "dataGroup": "true",
      "item": [
        {
          "dataOpen": "true",
          "itemClass": "",
          "titleClass": "",
          "boxClass": "",
          "clickClass": " g-pl--20   g-pr--15   g-py--10 ",
          "icon": {
            "iconFile": "g-font--21 icon-mapfre_022_car2",
            "iconClass": "g-c--pointer  g-pr--10 g-pl--10 "
          },
          "arrow": {
            "clickOn": {
              "iconFile": "icon-mapfre_008_angle-down",
              "iconClass": "g-c--pointer"
            },
            "clickOff": {
              "iconFile": "icon-mapfre_007_angle-up",
              "iconClass": "g-c--pointer"
            }
          },
          "textClass": "g-text--uppercase g-font--bold",
          "text": "VEHÍCULOS",
          "contentClass": "",
          "content": false,
          "list": [
            {
              "iconFile": "",
              "text": "Seguro Vehicular"
            },
            {
              "iconFile": "",
              "text": "SOAT"
            },
            {
              "iconFile": "",
              "text": "Accidentes"
            },
            {
              "text": "Robo"
            },
            {
              "text": "Talleres"
            },
            {
              "text": "Cotización"
            }
          ],
          "classContent": "g-hover-nav"
        },
        {
          "dataOpen": "",
          "itemClass": "",
          "titleClass": "",
          "boxClass": "",
          "clickClass": " g-pl--20   g-pr--15   g-py--10 ",
          "icon": {
            "iconFile": "g-font--21 icon-mapfre_023_cross2",
            "iconClass": "g-c--pointer  g-pr--10 g-pl--10 "
          },
          "arrow": {
            "clickOn": {
              "iconFile": "icon-mapfre_008_angle-down",
              "iconClass": "g-c--pointer"
            },
            "clickOff": {
              "iconFile": "icon-mapfre_007_angle-up",
              "iconClass": "g-c--pointer"
            }
          },
          "textClass": "g-text--uppercase g-font--bold",
          "text": "SALUD",
          "contentClass": "",
          "content": false,
          "list": [
            {
              "iconFile": "",
              "text": "Seguro Vehicular"
            },
            {
              "iconFile": "",
              "text": "SOAT"
            },
            {
              "iconFile": "",
              "text": "Accidentes"
            },
            {
              "text": "Robo"
            },
            {
              "text": "Talleres"
            },
            {
              "text": "Cotización"
            }
          ],
          "classContent": "g-hover-nav"
        },
        {
          "dataOpen": "",
          "itemClass": "",
          "titleClass": "",
          "boxClass": "",
          "clickClass": " g-pl--20   g-pr--15   g-py--10 ",
          "icon": {
            "iconFile": "g-font--21 icon-mapfre_024_house2",
            "iconClass": "g-c--pointer  g-pr--10 g-pl--10 "
          },
          "arrow": {
            "clickOn": {
              "iconFile": "icon-mapfre_008_angle-down",
              "iconClass": "g-c--pointer"
            },
            "clickOff": {
              "iconFile": "icon-mapfre_007_angle-up",
              "iconClass": "g-c--pointer"
            }
          },
          "textClass": "g-text--uppercase g-font--bold",
          "text": "HOGAR",
          "contentClass": "",
          "content": false,
          "list": [
            {
              "iconFile": "",
              "text": "Seguro Vehicular"
            },
            {
              "iconFile": "",
              "text": "SOAT"
            },
            {
              "iconFile": "",
              "text": "Accidentes"
            },
            {
              "text": "Robo"
            },
            {
              "text": "Talleres"
            },
            {
              "text": "Cotización"
            }
          ],
          "classContent": "g-hover-nav"
        },
        {
          "dataOpen": "",
          "itemClass": "",
          "titleClass": "",
          "boxClass": "",
          "clickClass": " g-pl--20   g-pr--15   g-py--10 ",
          "icon": {
            "iconFile": "g-font--21 icon-mapfre_025_heart2",
            "iconClass": "g-c--pointer  g-pr--10 g-pl--10 "
          },
          "arrow": {
            "clickOn": {
              "iconFile": "icon-mapfre_008_angle-down",
              "iconClass": "g-c--pointer"
            },
            "clickOff": {
              "iconFile": "icon-mapfre_007_angle-up",
              "iconClass": "g-c--pointer"
            }
          },
          "textClass": "g-text--uppercase g-font--bold",
          "text": "VIDA Y AHORROS",
          "contentClass": "",
          "content": false,
          "list": [
            {
              "iconFile": "",
              "text": "Seguro Vehicular"
            },
            {
              "iconFile": "",
              "text": "SOAT"
            },
            {
              "iconFile": "",
              "text": "Accidentes"
            },
            {
              "text": "Robo"
            },
            {
              "text": "Talleres"
            },
            {
              "text": "Cotización"
            }
          ],
          "classContent": "g-hover-nav"
        },
        {
          "dataOpen": "",
          "itemClass": "",
          "titleClass": "",
          "boxClass": "",
          "clickClass": " g-pl--20   g-pr--15   g-py--10 ",
          "icon": {
            "iconFile": "g-font--21 icon-mapfre_026_decesos",
            "iconClass": "g-c--pointer  g-pr--10 g-pl--10 "
          },
          "arrow": false,
          "textClass": "g-text--uppercase g-font--bold",
          "text": "DECESOS",
          "contentClass": "",
          "content": false,
          "classContent": "g-hover-nav"
        },
        {
          "dataOpen": "",
          "itemClass": "",
          "titleClass": "",
          "boxClass": "",
          "clickClass": " g-pl--20   g-pr--15   g-py--10 ",
          "icon": {
            "iconFile": "g-font--21 icon-mapfre_027_box",
            "iconClass": "g-c--pointer  g-pr--10 g-pl--10 "
          },
          "arrow": false,
          "textClass": "g-text--uppercase g-font--bold",
          "text": "SERVICIOS MAPFRE",
          "contentClass": "",
          "content": false,
          "classContent": "g-hover-nav"
        },
        {
          "dataOpen": "",
          "itemClass": "",
          "titleClass": "",
          "boxClass": "",
          "clickClass": " g-pl--20   g-pr--15   g-py--10 ",
          "icon": {
            "iconFile": "g-font--21 icon-mapfre_028_pagos",
            "iconClass": "g-c--pointer  g-pr--10 g-pl--10 "
          },
          "arrow": false,
          "textClass": "g-text--uppercase g-font--bold",
          "text": "Mis Pagos",
          "contentClass": "",
          "content": false,
          "classContent": "g-hover-nav"
        },
        {
          "dataOpen": "",
          "itemClass": "",
          "titleClass": "",
          "boxClass": "",
          "clickClass": " g-pl--20   g-pr--15   g-py--10 ",
          "icon": {
            "iconFile": "g-font--21 icon-mapfre_029_location-pin2",
            "iconClass": "g-c--pointer  g-pr--10 g-pl--10 "
          },
          "arrow": false,
          "textClass": "g-text--uppercase g-font--bold",
          "text": "Red de Oficinas",
          "contentClass": "",
          "content": false,
          "classContent": "g-hover-nav"
        }
      ]
    }
  ],
  "list-btn": [
    {
      "iconFile": "icon-mapfre_030_call",
      "addClass": "g-font--30"
    },
    {
      "iconFile": "icon-mapfre_031_qanda",
      "addClass": "g-font--30"
    }
  ],
  "headerOIM": {
    "icoNav": {
      "iconFile": "icon-mapfre_047_bars",
      "addClass": "g-font--30",
      "iconFileOIM": "icon-mapfre_044_logo_landing",
      "addClassOIM": "g-font--30"
    },
    "headOimMobile": {
      "llamada": "",
      "bajada": "Seguro de vida y ahorro",
      "iconFile": "",
      "addClass": "",
      "icoBack": {
        "icon": "icon-mapfre_016_heart",
        "addClass": "g-c--gray2 g-font--45"
      }
    },
    "datos": {
      "icoCircle": "icon-mapfre_066_circle",
      "sizeCircle": "g-font--40 g-c--gray1",
      "icoUser": "icon-mapfre_037_user",
      "addClass": "g-c--white1 g-ico--center g-font--20",
      "tittle": "MIS NOTIFICACIONES",
      "icoAlert": "icon-mapfre_036_notification",
      "icoClose": "icon-mapfre_049_close2",
      "sizeClose": "g-font--40",
      "nameUser": "Hola <b>Gonzalo!</b>",
      "numb": 3,
      "alertBadge": {
        "icoCircle": "icon-mapfre_066_circle",
        "addClass": "g-font--30 g-c--green1",
        "addClassNum": "g-ico--center g-font--11 g-c--white1"
      },
      "list": [
        {
          "tipo": "Mi prefil"
        },
        {
          "tipo": "Cerrar sesión"
        }
      ]
    },
    "alert": {
      "ico": "icon-mapfre_014_perfil",
      "icoCircle": "icon-mapfre_066_circle",
      "sizeCircle": "g-font--40 g-c--gray1",
      "addClass": "g-c--white1 g-ico--center g-font--20",
      "tittle": "MIS NOTIFICACIONES",
      "icoAlert": "icon-mapfre_036_notification",
      "icoClose": "icon-mapfre_049_close2",
      "sizeClose": "g-font--40",
      "numb": 3,
      "alertBadge": {
        "icoCircle": "icon-mapfre_066_circle",
        "addClass": "g-font--30 g-c--green1",
        "addClassNum": "g-ico--center g-font--11 g-c--white1"
      },
      "list": [
        {
          "ico-drow": "icon-mapfre_057_circle-check",
          "fech": "HOY 10:23am",
          "tipo": "Solicitud de chofer de reemplazo confirmada",
          "desc": "Lunes 1 NOV - 9:30am"
        },
        {
          "ico-drow": "icon-mapfre_049_close2",
          "fech": "24/02  10:23am",
          "tipo": "Solicitud de chofer de reemplazo cancelada",
          "desc": "Servicio cancelado"
        },
        {
          "ico-drow": "icon-mapfre_057_circle-check",
          "fech": "24/02 10:23am",
          "tipo": "Pago automático emitido",
          "desc": "Fondo universitario"
        },
        {
          "ico-drow": "icon-mapfre_049_close2",
          "fech": "24/02 10:23am",
          "tipo": "Pago fallido",
          "desc": "Seguro SCTR"
        },
        {
          "ico-drow": "icon-mapfre_057_circle-check",
          "fech": "24/02 10:23am",
          "tipo": "Pago pendiente",
          "desc": "Seguro vehicular - Vence 17/05/18"
        },
        {
          "ico-drow": "icon-mapfre_049_close2",
          "fech": "24/02 10:23am",
          "tipo": "Póliza sin cobertura por inpago",
          "desc": "Salud - Venció 12/05/18"
        }
      ]
    }
  },
  "headerBox": false,
  "alerts": false,
  "alerts2": false,
  "payments": false,
  "progress": false,
  "poliza": {
    "boxHead": {
      "addClass": "",
      "icon": false,
      "title": "DETALLES DE MI PÓLIZA",
      "titleClass": " g-pl--15  pl-lg-0",
      "payment": false,
      "dots": true,
      "filter": false,
      "mont": false,
      "dropdown": {
        "lists": [
          {
            "icon": {
              "iconFile": "icon-mapfre_052_agregar",
              "iconClass": "g-font--30 g-c--green1"
            },
            "textClass": "g-font--medium g-c--green1",
            "text": "Cotizar nueva póliza"
          },
          {
            "icon": {
              "iconFile": "icon-mapfre_095_comparate",
              "iconClass": "g-font--30 g-c--green1"
            },
            "textClass": "g-font--medium g-c--green1",
            "text": "Comparar pólizas"
          }
        ],
        "inputs": false
      },
      "accordion": false
    },
    "cardboxCheck": false,
    "cardboxDirection": false,
    "cardboxPayments": false,
    "cardboxPaymentsNot": false,
    "cardboxPoliza": [
      {
        "addClass": "g-mb--0 g-mb-lg--15",
        "icon": {
          "addClass": "g-items-icon g-c--gray2 g-font--55",
          "iconFile": "icon-mapfre_016_heart"
        },
        "itemClass": "g-o--hidden",
        "text": "Fondo universitario",
        "desplegable": {
          "textClass": "g-c--green1",
          "text": "3 beneficiarios",
          "icon": "icon-mapfre_032_triangle-down",
          "iconClass": " g-pl--5 ",
          "desplegableClass": "g-box--shadow1 g-bg-c--white1  g-p--15  g-b-radius--5 g-font--13",
          "list": [
            {
              "itemClass": "",
              "titleClass": "g-font--medium",
              "title": "Asegurado 1",
              "description": "Mary Carmen Ochoa Lázaro"
            },
            {
              "itemClass": "",
              "titleClass": "g-font--medium",
              "title": "Asegurado 1",
              "description": "Mary Carmen Ochoa Lázaro"
            },
            {
              "itemClass": "g-mt--10 ",
              "titleClass": "g-font--medium",
              "title": "Asegurado 2",
              "description": "Patricia Lorena Gutierrez Souza"
            }
          ]
        },
        "second": {
          "fontClass": "g-font--13 g-font--light",
          "text": "Nro. de póliza: 75689867",
          "secondText": "Vence el 04/06/2018",
          "icon": {
            "iconFile": "icon-mapfre_066_circle",
            "iconColor": "g-c--yellow1",
            "iconClass": " g-pr--5 "
          }
        },
        "thrid": {
          "text": "<span class='g-font--medium'>Prima:</span> <span class='g-font--light'>S/ 8,360.45</span>",
          "secondText": "<span class='g-font--medium'>Cuota 2/3:</span> <span class='g-font--light'>S/ 35</span>"
        },
        "pdf": false,
        "verDetalle": {
          "boxClass": "g-bl-lg--1",
          "textClass": "g-c--green1 g-font--medium",
          "text": "Ver detalle"
        }
      },
      {
        "addClass": "g-mb--0 g-mb-lg--15",
        "icon": {
          "addClass": "g-items-icon g-c--gray2 g-font--55",
          "iconFile": "icon-mapfre_016_heart"
        },
        "itemClass": "g-o--hidden",
        "text": "Vida seguro",
        "desplegable": {
          "textClass": "g-c--green1",
          "text": "3 beneficiarios",
          "icon": "icon-mapfre_032_triangle-down",
          "iconClass": " g-pl--5 ",
          "desplegableClass": "g-box--shadow1 g-bg-c--white1  g-p--15  g-b-radius--5 g-font--13",
          "list": [
            {
              "itemClass": "",
              "titleClass": "g-font--medium",
              "title": "Asegurado 1",
              "description": "Mary Carmen Ochoa Lázaro"
            },
            {
              "itemClass": "",
              "titleClass": "g-font--medium",
              "title": "Asegurado 1",
              "description": "Mary Carmen Ochoa Lázaro"
            },
            {
              "itemClass": "g-mt--10 ",
              "titleClass": "g-font--medium",
              "title": "Asegurado 2",
              "description": "Patricia Lorena Gutierrez Souza"
            }
          ]
        },
        "second": {
          "fontClass": "g-font--13  g-font--light",
          "text": "Nro. de póliza: 75689867",
          "secondText": "Vence el 04/06/2018",
          "icon": {
            "iconFile": "icon-mapfre_066_circle",
            "iconColor": "g-c--yellow1",
            "iconClass": " g-pr--5 "
          }
        },
        "thrid": {
          "text": "<span class='g-font--medium'>Prima:</span> <span class='g-font--light'>S/ 8,360.45</span>",
          "secondText": "<span class='g-font--medium'>Cuota 3/3:</span> <span class='g-font--light'>S/ 35</span>"
        },
        "pdf": false,
        "verDetalle": {
          "boxClass": "g-bl-lg--1",
          "textClass": "g-c--green1 g-font--medium",
          "text": "Ver detalle"
        }
      }
    ],
    "btnVerTodos": false
  },
  "banner": false,
  "footerNav": {
    "boxHead": {
      "text": "¿QUÉ QUIERES HACER?",
      "class": "g-items-text g-font--14 g-font-md--18 g-text--uppercase text-center g-font--medium  g-pt--30  g-pb--15 "
    },
    "listNavIco": {
      "listNavIco": [
        {
          "icon": {
            "backgroundColor": "g-bg-c--red5",
            "iconName": "icon-mapfre_082_ambulancia",
            "iconSize": "g-font--55",
            "iconColor": "g-c--white1"
          },
          "title": "Solicitar ambulancia"
        },
        {
          "icon": {
            "backgroundColor": "g-bg-c--yellow1",
            "iconName": "icon-mapfre_091_medico",
            "iconSize": "g-font--55",
            "iconColor": "g-c--white1"
          },
          "title": "Médico a domicilio"
        },
        {
          "icon": {
            "backgroundColor": "g-bg-c--purple2",
            "iconName": "icon-mapfre_070_buscar-clinicas",
            "iconSize": "g-font--55",
            "iconColor": "g-c--white1"
          },
          "title": "Buscar clínicas"
        },
        {
          "icon": {
            "backgroundColor": "g-bg-c--green3",
            "iconName": "icon-mapfre_068_telemedicina",
            "iconSize": "g-font--55",
            "iconColor": "g-c--white1"
          },
          "title": "Telemedicina"
        }
      ]
    },
    "listNavText": {
      "listOne": [
        {
          "boxClass": "g-p--15 g-bg-c--gray5",
          "navText": [
            {
              "text": "Modificar mis datos",
              "textClass": "w-100 g-font--medium",
              "iconRight": false
            },
            {
              "text": "",
              "textClass": "ml-auto",
              "iconRight": {
                "iconFile": "icon-mapfre_033_angle2-right",
                "iconClass": "g-font--10 g-font--bold"
              }
            }
          ]
        },
        {
          "boxClass": "g-p--15 g-bg-c--gray5",
          "navText": [
            {
              "text": "Cotizar una nueva póliza",
              "textClass": "w-100 g-font--medium",
              "iconRight": false
            },
            {
              "text": "",
              "textClass": "ml-auto",
              "iconRight": {
                "iconFile": "icon-mapfre_033_angle2-right",
                "iconClass": "g-font--10 g-font--bold"
              }
            }
          ]
        },
        {
          "boxClass": "g-p--15 g-bg-c--gray5",
          "navText": [
            {
              "text": "Comparar mi póliza con otros productos",
              "textClass": "w-100 g-font--medium",
              "iconRight": false
            },
            {
              "text": "",
              "textClass": "ml-auto",
              "iconRight": {
                "iconFile": "icon-mapfre_033_angle2-right",
                "iconClass": "g-font--10 g-font--bold"
              }
            }
          ]
        },
        {
          "boxClass": "g-p--15 g-bg-c--gray5",
          "navText": [
            {
              "text": "Ver mis pagos",
              "textClass": "w-100 g-font--medium",
              "iconRight": false
            },
            {
              "text": "",
              "textClass": "ml-auto",
              "iconRight": {
                "iconFile": "icon-mapfre_033_angle2-right",
                "iconClass": "g-font--10 g-font--bold"
              }
            }
          ]
        },
        {
          "boxClass": "g-p--15 g-bg-c--gray5",
          "navText": [
            {
              "text": "Hacer una reclamación",
              "textClass": "w-100 g-font--medium",
              "iconRight": false
            },
            {
              "text": "",
              "textClass": "ml-auto",
              "iconRight": {
                "iconFile": "icon-mapfre_033_angle2-right",
                "iconClass": "g-font--10 g-font--bold"
              }
            }
          ]
        }
      ]
    }
  }
}