{
  "list": [
    {
      "label": "Mis promociones",
      "id": ""
    },
    {
      "label": "Mis beneficios",
      "id": ""
    },
    {
      "addClass": "disabled",
      "label": "Mis seguros",
      "id": ""
    }
  ]
}