{
  "loginTitle" : {
    "iconTitle" : {
      "circle-addClass" : "g-icon-circle--md",
      "addClass" : "g-font--18 g-c--gray18 align-self-center",
      "iconFile" : "icon-mapfre_064_user-add"
    },
    "title" : "Contactar con un asesor",
    "titleDescription" : true,
    "Description" : "Compártenos tus datos para llamarte en menos de 24 horas. "
  },
  "docType" : false,
  "password" : false,
  "dataName": {
    "label": "Nombres y apellidos"
  },
  "dataPhone" : {
    "label": "Teléfono de contacto"
  },
  "dataEmail" : false,
  "link" : false,
  "btn-primary": {
    "text" : "CONFIRMAR",
    "addClass" : "g-btn--default g-text--uppercase  g-mb--25 "
  },
  "btn-secondary" : false,
  "listItems" : {
    "listA" :{
      "addClass" : "green g-font--13 g-font--light g-c--gray2",
      "ico-font" : "icon-mapfre_003_check",
      "list" : [
        { "text" : "Actualizar datos"},
        { "text" : "Solicitar servicios"}
      ]
    },
    "listB" : {
      "addClass" : "green g-font--13 g-font--light g-c--gray2",
      "ico-font" : "icon-mapfre_003_check",
      "list" : [
        { "text" : "Gestionar tus pólizas"},
        { "text" : "Pagar recibos"}
      ]
    }
  },
  "floatIcon" : {
    "circle-addClass" : "",
    "addClass" : "g-font--21 g-font--bold g-c--green1 align-self-center",
    "iconFile" : "icon-mapfre_033_angle2-right"
  }
}