{
  "loginTitle" : {
    "iconTitle" : {
      "circle-addClass" : "g-icon-circle--md",
      "addClass" : "g-font--18 g-c--gray18 align-self-center",
      "iconFile" : "icon-mapfre_014_perfil"
    },
    "title" : "Inicia sesión"
  },
  "docType": {
    "tipdoc" : [
      {
        "addClass" : "g-form-focus",
        "value" : "D.N.I",
        "listOption" : [
          { "value" : "DNI" },
          { "value" : "RUC" },
          { "value" : "CEX" }
        ],
        "label" : "Tipo de documento"
      }
    ],
    "input": {
      "addClass": "g-form-focus",
      "currency": "",
      "type": "text",
      "value": "123456777",
      "iconFile": "",
      "iconColor": "g-c--green1",
      "label": "Número de documento",
      "requerid": false,
      "error": ""
    }
  },
  "password" : {
    "input": {
      "addClass": "g-form-focus",
      "currency": "",
      "type": "password",
      "value": "*********",
      "iconFile": "",
      "iconColor": "g-c--green1",
      "label": "Contraseña",
      "requerid": false,
      "error": ""
    }
  },
  "dataName": false,
  "dataEmail" : false,
  "link" : true,
  "linkText" : "He olvidado mi contraseña",
  "btn-primary": {
    "btnClass": "g-mb--20  g-mt--30",
    "text" : "Ingresar",
    "addClass" : "g-btn--default g-text--uppercase"
  },
  "btn-secondary" : {
    "btnClass": "g-mb--20 ",
    "text" : "habilitar usuario",
    "addClass" : "g-btn--default g-text--uppercase g-btn-outline"
  },
  "listItems" : {
    "listA" :{
      "addClass" : "green g-font--13 g-font--light g-c--gray2",
      "ico-font" : "icon-mapfre_003_check",
      "list" : [
        { "text" : "Actualizar datos"},
        { "text" : "Solicitar servicios"}
      ]
    },
    "listB" : {
      "addClass" : "green g-font--13 g-font--light g-c--gray2",
      "ico-font" : "icon-mapfre_003_check",
      "list" : [
        { "text" : "Gestionar tus pólizas"},
        { "text" : "Pagar recibos"}
      ]
    }
  },
  "floatIcon" : {
    "circle-addClass" : "",
    "addClass" : "g-font--21 g-font--bold g-c--green1 align-self-center",
    "iconFile" : "icon-mapfre_033_angle2-right"
  }
}