{
  "image": {
    "src": "../../images/services/icon-time-alert.svg",
    "imageClass": " text-center g-mt--30 g-mt-lg--90 g-mb--20 g-ie-flex--0-1-auto"
  },
  "mPrimary": true,
  "primaryClass": "text-center g-font--medium g-font--16",
  "text-primary": "Estimado usuario(a):",
  "textDescription": [
    {
      "addClass": "w-10 w-px-xl--46 g-max-w-md--46 mx-auto g-mt--15 g-mb-md--50",
      "text": [
        {
          "textClass": "text-center g-font--light",
          "text": "Se ha activado tu cuenta sin embargo, el tiempo de la solicitud ha expirado. Por favor, actualiza tu contraseña ingresando al siguiente enlace:"
        }
      ]
    }
  ],
  "mSecondary": false,
  "text-thirdy": "",
  "linkText": false,
  "btn-primary": {
    "addClass": "g-btn--default g-text--uppercase g-mb--30 g-mb-lg--90 g-mb--30 g-mt--30 g-mt-lg--0",
    "text": "Iniciar sesión"
  },
  "alert": false,
  "floatIcon": false,
  "contenRegistertClass": "flex-column g-pb--20 g-p-lg--0",
  "footerMessage": {
    "fooClass": "g-bt--1 g-bc--gray11 w-10 g-pt--20 g-pt-md--30 g-pb-lg--25 g-ie-flex--0-1-auto",
    "image": false,
    "text": [
      {
        "textClass": "text-center icon-mapfre_044_logo_landing g-c--red1 g-font--35 g-line--10",
        "text": ""
      },
      {
        "textClass": "text-center g-font--10 g-pb--5 g-c--gray18 ",
        "text": "MAPFRE PERÚ COMPAÑÍA DE SEGUROS Y REASEGUROS"
      },
      {
        "textClass": "text-center g-font--10 g-c--gray18 ",
        "text": "Cualquier duda contáctenos en Lima (01) 213 3333 y Provincias: 0801 1 1133"
      }
    ]
  }
}