{
  "iconFile": "icon-mapfre_044_logo_landing ",
  "addClass": "g-font--45",
  "acordion": [
    {
      "classAccordion": "g-bg-c--gray8 g-c--gray7",
      "dataGroup": "true",
      "item": [
        {
          "dataOpen": "true",
          "itemClass": "",
          "titleClass": "",
          "boxClass": "",
          "clickClass": " g-pl--20   g-pr--15   g-py--10 ",
          "icon": {
            "iconFile": "g-font--21 icon-mapfre_022_car2",
            "iconClass": "g-c--pointer  g-pr--10 g-pl--10 "
          },
          "arrow": {
            "clickOn": {
              "iconFile": "icon-mapfre_008_angle-down",
              "iconClass": "g-c--pointer"
            },
            "clickOff": {
              "iconFile": "icon-mapfre_007_angle-up",
              "iconClass": "g-c--pointer"
            }
          },
          "textClass": "g-text--uppercase g-font--bold",
          "text": "VEHÍCULOS",
          "contentClass": "",
          "content": false,
          "list": [
            {
              "iconFile": "",
              "text": "Seguro Vehicular"
            },
            {
              "iconFile": "",
              "text": "SOAT"
            },
            {
              "iconFile": "",
              "text": "Accidentes"
            },
            {
              "text": "Robo"
            },
            {
              "text": "Talleres"
            },
            {
              "text": "Cotización"
            }
          ],
          "classContent": "g-hover-nav"
        },
        {
          "dataOpen": "",
          "itemClass": "",
          "titleClass": "",
          "boxClass": "",
          "clickClass": " g-pl--20   g-pr--15   g-py--10 ",
          "icon": {
            "iconFile": "g-font--21 icon-mapfre_023_cross2",
            "iconClass": "g-c--pointer  g-pr--10 g-pl--10 "
          },
          "arrow": {
            "clickOn": {
              "iconFile": "icon-mapfre_008_angle-down",
              "iconClass": "g-c--pointer"
            },
            "clickOff": {
              "iconFile": "icon-mapfre_007_angle-up",
              "iconClass": "g-c--pointer"
            }
          },
          "textClass": "g-text--uppercase g-font--bold",
          "text": "SALUD",
          "contentClass": "",
          "content": false,
          "list": [
            {
              "iconFile": "",
              "text": "Seguro Vehicular"
            },
            {
              "iconFile": "",
              "text": "SOAT"
            },
            {
              "iconFile": "",
              "text": "Accidentes"
            },
            {
              "text": "Robo"
            },
            {
              "text": "Talleres"
            },
            {
              "text": "Cotización"
            }
          ],
          "classContent": "g-hover-nav"
        },
        {
          "dataOpen": "",
          "itemClass": "",
          "titleClass": "",
          "boxClass": "",
          "clickClass": " g-pl--20   g-pr--15   g-py--10 ",
          "icon": {
            "iconFile": "g-font--21 icon-mapfre_024_house2",
            "iconClass": "g-c--pointer  g-pr--10 g-pl--10 "
          },
          "arrow": {
            "clickOn": {
              "iconFile": "icon-mapfre_008_angle-down",
              "iconClass": "g-c--pointer"
            },
            "clickOff": {
              "iconFile": "icon-mapfre_007_angle-up",
              "iconClass": "g-c--pointer"
            }
          },
          "textClass": "g-text--uppercase g-font--bold",
          "text": "HOGAR",
          "contentClass": "",
          "content": false,
          "list": [
            {
              "iconFile": "",
              "text": "Seguro de hogar"
            },
            {
              "iconFile": "",
              "text": "Daños y robos"
            },
            {
              "iconFile": "",
              "text": "Cotización"
            }
          ],
          "classContent": "g-hover-nav"
        },
        {
          "dataOpen": "",
          "itemClass": "",
          "titleClass": "",
          "boxClass": "",
          "clickClass": " g-pl--20   g-pr--15   g-py--10 ",
          "icon": {
            "iconFile": "g-font--21 icon-mapfre_025_heart2",
            "iconClass": "g-c--pointer  g-pr--10 g-pl--10 "
          },
          "arrow": {
            "clickOn": {
              "iconFile": "icon-mapfre_008_angle-down",
              "iconClass": "g-c--pointer"
            },
            "clickOff": {
              "iconFile": "icon-mapfre_007_angle-up",
              "iconClass": "g-c--pointer"
            }
          },
          "textClass": "g-text--uppercase g-font--bold",
          "text": "VIDA Y AHORROS",
          "contentClass": "",
          "content": false,
          "list": [
            {
              "iconFile": "",
              "text": "Seguro Vehicular"
            },
            {
              "iconFile": "",
              "text": "SOAT"
            },
            {
              "iconFile": "",
              "text": "Accidentes"
            },
            {
              "text": "Robo"
            },
            {
              "text": "Talleres"
            },
            {
              "text": "Cotización"
            }
          ],
          "classContent": "g-hover-nav"
        },
        {
          "dataOpen": "",
          "itemClass": "",
          "titleClass": "",
          "boxClass": "",
          "clickClass": " g-pl--20   g-pr--15   g-py--10 ",
          "icon": {
            "iconFile": "g-font--21 icon-mapfre_026_decesos",
            "iconClass": "g-c--pointer  g-pr--10 g-pl--10 "
          },
          "arrow": false,
          "textClass": "g-text--uppercase g-font--bold",
          "text": "DECESOS",
          "contentClass": "",
          "content": false,
          "classContent": "g-hover-nav"
        },
        {
          "dataOpen": "",
          "itemClass": "",
          "titleClass": "",
          "boxClass": "",
          "clickClass": " g-pl--20   g-pr--15   g-py--10 ",
          "icon": {
            "iconFile": "g-font--21 icon-mapfre_027_box",
            "iconClass": "g-c--pointer  g-pr--10 g-pl--10 "
          },
          "arrow": false,
          "textClass": "g-text--uppercase g-font--bold",
          "text": "SERVICIOS MAPFRE",
          "contentClass": "",
          "content": false,
          "classContent": "g-hover-nav"
        },
        {
          "dataOpen": "",
          "itemClass": "",
          "titleClass": "",
          "boxClass": "",
          "clickClass": " g-pl--20   g-pr--15   g-py--10 ",
          "icon": {
            "iconFile": "g-font--21 icon-mapfre_028_pagos",
            "iconClass": "g-c--pointer  g-pr--10 g-pl--10 "
          },
          "arrow": false,
          "textClass": "g-text--uppercase g-font--bold",
          "text": "Mis Pagos",
          "contentClass": "",
          "content": false,
          "classContent": "g-hover-nav"
        },
        {
          "dataOpen": "",
          "itemClass": "",
          "titleClass": "",
          "boxClass": "",
          "clickClass": " g-pl--20   g-pr--15   g-py--10 ",
          "icon": {
            "iconFile": "g-font--21 icon-mapfre_029_location-pin2",
            "iconClass": "g-c--pointer  g-pr--10 g-pl--10 "
          },
          "arrow": false,
          "textClass": "g-text--uppercase g-font--bold",
          "text": "Red de Oficinas",
          "contentClass": "",
          "content": false,
          "classContent": "g-hover-nav"
        }
      ]
    }
  ],
  "list-btn": [
    {
      "iconFile": "icon-mapfre_030_call",
      "addClass": "g-font--30"
    },
    {
      "iconFile": "icon-mapfre_031_qanda",
      "addClass": "g-font--30"
    }
  ],
  "headerOIM": {
    "icoNav": {
      "iconFile": "icon-mapfre_047_bars",
      "addClass": "g-font--30",
      "iconFileOIM": "icon-mapfre_044_logo_landing ",
      "addClassOIM": "g-font--30"
    },
    "headOimMobile": {
      "llamada": "Seguro de hogar",
      "bajada": "Hogar Ideal",
      "iconFile": "icon-mapfre_044_logo_landing ",
      "addClass": "g-font--30",
      "icoBack": {
        "icon": "icon-mapfre_010_arrow-left",
        "addClass": "g-items-icon g-c--gray3 g-font--25 g-font-md--21"
      }
    },
    "datos": {
      "icoCircle": "icon-mapfre_066_circle",
      "sizeCircle": "g-font--40 g-c--gray1",
      "icoUser": "icon-mapfre_037_user",
      "addClass": "g-c--white1 g-ico--center g-font--20",
      "tittle": "NOTIFICACIONES",
      "icoAlert": "icon-mapfre_036_notification",
      "icoClose": "icon-mapfre_049_close2",
      "sizeClose": "g-font--40",
      "nameUser": "Hola <b>Gonzalo!</b>",
      "numb": 3,
      "alertBadge": {
        "icoCircle": "icon-mapfre_066_circle",
        "addClass": "g-font--30 g-c--green1",
        "addClassNum": "g-ico--center g-font--11 g-c--white1"
      },
      "list": [
        {
          "tipo": "Mi prefil"
        },
        {
          "tipo": "Cerrar sesión"
        }
      ]
    },
    "alert": {
      "ico": "icon-mapfre_014_perfil",
      "icoCircle": "icon-mapfre_066_circle",
      "sizeCircle": "g-font--40 g-c--gray1",
      "addClass": "g-c--white1 g-ico--center g-font--20",
      "tittle": "NOTIFICACIONES",
      "icoAlert": "icon-mapfre_036_notification",
      "icoClose": "icon-mapfre_049_close2",
      "sizeClose": "g-font--40",
      "numb": 3,
      "alertBadge": {
        "icoCircle": "icon-mapfre_066_circle",
        "addClass": "g-font--30 g-c--green1",
        "addClassNum": "g-ico--center g-font--11 g-c--white1"
      },
      "list": [
        {
          "ico-drow": "icon-mapfre_057_circle-check",
          "fech": "HOY 10:23am",
          "tipo": "Solicitud de chofer de reemplazo confirmada",
          "desc": "Seguro vehicular"
        },
        {
          "ico-drow": "icon-mapfre_049_close2",
          "fech": "HOY 10:23am",
          "tipo": "Solicitud de auxilio mecánico cancelada",
          "desc": "Seguro vehicular"
        },
        {
          "ico-drow": "icon-mapfre_057_circle-check",
          "fech": "HOY 10:23am",
          "tipo": "Solicitud de auxilio mecánico cancelada",
          "desc": "Seguro vehicular"
        },
        {
          "ico-drow": "icon-mapfre_049_close2",
          "fech": "HOY 10:23am",
          "tipo": "Solicitud de auxilio mecánico cancelada",
          "desc": "Seguro vehicular"
        },
        {
          "ico-drow": "icon-mapfre_057_circle-check",
          "fech": "HOY 10:23am",
          "tipo": "Solicitud de auxilio mecánico cancelada",
          "desc": "Seguro vehicular"
        },
        {
          "ico-drow": "icon-mapfre_062_reloj",
          "fech": "HOY 10:23am",
          "tipo": "Solicitud de auxilio mecánico cancelada",
          "desc": "Seguro vehicular"
        },
        {
          "ico-drow": "icon-mapfre_049_close2",
          "fech": "HOY 10:23am",
          "tipo": "Solicitud de auxilio mecánico cancelada",
          "desc": "Seguro vehicular"
        }
      ]
    }
  },
  "steps": {
    "stepsClass": "g-py-lg--40 g-py--20",
    "stepsItems": [
      {
        "active": "active",
        "numberClass": "g-font--normal g-font-lg--medium g-font--12 g-font-lg--14 g-c--white1",
        "number": "1",
        "textClass": "g-font--13 g-font-lg--14 g-pt--5 g-font--light",
        "text": "LUGAR Y FECHA",
        "subtitleClass": "g-font--13 g-font--light",
        "subtitle": [
          {
            "subtitle": ""
          }
        ]
      },
      {
        "active": "active active--last",
        "numberClass": "g-font--normal g-font-lg--medium g-font--12 g-font-lg--14 g-c--white1",
        "number": "2",
        "textClass": "g-font--13 g-font-lg--14 g-pt--5 g-font--light",
        "text": "TIPO DE INCIDENTE",
        "subtitleClass": "g-font--13 g-font--light",
        "subtitle": [
          {
            "subtitle": ""
          }
        ]
      },
      {
        "active": "",
        "numberClass": "g-font--normal g-font-lg--medium g-font--12 g-font-lg--14 g-c--white1",
        "number": "3",
        "textClass": "g-font--13 g-font-lg--14 g-pt--5 g-font--light",
        "text": "FOTOS",
        "subtitleClass": "g-font--13 g-font--light",
        "subtitle": [
          {
            "subtitle": ""
          }
        ]
      }
    ]
  },
  "runway": {
    "addClass": "",
    "icon": {
      "iconFile": "icon-mapfre_042_home",
      "iconClass": "g-font--42"
    },
    "title": {
      "textClass": "",
      "text": "FOTOS DEL INCIDENTE"
    },
    "hogarStep1": false,
    "hogarStep3": {
      "addClass": "mw--500 g-mt--45",
      "boxClass": "g-mt--5 g-mb--25 g-ml--15",
      "iconClass": "icon-mapfre_076_upload g-font--14 g-c--red1",
      "textDescription": "Sube 3 fotos como mínimo para registrar la asistencia",
      "frontImg": false,
      "revImg": false,
      "listImg": {
        "list": [
          {
            "srcClass": "g-mr--10",
            "src": "/images/test/test-1.png"
          },
          {
            "srcClass": "g-mr--10",
            "src": "/images/test/test-2.png"
          },
          {
            "srcClass": "g-mr--10",
            "src": "/images/test/test-3.png"
          }
        ]
      },
      "footer": {
        "textClass": "g-font--13 g-mt--20",
        "textLink": false,
        "text": "Agrega o arrastra las imágenes"
      }
    },
    "footer": {
      "footerClass": "",
      "btn": [
        {
          "boxClass": "g-pr--10",
          "textClass": "g-btn-outline",
          "text": "Cancelar"
        },
        {
          "boxClass": "g-pl--10",
          "textClass": "",
          "text": "Continuar"
        }
      ]
    }
  }
}