{
  "iconFile": "icon-mapfre_044_logo_landing ",
  "addClass": "g-font--45",
  "acordion": [
    {
      "classAccordion": "g-bg-c--gray8 g-c--gray10 g-pt--5",
      "dataGroup": "true",
      "item": [
        {
          "dataOpen": "true",
          "itemClass": "",
          "titleClass": "",
          "boxClass": "",
          "clickClass": " g-pl--20   g-pr--15   g-py--10 ",
          "icon": {
            "iconFile": "icon-mapfre_022_car2",
            "iconClass": " g-px--15  g-font--20 "
          },
          "arrow": {
            "clickOn": {
              "iconFile": "icon-mapfre_101_ico-dow",
              "iconClass": "g-font--10 g-c-pointer g-c--white1"
            },
            "clickOff": {
              "iconFile": "icon-mapfre_102_ico-up",
              "iconClass": "g-c--pointer g-font--10"
            }
          },
          "textClass": "g-text--uppercase g-font--bold",
          "text": "VEHÍCULOS",
          "contentClass": "",
          "content": false,
          "list": [
            {
              "iconFile": "",
              "text": "Seguro Vehicular"
            },
            {
              "iconFile": "",
              "text": "SOAT"
            },
            {
              "iconFile": "",
              "text": "Accidentes"
            },
            {
              "text": "Robo"
            },
            {
              "text": "Talleres"
            },
            {
              "text": "Cotización"
            }
          ],
          "classContent": "g-hover-nav g-font--12"
        },
        {
          "dataOpen": "",
          "itemClass": "",
          "titleClass": "",
          "boxClass": "",
          "clickClass": " g-pl--20   g-pr--15   g-py--10 ",
          "icon": {
            "iconFile": "icon-mapfre_023_cross2",
            "iconClass": " g-px--15  g-font--20 "
          },
          "arrow": {
            "clickOn": {
              "iconFile": "icon-mapfre_101_ico-dow",
              "iconClass": "g-font--10 g-c-pointer g-c--white1"
            },
            "clickOff": {
              "iconFile": "icon-mapfre_102_ico-up",
              "iconClass": "g-c--pointer g-font--10"
            }
          },
          "textClass": "g-text--uppercase g-font--bold",
          "text": "SALUD",
          "contentClass": "",
          "content": false,
          "list": [
            {
              "iconFile": "",
              "text": "Seguro Vehicular"
            },
            {
              "iconFile": "",
              "text": "SOAT"
            },
            {
              "iconFile": "",
              "text": "Accidentes"
            },
            {
              "text": "Robo"
            },
            {
              "text": "Talleres"
            },
            {
              "text": "Cotización"
            }
          ],
          "classContent": "g-hover-nav"
        },
        {
          "dataOpen": "",
          "itemClass": "",
          "titleClass": "",
          "boxClass": "",
          "clickClass": " g-pl--20   g-pr--15   g-py--10 ",
          "icon": {
            "iconFile": "icon-mapfre_024_house2",
            "iconClass": " g-px--15  g-font--20 "
          },
          "arrow": {
            "clickOn": {
              "iconFile": "icon-mapfre_101_ico-dow",
              "iconClass": "g-font--10 g-c-pointer g-c--white1"
            },
            "clickOff": {
              "iconFile": "icon-mapfre_102_ico-up",
              "iconClass": "g-c--pointer"
            }
          },
          "textClass": "g-text--uppercase g-font--bold",
          "text": "HOGAR",
          "contentClass": "",
          "content": false,
          "list": [
            {
              "iconFile": "",
              "text": "Seguro Vehicular"
            },
            {
              "iconFile": "",
              "text": "SOAT"
            },
            {
              "iconFile": "",
              "text": "Accidentes"
            },
            {
              "text": "Robo"
            },
            {
              "text": "Talleres"
            },
            {
              "text": "Cotización"
            }
          ],
          "classContent": "g-hover-nav"
        },
        {
          "dataOpen": "",
          "itemClass": "",
          "titleClass": "",
          "boxClass": "",
          "clickClass": " g-pl--20   g-pr--15   g-py--10 ",
          "icon": {
            "iconFile": "icon-mapfre_025_heart2",
            "iconClass": " g-px--15  g-font--20 "
          },
          "arrow": {
            "clickOn": {
              "iconFile": "icon-mapfre_101_ico-dow",
              "iconClass": "g-font--10 g-c-pointer g-c--white1"
            },
            "clickOff": {
              "iconFile": "icon-mapfre_102_ico-up",
              "iconClass": "g-c--pointer"
            }
          },
          "textClass": "g-text--uppercase g-font--bold",
          "text": "VIDA Y AHORROS",
          "contentClass": "",
          "content": false,
          "list": [
            {
              "iconFile": "",
              "text": "Seguro Vehicular"
            },
            {
              "iconFile": "",
              "text": "SOAT"
            },
            {
              "iconFile": "",
              "text": "Accidentes"
            },
            {
              "text": "Robo"
            },
            {
              "text": "Talleres"
            },
            {
              "text": "Cotización"
            }
          ],
          "classContent": "g-hover-nav"
        },
        {
          "dataOpen": "",
          "itemClass": "",
          "titleClass": "",
          "boxClass": "",
          "clickClass": " g-pl--20   g-pr--15   g-py--10 ",
          "icon": {
            "iconFile": "icon-mapfre_026_decesos",
            "iconClass": " g-px--15  g-font--20 "
          },
          "arrow": false,
          "textClass": "g-text--uppercase g-font--bold",
          "text": "DECESOS",
          "contentClass": "",
          "content": false,
          "classContent": "g-hover-nav"
        },
        {
          "dataOpen": "",
          "itemClass": "",
          "titleClass": "",
          "boxClass": "",
          "clickClass": " g-pl--20   g-pr--15   g-py--10 ",
          "icon": {
            "iconFile": "icon-mapfre_027_box",
            "iconClass": " g-px--15  g-font--20 "
          },
          "arrow": false,
          "textClass": "g-text--uppercase g-font--bold",
          "text": "SERVICIOS MAPFRE",
          "contentClass": "",
          "content": false,
          "classContent": "g-hover-nav"
        },
        {
          "dataOpen": "",
          "itemClass": "",
          "titleClass": "",
          "boxClass": "",
          "clickClass": " g-pl--20   g-pr--15   g-py--10 ",
          "icon": {
            "iconFile": "icon-mapfre_028_pagos",
            "iconClass": " g-px--15  g-font--20 "
          },
          "arrow": false,
          "textClass": "g-text--uppercase g-font--bold",
          "text": "Mis Pagos",
          "contentClass": "",
          "content": false,
          "classContent": "g-hover-nav"
        },
        {
          "dataOpen": "",
          "itemClass": "",
          "titleClass": "",
          "boxClass": "",
          "clickClass": " g-pl--20   g-pr--15   g-py--10 ",
          "icon": {
            "iconFile": "icon-mapfre_029_location-pin2",
            "iconClass": " g-px--15  g-font--20 "
          },
          "arrow": false,
          "textClass": "g-text--uppercase g-font--bold",
          "text": "Red de Oficinas",
          "contentClass": "",
          "content": false,
          "classContent": "g-hover-nav"
        }
      ]
    }
  ],
  "list-btn": [
    {
      "iconFile": "icon-mapfre_030_call",
      "addClass": "g-font--30"
    },
    {
      "iconFile": "icon-mapfre_031_qanda",
      "addClass": "g-font--30"
    }
  ],
  "headerOIM": {
    "icoNav": {
      "iconFile": "icon-mapfre_047_bars",
      "addClass": "g-font--30",
      "iconFileOIM": "icon-mapfre_044_logo_landing ",
      "addClassOIM": "g-font--30"
    },
    "headOimMobile": {
      "llamada": "DAÑOS Y ROBOS",
      "bajada": "REPORTAR ASISTENCIA",
      "iconFile": "icon-mapfre_044_logo_landing ",
      "addClass": "g-font--30",
      "icoBack": {
        "icon": "icon-mapfre_010_arrow-left",
        "addClass": "g-items-icon g-c--gray3 g-font--25 g-font-md--21"
      }
    },
    "datos": {
      "icoCircle": "icon-mapfre_066_circle",
      "sizeCircle": "g-font--40 g-c--gray1",
      "icoUser": "icon-mapfre_037_user",
      "addClass": "g-c--white1 g-ico--center g-font--20",
      "tittle": "NOTIFICACIONES",
      "icoAlert": "icon-mapfre_036_notification",
      "icoClose": "icon-mapfre_049_close2",
      "sizeClose": "g-font--40",
      "nameUser": "Hola <b>Gonzalo!</b>",
      "numb": 3,
      "alertBadge": {
        "icoCircle": "icon-mapfre_066_circle",
        "addClass": "g-font--30 g-c--green1",
        "addClassNum": "g-ico--center g-font--11 g-c--white1"
      },
      "list": [
        {
          "tipo": "Mi prefil"
        },
        {
          "tipo": "Cerrar sesión"
        }
      ]
    },
    "alert": {
      "ico": "icon-mapfre_014_perfil",
      "icoCircle": "icon-mapfre_066_circle",
      "sizeCircle": "g-font--40 g-c--gray1",
      "addClass": "g-c--white1 g-ico--center g-font--20",
      "tittle": "NOTIFICACIONES",
      "icoAlert": "icon-mapfre_036_notification",
      "icoClose": "icon-mapfre_049_close2",
      "sizeClose": "g-font--40",
      "numb": 3,
      "alertBadge": {
        "icoCircle": "icon-mapfre_066_circle",
        "addClass": "g-font--30 g-c--green1",
        "addClassNum": "g-ico--center g-font--11 g-c--white1"
      },
      "list": [
        {
          "ico-drow": "icon-mapfre_057_circle-check",
          "fech": "HOY 10:23am",
          "tipo": "Solicitud de chofer de reemplazo confirmada",
          "desc": "Seguro vehicular"
        },
        {
          "ico-drow": "icon-mapfre_049_close2",
          "fech": "HOY 10:23am",
          "tipo": "Solicitud de auxilio mecánico cancelada",
          "desc": "Seguro vehicular"
        },
        {
          "ico-drow": "icon-mapfre_057_circle-check",
          "fech": "HOY 10:23am",
          "tipo": "Solicitud de auxilio mecánico cancelada",
          "desc": "Seguro vehicular"
        },
        {
          "ico-drow": "icon-mapfre_049_close2",
          "fech": "HOY 10:23am",
          "tipo": "Solicitud de auxilio mecánico cancelada",
          "desc": "Seguro vehicular"
        },
        {
          "ico-drow": "icon-mapfre_057_circle-check",
          "fech": "HOY 10:23am",
          "tipo": "Solicitud de auxilio mecánico cancelada",
          "desc": "Seguro vehicular"
        },
        {
          "ico-drow": "icon-mapfre_062_reloj",
          "fech": "HOY 10:23am",
          "tipo": "Solicitud de auxilio mecánico cancelada",
          "desc": "Seguro vehicular"
        },
        {
          "ico-drow": "icon-mapfre_049_close2",
          "fech": "HOY 10:23am",
          "tipo": "Solicitud de auxilio mecánico cancelada",
          "desc": "Seguro vehicular"
        }
      ]
    }
  },
  "steps": {
    "stepsClass": "g-py-lg--40 g-py--20",
    "stepsItems": [
      {
        "active": "active",
        "numberClass": "g-font--normal g-font-lg--medium g-font--12 g-font-lg--14 g-c--white1",
        "number": "1",
        "textClass": "g-font--13 g-font-lg--14 g-pt--5 g-font--light",
        "text": "LUGAR Y FECHA",
        "subtitleClass": "g-font--13 g-font--light",
        "subtitle": [
          {
            "subtitle": ""
          }
        ]
      },
      {
        "active": "active active--last",
        "numberClass": "g-font--normal g-font-lg--medium g-font--12 g-font-lg--14 g-c--white1",
        "number": "2",
        "textClass": "g-font--13 g-font-lg--14 g-pt--5 g-font--light",
        "text": "TIPO DE INCIDENTE",
        "subtitleClass": "g-font--13 g-font--light",
        "subtitle": [
          {
            "subtitle": ""
          }
        ]
      },
      {
        "active": "",
        "numberClass": "g-font--normal g-font-lg--medium g-font--12 g-font-lg--14 g-c--white1",
        "number": "3",
        "textClass": "g-font--13 g-font-lg--14 g-pt--5 g-font--light",
        "text": "FOTOS",
        "subtitleClass": "g-font--13 g-font--light",
        "subtitle": [
          {
            "subtitle": ""
          }
        ]
      }
    ]
  },
  "runway": {
    "addClass": "",
    "icon": {
      "iconFile": "icon-mapfre_042_home",
      "iconClass": "g-font--42"
    },
    "title": {
      "textClass": "",
      "text": "TIPO DE INCIDENTE"
    },
    "hogarStep1": false,
    "hogarStep2": {
      "radioIcon": [
        {
          "addClass": "g-mr--10",
          "contentClass": "active d-flex flex-column text-center justify-content-center align-items-center g-p--5 g-p-lg--20",
          "icon": "icon-mapfre_109_person_coverage",
          "iconClass": "g-font--24 g-font-lg--40",
          "text": "Incendio y/o Explosión",
          "textClass": "g-font--13 g-line--10 g-pt--5 g-font--bold text-wrap w-100"
        },
        {
          "addClass": "g-mr--10",
          "contentClass": "d-flex flex-column text-center justify-content-center align-items-center g-p--5 g-p-lg--20",
          "icon": "icon-mapfre_156_break_glasses",
          "iconClass": "g-font--24 g-font-lg--40",
          "text": "Rotura de Vidrios",
          "textClass": "g-font--13 g-line--10 g-pt--5 g-font--bold text-wrap w-100"
        },
        {
          "addClass": "g-mr--10",
          "contentClass": "d-flex flex-column text-center justify-content-center align-items-center g-p--5 g-p-lg--20",
          "icon": "icon-mapfre_157_rain",
          "iconClass": "g-font--24 g-font-lg--40",
          "text": "Lluvia",
          "textClass": "g-font--13 g-line--10 g-pt--5 g-font--bold text-wrap w-100"
        },
        {
          "addClass": "g-mr--10",
          "contentClass": "d-flex flex-column text-center justify-content-center align-items-center g-p--5 g-p-lg--20",
          "icon": "icon-mapfre_158_alert",
          "iconClass": "g-font--24 g-font-lg--40",
          "text": "Todo Riesgo",
          "textClass": "g-font--13 g-line--10 g-pt--5 g-font--bold text-wrap w-100"
        },
        {
          "addClass": "g-mr--10",
          "contentClass": "d-flex flex-column text-center justify-content-center align-items-center g-p--5 g-p-lg--20",
          "icon": "icon-mapfre_159_damage",
          "iconClass": "g-font--24 g-font-lg--40",
          "text": "Desperfectos",
          "textClass": "g-font--13 g-line--10 g-pt--5 g-font--bold text-wrap w-100"
        },
        {
          "addClass": "g-mr--10",
          "contentClass": "d-flex flex-column text-center justify-content-center align-items-center g-p--5 g-p-lg--20",
          "icon": "icon-mapfre_160_earthquake",
          "iconClass": "g-font--24 g-font-lg--40",
          "text": "Terremoto",
          "textClass": "g-font--13 g-line--10 g-pt--5 g-font--bold text-wrap w-100"
        },
        {
          "addClass": "g-mr--10",
          "contentClass": "d-flex flex-column text-center justify-content-center align-items-center g-p--5 g-p-lg--20",
          "icon": "icon-mapfre_161_seaquake",
          "iconClass": "g-font--24 g-font-lg--40",
          "text": "Maremoto",
          "textClass": "g-font--13 g-line--10 g-pt--5 g-font--bold text-wrap w-100"
        },
        {
          "addClass": "g-mr--10",
          "contentClass": "d-flex flex-column text-center justify-content-center align-items-center g-p--5 g-p-lg--20",
          "icon": "icon-mapfre_162_ruptures",
          "iconClass": "g-font--24 g-font-lg--40",
          "text": "Daño malicioso",
          "textClass": "g-font--13 g-line--10 g-pt--5 g-font--bold text-wrap w-100"
        }
      ],
      "formCase": {
        "textClass": "g-pt--20",
        "text": "MOTIVOS DE LOS DAÑOS",
        "radioForm": {
          "addClass": "flex-column",
          "radio": [
            {
              "classRadio": "d-flex align-items-center g-pt--20 mr-auto",
              "idradio": "radioCard",
              "label": {
                "label": "Rotura de vidrios y cristales"
              }
            },
            {
              "classRadio": "d-flex align-items-center g-pt--20 mr-auto",
              "idradio": "radioCard",
              "label": {
                "label": "Servicios de Urgencia"
              }
            }
          ]
        }
      }
    },
    "footer": {
      "footerClass": "",
      "btn": [
        {
          "boxClass": "g-pr--10",
          "textClass": "g-btn-outline",
          "text": "Cancelar"
        },
        {
          "boxClass": "g-pl--10",
          "textClass": "",
          "text": "Continuar"
        }
      ]
    }
  }
}