{
  "iconFile": "icon-mapfre_044_logo_landing ",
  "addClass": "g-font--40",
  "acordion": [
    {
      "classAccordion": "g-bg-c--gray8 g-c--gray7",
      "dataGroup": "true",
      "item": [
        {
          "dataOpen": "true",
          "itemClass": "",
          "titleClass": "",
          "boxClass": "",
          "clickClass": " g-pl--20   g-pr--15   g-py--10 ",
          "icon": {
            "iconFile": "g-font--21 icon-mapfre_022_car2",
            "iconClass": "g-c--pointer  g-pr--10 g-pl--10 "
          },
          "arrow": {
            "clickOn": {
              "iconFile": "icon-mapfre_008_angle-down",
              "iconClass": "g-c--pointer"
            },
            "clickOff": {
              "iconFile": "icon-mapfre_007_angle-up",
              "iconClass": "g-c--pointer"
            }
          },
          "textClass": "g-text--uppercase g-font--bold",
          "text": "VEHÍCULOS",
          "contentClass": "",
          "content": false,
          "list": [
            {
              "iconFile": "",
              "text": "Seguro Vehicular"
            },
            {
              "iconFile": "",
              "text": "SOAT"
            },
            {
              "iconFile": "",
              "text": "Accidentes"
            },
            {
              "text": "Robo"
            },
            {
              "text": "Talleres"
            },
            {
              "text": "Cotización"
            }
          ],
          "classContent": "g-hover-nav"
        },
        {
          "dataOpen": "",
          "itemClass": "",
          "titleClass": "",
          "boxClass": "",
          "clickClass": " g-pl--20   g-pr--15   g-py--10 ",
          "icon": {
            "iconFile": "g-font--21 icon-mapfre_023_cross2",
            "iconClass": "g-c--pointer  g-pr--10 g-pl--10 "
          },
          "arrow": {
            "clickOn": {
              "iconFile": "icon-mapfre_008_angle-down",
              "iconClass": "g-c--pointer"
            },
            "clickOff": {
              "iconFile": "icon-mapfre_007_angle-up",
              "iconClass": "g-c--pointer"
            }
          },
          "textClass": "g-text--uppercase g-font--bold",
          "text": "SALUD",
          "contentClass": "",
          "content": false,
          "list": [
            {
              "iconFile": "",
              "text": "Seguro Vehicular"
            },
            {
              "iconFile": "",
              "text": "SOAT"
            },
            {
              "iconFile": "",
              "text": "Accidentes"
            },
            {
              "text": "Robo"
            },
            {
              "text": "Talleres"
            },
            {
              "text": "Cotización"
            }
          ],
          "classContent": "g-hover-nav"
        },
        {
          "dataOpen": "",
          "itemClass": "",
          "titleClass": "",
          "boxClass": "",
          "clickClass": " g-pl--20   g-pr--15   g-py--10 ",
          "icon": {
            "iconFile": "g-font--21 icon-mapfre_024_house2",
            "iconClass": "g-c--pointer  g-pr--10 g-pl--10 "
          },
          "arrow": {
            "clickOn": {
              "iconFile": "icon-mapfre_008_angle-down",
              "iconClass": "g-c--pointer"
            },
            "clickOff": {
              "iconFile": "icon-mapfre_007_angle-up",
              "iconClass": "g-c--pointer"
            }
          },
          "textClass": "g-text--uppercase g-font--bold",
          "text": "HOGAR",
          "contentClass": "",
          "content": false,
          "list": [
            {
              "iconFile": "",
              "text": "Seguro Vehicular"
            },
            {
              "iconFile": "",
              "text": "SOAT"
            },
            {
              "iconFile": "",
              "text": "Accidentes"
            },
            {
              "text": "Robo"
            },
            {
              "text": "Talleres"
            },
            {
              "text": "Cotización"
            }
          ],
          "classContent": "g-hover-nav"
        },
        {
          "dataOpen": "",
          "itemClass": "",
          "titleClass": "",
          "boxClass": "",
          "clickClass": " g-pl--20   g-pr--15   g-py--10 ",
          "icon": {
            "iconFile": "g-font--21 icon-mapfre_025_heart2",
            "iconClass": "g-c--pointer  g-pr--10 g-pl--10 "
          },
          "arrow": {
            "clickOn": {
              "iconFile": "icon-mapfre_008_angle-down",
              "iconClass": "g-c--pointer"
            },
            "clickOff": {
              "iconFile": "icon-mapfre_007_angle-up",
              "iconClass": "g-c--pointer"
            }
          },
          "textClass": "g-text--uppercase g-font--bold",
          "text": "VIDA Y AHORROS",
          "contentClass": "",
          "content": false,
          "list": [
            {
              "iconFile": "",
              "text": "Seguro Vehicular"
            },
            {
              "iconFile": "",
              "text": "SOAT"
            },
            {
              "iconFile": "",
              "text": "Accidentes"
            },
            {
              "text": "Robo"
            },
            {
              "text": "Talleres"
            },
            {
              "text": "Cotización"
            }
          ],
          "classContent": "g-hover-nav"
        },
        {
          "dataOpen": "",
          "itemClass": "",
          "titleClass": "",
          "boxClass": "",
          "clickClass": " g-pl--20   g-pr--15   g-py--10 ",
          "icon": {
            "iconFile": "g-font--21 icon-mapfre_026_decesos",
            "iconClass": "g-c--pointer  g-pr--10 g-pl--10 "
          },
          "arrow": false,
          "textClass": "g-text--uppercase g-font--bold",
          "text": "DECESOS",
          "contentClass": "",
          "content": false,
          "classContent": "g-hover-nav"
        },
        {
          "dataOpen": "",
          "itemClass": "",
          "titleClass": "",
          "boxClass": "",
          "clickClass": " g-pl--20   g-pr--15   g-py--10 ",
          "icon": {
            "iconFile": "g-font--21 icon-mapfre_027_box",
            "iconClass": "g-c--pointer  g-pr--10 g-pl--10 "
          },
          "arrow": false,
          "textClass": "g-text--uppercase g-font--bold",
          "text": "SERVICIOS MAPFRE",
          "contentClass": "",
          "content": false,
          "classContent": "g-hover-nav"
        },
        {
          "dataOpen": "",
          "itemClass": "",
          "titleClass": "",
          "boxClass": "",
          "clickClass": " g-pl--20   g-pr--15   g-py--10 ",
          "icon": {
            "iconFile": "g-font--21 icon-mapfre_028_pagos",
            "iconClass": "g-c--pointer  g-pr--10 g-pl--10 "
          },
          "arrow": false,
          "textClass": "g-text--uppercase g-font--bold",
          "text": "Mis Pagos",
          "contentClass": "",
          "content": false,
          "classContent": "g-hover-nav"
        },
        {
          "dataOpen": "",
          "itemClass": "",
          "titleClass": "",
          "boxClass": "",
          "clickClass": " g-pl--20   g-pr--15   g-py--10 ",
          "icon": {
            "iconFile": "g-font--21 icon-mapfre_029_location-pin2",
            "iconClass": "g-c--pointer  g-pr--10 g-pl--10 "
          },
          "arrow": false,
          "textClass": "g-text--uppercase g-font--bold",
          "text": "Red de Oficinas",
          "contentClass": "",
          "content": false,
          "classContent": "g-hover-nav"
        }
      ]
    }
  ],
  "list-btn": [
    {
      "iconFile": "icon-mapfre_030_call",
      "addClass": "g-font--30"
    },
    {
      "iconFile": "icon-mapfre_031_qanda",
      "addClass": "g-font--30"
    }
  ],
  "headerOIM": {
    "icoNav": {
      "iconFile": "icon-mapfre_047_bars",
      "addClass": "g-font--30",
      "iconFileOIM": "icon-mapfre_044_logo_landing ",
      "addClassOIM": "g-font--30"
    },
    "headOimMobile": {
      "llamada": "Seguro vehicular",
      "bajada": "Preguntas Frecuentes",
      "iconFile": "icon-mapfre_044_logo_landing ",
      "addClass": "g-font--30",
      "icoBack": {
        "icon": "icon-mapfre_010_arrow-left",
        "addClass": "g-items-icon g-c--gray3 g-font--25 g-font-md--21"
      }
    },
    "datos": {
      "icoCircle": "icon-mapfre_066_circle",
      "sizeCircle": "g-font--40 g-c--gray1",
      "icoUser": "icon-mapfre_037_user",
      "addClass": "g-c--white1 g-ico--center g-font--20",
      "tittle": "MIS NOTIFICACIONES",
      "icoAlert": "icon-mapfre_036_notification",
      "icoClose": "icon-mapfre_049_close2",
      "sizeClose": "g-font--40",
      "nameUser": "Hola <b>Gonzalo!</b>",
      "numb": 3,
      "alertBadge": {
        "icoCircle": "icon-mapfre_066_circle",
        "addClass": "g-font--30 g-c--green1",
        "addClassNum": "g-ico--center g-font--11 g-c--white1"
      },
      "list": [
        {
          "tipo": "Mi prefil"
        },
        {
          "tipo": "Cerrar sesión"
        }
      ]
    },
    "alert": {
      "ico": "icon-mapfre_014_perfil",
      "icoCircle": "icon-mapfre_066_circle",
      "sizeCircle": "g-font--40 g-c--gray1",
      "addClass": "g-c--white1 g-ico--center g-font--20",
      "tittle": "MIS NOTIFICACIONES",
      "icoAlert": "icon-mapfre_036_notification",
      "icoClose": "icon-mapfre_049_close2",
      "sizeClose": "g-font--40",
      "numb": 3,
      "alertBadge": {
        "icoCircle": "icon-mapfre_066_circle",
        "addClass": "g-font--30 g-c--green1",
        "addClassNum": "g-ico--center g-font--11 g-c--white1"
      },
      "list": [
        {
          "ico-drow": "icon-mapfre_057_circle-check",
          "fech": "HOY 10:23am",
          "tipo": "Solicitud de chofer de reemplazo confirmada",
          "desc": "Lunes 1 NOV - 9:30am"
        },
        {
          "ico-drow": "icon-mapfre_049_close2",
          "fech": "24/02  10:23am",
          "tipo": "Solicitud de chofer de reemplazo cancelada",
          "desc": "Servicio cancelado"
        },
        {
          "ico-drow": "icon-mapfre_057_circle-check",
          "fech": "24/02 10:23am",
          "tipo": "Pago automático emitido",
          "desc": "Fondo universitario"
        },
        {
          "ico-drow": "icon-mapfre_049_close2",
          "fech": "24/02 10:23am",
          "tipo": "Pago fallido",
          "desc": "Seguro SCTR"
        },
        {
          "ico-drow": "icon-mapfre_057_circle-check",
          "fech": "24/02 10:23am",
          "tipo": "Pago pendiente",
          "desc": "Seguro vehicular - Vence 17/05/18"
        },
        {
          "ico-drow": "icon-mapfre_049_close2",
          "fech": "24/02 10:23am",
          "tipo": "Póliza sin cobertura por inpago",
          "desc": "Salud - Venció 12/05/18"
        }
      ]
    }
  },
  "tabs": {
    "listTab": [
      {
        "addActive": "g-tablist__tab--active",
        "text": "Detalles"
      },
      {
        "addActive": false,
        "text": "Coberturas"
      }
    ]
  },
  "faqs": {
    "dropdown": {
      "addClass": "g-mt--20",
      "itemList": [
        {
          "addClass": "",
          "openCard": "true",
          "titleClass": "g-text--uppercase g-font--medium g-py--15",
          "title": "¿Puedo reportar el siniestro al día siguiente de ocurrido?",
          "contentClass": "g-px--15 g-pb--15",
          "content": "Es necesario reportar el siniestro en el más breve plazo posible de haber ocurrido para que nuestros asesores evalúen el siniestro en el lugar de ocurrencia.",
          "iconDropdown": true
        },
        {
          "addClass": "",
          "openCard": "",
          "titleClass": "g-text--uppercase g-font--medium g-py--15",
          "title": "¿Cuánto tiempo tomará realizar la reparación de mi vehículo en el taller?",
          "contentClass": "g-px--15 g-pb--15",
          "content": "Lorem ipsum dolor sit amet consectetur adipiscing elit malesuada proin, ut morbi phasellus nam faucibus ad nisl ornare quam, curae arcu dignissim ultricies pharetra tempor diam parturient. Fermentum rhoncus fusce nullam justo tincidunt montes metus inceptos euismod lacus, tortor viverra dignissim fringilla mollis eu libero ligula condimentum, etiam neque cubilia facilisis aptent nam vivamus ultrices enim. Ad fringilla tincidunt cubilia et molestie mattis class risus nibh dui, tellus nisi duis conubia dignissim himenaeos sem laoreet semper, scelerisque cursus cum dictum nascetur lacinia nec rutrum neque.",
          "iconDropdown": true
        },
        {
          "addClass": "",
          "openCard": "",
          "titleClass": "g-text--uppercase g-font--medium g-py--15",
          "title": "¿Cuánto tiempo podría demorar la importación de repuestos?",
          "contentClass": "g-px--15 g-pb--15",
          "content": "Lorem ipsum dolor sit amet consectetur adipiscing elit malesuada proin, ut morbi phasellus nam faucibus ad nisl ornare quam, curae arcu dignissim ultricies pharetra tempor diam parturient. Fermentum rhoncus fusce nullam justo tincidunt montes metus inceptos euismod lacus, tortor viverra dignissim fringilla mollis eu libero ligula condimentum, etiam neque cubilia facilisis aptent nam vivamus ultrices enim. Ad fringilla tincidunt cubilia et molestie mattis class risus nibh dui, tellus nisi duis conubia dignissim himenaeos sem laoreet semper, scelerisque cursus cum dictum nascetur lacinia nec rutrum neque.",
          "iconDropdown": true
        },
        {
          "addClass": "",
          "openCard": "",
          "titleClass": "g-text--uppercase g-font--medium g-py--15",
          "title": "¿Las reparaciones realizadas tienen garantía?",
          "contentClass": "g-px--15 g-pb--15",
          "content": "Lorem ipsum dolor sit amet consectetur adipiscing elit malesuada proin, ut morbi phasellus nam faucibus ad nisl ornare quam, curae arcu dignissim ultricies pharetra tempor diam parturient. Fermentum rhoncus fusce nullam justo tincidunt montes metus inceptos euismod lacus, tortor viverra dignissim fringilla mollis eu libero ligula condimentum, etiam neque cubilia facilisis aptent nam vivamus ultrices enim. Ad fringilla tincidunt cubilia et molestie mattis class risus nibh dui, tellus nisi duis conubia dignissim himenaeos sem laoreet semper, scelerisque cursus cum dictum nascetur lacinia nec rutrum neque.",
          "iconDropdown": true
        },
        {
          "addClass": "",
          "openCard": "",
          "titleClass": "g-text--uppercase g-font--medium g-py--15",
          "title": "¿Se utilizaran repuestos originales en las reparaciones?",
          "contentClass": "g-px--15 g-pb--15",
          "content": "Lorem ipsum dolor sit amet consectetur adipiscing elit malesuada proin, ut morbi phasellus nam faucibus ad nisl ornare quam, curae arcu dignissim ultricies pharetra tempor diam parturient. Fermentum rhoncus fusce nullam justo tincidunt montes metus inceptos euismod lacus, tortor viverra dignissim fringilla mollis eu libero ligula condimentum, etiam neque cubilia facilisis aptent nam vivamus ultrices enim. Ad fringilla tincidunt cubilia et molestie mattis class risus nibh dui, tellus nisi duis conubia dignissim himenaeos sem laoreet semper, scelerisque cursus cum dictum nascetur lacinia nec rutrum neque.",
          "iconDropdown": true
        },
        {
          "addClass": "",
          "openCard": "",
          "titleClass": "g-text--uppercase g-font--medium g-py--15",
          "title": "¿Mi deducible es el mismo en cualquier taller?",
          "contentClass": "g-px--15 g-pb--15",
          "content": "Lorem ipsum dolor sit amet consectetur adipiscing elit malesuada proin, ut morbi phasellus nam faucibus ad nisl ornare quam, curae arcu dignissim ultricies pharetra tempor diam parturient. Fermentum rhoncus fusce nullam justo tincidunt montes metus inceptos euismod lacus, tortor viverra dignissim fringilla mollis eu libero ligula condimentum, etiam neque cubilia facilisis aptent nam vivamus ultrices enim. Ad fringilla tincidunt cubilia et molestie mattis class risus nibh dui, tellus nisi duis conubia dignissim himenaeos sem laoreet semper, scelerisque cursus cum dictum nascetur lacinia nec rutrum neque.",
          "iconDropdown": true
        },
        {
          "addClass": "",
          "openCard": "",
          "titleClass": "g-text--uppercase g-font--medium g-py--15",
          "title": "¿Qué documentos se deben presentar ante un choque?",
          "contentClass": "g-px--15 g-pb--15",
          "content": "Lorem ipsum dolor sit amet consectetur adipiscing elit malesuada proin, ut morbi phasellus nam faucibus ad nisl ornare quam, curae arcu dignissim ultricies pharetra tempor diam parturient. Fermentum rhoncus fusce nullam justo tincidunt montes metus inceptos euismod lacus, tortor viverra dignissim fringilla mollis eu libero ligula condimentum, etiam neque cubilia facilisis aptent nam vivamus ultrices enim. Ad fringilla tincidunt cubilia et molestie mattis class risus nibh dui, tellus nisi duis conubia dignissim himenaeos sem laoreet semper, scelerisque cursus cum dictum nascetur lacinia nec rutrum neque.",
          "iconDropdown": true
        },
        {
          "addClass": "",
          "openCard": "",
          "titleClass": "g-text--uppercase g-font--medium g-py--15",
          "title": "¿En caso de pérdida total me indemnizarán el valor de la suma asegurada?",
          "contentClass": "g-px--15 g-pb--15",
          "content": "Lorem ipsum dolor sit amet consectetur adipiscing elit malesuada proin, ut morbi phasellus nam faucibus ad nisl ornare quam, curae arcu dignissim ultricies pharetra tempor diam parturient. Fermentum rhoncus fusce nullam justo tincidunt montes metus inceptos euismod lacus, tortor viverra dignissim fringilla mollis eu libero ligula condimentum, etiam neque cubilia facilisis aptent nam vivamus ultrices enim. Ad fringilla tincidunt cubilia et molestie mattis class risus nibh dui, tellus nisi duis conubia dignissim himenaeos sem laoreet semper, scelerisque cursus cum dictum nascetur lacinia nec rutrum neque.",
          "iconDropdown": true
        }
      ]
    }
  }
}