{
  "iconFile": "icon-mapfre_044_logo_landing ",
  "addClass": "g-font--40",
  "acordion": [{
    "classAccordion": "g-bg-c--gray8 g-c--gray10 g-pt--5",
    "dataGroup": "true",
    "item": [{
        "dataOpen": "true",
        "itemClass": "",
        "titleClass": "",
        "boxClass": "",
        "clickClass": " g-pl--20   g-pr--15   g-py--10 ",
        "icon": {
          "iconFile": "icon-mapfre_022_car2",
          "iconClass": " g-px--15  g-font--20 "
        },
        "arrow": {
          "clickOn": {
            "iconFile": "icon-mapfre_101_ico-dow",
            "iconClass": "g-font--10 g-c-pointer g-c--white1"
          },
          "clickOff": {
            "iconFile": "icon-mapfre_102_ico-up",
            "iconClass": "g-c--pointer"
          }
        },
        "textClass": "g-text--uppercase g-font--bold",
        "text": "VEHÍCULOS",
        "contentClass": "",
        "content": false,
        "list": [{
            "iconFile": "",
            "text": "Seguro Vehicular"
          },
          {
            "iconFile": "",
            "text": "SOAT"
          },
          {
            "iconFile": "",
            "text": "Accidentes"
          },
          {
            "text": "Robo"
          },
          {
            "text": "Talleres"
          },
          {
            "text": "Cotización"
          }
        ],
        "classContent": "g-hover-nav g-font--12"
      },
      {
        "dataOpen": "",
        "itemClass": "",
        "titleClass": "",
        "boxClass": "",
        "clickClass": " g-pl--20   g-pr--15   g-py--10 ",
        "icon": {
          "iconFile": "icon-mapfre_023_cross2",
          "iconClass": " g-px--15  g-font--20 "
        },
        "arrow": {
          "clickOn": {
            "iconFile": "icon-mapfre_101_ico-dow",
            "iconClass": "g-font--10 g-c-pointer g-c--white1"
          },
          "clickOff": {
            "iconFile": "icon-mapfre_102_ico-up",
            "iconClass": "g-c--pointer g-font--10"
          }
        },
        "textClass": "g-text--uppercase g-font--bold",
        "text": "SALUD",
        "contentClass": "",
        "content": false,
        "list": [{
            "iconFile": "",
            "text": "Seguro Vehicular"
          },
          {
            "iconFile": "",
            "text": "SOAT"
          },
          {
            "iconFile": "",
            "text": "Accidentes"
          },
          {
            "text": "Robo"
          },
          {
            "text": "Talleres"
          },
          {
            "text": "Cotización"
          }
        ],
        "classContent": "g-hover-nav"
      },
      {
        "dataOpen": "",
        "itemClass": "",
        "titleClass": "",
        "boxClass": "",
        "clickClass": " g-pl--20   g-pr--15   g-py--10 ",
        "icon": {
          "iconFile": "icon-mapfre_024_house2",
          "iconClass": " g-px--15  g-font--20 "
        },
        "arrow": {
          "clickOn": {
            "iconFile": "icon-mapfre_101_ico-dow",
            "iconClass": "g-font--10 g-c-pointer g-c--white1"
          },
          "clickOff": {
            "iconFile": "icon-mapfre_102_ico-up",
            "iconClass": "g-c--pointer"
          }
        },
        "textClass": "g-text--uppercase g-font--bold",
        "text": "HOGAR",
        "contentClass": "",
        "content": false,
        "list": [{
            "iconFile": "",
            "text": "Seguro Vehicular"
          },
          {
            "iconFile": "",
            "text": "SOAT"
          },
          {
            "iconFile": "",
            "text": "Accidentes"
          },
          {
            "text": "Robo"
          },
          {
            "text": "Talleres"
          },
          {
            "text": "Cotización"
          }
        ],
        "classContent": "g-hover-nav"
      },
      {
        "dataOpen": "",
        "itemClass": "",
        "titleClass": "",
        "boxClass": "",
        "clickClass": " g-pl--20   g-pr--15   g-py--10 ",
        "icon": {
          "iconFile": "icon-mapfre_025_heart2",
          "iconClass": " g-px--15  g-font--20 "
        },
        "arrow": {
          "clickOn": {
            "iconFile": "icon-mapfre_101_ico-dow",
            "iconClass": "g-font--10 g-c-pointer g-c--white1"
          },
          "clickOff": {
            "iconFile": "icon-mapfre_102_ico-up",
            "iconClass": "g-c--pointer"
          }
        },
        "textClass": "g-text--uppercase g-font--bold",
        "text": "VIDA Y AHORROS",
        "contentClass": "",
        "content": false,
        "list": [{
            "iconFile": "",
            "text": "Seguro Vehicular"
          },
          {
            "iconFile": "",
            "text": "SOAT"
          },
          {
            "iconFile": "",
            "text": "Accidentes"
          },
          {
            "text": "Robo"
          },
          {
            "text": "Talleres"
          },
          {
            "text": "Cotización"
          }
        ],
        "classContent": "g-hover-nav"
      },
      {
        "dataOpen": "",
        "itemClass": "",
        "titleClass": "",
        "boxClass": "",
        "clickClass": " g-pl--20   g-pr--15   g-py--10 ",
        "icon": {
          "iconFile": "icon-mapfre_026_decesos",
          "iconClass": " g-px--15  g-font--20 "
        },
        "arrow": false,
        "textClass": "g-text--uppercase g-font--bold",
        "text": "DECESOS",
        "contentClass": "",
        "content": false,
        "classContent": "g-hover-nav"
      },
      {
        "dataOpen": "",
        "itemClass": "",
        "titleClass": "",
        "boxClass": "",
        "clickClass": " g-pl--20   g-pr--15   g-py--10 ",
        "icon": {
          "iconFile": "icon-mapfre_027_box",
          "iconClass": " g-px--15  g-font--20 "
        },
        "arrow": false,
        "textClass": "g-text--uppercase g-font--bold",
        "text": "SERVICIOS MAPFRE",
        "contentClass": "",
        "content": false,
        "classContent": "g-hover-nav"
      },
      {
        "dataOpen": "",
        "itemClass": "",
        "titleClass": "",
        "boxClass": "",
        "clickClass": " g-pl--20   g-pr--15   g-py--10 ",
        "icon": {
          "iconFile": "icon-mapfre_028_pagos",
          "iconClass": " g-px--15  g-font--20 "
        },
        "arrow": false,
        "textClass": "g-text--uppercase g-font--bold",
        "text": "Mis Pagos",
        "contentClass": "",
        "content": false,
        "classContent": "g-hover-nav"
      },
      {
        "dataOpen": "",
        "itemClass": "",
        "titleClass": "",
        "boxClass": "",
        "clickClass": " g-pl--20   g-pr--15   g-py--10 ",
        "icon": {
          "iconFile": "icon-mapfre_029_location-pin2",
          "iconClass": " g-px--15  g-font--20 "
        },
        "arrow": false,
        "textClass": "g-text--uppercase g-font--bold",
        "text": "Red de Oficinas",
        "contentClass": "",
        "content": false,
        "classContent": "g-hover-nav"
      }
    ]
  }],
  "list-btn": [{
      "iconFile": "icon-mapfre_030_call",
      "addClass": "g-font--30"
    },
    {
      "iconFile": "icon-mapfre_031_qanda",
      "addClass": "g-font--30"
    }
  ],
  "headerOIM": {
    "icoNav": {
      "iconFile": "icon-mapfre_047_bars",
      "addClass": "g-font--30",
      "iconFileOIM": "icon-mapfre_044_logo_landing ",
      "addClassOIM": "g-font--40"
    },
    "headOimMobile": {
      "llamadaClass": "g-font--light g-c--gray2",
      "llamada": "VEHÍCULOS",
      "bajada": "ROBOS",
      "iconFile": "icon-mapfre_044_logo_landing ",
      "addClass": "g-font--30",
      "icoBack": false
    },
    "datos": {
      "icoCircle": "icon-mapfre_066_circle",
      "sizeCircle": "g-font--40 g-c--gray1",
      "icoUser": "icon-mapfre_037_user",
      "addClass": "g-c--white1 g-ico--center g-font--20",
      "tittle": "MIS NOTIFICACIONES",
      "icoAlert": "icon-mapfre_036_notification",
      "icoClose": "icon-mapfre_049_close2",
      "sizeClose": "g-font--40",
      "nameUser": "Hola <b>Gonzalo!</b>",
      "numb": 3,
      "alertBadge": {
        "icoCircle": "icon-mapfre_066_circle",
        "addClass": "g-font--30 g-c--green1",
        "addClassNum": "g-ico--center g-font--11 g-c--white1"
      },
      "list": [{
          "tipo": "Mi prefil"
        },
        {
          "tipo": "Cerrar sesión"
        }
      ]
    },
    "alert": {
      "ico": "icon-mapfre_014_perfil",
      "icoCircle": "icon-mapfre_066_circle",
      "sizeCircle": "g-font--40 g-c--gray1",
      "addClass": "g-c--white1 g-ico--center g-font--20",
      "tittle": "MIS NOTIFICACIONES",
      "icoAlert": "icon-mapfre_036_notification",
      "icoClose": "icon-mapfre_049_close2",
      "sizeClose": "g-font--40",
      "numb": 3,
      "alertBadge": {
        "icoCircle": "icon-mapfre_066_circle",
        "addClass": "g-font--30 g-c--green1",
        "addClassNum": "g-ico--center g-font--11 g-c--white1"
      },
      "list": [{
          "ico-drow": "icon-mapfre_057_circle-check",
          "fech": "HOY 10:23am",
          "tipo": "Solicitud de chofer de reemplazo confirmada",
          "desc": "Lunes 1 NOV - 9:30am"
        },
        {
          "ico-drow": "icon-mapfre_049_close2",
          "fech": "24/02  10:23am",
          "tipo": "Solicitud de chofer de reemplazo cancelada",
          "desc": "Servicio cancelado"
        },
        {
          "ico-drow": "icon-mapfre_057_circle-check",
          "fech": "24/02 10:23am",
          "tipo": "Pago automático emitido",
          "desc": "Fondo universitario"
        },
        {
          "ico-drow": "icon-mapfre_049_close2",
          "fech": "24/02 10:23am",
          "tipo": "Pago fallido",
          "desc": "Seguro SCTR"
        },
        {
          "ico-drow": "icon-mapfre_057_circle-check",
          "fech": "24/02 10:23am",
          "tipo": "Pago pendiente",
          "desc": "Seguro vehicular - Vence 17/05/18"
        },
        {
          "ico-drow": "icon-mapfre_049_close2",
          "fech": "24/02 10:23am",
          "tipo": "Póliza sin cobertura por inpago",
          "desc": "Salud - Venció 12/05/18"
        }
      ]
    }
  },
  "tabs": {
    "listTab": [{
        "addActive": "g-tablist__tab--active",
        "text": "Reportar"
      },
      {
        "addActive": false,
        "text": "Mis asistencias"
      }
    ]
  },
  "driverTittle": {
    "classTitle": "g-font--bold g-font--18 g-font-md--30 text-center  g-mb--10 g-mb-lg--0  g-mt--20 ",
    "title": "¿Te han robado? ",
    "classDes": "g-font--14 g-font-md--18 g-font-lg--medium g-font--normal g-line--10 text-center",
    "description": "No te preocupes, nostros nos ecargamos de ayudarte"
  },
  "cardbox": {
    "addClass": " g-mb--10  g-bg-c--white1  g-px--15  px-lg-0",
    "textPrimary": {
      "textClass": "g-font-lg--20 g-font--18 g-line--10  g-mb--10  text-center text-md-center text-lg-left g-font--medium g-c--gray8",
      "text": "Comunícate inmediatamente a nuestra central de asistencia 24 horas"
    },
    "textSecundary": {
      "secondTextClass": "g-font--light text-left text-md-center text-lg-left ",
      "secondText": "Realiza la denuncia policial en la comisaría más cercana."
    },
    "classWidth": "w-px-lg--22 ",
    "addBtnClass": "g-btn g-text--uppercase d-flex align-items-center g-pl--15 g-pr--15 ",
    "iconBtn": {
      "iconClass": "g-font--25 g-font-md--21  g-mr--10  ",
      "icon": "icon-mapfre_045_call"
    },
    "textBtnClass": "g-font--14 g-font--normal g-line--10",
    "textBtn": "01 213 3333"

  },
  "banner": {
    "addClass": "",
    "src": "../../../images/banner.jpg",
    "alt": "profile"
  },
  "titleTabs": "Qué hacer en caso <br class='d-none d-xl-block'>de robo",
  "tabVertical": {
    "listTab": [{
      "addActive": "g-tablist-vertical__tab--active g-font--bold g-font--18",
      "link": "#1",
      "text": "1. PRIMER MOMENTO"
    }]
  },
  "mfselect": {
    "addClass": "g-form-focus",
    "label": "Seleccione",
    "disabled": false,
    "listOption": [{
      "value": "1. PASOS A SEGUIR"
    }]
  },
  "addClassContent": "g-mh-lg--60",
  "section": [{
    "lidLink": "1",
    "titleClass": "g-font--bold  g-px--15 w-100  g- g-mt-xl--20 0 g-font--18 text-center text-lg-left  g-pt--10 g-pt-lg--0",
    "title": "1. PASOS A SEGUIR",
    "card": [{
        "addClass": " g-p--20 g-pt-xl--30 g-pb-xl--30  g-pl-xl--15 g-pr-xl--15",
        "number": "1.",
        "title": "MANTEN LA CALMA",
        "description": "Tranquilízate, no estás solo. Te acompañaremos durante todo el proceso.  "

      },
      {
        "addClass": " g-p--20 g-pt-xl--30 g-pb-xl--30  g-pl-xl--15 g-pr-xl--15",
        "number": "2.",
        "title": "COMUNÍCATE CON NOSOTROS",
        "description": "Llama a nuestra central de asistencia 24 horas, en Lima al 213-3333 y en provincia al 0801-1-1133."

      },
      {
        "addClass": " g-p--20 g-pt-xl--30 g-pb-xl--30  g-pl-xl--15 g-pr-xl--15",
        "number": "3.",
        "title": "NO MOVER LESIONADOS",
        "description": "Si hay lesionados no intentes moverlos del lugar, nosotros nos encargaremos."

      }
    ]
  }]

}
