{
  "iconFile": "icon-mapfre_044_logo_landing ",
  "addClass": "g-font--45",
  "acordion": [
    {
      "classAccordion": "g-bg-c--gray8 g-c--gray10 g-pt--5",
      "dataGroup": "true",
      "item": [
        {
          "dataOpen": "true",
          "itemClass": "",
          "titleClass": "",
          "boxClass": "",
          "clickClass": " g-pl--20   g-pr--15   g-py--10 ",
          "icon": {
            "iconFile": "icon-mapfre_022_car2",
            "iconClass": " g-px--15  g-font--20 "
          },
          "arrow": {
            "clickOn": {
              "iconFile": "icon-mapfre_101_ico-dow",
              "iconClass": "g-font--10 g-c-pointer g-c--white1"
            },
            "clickOff": {
              "iconFile": "icon-mapfre_102_ico-up",
              "iconClass": "g-c--pointer g-font--10"
            }
          },
          "textClass": "g-text--uppercase g-font--bold",
          "text": "VEHÍCULOS",
          "contentClass": "",
          "content": false,
          "list": [
            {
              "iconFile": "",
              "text": "Seguro Vehicular"
            },
            {
              "iconFile": "",
              "text": "SOAT"
            },
            {
              "iconFile": "",
              "text": "Accidentes"
            },
            {
              "text": "Robo"
            },
            {
              "text": "Talleres"
            },
            {
              "text": "Cotización"
            }
          ],
          "classContent": "g-hover-nav g-font--12"
        },
        {
          "dataOpen": "",
          "itemClass": "",
          "titleClass": "",
          "boxClass": "",
          "clickClass": " g-pl--20   g-pr--15   g-py--10 ",
          "icon": {
            "iconFile": "icon-mapfre_023_cross2",
            "iconClass": " g-px--15  g-font--20 "
          },
          "arrow": {
            "clickOn": {
              "iconFile": "icon-mapfre_101_ico-dow",
              "iconClass": "g-font--10 g-c-pointer g-c--white1"
            },
            "clickOff": {
              "iconFile": "icon-mapfre_102_ico-up",
              "iconClass": "g-c--pointer g-font--10"
            }
          },
          "textClass": "g-text--uppercase g-font--bold",
          "text": "SALUD",
          "contentClass": "",
          "content": false,
          "list": [
            {
              "iconFile": "",
              "text": "Seguro Vehicular"
            },
            {
              "iconFile": "",
              "text": "SOAT"
            },
            {
              "iconFile": "",
              "text": "Accidentes"
            },
            {
              "text": "Robo"
            },
            {
              "text": "Talleres"
            },
            {
              "text": "Cotización"
            }
          ],
          "classContent": "g-hover-nav"
        },
        {
          "dataOpen": "",
          "itemClass": "",
          "titleClass": "",
          "boxClass": "",
          "clickClass": " g-pl--20   g-pr--15   g-py--10 ",
          "icon": {
            "iconFile": "icon-mapfre_024_house2",
            "iconClass": " g-px--15  g-font--20 "
          },
          "arrow": {
            "clickOn": {
              "iconFile": "icon-mapfre_101_ico-dow",
              "iconClass": "g-font--10 g-c-pointer g-c--white1"
            },
            "clickOff": {
              "iconFile": "icon-mapfre_102_ico-up",
              "iconClass": "g-c--pointer"
            }
          },
          "textClass": "g-text--uppercase g-font--bold",
          "text": "HOGAR",
          "contentClass": "",
          "content": false,
          "list": [
            {
              "iconFile": "",
              "text": "Seguro Vehicular"
            },
            {
              "iconFile": "",
              "text": "SOAT"
            },
            {
              "iconFile": "",
              "text": "Accidentes"
            },
            {
              "text": "Robo"
            },
            {
              "text": "Talleres"
            },
            {
              "text": "Cotización"
            }
          ],
          "classContent": "g-hover-nav"
        },
        {
          "dataOpen": "",
          "itemClass": "",
          "titleClass": "",
          "boxClass": "",
          "clickClass": " g-pl--20   g-pr--15   g-py--10 ",
          "icon": {
            "iconFile": "icon-mapfre_025_heart2",
            "iconClass": " g-px--15  g-font--20 "
          },
          "arrow": {
            "clickOn": {
              "iconFile": "icon-mapfre_101_ico-dow",
              "iconClass": "g-font--10 g-c-pointer g-c--white1"
            },
            "clickOff": {
              "iconFile": "icon-mapfre_102_ico-up",
              "iconClass": "g-c--pointer"
            }
          },
          "textClass": "g-text--uppercase g-font--bold",
          "text": "VIDA Y AHORROS",
          "contentClass": "",
          "content": false,
          "list": [
            {
              "iconFile": "",
              "text": "Seguro Vehicular"
            },
            {
              "iconFile": "",
              "text": "SOAT"
            },
            {
              "iconFile": "",
              "text": "Accidentes"
            },
            {
              "text": "Robo"
            },
            {
              "text": "Talleres"
            },
            {
              "text": "Cotización"
            }
          ],
          "classContent": "g-hover-nav"
        },
        {
          "dataOpen": "",
          "itemClass": "",
          "titleClass": "",
          "boxClass": "",
          "clickClass": " g-pl--20   g-pr--15   g-py--10 ",
          "icon": {
            "iconFile": "icon-mapfre_026_decesos",
            "iconClass": " g-px--15  g-font--20 "
          },
          "arrow": false,
          "textClass": "g-text--uppercase g-font--bold",
          "text": "DECESOS",
          "contentClass": "",
          "content": false,
          "classContent": "g-hover-nav"
        },
        {
          "dataOpen": "",
          "itemClass": "",
          "titleClass": "",
          "boxClass": "",
          "clickClass": " g-pl--20   g-pr--15   g-py--10 ",
          "icon": {
            "iconFile": "icon-mapfre_027_box",
            "iconClass": " g-px--15  g-font--20 "
          },
          "arrow": false,
          "textClass": "g-text--uppercase g-font--bold",
          "text": "SERVICIOS MAPFRE",
          "contentClass": "",
          "content": false,
          "classContent": "g-hover-nav"
        },
        {
          "dataOpen": "",
          "itemClass": "",
          "titleClass": "",
          "boxClass": "",
          "clickClass": " g-pl--20   g-pr--15   g-py--10 ",
          "icon": {
            "iconFile": "icon-mapfre_028_pagos",
            "iconClass": " g-px--15  g-font--20 "
          },
          "arrow": false,
          "textClass": "g-text--uppercase g-font--bold",
          "text": "Mis Pagos",
          "contentClass": "",
          "content": false,
          "classContent": "g-hover-nav"
        },
        {
          "dataOpen": "",
          "itemClass": "",
          "titleClass": "",
          "boxClass": "",
          "clickClass": " g-pl--20   g-pr--15   g-py--10 ",
          "icon": {
            "iconFile": "icon-mapfre_029_location-pin2",
            "iconClass": " g-px--15  g-font--20 "
          },
          "arrow": false,
          "textClass": "g-text--uppercase g-font--bold",
          "text": "Red de Oficinas",
          "contentClass": "",
          "content": false,
          "classContent": "g-hover-nav"
        }
      ]
    }
  ],
  "list-btn": [
    {
      "iconFile": "icon-mapfre_030_call",
      "addClass": "g-font--30"
    },
    {
      "iconFile": "icon-mapfre_031_qanda",
      "addClass": "g-font--30"
    }
  ],
  "headerOIM": {
    "icoNav": {
      "iconFile": "icon-mapfre_047_bars",
      "addClass": "g-font--30",
      "iconFileOIM": "icon-mapfre_044_logo_landing ",
      "addClassOIM": "g-font--30"
    },
    "headOimMobile": {
      "llamada": "SEGURO VEHICULAR",
      "bajada": "COTIZA TU SEGURO",
      "iconFile": "icon-mapfre_044_logo_landing ",
      "addClass": "g-font--30",
      "icoBack": {
        "icon": "icon-mapfre_010_arrow-left",
        "addClass": "g-items-icon g-c--gray3 g-font--25 g-font-md--21"
      }
    },
    "datos": {
      "icoCircle": "icon-mapfre_066_circle",
      "sizeCircle": "g-font--40 g-c--gray1",
      "icoUser": "icon-mapfre_037_user",
      "addClass": "g-c--white1 g-ico--center g-font--20",
      "tittle": "NOTIFICACIONES",
      "icoAlert": "icon-mapfre_036_notification",
      "icoClose": "icon-mapfre_049_close2",
      "sizeClose": "g-font--40",
      "nameUser": "Hola <b>Gonzalo!</b>",
      "numb": 3,
      "alertBadge": {
        "icoCircle": "icon-mapfre_066_circle",
        "addClass": "g-font--30 g-c--green1",
        "addClassNum": "g-ico--center g-font--11 g-c--white1"
      },
      "list": [
        {
          "tipo": "Mi prefil"
        },
        {
          "tipo": "Cerrar sesión"
        }
      ]
    },
    "alert": {
      "ico": "icon-mapfre_014_perfil",
      "icoCircle": "icon-mapfre_066_circle",
      "sizeCircle": "g-font--40 g-c--gray1",
      "addClass": "g-c--white1 g-ico--center g-font--20",
      "tittle": "NOTIFICACIONES",
      "icoAlert": "icon-mapfre_036_notification",
      "icoClose": "icon-mapfre_049_close2",
      "sizeClose": "g-font--40",
      "numb": 3,
      "alertBadge": {
        "icoCircle": "icon-mapfre_066_circle",
        "addClass": "g-font--30 g-c--green1",
        "addClassNum": "g-ico--center g-font--11 g-c--white1"
      },
      "list": [
        {
          "ico-drow": "icon-mapfre_057_circle-check",
          "fech": "HOY 10:23am",
          "tipo": "Solicitud de chofer de reemplazo confirmada",
          "desc": "Seguro vehicular"
        },
        {
          "ico-drow": "icon-mapfre_049_close2",
          "fech": "HOY 10:23am",
          "tipo": "Solicitud de auxilio mecánico cancelada",
          "desc": "Seguro vehicular"
        },
        {
          "ico-drow": "icon-mapfre_057_circle-check",
          "fech": "HOY 10:23am",
          "tipo": "Solicitud de auxilio mecánico cancelada",
          "desc": "Seguro vehicular"
        },
        {
          "ico-drow": "icon-mapfre_049_close2",
          "fech": "HOY 10:23am",
          "tipo": "Solicitud de auxilio mecánico cancelada",
          "desc": "Seguro vehicular"
        },
        {
          "ico-drow": "icon-mapfre_057_circle-check",
          "fech": "HOY 10:23am",
          "tipo": "Solicitud de auxilio mecánico cancelada",
          "desc": "Seguro vehicular"
        },
        {
          "ico-drow": "icon-mapfre_062_reloj",
          "fech": "HOY 10:23am",
          "tipo": "Solicitud de auxilio mecánico cancelada",
          "desc": "Seguro vehicular"
        },
        {
          "ico-drow": "icon-mapfre_049_close2",
          "fech": "HOY 10:23am",
          "tipo": "Solicitud de auxilio mecánico cancelada",
          "desc": "Seguro vehicular"
        }
      ]
    }
  },
  "steps": {
    "stepsClass": "g-pt-lg--40 g-pt--20 g-pb-lg--40 g-pb--20 g-px--20 g-px-lg--0",
    "stepsItems": [
      {
        "active": "active",
        "numberClass": "g-font--normal g-font-lg--medium g-font--12 g-font-lg--14 g-c--white1",
        "number": "1",
        "textClass": "g-font--13 g-font-lg--14 g-pt--10 g-font--light",
        "text": "VEHÍCULO",
        "subtitleClass": "g-font--13 g-font--light",
        "subtitle": false
      },
      {
        "active": "active",
        "numberClass": "g-font--normal g-font-lg--medium g-font--12 g-font-lg--14 g-c--white1",
        "number": "2",
        "textClass": "g-font--13 g-font-lg--14 g-pt--10 g-font--light",
        "text": "CONTRATANTE",
        "subtitleClass": "g-font--13 g-font--light",
        "subtitle": false
      },
      {
        "active": "active active--last",
        "numberClass": "g-font--normal g-font-lg--medium g-font--12 g-font-lg--14 g-c--white1",
        "number": "3",
        "textClass": "g-font--13 g-font-lg--14 g-pt--10 g-font--light",
        "text": "PAGO",
        "subtitleClass": "g-font--13 g-font--light",
        "subtitle": false
      }
    ]
  },
  "quotation": {
    "orderContent1": "order-2 order-lg-1",
    "orderContent2": "order-1 order-lg-2",
    "icon": {
      "iconClass": "g-font--42",
      "iconFile": "icon-mapfre_104_ico-coin"
    },
    "addContentClass": "g-mb--40 g-mb-lg--0",
    "contentClass": "g-p--10 g-py--20 g-p-lg--40 ",
    "title": {
      "textClass": "g-px--10 g-px-lg--0 g-pb--10",
      "text": "FORMA DE PAGO"
    },
    "step1": false,
    "step2": false,
    "step3": {
      "txtTab1": "Tarjeta",
      "txtTab2": "Bancario",
      "content1": [
        {
          "addClass": "g-px--20 g-px-lg--0",
          "formCase": [
            {
              "addContentClass": "g-w-100 g-pr-lg--15 g-pb--10",
              "input": {
                "label": "Nombre en la tarjeta",
                "type": "text",
                "value": "",
                "error": "",
                "addClass": "",
                "requerid": false,
                "tooltip": false,
                "title": ""
              }
            },
            {
              "addContentClass": "g-w-100 g-pr-lg--15 g-pb--10",
              "input": {
                "label": "Número en la tarjeta",
                "type": "text",
                "value": "",
                "error": "",
                "addClass": "",
                "requerid": false,
                "tooltip": false,
                "title": ""
              }
            }
          ]
        },
        {
          "text": {
            "textClass": "g-c--gray2 g-font--medium g-font--16 g-pt--30 g-px--20 g-px-lg--0",
            "text": "Fecha de expiración"
          },
          "addClass": "g-px--20 g-px-lg--0",
          "formCase": [
            {
              "addContentClass": "g-w-100 g-pr-lg--15 g-pb--10",
              "input": {
                "label": "Mes / Año",
                "type": "text",
                "value": "",
                "error": "",
                "addClass": "",
                "requerid": false,
                "tooltip": false,
                "title": ""
              }
            },
            {
              "addContentClass": "g-w-100 g-pr-lg--15 g-pb--30",
              "inputTooltip": {
                "mfInput": {
                  "inputClass": "",
                  "label": "CVV",
                  "type": "text",
                  "value": "",
                  "error": "",
                  "addClass": "",
                  "requerid": false,
                  "title": "",
                  "tooltip": {
                    "iconClassTooltip": "d-flex",
                    "tooltipClass": "g-mt--35 g-ml--10",
                    "iconTooltip": true,
                    "icon": "icon-mapfre_048_tooltip",
                    "iconClass": "g-font--25 g-font-md--21 g-c--green1 g-c--pointer",
                    "textArea": false,
                    "text": "",
                    "alignTooltip": "",
                    "addClass": "g-p--15 g-w-px--30",
                    "addClassTitle": "g-pb--10 text-center",
                    "title": "Puedes encontrar el número en el sticker de tu parabrisa en una de estas ubicaciones:",
                    "description": {
                      "descriptionClass": "d-flex justify-content-center text-center",
                      "description": "<img src='../../images/pngs/captura1.jpg'><img src='../../images/pngs/captura2.jpg'>"
                    },
                    "link": false
                  }
                }
              }
            },
            {
              "addContentClass": "g-w-100 g-pr-lg--15 g-pb--20",
              "check": {
                "addClass": "d-flex mr-auto g-mb--0 g-ie-flex--0-1-auto g-font--light",
                "label": "Acepto las condiciones del cobro recurrente a mi tarjeta de crédito o débito"
              }
            }
          ]
        }
      ],
      "content2": {
        "text": [
          {
            "textClass": "g-c--gray2 g-font--light g-pt--25 g-px--10 g-px-lg--0",
            "text": "Generarémos un número de pago con el que podrás realizar el pago"
          },
          {
            "textClass": "g-c--gray2 g-font--light g-pt--10 g-px--10 g-px-lg--0",
            "text": "Puedes realizar el pago en cualquiera de estos bancos:"
          }
        ],
        "brands": {
          "addClass": "justify-content-lg-around flex-wrap g-mt--30",
          "img": [
            {
              "imgClass": "g-w-50 g-w-md-33 text-lg-center g-pb-lg--20",
              "img": "/../../../images/banner/vehiculo/bbva.svg"
            },
            {
              "imgClass": "g-w-50 g-w-md-33 text-lg-center g-pb-lg--20",
              "img": "/../../../images/banner/vehiculo/bcp.svg"
            },
            {
              "imgClass": "g-w-50 g-w-md-33 text-lg-center g-pb-lg--20",
              "img": "/../../../images/banner/vehiculo/banbif.svg"
            },
            {
              "imgClass": "g-w-50 g-w-md-33 text-lg-center",
              "img": "/../../../images/banner/vehiculo/scotiabank.svg"
            },
            {
              "imgClass": "g-w-50 g-w-md-33 text-lg-center",
              "img": "/../../../images/banner/vehiculo/interbank.svg"
            }
          ]
        }
      }
    },
    "footer": {
      "footerClass": "",
      "btn": [
        {
          "boxClass": "w-50 text-center g-pr--10",
          "textClass": "g-btn-outline",
          "text": "Regresar"
        },
        {
          "boxClass": "w-50 text-center g-pl--10",
          "textClass": "",
          "text": "PAGAR"
        }
      ]
    }
  }
}