{
  "htmlClass": "sg-main",
  "iconFile": "icon-mapfre_044_logo_landing ",
  "addClass": "g-font--40",
  "acordion": [
    {
      "classAccordion": "g-bg-c--gray8 g-c--gray10 g-pt--5",
      "dataGroup": "true",
      "item": [
        {
          "dataOpen": "true",
          "itemClass": "",
          "titleClass": "",
          "boxClass": "",
          "clickClass": "g-pl--20 g-pr--15 g-py--10",
          "icon": {
            "iconFile": "icon-mapfre_022_car2",
            "iconClass": "g-px--15 g-font--20 "
          },
          "arrow": {
            "clickOn": {
              "iconFile": "icon-mapfre_101_ico-dow",
              "iconClass": "g-font--10 g-c-pointer g-c--white1"
            },
            "clickOff": {
              "iconFile": "icon-mapfre_102_ico-up",
              "iconClass": "g-c--pointer"
            }
          },
          "textClass": "g-text--uppercase g-font--bold",
          "text": "VEHÍCULOS",
          "contentClass": "",
          "content": false,
          "list": [
            {
              "iconFile": "",
              "text": "Seguro Vehicular"
            },
            {
              "iconFile": "",
              "text": "SOAT"
            },
            {
              "iconFile": "",
              "text": "Accidentes"
            },
            {
              "text": "Robo"
            },
            {
              "text": "Talleres"
            },
            {
              "text": "Cotización"
            }
          ],
          "classContent": "g-hover-nav g-font--12"
        },
        {
          "dataOpen": "",
          "itemClass": "",
          "titleClass": "",
          "boxClass": "",
          "clickClass": "g-pl--20 g-pr--15 g-py--10",
          "icon": {
            "iconFile": "icon-mapfre_023_cross2",
            "iconClass": "g-px--15 g-font--20 "
          },
          "arrow": {
            "clickOn": {
              "iconFile": "icon-mapfre_101_ico-dow",
              "iconClass": "g-font--10 g-c-pointer g-c--white1"
            },
            "clickOff": {
              "iconFile": "icon-mapfre_102_ico-up",
              "iconClass": "g-c--pointer g-font--10"
            }
          },
          "textClass": "g-text--uppercase g-font--bold",
          "text": "SALUD",
          "contentClass": "",
          "content": false,
          "list": [
            {
              "iconFile": "",
              "text": "Seguro Vehicular"
            },
            {
              "iconFile": "",
              "text": "SOAT"
            },
            {
              "iconFile": "",
              "text": "Accidentes"
            },
            {
              "text": "Robo"
            },
            {
              "text": "Talleres"
            },
            {
              "text": "Cotización"
            }
          ],
          "classContent": "g-hover-nav"
        },
        {
          "dataOpen": "",
          "itemClass": "",
          "titleClass": "",
          "boxClass": "",
          "clickClass": "g-pl--20 g-pr--15 g-py--10",
          "icon": {
            "iconFile": "icon-mapfre_024_house2",
            "iconClass": "g-px--15 g-font--20 "
          },
          "arrow": {
            "clickOn": {
              "iconFile": "icon-mapfre_101_ico-dow",
              "iconClass": "g-font--10 g-c-pointer g-c--white1"
            },
            "clickOff": {
              "iconFile": "icon-mapfre_102_ico-up",
              "iconClass": "g-c--pointer"
            }
          },
          "textClass": "g-text--uppercase g-font--bold",
          "text": "HOGAR",
          "contentClass": "",
          "content": false,
          "list": [
            {
              "iconFile": "",
              "text": "Seguro Vehicular"
            },
            {
              "iconFile": "",
              "text": "SOAT"
            },
            {
              "iconFile": "",
              "text": "Accidentes"
            },
            {
              "text": "Robo"
            },
            {
              "text": "Talleres"
            },
            {
              "text": "Cotización"
            }
          ],
          "classContent": "g-hover-nav"
        },
        {
          "dataOpen": "",
          "itemClass": "",
          "titleClass": "",
          "boxClass": "",
          "clickClass": "g-pl--20 g-pr--15 g-py--10",
          "icon": {
            "iconFile": "icon-mapfre_025_heart2",
            "iconClass": "g-px--15 g-font--20 "
          },
          "arrow": {
            "clickOn": {
              "iconFile": "icon-mapfre_101_ico-dow",
              "iconClass": "g-font--10 g-c-pointer g-c--white1"
            },
            "clickOff": {
              "iconFile": "icon-mapfre_102_ico-up",
              "iconClass": "g-c--pointer"
            }
          },
          "textClass": "g-text--uppercase g-font--bold",
          "text": "VIDA Y AHORROS",
          "contentClass": "",
          "content": false,
          "list": [
            {
              "iconFile": "",
              "text": "Seguro Vehicular"
            },
            {
              "iconFile": "",
              "text": "SOAT"
            },
            {
              "iconFile": "",
              "text": "Accidentes"
            },
            {
              "text": "Robo"
            },
            {
              "text": "Talleres"
            },
            {
              "text": "Cotización"
            }
          ],
          "classContent": "g-hover-nav"
        },
        {
          "dataOpen": "",
          "itemClass": "",
          "titleClass": "",
          "boxClass": "",
          "clickClass": "g-pl--20 g-pr--15 g-py--10",
          "icon": {
            "iconFile": "icon-mapfre_026_decesos",
            "iconClass": "g-px--15 g-font--20 "
          },
          "arrow": false,
          "textClass": "g-text--uppercase g-font--bold",
          "text": "DECESOS",
          "contentClass": "",
          "content": false,
          "classContent": "g-hover-nav"
        },
        {
          "dataOpen": "",
          "itemClass": "",
          "titleClass": "",
          "boxClass": "",
          "clickClass": "g-pl--20 g-pr--15 g-py--10",
          "icon": {
            "iconFile": "icon-mapfre_027_box",
            "iconClass": "g-px--15 g-font--20 "
          },
          "arrow": false,
          "textClass": "g-text--uppercase g-font--bold",
          "text": "SERVICIOS MAPFRE",
          "contentClass": "",
          "content": false,
          "classContent": "g-hover-nav"
        },
        {
          "dataOpen": "",
          "itemClass": "",
          "titleClass": "",
          "boxClass": "",
          "clickClass": "g-pl--20 g-pr--15 g-py--10",
          "icon": {
            "iconFile": "icon-mapfre_028_pagos",
            "iconClass": "g-px--15 g-font--20 "
          },
          "arrow": false,
          "textClass": "g-text--uppercase g-font--bold",
          "text": "Mis Pagos",
          "contentClass": "",
          "content": false,
          "classContent": "g-hover-nav"
        },
        {
          "dataOpen": "",
          "itemClass": "",
          "titleClass": "",
          "boxClass": "",
          "clickClass": "g-pl--20 g-pr--15 g-py--10",
          "icon": {
            "iconFile": "icon-mapfre_029_location-pin2",
            "iconClass": "g-px--15 g-font--20 "
          },
          "arrow": false,
          "textClass": "g-text--uppercase g-font--bold",
          "text": "Red de Oficinas",
          "contentClass": "",
          "content": false,
          "classContent": "g-hover-nav"
        }
      ]
    }
  ],
  "list-btn": [
    {
      "iconFile": "icon-mapfre_030_call",
      "addClass": "g-font--30"
    },
    {
      "iconFile": "icon-mapfre_031_qanda",
      "addClass": "g-font--30"
    }
  ],
  "headerOIM": {
    "icoNav": {
      "iconFile": "icon-mapfre_047_bars",
      "addClass": "g-font--30",
      "iconFileOIM": "icon-mapfre_044_logo_landing ",
      "addClassOIM": "g-font--30"
    },
    "headOimMobile": {
      "llamada": "",
      "bajada": "Bienvenido a tu área privada",
      "iconFile": "",
      "addClass": "",
      "icoBack": false
    },
    "datos": {
      "icoCircle": "icon-mapfre_066_circle",
      "sizeCircle": "g-font--40 g-c--gray1",
      "icoUser": "icon-mapfre_037_user",
      "addClass": "g-c--white1 g-ico--center g-font--20",
      "tittle": "MIS NOTIFICACIONES",
      "icoAlert": "icon-mapfre_036_notification",
      "icoClose": "icon-mapfre_049_close2",
      "sizeClose": "g-font--40",
      "nameUser": "Hola <b>Gonzalo!</b>",
      "numb": 3,
      "alertBadge": {
        "icoCircle": "icon-mapfre_066_circle",
        "addClass": "g-font--30 g-c--green1",
        "addClassNum": "g-ico--center g-font--11 g-c--white1"
      },
      "list": [
        {
          "tipo": "Mi prefil"
        },
        {
          "tipo": "Cerrar sesión"
        }
      ]
    },
    "alert": {
      "ico": "icon-mapfre_014_perfil",
      "icoCircle": "icon-mapfre_066_circle",
      "sizeCircle": "g-font--40 g-c--gray1",
      "addClass": "g-c--white1 g-ico--center g-font--20",
      "tittle": "MIS NOTIFICACIONES",
      "icoAlert": "icon-mapfre_036_notification",
      "icoClose": "icon-mapfre_049_close2",
      "sizeClose": "g-font--40",
      "numb": 3,
      "alertBadge": {
        "icoCircle": "icon-mapfre_066_circle",
        "addClass": "g-font--30 g-c--green1",
        "addClassNum": "g-ico--center g-font--11 g-c--white1"
      },
      "list": [
        {
          "ico-drow": "icon-mapfre_057_circle-check",
          "fech": "HOY 10:23am",
          "tipo": "Solicitud de chofer de reemplazo confirmada",
          "desc": "Lunes 1 NOV - 9:30am"
        },
        {
          "ico-drow": "icon-mapfre_049_close2",
          "fech": "24/02  10:23am",
          "tipo": "Solicitud de chofer de reemplazo cancelada",
          "desc": "Servicio cancelado"
        },
        {
          "ico-drow": "icon-mapfre_057_circle-check",
          "fech": "24/02 10:23am",
          "tipo": "Pago automático emitido",
          "desc": "Fondo universitario"
        },
        {
          "ico-drow": "icon-mapfre_049_close2",
          "fech": "24/02 10:23am",
          "tipo": "Pago fallido",
          "desc": "Seguro SCTR"
        },
        {
          "ico-drow": "icon-mapfre_057_circle-check",
          "fech": "24/02 10:23am",
          "tipo": "Pago pendiente",
          "desc": "Seguro vehicular - Vence 17/05/18"
        },
        {
          "ico-drow": "icon-mapfre_049_close2",
          "fech": "24/02 10:23am",
          "tipo": "Póliza sin cobertura por inpago",
          "desc": "Salud - Venció 12/05/18"
        }
      ]
    }
  },
  "dateGeneral": {
    "icon": {
      "addClass": "d-none d-lg-flex g-bg-c--gray1 g-c--white1 g-mt--20 g-pl--10",
      "iconFile": "icon-mapfre_019_car",
      "iconClass": ""
    },
    "title": "DATOS DEL VEHÍCULO",
    "subtitle": "",
    "dateGeneral": false,
    "dateVehicular": {
      "addClass": "",
      "alert": {
        "boxClass": "align-items-center",
        "addClass": "g-bg-c--red7 g-b--1 g-bc--orange1 g-p--10 g-mt--10",
        "icon": {
          "iconFile": "icon-mapfre_051_alerta",
          "iconClass": "g-font--30 g-c--orange1 g-pr--10"
        },
        "textClass": "",
        "titleClass": "g-c--orange1",
        "titleText": "Para modificar estos datos llámanos al 987 654 321",
        "subTitle": false,
        "btnDetalle": false
      },
      "items": {
        "addClass": "row  g-mt--15  g-c--gray13",
        "list": [
          {
            "itemClass": "col-sm col-sm-6",
            "icon": false,
            "iconFile": "",
            "iconClass": "",
            "title": {
              "textClass": "g-font--13 g-font--light g-c--gray9",
              "text": "Modelo"
            },
            "subtitle": {
              "textClass": "g-mb--15",
              "text": "TOYOTA YARIS 1.5 2006"
            },
            "imgSrc": false
          },
          {
            "itemClass": "col-sm col-sm-6",
            "icon": false,
            "iconFile": "",
            "iconClass": "",
            "title": {
              "textClass": "g-font--13 g-font--light g-c--gray9",
              "text": "Placa"
            },
            "subtitle": {
              "textClass": "g-mb--15",
              "text": "AAA 123"
            },
            "imgSrc": false
          },
          {
            "itemClass": "col-sm col-sm-6",
            "icon": false,
            "iconFile": "",
            "iconClass": "",
            "title": {
              "textClass": "g-font--13 g-font--light g-c--gray9",
              "text": "Valor sugerido del vehículo"
            },
            "subtitle": {
              "textClass": "g-mb--15",
              "text": "$ 20,000"
            },
            "imgSrc": false
          },
          {
            "itemClass": "col-sm col-sm-6",
            "icon": false,
            "iconFile": "",
            "iconClass": "",
            "title": {
              "textClass": "g-font--13 g-font--light g-c--gray9",
              "text": "Color"
            },
            "subtitle": {
              "textClass": "g-mb--15",
              "text": "VERDE"
            },
            "imgSrc": false
          },
          {
            "itemClass": "col-sm col-sm-6",
            "icon": false,
            "iconFile": "",
            "iconClass": "",
            "title": {
              "textClass": "g-font--13 g-font--light g-c--gray9",
              "text": "Tipo de vehículo"
            },
            "subtitle": {
              "textClass": "g-mb--15",
              "text": "AUTOMÓVIL"
            },
            "imgSrc": false
          },
          {
            "itemClass": "col-sm col-sm-6",
            "icon": false,
            "iconFile": "",
            "iconClass": "",
            "title": {
              "textClass": "g-font--13 g-font--light g-c--gray9",
              "text": "Uso de vehículo"
            },
            "subtitle": {
              "textClass": "g-mb--15",
              "text": "PARTICULAR"
            },
            "imgSrc": false
          },
          {
            "itemClass": "col-sm col-sm-6",
            "icon": false,
            "iconFile": "",
            "iconClass": "",
            "title": {
              "textClass": "g-font--13 g-font--light g-c--gray9",
              "text": "Número de chasis"
            },
            "subtitle": {
              "textClass": "g-mb--15",
              "text": "627283929GDH"
            },
            "imgSrc": false
          },
          {
            "itemClass": "col-sm col-sm-6",
            "icon": false,
            "iconFile": "",
            "iconClass": "",
            "title": {
              "textClass": "g-font--13 g-font--light g-c--gray9",
              "text": "Número de motor"
            },
            "subtitle": {
              "textClass": "g-mb--15",
              "text": "627283929GDH"
            },
            "imgSrc": false
          }
        ]
      },
      "extras": {
        "title": {
          "textClass": "g-font--20 g-font--medium g-my--10",
          "text": "EXTRAS"
        },
        "table": [
          {
            "addClass": "g-mb--15",
            "tableClass": "table--padding",
            "tableHead": [
              {
                "headClass": "g-font--14 g-font--light g-p--0 g-c--gray9",
                "text": "Tipo de accesorio"
              },
              {
                "headClass": "g-font--14 g-font--light g-p--0 g-c--gray9",
                "text": "Modelo"
              },
              {
                "headClass": "g-font--14 g-font--light g-p--0 g-c--gray9",
                "text": "Costo"
              },
              {
                "headClass": "",
                "text": ""
              }
            ],
            "tableBody": [
              {
                "bodyClass": "g-p--0",
                "headTitle": "Tipo de accesorio",
                "textClass": "g-p--0",
                "text": "Radio pen"
              },
              {
                "bodyClass": "g-p--0",
                "headTitle": "Modelo",
                "textClass": "g-p--0",
                "text": "Panassonic 4536B"
              },
              {
                "bodyClass": "g-p--0",
                "headTitle": "Costo",
                "textClass": "g-p--0",
                "text": "S/ 1,350.00"
              },
              {
                "bodyClass": "g-p--0",
                "headTitle": "",
                "textClass": "g-p--0 icon-mapfre_035_edit g-font--21 g-c--green1 g-c--pointer",
                "text": ""
              }
            ]
          },
          {
            "addClass": "",
            "tableClass": "table--padding",
            "tableHead": [
              {
                "headClass": "g-font--14 g-font--light g-p--0 g-c--gray9",
                "text": "Tipo de accesorio"
              },
              {
                "headClass": "g-font--14 g-font--light g-p--0 g-c--gray9",
                "text": "Modelo"
              },
              {
                "headClass": "g-font--14 g-font--light g-p--0 g-c--gray9",
                "text": "Costo"
              },
              {
                "headClass": "",
                "text": ""
              }
            ],
            "tableBody": [
              {
                "bodyClass": "g-p--0",
                "headTitle": "Tipo de accesorio",
                "textClass": "g-p--0",
                "text": "Radio pen"
              },
              {
                "bodyClass": "g-p--0",
                "headTitle": "Modelo",
                "textClass": "g-p--0",
                "text": "Panassonic 4536B"
              },
              {
                "bodyClass": "g-p--0",
                "headTitle": "Costo",
                "textClass": "g-p--0",
                "text": "S/ 1,350.00"
              },
              {
                "bodyClass": "g-p--0",
                "headTitle": "",
                "textClass": "g-p--0 icon-mapfre_035_edit g-font--21 g-c--green1 g-c--pointer",
                "text": ""
              }
            ]
          }
        ]
      }
    },
    "dataPrivacy": "privacy",
    "onclickPrivacy": "fullModal.open('privacy')",
    "privacy": {
      "closeButton": {
        "addClass": "g-text--uppercase g-btn-outline  g-px--35  g-modal--close",
        "text": "Cerrar",
        "data": "",
        "onclick": "fullModal.close('privacy')"
      }
    },
    "dataElectronic": "privacy",
    "onclickElectronic": "fullModal.open('privacy')",
    "electronic": {
      "closeButton": {
        "addClass": "g-text--uppercase g-btn-outline  g-px--35  g-modal--close",
        "text": "Cerrar",
        "data": "",
        "onclick": "fullModal.close('electronic')"
      }
    },
    "buttomLink": {
      "addClass": "g-text--uppercase g-btn-outline disabled",
      "data": "terms",
      "text": "Siguiente"
    }
  },
  "rowClass": "justify-content-center",
  "btnAdd": {
    "addClass": " g-mt--20  g-c--green1",
    "list": {
      "itemClass": "d-flex align-items-center",
      "icon": {
        "iconFile": "icon-mapfre_052_agregar",
        "iconClass": "g-font--30 g-mr--10 g-c--pointer"
      },
      "title": {
        "textClass": "g-c--pointer",
        "text": "Añadir accesorio"
      },
      "subtitle": false,
      "imgSrc": false
    }
  },
  "btnCancelar": false,
  "btnChangeDate": {
    "btnClass": "w-100",
    "addClass": "g-text--uppercase g-btn--default",
    "data": "",
    "text": "ACEPTAR",
    "onclick": ""
  },
  "header": {
    "title1": false,
    "title2": {},
    "datos": {
      "label": "Hola Gonzalo!",
      "list": [
        {
          "text": "Mi perfil"
        },
        {
          "text": "Cerrar sesión"
        }
      ]
    },
    "alert": {
      "ico": "icon-mapfre_036_notification",
      "numb": 3,
      "tittle": "MIS NOTIFICACIONES",
      "list": [
        {
          "ico-drow": "icon-mapfre_014_perfil",
          "fech": "HOY 10:23am",
          "tipo": "Solicitud de electicista confirmada",
          "desc": "Seguro vehicular"
        },
        {
          "ico-drow": "icon-mapfre_014_perfil",
          "fech": "HOY 10:23am",
          "tipo": "Solicitud de auxilio mecánico cancelada",
          "desc": "Seguro vehicular"
        },
        {
          "ico-drow": "icon-mapfre_014_perfil",
          "fech": "HOY 10:23am",
          "tipo": "Solicitud de auxilio mecánico cancelada",
          "desc": "Seguro vehicular"
        },
        {
          "ico-drow": "icon-mapfre_014_perfil",
          "fech": "HOY 10:23am",
          "tipo": "Solicitud de auxilio mecánico cancelada",
          "desc": "Seguro vehicular"
        },
        {
          "ico-drow": "icon-mapfre_014_perfil",
          "fech": "HOY 10:23am",
          "tipo": "Solicitud de auxilio mecánico cancelada",
          "desc": "Seguro vehicular"
        },
        {
          "ico-drow": "icon-mapfre_014_perfil",
          "fech": "HOY 10:23am",
          "tipo": "Solicitud de auxilio mecánico cancelada",
          "desc": "Seguro vehicular"
        },
        {
          "ico-drow": "icon-mapfre_014_perfil",
          "fech": "HOY 10:23am",
          "tipo": "Solicitud de auxilio mecánico cancelada",
          "desc": "Seguro vehicular"
        }
      ]
    }
  },
  "openClick": {
    "click": "vehicular-confirmation",
    "openModal": "delete"
  },
  "formModal": {
    "value": "#open-modal",
    "addClass": "block g-text--uppercase g-modal--link",
    "data": "modal01",
    "text": "modal01",
    "title-modal": {
      "title": "AGREGAR DIRECCIÓN"
    },
    "cont-add-adress": true,
    "btns": {
      "btnsClass": "d-flex flex-column-reverse flex-md-row justify-content-center",
      "btn": [
        {
          "addClass": "g-p--10 text-center w-10",
          "textClass": "g-btn g-text--uppercase g-px--60 w-px-lg--24 g-c--pointer",
          "text": "ACEPTAR"
        }
      ]
    }
  },
  "alert": {
    "dataModal": "delete",
    "modalSize": "g-modal--confirm-big",
    "value": "#open-modal",
    "addClass": "block g-modal--link",
    "contentClass": "g-pb--50 g-px-lg--50",
    "formContent": {
      "message": {
        "icon": {
          "iconFile": "icon--fail g-mr--10",
          "iconClass": ""
        },
        "title": {
          "titleClass": "g-font--18 g-font--medium g-mt--20 g-mb--15",
          "titleText": "¡Oops!"
        },
        "description": [
          {
            "descriptionClass": "g-font--light",
            "descriptionText": "No podemos comparar tu póliza.<br> Por favor comunicate con tu asesor MAPFRE."
          },
          {
            "descriptionClass": "g-font--light g-pt--20 text-left w-px-md--27 mx-auto",
            "descriptionText": "<span class='icon-mapfre_014_perfil g-pr--10'></span> Agente: Francisco Victoria"
          },
          {
            "descriptionClass": "g-font--light g-pt--15 text-left w-px-md--27 mx-auto",
            "descriptionText": "<span class='icon-mapfre_060_mail g-pr--10'></span> prenda@gmail.com"
          },
          {
            "descriptionClass": "g-font--light g-pt--15  text-left w-px-md--27 mx-auto",
            "descriptionText": "<span class='icon-mapfre_128_telephone g-pr--10'></span> 532-2452"
          }
        ]
      }
    },
    "btns": {
      "btnsClass": "d-flex flex-column-reverse flex-md-row justify-content-center",
      "btn": [
        {
          "addClass": "g-p--10 text-center w-10",
          "textClass": "g-btn g-text--uppercase g-px--60 w-px-lg--24 g-c--pointer",
          "text": "ACEPTAR"
        }
      ]
    }
  }
}