{
  "iconFile": "icon-mapfre_044_logo_landing ",
  "addClass": "g-font--45",
  "acordion": [
    {
      "classAccordion": "g-bg-c--gray8 g-c--gray10 g-pt--5",
      "dataGroup": "true",
      "item": [
        {
          "dataOpen": "true",
          "itemClass": "",
          "titleClass": "",
          "boxClass": "",
          "clickClass": " g-pl--20   g-pr--15   g-py--10 ",
          "icon": {
            "iconFile": "icon-mapfre_022_car2",
            "iconClass": " g-px--15  g-font--20 "
          },
          "arrow": {
            "clickOn": {
              "iconFile": "icon-mapfre_101_ico-dow",
              "iconClass": "g-font--10 g-c-pointer g-c--white1"
            },
            "clickOff": {
              "iconFile": "icon-mapfre_102_ico-up",
              "iconClass": "g-c--pointer g-font--10"
            }
          },
          "textClass": "g-text--uppercase g-font--bold",
          "text": "VEHÍCULOS",
          "contentClass": "",
          "content": false,
          "list": [
            {
              "iconFile": "",
              "text": "Seguro Vehicular"
            },
            {
              "iconFile": "",
              "text": "SOAT"
            },
            {
              "iconFile": "",
              "text": "Accidentes"
            },
            {
              "text": "Robo"
            },
            {
              "text": "Talleres"
            },
            {
              "text": "Cotización"
            }
          ],
          "classContent": "g-hover-nav g-font--12"
        },
        {
          "dataOpen": "",
          "itemClass": "",
          "titleClass": "",
          "boxClass": "",
          "clickClass": " g-pl--20   g-pr--15   g-py--10 ",
          "icon": {
            "iconFile": "icon-mapfre_023_cross2",
            "iconClass": " g-px--15  g-font--20 "
          },
          "arrow": {
            "clickOn": {
              "iconFile": "icon-mapfre_101_ico-dow",
              "iconClass": "g-font--10 g-c-pointer g-c--white1"
            },
            "clickOff": {
              "iconFile": "icon-mapfre_102_ico-up",
              "iconClass": "g-c--pointer g-font--10"
            }
          },
          "textClass": "g-text--uppercase g-font--bold",
          "text": "SALUD",
          "contentClass": "",
          "content": false,
          "list": [
            {
              "iconFile": "",
              "text": "Seguro Vehicular"
            },
            {
              "iconFile": "",
              "text": "SOAT"
            },
            {
              "iconFile": "",
              "text": "Accidentes"
            },
            {
              "text": "Robo"
            },
            {
              "text": "Talleres"
            },
            {
              "text": "Cotización"
            }
          ],
          "classContent": "g-hover-nav"
        },
        {
          "dataOpen": "",
          "itemClass": "",
          "titleClass": "",
          "boxClass": "",
          "clickClass": " g-pl--20   g-pr--15   g-py--10 ",
          "icon": {
            "iconFile": "icon-mapfre_024_house2",
            "iconClass": " g-px--15  g-font--20 "
          },
          "arrow": {
            "clickOn": {
              "iconFile": "icon-mapfre_101_ico-dow",
              "iconClass": "g-font--10 g-c-pointer g-c--white1"
            },
            "clickOff": {
              "iconFile": "icon-mapfre_102_ico-up",
              "iconClass": "g-c--pointer"
            }
          },
          "textClass": "g-text--uppercase g-font--bold",
          "text": "HOGAR",
          "contentClass": "",
          "content": false,
          "list": [
            {
              "iconFile": "",
              "text": "Seguro Vehicular"
            },
            {
              "iconFile": "",
              "text": "SOAT"
            },
            {
              "iconFile": "",
              "text": "Accidentes"
            },
            {
              "text": "Robo"
            },
            {
              "text": "Talleres"
            },
            {
              "text": "Cotización"
            }
          ],
          "classContent": "g-hover-nav"
        },
        {
          "dataOpen": "",
          "itemClass": "",
          "titleClass": "",
          "boxClass": "",
          "clickClass": " g-pl--20   g-pr--15   g-py--10 ",
          "icon": {
            "iconFile": "icon-mapfre_025_heart2",
            "iconClass": " g-px--15  g-font--20 "
          },
          "arrow": {
            "clickOn": {
              "iconFile": "icon-mapfre_101_ico-dow",
              "iconClass": "g-font--10 g-c-pointer g-c--white1"
            },
            "clickOff": {
              "iconFile": "icon-mapfre_102_ico-up",
              "iconClass": "g-c--pointer"
            }
          },
          "textClass": "g-text--uppercase g-font--bold",
          "text": "VIDA Y AHORROS",
          "contentClass": "",
          "content": false,
          "list": [
            {
              "iconFile": "",
              "text": "Seguro Vehicular"
            },
            {
              "iconFile": "",
              "text": "SOAT"
            },
            {
              "iconFile": "",
              "text": "Accidentes"
            },
            {
              "text": "Robo"
            },
            {
              "text": "Talleres"
            },
            {
              "text": "Cotización"
            }
          ],
          "classContent": "g-hover-nav"
        },
        {
          "dataOpen": "",
          "itemClass": "",
          "titleClass": "",
          "boxClass": "",
          "clickClass": " g-pl--20   g-pr--15   g-py--10 ",
          "icon": {
            "iconFile": "icon-mapfre_026_decesos",
            "iconClass": " g-px--15  g-font--20 "
          },
          "arrow": false,
          "textClass": "g-text--uppercase g-font--bold",
          "text": "DECESOS",
          "contentClass": "",
          "content": false,
          "classContent": "g-hover-nav"
        },
        {
          "dataOpen": "",
          "itemClass": "",
          "titleClass": "",
          "boxClass": "",
          "clickClass": " g-pl--20   g-pr--15   g-py--10 ",
          "icon": {
            "iconFile": "icon-mapfre_027_box",
            "iconClass": " g-px--15  g-font--20 "
          },
          "arrow": false,
          "textClass": "g-text--uppercase g-font--bold",
          "text": "SERVICIOS MAPFRE",
          "contentClass": "",
          "content": false,
          "classContent": "g-hover-nav"
        },
        {
          "dataOpen": "",
          "itemClass": "",
          "titleClass": "",
          "boxClass": "",
          "clickClass": " g-pl--20   g-pr--15   g-py--10 ",
          "icon": {
            "iconFile": "icon-mapfre_028_pagos",
            "iconClass": " g-px--15  g-font--20 "
          },
          "arrow": false,
          "textClass": "g-text--uppercase g-font--bold",
          "text": "Mis Pagos",
          "contentClass": "",
          "content": false,
          "classContent": "g-hover-nav"
        },
        {
          "dataOpen": "",
          "itemClass": "",
          "titleClass": "",
          "boxClass": "",
          "clickClass": " g-pl--20   g-pr--15   g-py--10 ",
          "icon": {
            "iconFile": "icon-mapfre_029_location-pin2",
            "iconClass": " g-px--15  g-font--20 "
          },
          "arrow": false,
          "textClass": "g-text--uppercase g-font--bold",
          "text": "Red de Oficinas",
          "contentClass": "",
          "content": false,
          "classContent": "g-hover-nav"
        }
      ]
    }
  ],
  "list-btn": [
    {
      "iconFile": "icon-mapfre_030_call",
      "addClass": "g-font--30"
    },
    {
      "iconFile": "icon-mapfre_031_qanda",
      "addClass": "g-font--30"
    }
  ],
  "headerOIM": {
    "icoNav": {
      "iconFile": "icon-mapfre_047_bars",
      "addClass": "g-font--30",
      "iconFileOIM": "icon-mapfre_044_logo_landing ",
      "addClassOIM": "g-font--30"
    },
    "headOimMobile": {
      "llamada": "ACCIDENTES",
      "bajada": "NRO. DE ACCIDENTE: 130000000",
      "iconFile": "icon-mapfre_044_logo_landing ",
      "addClass": "g-font--30",
      "icoBack": {
        "icon": "icon-mapfre_010_arrow-left",
        "addClass": "g-items-icon g-c--gray3 g-font--25 g-font-md--21"
      }
    },
    "datos": {
      "icoCircle": "icon-mapfre_066_circle",
      "sizeCircle": "g-font--40 g-c--gray1",
      "icoUser": "icon-mapfre_037_user",
      "addClass": "g-c--white1 g-ico--center g-font--20",
      "tittle": "NOTIFICACIONES",
      "icoAlert": "icon-mapfre_036_notification",
      "icoClose": "icon-mapfre_049_close2",
      "sizeClose": "g-font--40",
      "nameUser": "Hola <b>Gonzalo!</b>",
      "numb": 3,
      "alertBadge": {
        "icoCircle": "icon-mapfre_066_circle",
        "addClass": "g-font--30 g-c--green1",
        "addClassNum": "g-ico--center g-font--11 g-c--white1"
      },
      "list": [
        {
          "tipo": "Mi prefil"
        },
        {
          "tipo": "Cerrar sesión"
        }
      ]
    },
    "alert": {
      "ico": "icon-mapfre_014_perfil",
      "icoCircle": "icon-mapfre_066_circle",
      "sizeCircle": "g-font--40 g-c--gray1",
      "addClass": "g-c--white1 g-ico--center g-font--20",
      "tittle": "NOTIFICACIONES",
      "icoAlert": "icon-mapfre_036_notification",
      "icoClose": "icon-mapfre_049_close2",
      "sizeClose": "g-font--40",
      "numb": 3,
      "alertBadge": {
        "icoCircle": "icon-mapfre_066_circle",
        "addClass": "g-font--30 g-c--green1",
        "addClassNum": "g-ico--center g-font--11 g-c--white1"
      },
      "list": [
        {
          "ico-drow": "icon-mapfre_057_circle-check",
          "fech": "HOY 10:23am",
          "tipo": "Solicitud de chofer de reemplazo confirmada",
          "desc": "Seguro vehicular"
        },
        {
          "ico-drow": "icon-mapfre_049_close2",
          "fech": "HOY 10:23am",
          "tipo": "Solicitud de auxilio mecánico cancelada",
          "desc": "Seguro vehicular"
        },
        {
          "ico-drow": "icon-mapfre_057_circle-check",
          "fech": "HOY 10:23am",
          "tipo": "Solicitud de auxilio mecánico cancelada",
          "desc": "Seguro vehicular"
        },
        {
          "ico-drow": "icon-mapfre_049_close2",
          "fech": "HOY 10:23am",
          "tipo": "Solicitud de auxilio mecánico cancelada",
          "desc": "Seguro vehicular"
        },
        {
          "ico-drow": "icon-mapfre_057_circle-check",
          "fech": "HOY 10:23am",
          "tipo": "Solicitud de auxilio mecánico cancelada",
          "desc": "Seguro vehicular"
        },
        {
          "ico-drow": "icon-mapfre_062_reloj",
          "fech": "HOY 10:23am",
          "tipo": "Solicitud de auxilio mecánico cancelada",
          "desc": "Seguro vehicular"
        },
        {
          "ico-drow": "icon-mapfre_049_close2",
          "fech": "HOY 10:23am",
          "tipo": "Solicitud de auxilio mecánico cancelada",
          "desc": "Seguro vehicular"
        }
      ]
    }
  },
  "setContainerClass": "g-shadow--line g-mx-n--15 g-mx-md--0 ",
  "titleHeader": {
    "classTitle": "mx-auto g-font--16 g-font-lg--30 g-font--bold g-text--uppercase g-pt--20 g-pt-lg--30 g-pb--20 g-pb-lg--30",
    "title": "DETALLE DE TU ASISTENCIA",
    "classDes": "",
    "description": ""
  },
  "timelineContentClass": "g-px--15 g-px-lg--0",
  "itemTime": [
    {
      "position": "",
      "contentClass": "g-bg-c--white1 g-b-radius--5 g-mb--30",
      "dateClass": "g-bg-c--green1",
      "dateDayClass": "g-font--bold g-font--13 g-font-md--16",
      "dateDay": "07",
      "dateMonthClass": "g-font--11 g-font-md--13",
      "dateMonth": "NOV",
      "dateYearClass": "g-font--light g-font--11 g-font-md--13",
      "dateYear": "2019",
      "header": {
        "headerClass": "g-p--15 g-bb--1 g-bc--gray11",
        "textClass": "g-font-lg--18 g-font--medium",
        "text": "Declaraste tu accidente vehicular"
      },
      "section": {
        "sectionClass": "g-p--15",
        "titleClass": "g-font--light g-pb--10",
        "title": "Lugar del siniestro declarado",
        "textDescription": [
          {
            "textClass": "g-line--10 g-pb--15 g-font--light d-flex align-items-center",
            "icon": false,
            "text": "<span class='g-font--medium'>Av. Javier Prado Este 499</span> - San Isidro"
          },
          {
            "textClass": "g-line--10 g-pb--15 g-font--light d-flex align-items-center",
            "icon": {
              "iconClass": "g-pr--5 g-font--16 g-c--gray18",
              "icon": "icon-mapfre_019_car"
            },
            "text": "DE450 - TOYOTA Tercel - 2013"
          },
          {
            "textClass": "g-line--10 g-pb--15 g-font--light d-flex align-items-center",
            "icon": {
              "iconClass": "g-pr--5 g-font--16 g-c--gray18",
              "icon": "icon-mapfre_062_reloj"
            },
            "text": "Hora: 10:00 PM"
          }
        ]
      },
      "footer": false
    },
    {
      "position": "g-timeline--inverted",
      "contentClass": "g-bg-c--white1 g-b-radius--5 g-mb--30",
      "dateClass": "g-bg-c--green1",
      "dateDayClass": "g-font--bold g-font--13 g-font-md--16",
      "dateDay": "07",
      "dateMonthClass": "g-font--11 g-font-md--13",
      "dateMonth": "NOV",
      "dateYearClass": "g-font--light g-font--11 g-font-md--13",
      "dateYear": "2019",
      "header": {
        "headerClass": "g-p--15 g-bb--1 g-bc--gray11",
        "textClass": "g-font-lg--18 g-font--medium",
        "text": "Te enviamos al procurador y una grúa"
      },
      "section": {
        "sectionClass": "g-p--15",
        "titleClass": "g-font--light g-pb--10",
        "title": "",
        "textDescription": [
          {
            "textClass": "g-line--10 g-pb--15 g-font--light d-flex align-items-center",
            "icon": {
              "iconClass": "g-pr--5 g-font--16 g-c--gray18",
              "icon": "icon-mapfre_062_reloj"
            },
            "text": "Hora: 10:05 PM"
          }
        ]
      },
      "footer": false
    },
    {
      "position": "g-timeline--inverted",
      "contentClass": "g-bg-c--white1 g-b-radius--5 g-mb--30",
      "dateClass": "g-bg-c--green1",
      "dateDayClass": "g-font--bold g-font--13 g-font-md--16",
      "dateDay": "07",
      "dateMonthClass": "g-font--11 g-font-md--13",
      "dateMonth": "NOV",
      "dateYearClass": "g-font--light g-font--11 g-font-md--13",
      "dateYear": "2019",
      "header": {
        "headerClass": "g-p--15 g-bb--1 g-bc--gray11",
        "textClass": "g-font-lg--18 g-font--medium",
        "text": "El procurador llegó a tu ubicación"
      },
      "section": {
        "sectionClass": "g-p--15",
        "titleClass": "g-font--light g-pb--10",
        "title": "Lugar del siniestro",
        "textDescription": [
          {
            "textClass": "g-line--10 g-pb--15 g-font--light d-flex align-items-center",
            "icon": false,
            "text": "<span class='g-font--medium'>Av. Javier Prado Este 499</span> - San Isidro"
          },
          {
            "textClass": "g-line--10 g-pb--15 g-font--light d-flex align-items-center",
            "icon": {
              "iconClass": "g-pr--5 g-font--16 g-c--gray18",
              "icon": "icon-mapfre_014_perfil"
            },
            "text": "<span class='g-font--medium'>Procurador:</span> Delaryn Luna de Verano"
          },
          {
            "textClass": "g-line--10 g-font--light d-flex align-items-center",
            "icon": {
              "iconClass": "g-pr--5 g-font--16 g-c--gray18",
              "icon": "icon-mapfre_062_reloj"
            },
            "text": "Hora: 10:25 PM"
          }
        ]
      },
      "footer": {
        "footerClass": "g-p--10 g-py--15 g-bt--1 g-bc--gray11",
        "btnSection1": {
          "sectionClass": "d-flex justify-content-lg-between flex-lg-row flex-column",
          "btnLeft": {
            "contentBtn": "",
            "btn": false,
            "link": {
              "linkClass": "g-c--green1 g-font--medium g-c--pointer d-flex align-items-center g-pl--5",
              "link": "<span class='icon-mapfre_059_download g-font--21 g-pr--10'></span> Ver informe"
            }
          },
          "btnRight": false
        }
      }
    },
    {
      "position": "",
      "contentClass": "g-bg-c--white1 g-b-radius--5 g-mb--30",
      "dateClass": "g-bg-c--green1",
      "dateDayClass": "g-font--bold g-font--13 g-font-md--16",
      "dateDay": "09",
      "dateMonthClass": "g-font--11 g-font-md--13",
      "dateMonth": "NOV",
      "dateYearClass": "g-font--light g-font--11 g-font-md--13",
      "dateYear": "2019",
      "header": {
        "headerClass": "g-p--15 g-bb--1 g-bc--gray11",
        "textClass": "g-font-lg--18 g-font--medium",
        "text": "Tu auto entró al taller"
      },
      "section": {
        "sectionClass": "g-p--15",
        "titleClass": "g-font--medium g-pb--10",
        "title": "Automotriz Vacar Hinds",
        "textDescription": [
          {
            "textClass": "g-line--10 g-pb--15 g-font--light d-flex align-items-center",
            "icon": {
              "iconClass": "g-pr--5 g-font--16 g-c--gray18",
              "icon": "icon-mapfre_015_location-pin"
            },
            "text": "Av. Javier Prado Este 499 San Isidro"
          },
          {
            "textClass": "g-line--10 g-pb--15 g-font--light d-flex align-items-center",
            "icon": {
              "iconClass": "g-pr--5 g-font--16 g-c--gray18",
              "icon": "icon-mapfre_062_reloj"
            },
            "text": "9:00 AM - 2:00 PM de Lun - Vie "
          },
          {
            "textClass": "g-line--10 g-pb--15 g-font--light d-flex align-items-center",
            "icon": {
              "iconClass": "g-pr--5 g-font--16 g-c--gray18",
              "icon": "icon-mapfre_038_telephone"
            },
            "text": "924 234 131 / (01) 543 2552"
          },
          {
            "textClass": "g-line--10 g-pb--15 g-font--light d-flex align-items-center",
            "icon": {
              "iconClass": "g-pr--5 g-font--16 g-c--gray18",
              "icon": "icon-mapfre_060_mail"
            },
            "text": "userunknown@taller.com"
          }
        ]
      },
      "footer": false
    },
    {
      "position": "",
      "contentClass": "g-bg-c--white1 g-b-radius--5 g-mb--30",
      "dateClass": "g-bg-c--green1",
      "dateDayClass": "g-font--bold g-font--13 g-font-md--16",
      "dateDay": "09",
      "dateMonthClass": "g-font--11 g-font-md--13",
      "dateMonth": "NOV",
      "dateYearClass": "g-font--light g-font--11 g-font-md--13",
      "dateYear": "2019",
      "header": {
        "headerClass": "g-p--15 g-bb--1 g-bc--gray11",
        "textClass": "g-font-lg--18 g-font--medium",
        "text": "El taller emitió el presupuesto"
      },
      "section": false,
      "footer": false
    },
    {
      "position": "g-timeline--inverted",
      "contentClass": "g-bg-c--white1 g-b-radius--5 g-mb--30",
      "dateClass": "g-bg-c--green1",
      "dateDayClass": "g-font--bold g-font--13 g-font-md--16",
      "dateDay": "12",
      "dateMonthClass": "g-font--11 g-font-md--13",
      "dateMonth": "NOV",
      "dateYearClass": "g-font--light g-font--11 g-font-md--13",
      "dateYear": "2019",
      "header": {
        "headerClass": "g-p--15 g-bb--1 g-bc--gray11",
        "textClass": "g-font-lg--18 g-font--medium",
        "text": "MAPFRE aprobó el presupuesto"
      },
      "section": {
        "sectionClass": "g-p--15 d-flex flex-wrap",
        "titleClass": "",
        "title": "",
        "textDescription": [
          {
            "textClass": "g-line--14 g-pb--10 g-font--light w-10 g-w-md-30",
            "icon": false,
            "text": "<span class='g-font--bold'>Costo:</span><br> $ 456"
          },
          {
            "textClass": "g-line--14 g-pb--10 g-font--light w-10 g-w-md-30",
            "icon": false,
            "text": "<span class='g-font--bold'>Deducible:</span><br>$ 150"
          },
          {
            "textClass": "g-line--14 g-pb--10 g-font--light w-10 g-w-md-30",
            "icon": false,
            "text": "<span class='g-font--bold'>Tú pagas:</span><br> <div class='d-flex align-items-center'><span class='icon-mapfre_048_tooltip g-c--green1 g-font--30  g-pr--5'></span> $ 306</div>"
          }
        ]
      },
      "footer": false
    },
    {
      "position": "",
      "contentClass": "g-bg-c--white1 g-b-radius--5 g-mb--30",
      "dateClass": "g-bg-c--green1",
      "dateDayClass": "g-font--bold g-font--13 g-font-md--16",
      "dateDay": "20",
      "dateMonthClass": "g-font--11 g-font-md--13",
      "dateMonth": "NOV",
      "dateYearClass": "g-font--light g-font--11 g-font-md--13",
      "dateYear": "2019",
      "header": {
        "headerClass": "g-p--15 g-bb--1 g-bc--gray11",
        "textClass": "g-font-lg--18 g-font--medium",
        "text": "El auto entro en reparación"
      },
      "section": {
        "sectionClass": "g-p--15",
        "titleClass": "",
        "title": "",
        "circleIcon": {
          "contentClass": "d-flex align-items-center g-pb--35",
          "icon": {
            "addClass": "g-bg-c--gray11 g-b-radius--50 g-p--20 g-mr--10 g-box-shadow2",
            "iconFile": "icon-mapfre_001_cliente",
            "iconClass": "g-c--gray2 g-font--18  "
          },
          "addClass": "",
          "text": [
            {
              "textClass": "g-font--medium g-line--10",
              "text": "Fase:"
            },
            {
              "textClass": "g-font--light",
              "text": "MECÁNICA"
            }
          ]
        },
        "DescriptionFooter": [
          {
            "textClass": "g-line--14 g-pb--10 g-font--light d-flex align-items-center ",
            "icon": {
              "iconClass": "g-pr--5 g-font--20 g-c--gray18",
              "icon": "icon-mapfre_104_ico-coin"
            },
            "text": "Recuerda realizar el pago del deducible en el taller"
          }
        ]
      },
      "footer": false
    },
    {
      "position": "",
      "contentClass": "g-bg-c--white1 g-b-radius--5 g-mb--30",
      "dateClass": "g-bg-c--green1",
      "dateDayClass": "g-font--bold g-font--13 g-font-md--16",
      "dateDay": "24",
      "dateMonthClass": "g-font--11 g-font-md--13",
      "dateMonth": "NOV",
      "dateYearClass": "g-font--light g-font--11 g-font-md--13",
      "dateYear": "2019",
      "header": {
        "headerClass": "g-p--15 g-bb--1 g-bc--gray11",
        "textClass": "g-font-lg--18 g-font--medium",
        "text": "Recogiste tu auto"
      },
      "section": {
        "sectionClass": "g-p--25",
        "titleClass": "",
        "title": "",
        "circleIcon": {
          "contentClass": "d-flex align-items-center g-pb--35",
          "icon": {
            "addClass": "g-bg-c--gray11 g-b-radius--50 g-p--20 g-mr--10 g-box-shadow2",
            "iconFile": "icon-mapfre_001_cliente",
            "iconClass": "g-c--gray2 g-font--18  "
          },
          "addClass": "",
          "text": [
            {
              "textClass": "g-font--medium g-line--10",
              "text": "Fase:"
            },
            {
              "textClass": "g-font--light",
              "text": "ENTREGADO 25/11/2017"
            }
          ]
        },
        "DescriptionFooter": [
          {
            "textClass": "g-line--14 g-pb--10 g-font--light d-flex align-items-center ",
            "icon": false,
            "text": "Ayúdanos a mejorar calificando al taller:"
          }
        ],
        "rating": {
          "ratingClass": "g-pb--20",
          "icon": [
            {
              "iconClass": "g-font--18 g-c--yellow2",
              "icon": "icon-mapfre_126_star_out",
              "iconActive": "icon-mapfre_125_star"
            },
            {
              "iconClass": "g-font--18 g-c--yellow2",
              "icon": "icon-mapfre_126_star_out",
              "iconActive": "icon-mapfre_125_star"
            },
            {
              "iconClass": "g-font--18 g-c--yellow2",
              "icon": "icon-mapfre_126_star_out",
              "iconActive": "icon-mapfre_125_star"
            },
            {
              "active": "g-rating--active",
              "iconClass": "g-font--18 g-c--yellow2",
              "icon": "icon-mapfre_126_star_out",
              "iconActive": "icon-mapfre_125_star"
            },
            {
              "active": "g-rating--active",
              "iconClass": "g-font--18 g-c--yellow2",
              "icon": "icon-mapfre_126_star_out",
              "iconActive": "icon-mapfre_125_star"
            }
          ]
        }
      },
      "footer": false
    },
    {
      "position": "g-timeline--inverted",
      "contentClass": "g-bg-c--gray11 g-b-radius--5 g-mb--30 g-b--1 g-bc--gray21",
      "dateClass": "g-bg-c--gray11 g-b--1 g-bc--gray21 g-c--gray18",
      "dateDayClass": "g-font--bold g-font--13 g-font-md--16",
      "dateDay": "14",
      "dateMonthClass": "g-font--11 g-font-md--13",
      "dateMonth": "MAR",
      "dateYearClass": "g-font--light g-font--11 g-font-md--13",
      "dateYear": "2019",
      "header": {
        "headerClass": "g-timeline--items-pending g-p--15",
        "textClass": "g-font-lg--18 g-font--medium",
        "text": "La solicitud se encuentra en revisión"
      },
      "section": false,
      "footer": false
    }
  ]
}