<svg width="40" height="27" viewBox="0 0 40 27" fill="none" xmlns="http://www.w3.org/2000/svg">
<path d="M19.865 9.1178L17.9939 17.8621H15.7316L17.6026 9.1178H19.865ZM29.3834 14.7633L30.5752 11.4807L31.2602 14.7633H29.3834ZM31.9092 17.8621H34L32.1756 9.1178H30.2435C29.8091 9.1178 29.4422 9.36981 29.2807 9.75824L25.886 17.8621H28.2604L28.7329 16.5568H31.6357L31.9092 17.8621ZM26.0024 15.0089C26.0131 12.6977 22.8109 12.5713 22.8332 11.5424C22.8403 11.2265 23.139 10.8927 23.7924 10.8072C24.1169 10.7656 25.0094 10.7333 26.0239 11.1985L26.4202 9.34325C25.8774 9.14724 25.1752 8.95625 24.3043 8.95625C22.0692 8.95625 20.494 10.1452 20.4818 11.849C20.4674 13.1069 21.6047 13.8098 22.4634 14.2291C23.3437 14.6571 23.6388 14.9313 23.6366 15.3162C23.6301 15.902 22.9323 16.1612 22.2825 16.1699C21.1452 16.1892 20.4839 15.864 19.9584 15.6199L19.5477 17.5355C20.0761 17.7781 21.0518 17.9871 22.0642 18C24.4407 18 25.9959 16.8247 26.0024 15.0089V15.0089ZM16.6326 9.1178L12.9666 17.8621H10.5743L8.77071 10.8833C8.66014 10.4525 8.56465 10.2967 8.23222 10.1144C7.68942 9.81855 6.79122 9.54213 6 9.36981L6.05457 9.1178H9.90369C10.3948 9.1178 10.8356 9.44305 10.9476 10.0095L11.9004 15.0706L14.254 9.1178H16.6326" fill="#10357E"/>
</svg>
