{
  "boxHead" : {
    "addClass" : "g-py--15",
    "iconFile" : "align-items-center",
    "iconClass" : "",
    "dateList": {
      "addClass" : "",
      "list" : [
        {
          "itemClass" : "",
          "iconFile" : "",
          "iconClass" : "",
          "textClass" : "g-font--14 g-font-md--18 g-text--uppercase",
          "text" : "MIS VEHÍCULOS"
        }
      ]
    },
    "btnAdd": false,
    "btnIconAdd": false
  },
  "misDatos": [
    {
      "boxHead": {
        "addClass": " g-p--15 ",
        "icon": {
          "iconFile": "icon-mapfre_058_file",
          "iconClass": "g-c--gray6 g-font--55 g-font-lg--75  g-px--10 "
        },
        "dateList": {
          "addClass": "",
          "list": [{
              "itemClass": "",
              "icon": false,
              "textClass": "g-font--14 g-font-md--18 g-font--medium",
              "text": "Full Cobertura Premium"
            },
            {
              "itemClass": "",
              "icon": false,
              "textClass": "g-font--light",
              "text": "Nro. de póliza 756433944"
            },
            {
              "itemClass": "",
              "icon": false,
              "textClass": "g-font--light",
              "text": ""
            }
          ]
        },
        "btnAdd": false,
        "btnIconAdd": false
      },
      "boxContent": {
        "addClass": "",
        "list": [
          {
            "itemClass": " g-p--15  d-flex align-items-center g-bt--1 g-bc--gray11",
            "icon": true,
            "iconFile": "icon-mapfre_072_cotizar",
            "iconClass": " g-font--25 g-font-md--21  g-mr--15  g-c--gray3",
            "textClass": "g-c--gray3",
            "text": "Suma asegurada: S/. 5.000.000"
          },
          {
            "itemClass": " g-p--15  d-flex align-items-center g-bt--1 g-bc--gray11",
            "icon": true,
            "iconFile": "icon-mapfre_063_agendar",
            "iconClass": " g-font--25 g-font-md--21  g-mr--15  g-c--gray3",
            "textClass": "g-c--gray3",
            "text": "Inicio vigencia: 24/02/2017"
          },
          {
            "itemClass": " g-p--15  d-flex align-items-center g-bt--1 g-bc--gray11",
            "icon": true,
            "iconFile": "icon-mapfre_063_agendar",
            "iconClass": " g-font--25 g-font-md--21  g-mr--15  g-c--gray3",
            "textClass": "g-c--gray3",
            "text": "Fin vigencia: 24/02/2018"
          }
        ]
      }
    },
    {
      "boxHead": {
        "addClass": " g-p--15 ",
        "icon": {
          "iconFile": "icon-mapfre_055_wallet",
          "iconClass": "g-c--gray6 g-font--55 g-font-lg--75  g-px--10 "
        },
        "dateList": {
          "addClass": "",
          "list": [{
              "itemClass": "",
              "icon": false,
              "textClass": "g-font--14 g-font-md--18 g-font--medium",
              "text": "Pagos"
            },
            {
              "itemClass": "",
              "icon": false,
              "textClass": "g-font--light",
              "text": "Prima: S/. 360,45"
            },
            {
              "itemClass": "",
              "icon": false,
              "textClass": "g-font--light",
              "text": "Cuota: S/. 35"
            }
          ]
        },
        "btnAdd": false,
        "btnIconAdd": {
          "iconClass": "g-c--pointer g-c--green1 g-font--25 g-font-md--21",
          "iconFile": "icon-mapfre_035_edit"
        }
      },
      "boxContent": {
        "addClass": "",
        "list": [
          {
            "itemClass": " g-p--15  d-flex align-items-center g-bt--1 g-bc--gray11",
            "icon": true,
            "iconFile": "icon-mapfre_096_porcentage",
            "iconClass": " g-font--25 g-font-md--21  g-mr--15  g-c--gray3",
            "textClass": "g-c--gray3",
            "text": "4 cuotas | <span class='g-c--pointer g-c--green1'>Ver pagos</span>"
          },
          {
            "itemClass": " g-p--15  d-flex align-items-center g-bt--1 g-bc--gray11",
            "icon": true,
            "iconFile": "icon-mapfre_055_wallet",
            "iconClass": " g-font--25 g-font-md--21  g-mr--15  g-c--gray3",
            "textClass": "g-c--gray3",
            "text": "Tipo de pago: Débito bancario"
          },
          {
            "itemClass": " g-p--15  d-flex align-items-center g-bt--1 g-bc--gray11",
            "icon": true,
            "iconFile": "icon-mapfre_097_refresh",
            "iconClass": " g-font--25 g-font-md--21  g-mr--15  g-c--gray3",
            "textClass": "g-c--gray3",
            "text": "Renovación automática"
          }
        ]
      }
    },
    {
      "boxHead": {
        "addClass": " g-p--15 ",
        "icon": {
          "iconFile": "icon-mapfre_037_user",
          "iconClass": "g-c--gray6 g-font--55 g-font-lg--75  g-px--10 "
        },
        "dateList": {
          "addClass": "",
          "list": [{
              "itemClass": "",
              "icon": false,
              "textClass": "g-font--14 g-font-md--18 g-font--medium",
              "text": "Mis datos"
            },
            {
              "itemClass": "",
              "icon": false,
              "textClass": "g-font--light",
              "text": "Marco Cuadrado Aro"
            },
            {
              "itemClass": "",
              "icon": false,
              "textClass": "g-font--light",
              "text": "DNI: 56478364"
            }
          ]
        },
        "btnAdd": false,
        "btnIconAdd": {
          "iconClass": "g-c--pointer g-c--green1 g-font--25 g-font-md--21",
          "iconFile": "icon-mapfre_035_edit"
        }
      },
      "boxContent": {
        "addClass": "",
        "list": [
          {
            "itemClass": " g-p--15  d-flex align-items-center g-bt--1 g-bc--gray11",
            "icon": true,
            "iconFile": "icon-mapfre_128_telephone",
            "iconClass": " g-font--25 g-font-md--21  g-mr--15  g-c--gray3",
            "textClass": "g-c--gray3",
            "text": "987 67 56 45"
          },
          {
            "itemClass": " g-p--15  d-flex align-items-center g-bt--1 g-bc--gray11",
            "icon": true,
            "iconFile": "icon-mapfre_063_agendar",
            "iconClass": " g-font--25 g-font-md--21  g-mr--15  g-c--gray3",
            "textClass": "g-c--gray3",
            "text": "Fecha de nacimiento: 24/02/1991"
          },
          {
            "itemClass": " g-p--15  d-flex align-items-center g-bt--1 g-bc--gray11",
            "icon": true,
            "iconFile": "icon-mapfre_041_iso",
            "iconClass": " g-font--25 g-font-md--21  g-mr--15  g-c--gray3",
            "textClass": "g-c--gray3",
            "text": "Cliente desde: 15 Enero 2015"
          }
        ]
      }
    }
  ],
  "vehicular": {
    "boxHead" : {
      "addClass" : "g-py--15",
      "iconFile" : "align-items-center",
      "iconClass" : "",
      "dateList": {
        "addClass" : "",
        "list" : [
          {
            "itemClass" : "",
            "iconFile" : "",
            "iconClass" : "",
            "textClass" : "g-font--14 g-font-md--18 g-text--uppercase",
            "text" : "MIS VEHÍCULOS"
          }
        ]
      },
      "btnAdd": false,
      "btnIconAdd": false
    },
    "cardboxCheck" : false,
    "cardboxDirection": false,
    "cardboxPayments": false,
    "cardboxPaymentsNot": false,
    "cardboxPoliza": [
      {
        "addClass" : " g-mb--10 ",
        "icon" : {
          "addClass" : "g-items-icon g-c--gray3 g-font--45  g-pr--20 ",
          "iconFile" : "icon-mapfre_019_car"
        },
        "text": "Placa en Trámite - Toyota Yaris",
        "secondText": "Seat Ibiza 2016 - CGG 5463",
        "second": {
          "text": "Submodelo: 1.3",
          "secondText": "Color: Verde"
        },
        "thrid": {
          "text": "Nro. chasis: VSHFI5678KSH",
          "secondText": "Nro. motor: VASDH76594JIHF"
        },
        "verDetalle": {
          "text" : "Ver detalle"
        }
      },
      {
        "addClass" : " g-mb--10 ",
        "icon" : {
          "addClass" : "g-items-icon g-c--gray3 g-font--45  g-pr--20 ",
          "iconFile" : "icon-mapfre_020_cross"
        },
        "text": "Trebol salud",
        "secondText": "MGF453 -Seat Ibiza 2016",
        "second": {
          "text": "Submodelo: 1.3",
          "secondText": "Color: Rojo"
        },
        "thrid": {
          "text": "Nro. Chasis: VSHFI5678KSH",
          "secondText": "Nro. motor: VASDH76594JIHF"
        },
        "verDetalle": {
          "text" : "Ver detalle"
        }
      }
    ],
    "btnVerTodos": false
  },
  "preferent": {
    "boxHead": {
      "addClassHeader": "g-bb--1",
      "addClass": "",
      "iconFile": "",
      "iconClass": "",
      "blockClass": "align-items-center",
      "dateList": {
        "addClass": "",
        "list": [{
          "icon": true,
          "itemClass": "align-items-center",
          "iconFile": "icon-mapfre_016_heart ",
          "iconClass": "g-font--30  g-c--gray2  g-pr--10 ",
          "textClass": "g-font--14 g-font-md--18 g-text--uppercase g-font--medium",
          "text": "Preferencias de Contacto"
        }]
      },
      "btnAdd": false,
      "btnIconAdd": false
    },
    "cardboxCheck": [{
        "title": "Medio:",
        "list": [{
            "label": "Email",
            "id": "d1"
          },
          {
            "label": "Celular",
            "id": "d2"
          }
        ],
        "class-border": "g-bb--1  g-pt--10  g-mb--20"
      },
      {
        "title": "",
        "list": [{
            "label": "Quiero recibir comunicaciones sobre descuentos, regalos y ofertas",
            "id": "d3"
          },
          {
            "label": "Quiero recibir comunicaciones sobre descuentos, regalos y ofertas",
            "id": "d4"
          },
          {
            "label": "Quiero recibir comunicaciones sobre descuentos, regalos y ofertas",
            "id": "d5"
          }
        ]
      }
    ]
}
}
