{
  "cardBox": {
    "boxHead": {
      "addClass": "",
      "icon": false,
      "title": "DETALLES DE MI PÓLIZA",
      "titleClass": " g-pl--15  pl-lg-0",
      "payment": false,
      "dots": true,
      "filter": false,
      "mont": false,
      "dropdown": {
        "lists": [{
          "icon": {
            "iconFile": "icon-mapfre_055_wallet",
            "iconClass": "g-font--30 g-c--green1"
          },
          "textClass": "g-font--medium g-c--green1",
          "text": "Configuración de pagos"
        }],
        "inputs": false
      },
      "accordion": false
    },
    "cardboxCheck": false,
    "cardboxDirection": false,
    "cardboxPayments": false,
    "cardboxPaymentsNot": false,
    "cardboxPoliza": [{
        "addClass": "g-mb--0 g-mb-lg--15",
        "icon": {
          "addClass": "g-items-icon g-c--gray2 g-font--55",
          "iconFile": "icon-mapfre_077_soat"
        },
        "text": "SOAT Electrónico",
        "secondText": "Opel Corsa 2019-FRG 456",
        "second": {
          "fontClass": "g-font--13 g-font--light",
          "text": "Nro. de póliza: 75689867",
          "secondText": "Vence el 04/06/2018",
          "icon": {
            "iconFile": "icon-mapfre_066_circle",
            "iconColor": "g-c--red1",
            "iconClass": " g-pr--5 "
          }
        },
        "thrid": false,
        "pdf": {
          "iconFile": "icon-mapfre_093_pdf",
          "iconClass": "g-c--green1 g-font--30"
        },
        "verDetalle": false,
        "btnPrimary": {
          "boxClass": "g-bl-lg--1",
          "addClassBtn": "g-text--uppercase g-c--pointer g-font--11",
          "text": "RENOVAR POR: S/ 70"
        }
      },
      {
        "addClass": "g-mb--0 g-mb-lg--15",
        "icon": {
          "addClass": "g-items-icon g-c--gray2 g-font--55",
          "iconFile": "icon-mapfre_077_soat"
        },
        "text": "SOAT Electrónico",
        "secondText": "Lamborghini Centenario LP-770 - 2018",
        "second": {
          "fontClass": "g-font--13 g-font--light",
          "text": "Nro. de póliza: 75689867",
          "secondText": "Vence el 04/06/2018",
          "icon": {
            "iconFile": "icon-mapfre_066_circle",
            "iconColor": "g-c--yellow1",
            "iconClass": " g-pr--5 "
          }
        },
        "thrid": false,
        "pdf": {
          "iconFile": "",
          "iconClass": "g-c--green1 g-font--30"
        },
        "verDetalle": false,
        "btnPrimary": {
          "boxClass": "g-bl-lg--1",
          "addClassBtn": " g-btn--gray16 g-text--uppercase g-c--pointer g-line--10 g-pl--15 g-pr--15 ",
          "text": "<span class='g-font--11 g-font--light text-center'>A PARTIR DE:</span><br><span class='g-font--12 g-font--bold text-center'> 08/08</span>"
        }
      },
      {
        "addClass": "g-mb--0 g-mb-lg--15",
        "icon": {
          "addClass": "g-items-icon g-c--gray2 g-font--55",
          "iconFile": "icon-mapfre_077_soat"
        },
        "text": "SOAT Electrónico",
        "secondText": "Lamborghini Centenario LP-770 - 2018",
        "second": {
          "fontClass": "g-font--13 g-font--light",
          "text": "Nro. de póliza: 75689867",
          "secondText": "Vence el 04/06/2018",
          "icon": {
            "iconFile": "icon-mapfre_066_circle",
            "iconColor": "g-c--yellow1",
            "iconClass": " g-pr--5 "
          }
        },
        "thrid": false,
        "pdf": {
          "iconFile": "icon-mapfre_093_pdf",
          "iconClass": "g-c--green1 g-font--30"
        },
        "verDetalle": false,
        "btnPrimary": {
          "boxClass": "g-bl-lg--1",
          "addClassBtn": " g-btn--gray16 g-text--uppercase g-c--pointer g-line--10 g-pl--15 g-pr--15 ",
          "text": "<span class='g-font--11 g-font--light text-center'>A PARTIR DE:</span><br><span class='g-font--12 g-font--bold text-center'> 08/08</span>"
        }
      }
    ],
    "btnVerTodos": false
  },
  "banner": {
    "addClass": "",
    "src": "../../../images/banner.jpg",
    "alt": "profile",
    "apps": false
  },
  "tabVertical": {
    "listTab": [{
        "addActive": "g-tablist-vertical__tab--active",
        "link": "#1",
        "text": "1. PASOS A SEGUIR"
      },
      {
        "addActive": false,
        "link": "#2",
        "text": "2. COBERTURAS SOAT"
      },
      {
        "addActive": false,
        "link": "#3",
        "text": "3. EXCLUSIONES"
      }
    ]
  },
  "mfselect": {
    "addClass": "g-form-focus",
    "label": "Etiqueta",
    "disabled": false,
    "listOption": [{
        "value": "option 1"
      },
      {
        "value": "option 2"
      },
      {
        "value": "option 3"
      },
      {
        "value": "option 4"
      }
    ]
  },
  "addClassContent": "g-mh-lg--60",
  "section": [{
      "lidLink": "1",
      "titleClass": "g-font--14 g-font--bold  g-px--15  w-100  g-mt-xl--20 ",
      "title": "1. PASOS A SEGUIR",
      "card": [{
          "addClass": " g-p--5 g-pt-xl--30 g-pb-xl--30  g-pl-xl--15 g-pr-xl--15",
          "number": "1.",
          "title": "MANTÉN LA CALMA",
          "description": "No te preocupes, te ayudaremos durante todo el proceso de tu accidente vehicular."

        },
        {
          "addClass": " g-p--5 g-pt-xl--30 g-pb-xl--30  g-pl-xl--15 g-pr-xl--15",
          "number": "2.",
          "title": "LLAMA A NUESTRA CENTRAL",
          "description": "Te brindamos asistencia las 24 horas del día.<br> Lima: (01) 213-3333<br> Provincia: 0801-1-1133"

        },
        {
          "addClass": " g-p--5 g-pt-xl--30 g-pb-xl--30  g-pl-xl--15 g-pr-xl--15",
          "number": "3.",
          "title": "NO MOVER A LOS LESIONADOS",
          "description": "Si hay personas con lesiones no intentes moverlos del lugar, nosotros nos encargaremos de ayudarlos cuanto antes."

        },
        {
          "addClass": " g-p--5 g-pt-xl--30 g-pb-xl--30  g-pl-xl--15 g-pr-xl--15",
          "number": "4.",
          "title": "NO HAGAS ACUERDOS CON TERCEROS",
          "description": "Procupara mantener la calma y esperar a que llegue la ayuda."

        },
        {
          "addClass": " g-p--5 g-pt-xl--30 g-pb-xl--30  g-pl-xl--15 g-pr-xl--15",
          "number": "5.",
          "title": "REALIZA LA DENUNCIA POLICIAL",
          "description": "Aproxímate a la comisaría más cercana para declarar lo que sucedió en el accidente."

        },
        {
          "addClass": " g-p--5 g-pt-xl--30 g-pb-xl--30  g-pl-xl--15 g-pr-xl--15",
          "number": "6.",
          "title": "SOMÉTETE AL DOSAJE ETÍLICO",
          "description": "Los oficiales de la PNP te acompañaran para realizar este examen. "

        }
      ]
    },
    {
      "lidLink": "2",
      "titleClass": "g-font--14 g-font--bold  g-px--15  w-100  g-mt-xl--20 ",
      "title": "2. COBERTURAS SOAT",
      "card": [{
          "addClass": " g-p--5 g-pt-xl--30 g-pb-xl--30  g-pl-xl--15 g-pr-xl--15",
          "number": "1.",
          "title": "POR MUERTE",
          "description": "Hasta 4 UIT"

        },
        {
          "addClass": " g-p--5 g-pt-xl--30 g-pb-xl--30  g-pl-xl--15 g-pr-xl--15",
          "number": "2.",
          "title": "POR INVALIDEZ PERMANENTE",
          "description": "Hasta 4 UIT"

        },
        {
          "addClass": " g-p--5 g-pt-xl--30 g-pb-xl--30  g-pl-xl--15 g-pr-xl--15",
          "number": "3.",
          "title": "POR INCAPACIDAD TEMPORAL",
          "description": "Hasta 1 UIT"

        },
        {
          "addClass": " g-p--5 g-pt-xl--30 g-pb-xl--30  g-pl-xl--15 g-pr-xl--15",
          "number": "4.",
          "title": "POR GASTOS MÉDICOS",
          "description": "Hasta 5 UIT"

        },
        {
          "addClass": " g-p--5 g-pt-xl--30 g-pb-xl--30  g-pl-xl--15 g-pr-xl--15",
          "number": "5.",
          "title": "POR GASTOS DE SEPELIO",
          "description": "Hasta 1 UIT"

        }
      ]
    },
    {
      "lidLink": "3",
      "titleClass": "g-font--14 g-font--bold  g-px--15  w-100  g-mt-xl--20 ",
      "title": "3.EXCLUSIONES DE COBERTURA SOAT",
      "card": [{
          "addClass": " g-p--5 g-pt-xl--30 g-pb-xl--30  g-pl-xl--15 g-pr-xl--15",
          "number": "1.",
          "title": "CARRERA DE AUTOMÓVILES",
          "description": "Accidentes causados en carrera de automóviles y otras competencias de vehículos automotores."

        },
        {
          "addClass": " g-p--5 g-pt-xl--30 g-pb-xl--30  g-pl-xl--15 g-pr-xl--15",
          "number": "2.",
          "title": "EL EXTRANJERO",
          "description": "Aciddentes ocurridos fuera de territorio nacional."

        },
        {
          "addClass": " g-p--5 g-pt-xl--30 g-pb-xl--30  g-pl-xl--15 g-pr-xl--15",
          "number": "3.",
          "title": "ZONAS RESTRINGIDAS",
          "description": "Accidentes ocurridos en lugares no abiertos al tránsito público."

        },
        {
          "addClass": " g-p--5 g-pt-xl--30 g-pb-xl--30  g-pl-xl--15 g-pr-xl--15",
          "number": "4.",
          "title": "CASOS FORTUITOS O DE FUERZA MAYOR",
          "description": "Consecuencia de guerras, eventos de la naturaleza u otros casos de fuerza mayor extraños a la circulación del vehiculo motor."

        },
        {
          "addClass": " g-p--5 g-pt-xl--30 g-pb-xl--30  g-pl-xl--15 g-pr-xl--15",
          "number": "5.",
          "title": "SUICIDIO O AUTOLESIONES",
          "description": "El suicidio y la comisión de lesiones auto inferidas utilizando el vehículo automotor asegurado"

        }
      ]
    }
  ]

}
