{
  "titleHeader": {
    "classTitle": "mx-auto g-font--14 g-font-lg--30 g-font--bold",
    "title": "Escoge tu seguro",
    "classDes": "",
    "description": ""
  },
  "itemTime": [
    {
      "position": "",
      "contentClass": "g-bg-c--white1 g-b-radius--5 g-mb--30",
      "dateClass": "g-bg-c--green1",
      "dateDayClass": "g-font--bold g-font--16",
      "dateDay": "07",
      "dateMonthClass": "g-font--13",
      "dateMonth": "NOV",
      "dateYearClass": "g-font--light g-font--13",
      "dateYear": "2018",
      "header": {
        "headerClass": "g-p--15 g-bb--1 g-bc--gray5",
        "textClass": "g-font-lg--18 g-font--bold",
        "text": "Declaraste tu accidente vehicularn"
      },
      "section": {
        "sectionClass": "g-p--15",
        "titleClass": "g-font--light",
        "title": "DIRECCIÓN",
        "textDescription": [
          {
            "textClass": "g-line--10 g-pb--10 g-font--light",
            "icon": false,
            "text": "<span class='g-font--bold'>Av. Javier Prado Este 499:</span> - San Isidro"
          },
          {
            "textClass": "g-line--10 g-pb--10 g-font--light",
            "icon": {
              "iconClass": "",
              "icon": "icon-mapfre_019_car"
            },
            "text": "DE450 - TOYOTA Tercel - 2013"
          }
        ]
      },
      "footer": {
        "footerClass": "g-p--10 g-bt--1 g-bc--gray5",
        "btnSection1": {
          "sectionClass": "d-flex justify-content-lg-between flex-lg-row flex-column",
          "btnLeft": {
            "addClass": "g-btn-outline g-text--uppercase g-px--30 g-c--pointer g-mb--15 g-mb-lg--0",
            "data": "",
            "text": "Ver informe",
            "onclick": ""
          },
          "btnRight": {
            "contentBtnRight": "d-flex align-items-center justify-content-center text-center",
            "btn": [
              {
                "iconClass": "g-c-pointer g-font--28 g-px--15 g-c--pointer g-c--green1",
                "icon": "icon-mapfre_060_mail"
              },
              {
                "iconClass": "g-c-pointer g-font--28 g-px--15 g-c--pointer g-c--green1",
                "icon": "icon-mapfre_059_download"
              }
            ]
          }
        }
      }
    },
    {
      "position": "g-timeline--inverted",
      "contentClass": "g-bg-c--white1 g-b-radius--5 g-mb--30",
      "dateClass": "g-bg-c--green1",
      "dateDayClass": "g-font--bold g-font--16",
      "dateDay": "07",
      "dateMonthClass": "g-font--13",
      "dateMonth": "NOV",
      "dateYearClass": "g-font--light g-font--13",
      "dateYear": "2018",
      "header": {
        "headerClass": "g-p--15",
        "textClass": "g-font-lg--18 g-font--bold",
        "text": "Empezamos a revisar tu caso"
      },
      "section": false,
      "footer": false
    },
    {
      "position": "g-timeline--inverted",
      "contentClass": "g-bg-c--white1 g-b-radius--5 g-mb--30",
      "dateClass": "g-bg-c--green1",
      "dateDayClass": "g-font--bold g-font--16",
      "dateDay": "07",
      "dateMonthClass": "g-font--13",
      "dateMonth": "NOV",
      "dateYearClass": "g-font--light g-font--13",
      "dateYear": "2018",
      "header": {
        "headerClass": "g-p--15",
        "textClass": "g-font-lg--18 g-font--bold",
        "text": "Atiende tu caso un agente"
      },
      "section": {
        "sectionClass": "g-p--15",
        "titleClass": "",
        "title": "",
        "textDescription": [
          {
            "textClass": "g-line--10 g-pb--10 g-font--light",
            "icon": {
              "iconClass": "",
              "icon": "icon-mapfre_014_perfil"
            },
            "text": "Delaryn Luna de Verano"
          }
        ]
      },
      "footer": false
    },
    {
      "position": "g-timeline--inverted",
      "contentClass": "g-bg-c--white1 g-b-radius--5 g-mb--30",
      "dateClass": "g-bg-c--green1",
      "dateDayClass": "g-font--bold g-font--16",
      "dateDay": "13",
      "dateMonthClass": "g-font--13",
      "dateMonth": "NOV",
      "dateYearClass": "g-font--light g-font--13",
      "dateYear": "2018",
      "header": {
        "headerClass": "g-p--15 g-bb--1 g-bc--gray5",
        "textClass": "g-font-lg--18 g-font--bold",
        "text": "Aceptamos tu siniestro"
      },
      "section": {
        "sectionClass": "g-p--15 d-flex flex-wrap",
        "titleClass": "",
        "title": "",
        "textDescription": [
          {
            "textClass": "g-line--11 g-pb--10 g-font--light flex-fill",
            "icon": false,
            "text": "<span class='g-font--bold'>Precio:</span><br> S/ 456."
          }
        ]
      },
      "footer": {
        "footerClass": "g-p--10 g-bt--1 g-bc--gray5",
        "btnSection1": {
          "sectionClass": "d-flex justify-content-lg-between flex-lg-row flex-column",
          "btnLeft": {
            "addClass": "g-btn-outline g-text--uppercase g-px--30 g-c--pointer g-mb--15 g-mb-lg--0",
            "data": "",
            "text": "Ver informe",
            "onclick": ""
          },
          "btnRight": {
            "contentBtnRight": "d-flex align-items-center justify-content-center text-center",
            "btn": [
              {
                "iconClass": "g-c-pointer g-font--28 g-px--15 g-c--pointer g-c--green1",
                "icon": "icon-mapfre_060_mail"
              },
              {
                "iconClass": "g-c-pointer g-font--28 g-px--15 g-c--pointer g-c--green1",
                "icon": "icon-mapfre_059_download"
              }
            ]
          }
        }
      }
    },
    {
      "position": "",
      "contentClass": "g-bg-c--white1 g-b-radius--5 g-mb--30",
      "dateClass": "g-bg-c--green1",
      "dateDayClass": "g-font--bold g-font--16",
      "dateDay": "07",
      "dateMonthClass": "g-font--13",
      "dateMonth": "NOV",
      "dateYearClass": "g-font--light g-font--13",
      "dateYear": "2018",
      "header": {
        "headerClass": "g-p--15 g-bb--1 g-bc--gray5",
        "textClass": "g-font-lg--18 g-font--bold",
        "text": "Declaraste tu accidente vehicular"
      },
      "section": {
        "sectionClass": "g-p--15",
        "titleClass": "g-font--light g-pb--10 ",
        "title": "DIRECCIÓN",
        "textDescription": [
          {
            "textClass": "g-font--medium g-pb--10",
            "text": "Av. Javier Prado Este 499 <span class='g-font--light'>- San Isidro</span>"
          },
          {
            "textClass": "g-line--10 g-pb--10 g-font--light",
            "icon": {
              "iconClass": "",
              "icon": "icon-mapfre_019_car"
            },
            "text": "DE450 - TOYOTA Tercel - 2013"
          }
        ]
      },
      "footer": false
    },
    {
      "position": "g-timeline--inverted",
      "contentClass": "g-bg-c--white1 g-b-radius--5 g-mb--30",
      "dateClass": "g-bg-c--green1",
      "dateDayClass": "g-font--bold g-font--16",
      "dateDay": "07",
      "dateMonthClass": "g-font--13",
      "dateMonth": "NOV",
      "dateYearClass": "g-font--light g-font--13",
      "dateYear": "2018",
      "header": {
        "headerClass": "g-p--15",
        "textClass": "g-font-lg--18 g-font--bold",
        "text": "Te enviamos al procurador y una grúa"
      },
      "section": false,
      "footer": false
    },
    {
      "position": "g-timeline--inverted",
      "contentClass": "g-bg-c--white1 g-b-radius--5 g-mb--30",
      "dateClass": "g-bg-c--green1",
      "dateDayClass": "g-font--bold g-font--16",
      "dateDay": "07",
      "dateMonthClass": "g-font--13",
      "dateMonth": "NOV",
      "dateYearClass": "g-font--light g-font--13",
      "dateYear": "2018",
      "header": {
        "headerClass": "g-p--15 g-bb--1 g-bc--gray5",
        "textClass": "g-font-lg--18 g-font--bold",
        "text": "El procurador llegó a tu ubicación"
      },
      "section": {
        "sectionClass": "g-p--15",
        "titleClass": "",
        "title": "",
        "textDescription": [
          {
            "textClass": "g-line--10 g-pb--10 g-font--light",
            "icon": {
              "iconClass": "",
              "icon": "icon-mapfre_037_user"
            },
            "text": "<span class='g-font--bold'>Procurador:</span> Delaryn Luna de Verano"
          }
        ]
      },
      "footer": {
        "footerClass": "g-p--10 g-bt--1 g-bc--gray5",
        "btnSection1": {
          "sectionClass": "d-flex justify-content-lg-between flex-lg-row flex-column",
          "btnLeft": {
            "addClass": "g-btn-outline g-text--uppercase g-px--30 g-c--pointer g-mb--15 g-mb-lg--0",
            "data": "",
            "text": "Ver informe",
            "onclick": ""
          },
          "btnRight": {
            "contentBtnRight": "d-flex align-items-center justify-content-center text-center",
            "btn": [
              {
                "iconClass": "g-c-pointer g-font--28 g-px--15 g-c--pointer g-c--green1",
                "icon": "icon-mapfre_060_mail"
              },
              {
                "iconClass": "g-c-pointer g-font--28 g-px--15 g-c--pointer g-c--green1",
                "icon": "icon-mapfre_059_download"
              }
            ]
          }
        }
      }
    },
    {
      "position": "g-timeline--inverted",
      "contentClass": "g-bg-c--white1 g-b-radius--5 g-mb--30",
      "dateClass": "g-bg-c--green1",
      "dateDayClass": "g-font--bold g-font--16",
      "dateDay": "09",
      "dateMonthClass": "g-font--13",
      "dateMonth": "NOV",
      "dateYearClass": "g-font--light g-font--13",
      "dateYear": "2018",
      "header": {
        "headerClass": "g-p--15 g-bb--1 g-bc--gray5",
        "textClass": "g-font-lg--18 g-font--bold",
        "text": "La grúa llego a tu ubicación"
      },
      "section": {
        "sectionClass": "g-p--15",
        "titleClass": "",
        "title": "",
        "textDescription": [
          {
            "textClass": "g-line--10 g-pb--10 g-font--light",
            "icon": {
              "iconClass": "",
              "icon": "icon-mapfre_015_location-pin"
            },
            "text": "<span class='g-font--bold'>Av. Javier Prado Este 499</span> San Isidro"
          }
        ]
      },
      "footer": false
    },
    {
      "position": "",
      "contentClass": "g-bg-c--white1 g-b-radius--5 g-mb--30",
      "dateClass": "g-bg-c--green1",
      "dateDayClass": "g-font--bold g-font--16",
      "dateDay": "09",
      "dateMonthClass": "g-font--13",
      "dateMonth": "NOV",
      "dateYearClass": "g-font--light g-font--13",
      "dateYear": "2018",
      "header": {
        "headerClass": "g-p--15 g-bb--1 g-bc--gray5",
        "textClass": "g-font-lg--18 g-font--bold",
        "text": "Tu auto entró al taller"
      },
      "section": {
        "sectionClass": "g-p--15",
        "titleClass": "g-font--medium g-pb--10",
        "title": "Automotriz Vacar Hinds",
        "textDescription": [
          {
            "textClass": "g-line--10 g-pb--10 g-font--light",
            "icon": {
              "iconClass": "",
              "icon": "icon-mapfre_015_location-pin"
            },
            "text": "<span class='g-font--bold'>Av. Javier Prado Este 499</span> San Isidro"
          }
        ]
      },
      "footer": {
        "footerClass": "g-p--10 g-bt--1 g-bc--gray5",
        "btnSection1": {
          "sectionClass": "d-flex justify-content-lg-between flex-lg-row flex-column",
          "btnLeft": {
            "addClass": "g-btn-outline g-text--uppercase g-px--10 g-px-lg--30 g-c--pointer",
            "data": "",
            "text": "Detalles del taller",
            "onclick": ""
          },
          "btnRight": false
        }
      }
    },
    {
      "position": "",
      "contentClass": "g-bg-c--white1 g-b-radius--5 g-mb--30",
      "dateClass": "g-bg-c--green1",
      "dateDayClass": "g-font--bold g-font--16",
      "dateDay": "12",
      "dateMonthClass": "g-font--13",
      "dateMonth": "NOV",
      "dateYearClass": "g-font--light g-font--13",
      "dateYear": "2018",
      "header": {
        "headerClass": "g-p--15",
        "textClass": "g-font-lg--18 g-font--bold",
        "text": "El taller emitió el presupuesto"
      },
      "section": false,
      "footer": false
    },
    {
      "position": "g-timeline--inverted",
      "contentClass": "g-bg-c--white1 g-b-radius--5 g-mb--30",
      "dateClass": "g-bg-c--green1",
      "dateDayClass": "g-font--bold g-font--16",
      "dateDay": "13",
      "dateMonthClass": "g-font--13",
      "dateMonth": "NOV",
      "dateYearClass": "g-font--light g-font--13",
      "dateYear": "2018",
      "header": {
        "headerClass": "g-p--15 g-bb--1 g-bc--gray5",
        "textClass": "g-font-lg--18 g-font--bold",
        "text": "Te enviamos al procurador y una grua"
      },
      "section": {
        "sectionClass": "g-p--15 d-flex flex-wrap",
        "titleClass": "",
        "title": "",
        "textDescription": [
          {
            "textClass": "g-line--11 g-pb--10 g-font--light flex-fill",
            "icon": false,
            "text": "<span class='g-font--bold'>Precio:</span><br> S/ 456."
          },
          {
            "textClass": "g-line--11 g-pb--10 g-font--light flex-fill",
            "icon": false,
            "text": "<span class='g-font--bold'>Tú pagas:</span><br> S/ 156."
          },
          {
            "textClass": "g-line--11 g-pb--10 g-font--light flex-fill",
            "icon": false,
            "text": "<span class='g-font--bold'>Deducible:</span><br> 85%"
          }
        ]
      },
      "footer": {
        "footerClass": "g-p--10 g-bt--1 g-bc--gray5",
        "btnSection1": {
          "sectionClass": "d-flex justify-content-lg-between flex-lg-row flex-column",
          "btnLeft": [
            {
              "addClass": "block g-text--uppercase g-px--10 g-c--pointer g-mr-lg--10 g-mb--10 g-mb-lg--0",
              "data": "",
              "text": "PAGAR S/ 12,000.00",
              "onclick": ""
            },
            {
              "addClass": "block g-btn-outline g-text--uppercase g-px--10 g-c--pointer  g-ml-lg--10",
              "data": "",
              "text": "Pagar en el taller",
              "onclick": ""
            }
          ],
          "btnRight": false
        }
      }
    },
    {
      "position": "",
      "contentClass": "g-bg-c--white1 g-b-radius--5 g-mb--30",
      "dateClass": "g-bg-c--green1",
      "dateDayClass": "g-font--bold g-font--16",
      "dateDay": "20",
      "dateMonthClass": "g-font--13",
      "dateMonth": "NOV",
      "dateYearClass": "g-font--light g-font--13",
      "dateYear": "2018",
      "header": {
        "headerClass": "g-p--15",
        "textClass": "g-font-lg--18 g-font--bold",
        "text": "Entrega estimada"
      },
      "section": false,
      "footer": false
    }
  ]
}