{
  "loginTitle" : {
    "iconTitle" : {
      "circle-addClass" : "g-icon--circle--md",
      "addClass" : "g-font--25 g-font-md--21",
      "iconFile" : "icon-mapfre_064_user-add"
    },
    "title" : "Habilitar Usuario"
  },
  "password" : false,
  "dataName": false,
  "dataEmail" : {
    "label": "Correo electrónico"
  },
  "link" : false,
  "linkText" : "",
  "alert" : [
    {
      "addClass" : "g-bg-c--red7 g-b--1 g-bc--orange1 g-p--10 g-mt--20 ",
      "icon" : {
        "iconFile" : "icon-mapfre_013_atention",
        "iconClass" : "g-font--25 g-font-md--21 g-c--orange1  g-pr--10 "
      },
      "titleClass" : "g-c--orange1",
      "titleText" : "Los datos no corresponden a un usuario activo. Contacta con un <span class='gfontBold g-c--pointer'>asesor MAPFRE</span> para recibir más información.",
      "subTitle" : false,
      "btnDetalle": false
    }
  ],
  "btn-primary": false,
  "btn-secondary" : false,
  "btn-disable" : {
    "text" : "aceptar",
    "addClass" : "block disabled g-text--uppercase g-btn-outline"
  },
  "listItems" : {
    "listA" :{
      "addClass" : "green",
      "ico-font" : "icon-mapfre_003_check",
      "list" : [
        { "text" : "Actualizar datos"},
        { "text" : "Solicita <span class='g-font--bold'>servicios</span>"}
      ]
    },
    "listB" : {
      "addClass" : "green",
      "ico-font" : "icon-mapfre_003_check",
      "list" : [
        { "text" : "Gestiona tus trámites"},
        { "text" : "Comparar cotizaciones"}
      ]
    }
  }
}