{
  "header": {
    "addClass": "",
    "iconLogo": "icon-mapfre_044_logo_landing",
    "iconSize": "",
    "title": "/ Pólizas Seguro SCTR",
    "block": {
      "iconFile": "icon-mapfre_045_call",
      "tel1": "Lima: 213-3333",
      "tel2": "Provincias: 0-801-1-1133"
    }
  },
  "footer": {
    "addClass": "",
    "iconFile": "icon-mapfre_044_logo_landing",
    "iconClass": "g-font--55",
    "title1": "¿Necesitas",
    "title2": "asistencia?",
    "tel1": "Lima: 213-3333",
    "tel2": "Provincias: 0-801-1-1133",
    "consult": "Escríbenos tu consulta",
    "copyright": "© Copyright MAPFRE PERÚ. Todos los derechos reservados"
  },
  "itemStep": [
    {
      "cols": "col",
      "stepClass": "number--box--color",
      "circle-addClass": "mx-auto",
      "text": "1",
      "stepName": "COTIZACIÓN"
    },
    {
      "cols": "col",
      "stepClass": "number--box--color number--box--active",
      "circle-addClass": "mx-auto",
      "text": "2",
      "stepName": "ASEGURADOS"
    },
    {
      "cols": "col",
      "stepClass": "",
      "circle-addClass": "mx-auto",
      "text": "3",
      "stepName": "CONTRATANTE"
    },
    {
      "cols": "col",
      "stepClass": "",
      "circle-addClass": "mx-auto",
      "text": "4",
      "stepName": "PAGO"
    }
  ],
  "tooltipInfo": {
    "tooltip": [
      {
        "alignTooltip": "g-tooltip-bottom-right",
        "iconFile": "icon-mapfre_048_tooltip g-c--gray1 g-font--25 g-font-md--21  g-p--50 ",
        "message": "<span class='d-block g-font--medium g-mb--5 g-c--blue1'>Recuerda:</span> Si modificas el campo de nro. de trabajadores o <br> monto total de la planilla entonces tendrás que <br> modifcar este paso."
      }
    ]
  },
  "messageError": {
    "addClass": "g-bg-c--red7 g-b--1 g-bc--orange1  g-p--10   g-mb--20 ",
    "icon": {
      "iconFile": "icon-mapfre_051_alerta",
      "iconClass": "g-font--45 g-c--orange1  g-pr--10 "
    },
    "titleClass": "g-font--14 g-font-md--18",
    "titleText": "Has modificado tu cotización, por favor actualiza los datos de los trabajadores a asegurar.",
    "subTitle": false,
    "btnDetalle": false
  },
  "listAdd": [
    {
      "boxClass": "",
      "headClass": "g-bg-c--gray12",
      "wrapClass": "",
      "title": "TRABAJADOR 1",
      "alert": false,
      "itemInsured": {
        "insured1": [
          {
            "addClass": "g-form-focus",
            "listOption": [
              {
                "value": "DNI"
              },
              {
                "value": "RUC"
              },
              {
                "value": "CEX"
              }
            ],
            "label": "Tipo de documento"
          }
        ],
        "insured2": [
          {
            "addClass": "g-form-focus",
            "value": "1234567890",
            "label": "Nro. de documento"
          }
        ],
        "insured3": [
          {
            "addClass": "g-form-focus",
            "currency": "g-input-symbol--soles",
            "value": "950.00",
            "label": "Sueldo mensual"
          }
        ],
        "insured4": [
          {
            "addClass": "g-form-focus",
            "value": "Eugene Lorentz",
            "label": "Nombres"
          }
        ],
        "insured5": [
          {
            "addClass": "g-form-focus",
            "value": "Delacroix",
            "label": "Apellido paterno"
          }
        ],
        "insured6": [
          {
            "addClass": "g-form-focus",
            "value": "Manet",
            "label": "Apellido materno"
          }
        ],
        "insured7": [
          {
            "addClass": "g-form-focus",
            "value": "12/05/2000",
            "iconFile": "icon-mapfre_050_agendar",
            "iconColor": "g-c--green1",
            "label": "Fecha de nacimiento"
          }
        ]
      }
    },
    {
      "boxClass": "",
      "headClass": "g-bg-c--gray12",
      "wrapClass": "",
      "title": "TRABAJADOR 2",
      "alert": false,
      "itemInsured": {
        "insured1": [
          {
            "addClass": "g-form-focus",
            "listOption": [
              {
                "value": "DNI"
              },
              {
                "value": "RUC"
              },
              {
                "value": "CEX"
              }
            ],
            "label": "Tipo de documento"
          }
        ],
        "insured2": [
          {
            "addClass": "g-form-focus",
            "value": "1234567890",
            "label": "Nro. de documento"
          }
        ],
        "insured3": [
          {
            "addClass": "g-form-focus",
            "currency": "g-input-symbol--soles",
            "value": "950.00",
            "label": "Sueldo mensual"
          }
        ],
        "insured4": [
          {
            "addClass": "g-form-focus",
            "value": "Eugene Lorentz",
            "label": "Nombres"
          }
        ],
        "insured5": [
          {
            "addClass": "g-form-focus",
            "value": "Delacroix",
            "label": "Apellido paterno"
          }
        ],
        "insured6": [
          {
            "addClass": "g-form-focus",
            "value": "Manet",
            "label": "Apellido materno"
          }
        ],
        "insured7": [
          {
            "addClass": "g-form-focus",
            "value": "12/05/2000",
            "iconFile": "icon-mapfre_050_agendar",
            "iconColor": "g-c--green1",
            "label": "Fecha de nacimiento"
          }
        ]
      }
    },
    {
      "boxClass": "",
      "headClass": "g-bg-c--gray12",
      "wrapClass": "",
      "title": "TRABAJADOR 3",
      "alert": false,
      "itemInsured": {
        "insured1": [
          {
            "addClass": "g-form-focus",
            "listOption": [
              {
                "value": "DNI"
              },
              {
                "value": "RUC"
              },
              {
                "value": "CEX"
              }
            ],
            "label": "Tipo de documento"
          }
        ],
        "insured2": [
          {
            "addClass": "g-form-focus",
            "value": "1234567890",
            "label": "Nro. de documento"
          }
        ],
        "insured3": [
          {
            "addClass": "g-form-focus",
            "currency": "g-input-symbol--soles",
            "value": "950.00",
            "label": "Sueldo mensual"
          }
        ],
        "insured4": [
          {
            "addClass": "g-form-focus",
            "value": "Eugene Lorentz",
            "label": "Nombres"
          }
        ],
        "insured5": [
          {
            "addClass": "g-form-focus",
            "value": "Delacroix",
            "label": "Apellido paterno"
          }
        ],
        "insured6": [
          {
            "addClass": "g-form-focus",
            "value": "Manet",
            "label": "Apellido materno"
          }
        ],
        "insured7": [
          {
            "addClass": "g-form-focus",
            "value": "12/05/2000",
            "iconFile": "icon-mapfre_050_agendar",
            "iconColor": "g-c--green1",
            "label": "Fecha de nacimiento"
          }
        ]
      }
    },
    {
      "boxClass": "",
      "headClass": "g-bg-c--gray12",
      "wrapClass": "",
      "title": "TRABAJADOR 4",
      "alert": false,
      "itemInsured": {
        "insured1": [
          {
            "addClass": "g-form-focus",
            "listOption": [
              {
                "value": "DNI"
              },
              {
                "value": "RUC"
              },
              {
                "value": "CEX"
              }
            ],
            "label": "Tipo de documento"
          }
        ],
        "insured2": [
          {
            "addClass": "g-form-focus",
            "value": "1234567890",
            "label": "Nro. de documento"
          }
        ],
        "insured3": [
          {
            "addClass": "g-form-focus",
            "currency": "g-input-symbol--soles",
            "value": "950.00",
            "label": "Sueldo mensual"
          }
        ],
        "insured4": [
          {
            "addClass": "g-form-focus",
            "value": "Eugene Lorentz",
            "label": "Nombres"
          }
        ],
        "insured5": [
          {
            "addClass": "g-form-focus",
            "value": "Delacroix",
            "label": "Apellido paterno"
          }
        ],
        "insured6": [
          {
            "addClass": "g-form-focus",
            "value": "Manet",
            "label": "Apellido materno"
          }
        ],
        "insured7": [
          {
            "addClass": "g-form-focus",
            "value": "12/05/2000",
            "iconFile": "icon-mapfre_050_agendar",
            "iconColor": "g-c--green1",
            "label": "Fecha de nacimiento"
          }
        ]
      }
    },
    {
      "boxClass": "",
      "headClass": "g-bg-c--gray12",
      "wrapClass": "",
      "title": "TRABAJADOR 5",
      "alert": false,
      "itemInsured": {
        "insured1": [
          {
            "addClass": "g-form-focus",
            "listOption": [
              {
                "value": "DNI"
              },
              {
                "value": "RUC"
              },
              {
                "value": "CEX"
              }
            ],
            "label": "Tipo de documento"
          }
        ],
        "insured2": [
          {
            "addClass": "g-form-focus",
            "value": "1234567890",
            "label": "Nro. de documento"
          }
        ],
        "insured3": [
          {
            "addClass": "g-form-focus",
            "currency": "g-input-symbol--soles",
            "value": "950.00",
            "label": "Sueldo mensual"
          }
        ],
        "insured4": [
          {
            "addClass": "g-form-focus",
            "value": "Eugene Lorentz",
            "label": "Nombres"
          }
        ],
        "insured5": [
          {
            "addClass": "g-form-focus",
            "value": "Delacroix",
            "label": "Apellido paterno"
          }
        ],
        "insured6": [
          {
            "addClass": "g-form-focus",
            "value": "Manet",
            "label": "Apellido materno"
          }
        ],
        "insured7": [
          {
            "addClass": "g-form-focus",
            "value": "12/05/2000",
            "iconFile": "icon-mapfre_050_agendar",
            "iconColor": "g-c--green1",
            "label": "Fecha de nacimiento"
          }
        ]
      }
    },
    {
      "boxClass": "",
      "headClass": "g-bg-c--gray12",
      "wrapClass": "",
      "title": "TRABAJADOR 6",
      "alert": false,
      "itemInsured": {
        "insured1": [
          {
            "addClass": "g-form-focus",
            "listOption": [
              {
                "value": "DNI"
              },
              {
                "value": "RUC"
              },
              {
                "value": "CEX"
              }
            ],
            "label": "Tipo de documento"
          }
        ],
        "insured2": [
          {
            "addClass": "g-form-focus",
            "value": "1234567890",
            "label": "Nro. de documento"
          }
        ],
        "insured3": [
          {
            "addClass": "g-form-focus",
            "currency": "g-input-symbol--soles",
            "value": "950.00",
            "label": "Sueldo mensual"
          }
        ],
        "insured4": [
          {
            "addClass": "g-form-focus",
            "value": "Eugene Lorentz",
            "label": "Nombres"
          }
        ],
        "insured5": [
          {
            "addClass": "g-form-focus",
            "value": "Delacroix",
            "label": "Apellido paterno"
          }
        ],
        "insured6": [
          {
            "addClass": "g-form-focus",
            "value": "Manet",
            "label": "Apellido materno"
          }
        ],
        "insured7": [
          {
            "addClass": "g-form-focus",
            "value": "12/05/2000",
            "iconFile": "icon-mapfre_050_agendar",
            "iconColor": "g-c--green1",
            "label": "Fecha de nacimiento"
          }
        ]
      }
    },
    {
      "title": "TRABAJADOR 7",
      "boxClass": "g-bc--red1",
      "headClass": "g-bg-c--white1",
      "wrapClass": "g-bg-c--red7",
      "alert": false,
      "itemInsured": {
        "insured1": [
          {
            "addClass": "g-form-focus",
            "listOption": [
              {
                "value": "DNI"
              },
              {
                "value": "RUC"
              },
              {
                "value": "CEX"
              }
            ],
            "label": "Tipo de documento"
          }
        ],
        "insured2": [
          {
            "addClass": "g-form-focus",
            "value": "1234567890",
            "label": "Nro. de documento"
          }
        ],
        "insured3": [
          {
            "addClass": "g-form-focus",
            "currency": "g-input-symbol--soles",
            "value": "950.00",
            "label": "Sueldo mensual"
          }
        ],
        "insured4": [
          {
            "addClass": "g-form-focus",
            "value": "Eugene Lorentz",
            "label": "Nombres"
          }
        ],
        "insured5": [
          {
            "addClass": "g-form-focus",
            "value": "Delacroix",
            "label": "Apellido paterno"
          }
        ],
        "insured6": [
          {
            "addClass": "g-form-focus",
            "value": "Manet",
            "label": "Apellido materno"
          }
        ],
        "insured7": [
          {
            "addClass": "g-form-focus",
            "value": "12/05/2000",
            "iconFile": "icon-mapfre_050_agendar",
            "iconColor": "g-c--green1",
            "label": "Fecha de nacimiento"
          }
        ]
      }
    },
    {
      "title": "TRABAJADOR 8",
      "boxClass": "g-bc--red1",
      "headClass": "g-bg-c--white1",
      "wrapClass": "g-bg-c--red7",
      "alert": false,
      "itemInsured": {
        "insured1": [
          {
            "addClass": "g-form-focus",
            "listOption": [
              {
                "value": "DNI"
              },
              {
                "value": "RUC"
              },
              {
                "value": "CEX"
              }
            ],
            "label": "Tipo de documento"
          }
        ],
        "insured2": [
          {
            "addClass": "g-form-focus",
            "value": "1234567890",
            "label": "Nro. de documento"
          }
        ],
        "insured3": [
          {
            "addClass": "g-form-focus",
            "currency": "g-input-symbol--soles",
            "value": "950.00",
            "label": "Sueldo mensual"
          }
        ],
        "insured4": [
          {
            "addClass": "g-form-focus",
            "value": "Eugene Lorentz",
            "label": "Nombres"
          }
        ],
        "insured5": [
          {
            "addClass": "g-form-focus",
            "value": "Delacroix",
            "label": "Apellido paterno"
          }
        ],
        "insured6": [
          {
            "addClass": "g-form-focus",
            "value": "Manet",
            "label": "Apellido materno"
          }
        ],
        "insured7": [
          {
            "addClass": "g-form-focus",
            "value": "12/05/2000",
            "iconFile": "icon-mapfre_050_agendar",
            "iconColor": "g-c--green1",
            "label": "Fecha de nacimiento"
          }
        ]
      }
    }
  ],
  "listAddMobile": [
    {
      "addClass": "",
      "title": "TRABAJADOR 1",
      "description": "Ingrese información",
      "data": false,
      "address": "Windrunner Silvermoon, Molly Declan Vereesa Sylvanas Alleria",
      "tipo_doc": "DNI",
      "number_doc": "4I21O10",
      "salary": "S/. 1340.00",
      "date": "10/03/2003",
      "modalView": "editInsured",
      "onclick": "fullModal.open('editInsured')",
      "icon_edit": "icon-mapfre_035_edit",
      "icon_delete": "icon-mapfre_053_eliminar"
    },
    {
      "addClass": "",
      "title": "TRABAJADOR 2",
      "description": "Ingrese información",
      "data": false,
      "address": "Windrunner Silvermoon, Molly Declan Vereesa Sylvanas Alleria",
      "tipo_doc": "DNI",
      "number_doc": "4I21O10",
      "salary": "S/. 1340.00",
      "date": "10/03/2003",
      "modalView": "editInsured",
      "onclick": "fullModal.open('editInsured')",
      "icon_edit": "icon-mapfre_035_edit",
      "icon_delete": "icon-mapfre_053_eliminar"
    },
    {
      "addClass": "g-bc--red1 g-bg-c--red7",
      "title": "TRABAJADOR 3",
      "description": "Ingrese información",
      "data": false,
      "address": "Windrunner Silvermoon, Molly Declan Vereesa Sylvanas Alleria",
      "tipo_doc": "DNI",
      "number_doc": "4I21O10",
      "salary": "S/. 1340.00",
      "date": "10/03/2003",
      "modalView": "editInsured",
      "onclick": "fullModal.open('editInsured')",
      "icon_edit": "icon-mapfre_035_edit",
      "icon_delete": "icon-mapfre_053_eliminar"
    },
    {
      "addClass": "g-bc--red1 g-bg-c--red7",
      "title": "TRABAJADOR 4",
      "description": "Ingrese información",
      "data": true,
      "address": "Windrunner Silvermoon, Molly Declan Vereesa Sylvanas Alleria",
      "tipo_doc": "DNI",
      "number_doc": "4I21O10",
      "salary": "S/. 1340.00",
      "date": "10/03/2003",
      "modalView": "editInsured",
      "onclick": "fullModal.open('editInsured')",
      "icon_edit": "icon-mapfre_035_edit",
      "icon_delete": "icon-mapfre_053_eliminar"
    }
  ],
  "linkButton": {
    "addClass": " g-pl--15   g-pr--15    g-font--medium g-text--uppercase",
    "text": "Siguiente"
  },
  "modal": {
    "title": "TRABAJADOR 1",
    "itemInsured": {
      "insured1": [
        {
          "addClass": "g-form-focus",
          "value": "D.N.I",
          "listOption": [
            {
              "value": "DNI"
            },
            {
              "value": "RUC"
            },
            {
              "value": "CEX"
            }
          ],
          "label": "Tipo de documento"
        }
      ],
      "insured2": [
        {
          "addClass": "g-form-focus",
          "value": "1234567890",
          "label": "Nro. de documento"
        }
      ],
      "insured3": [
        {
          "addClass": "g-form-focus",
          "currency": "g-input-symbol--soles",
          "value": "950.00",
          "label": "Sueldo mensual"
        }
      ],
      "insured4": [
        {
          "addClass": "g-form-focus",
          "value": "Eugene Lorentz",
          "label": "Nombres"
        }
      ],
      "insured5": [
        {
          "addClass": "g-form-focus",
          "value": "Delacroix",
          "label": "Apellido paterno"
        }
      ],
      "insured6": [
        {
          "addClass": "g-form-focus",
          "value": "Manet",
          "label": "Apellido materno"
        }
      ],
      "insured7": [
        {
          "addClass": "g-form-focus",
          "value": "12/05/2000",
          "label": "Fecha de nacimiento"
        }
      ]
    },
    "buttonLink": {
      "addClass": "g-text--uppercase g-btn-outline  g-px-lg--35  g-modal--close",
      "text": "Aceptar"
    }
  },
  "alert": {
    "value": "#open-modal",
    "addClass": "block g-text--uppercase g-modal--link",
    "data": "modal01",
    "text": "modal01",
    "title-modal": {
      "title": "AGREGAR DIRECCIÓN"
    },
    "cont-add-adress": true,
    "btns": {
      "btnsClass": "d-flex flex-column-reverse flex-md-row justify-content-center",
      "btn": [
        {
          "addClass": "g-p--10 text-center w-10",
          "textClass": "g-btn g-text--uppercase g-px--60 w-px-lg--24 g-c--pointer",
          "text": "ACEPTAR"
        }
      ]
    }
  }
}