<?xml version="1.0" encoding="UTF-8"?>
<svg width="60px" height="35px" viewBox="0 0 60 35" version="1.1" xmlns="http://www.w3.org/2000/svg" xmlns:xlink="http://www.w3.org/1999/xlink">
    <!-- Generator: Sketch 49.2 (51160) - http://www.bohemiancoding.com/sketch -->
    <title>img_loading@1x</title>
    <desc>Created with Sketch.</desc>
    <defs></defs>
    <g id="Symbols" stroke="none" stroke-width="1" fill="none" fill-rule="evenodd">
        <g id="Imagemaking-/-Loading" transform="translate(-1.000000, -15.000000)">
            <g id="img_loading" transform="translate(1.000000, 15.000000)">
                <rect id="card-copy" fill="#DDDDDD" x="0" y="0" width="58" height="25" rx="2"></rect>
                <rect id="card-copy" fill="#FFFFFF" x="5" y="9" width="48" height="9"></rect>
                <rect id="card-copy" fill="#D81E05" x="5" y="9" width="19" height="9"></rect>
                <path d="M52.5,21 C56.1108505,21 59,23.8891318 59,27.5 C59,31.1108682 56.1108505,34 52.5,34 C48.8891495,34 46,31.1108682 46,27.5 C46,23.8891318 48.8891495,21 52.5,21 Z" id="Path" stroke="#D81E05" stroke-width="1.52941176" fill="#F2F2F2"></path>
                <path d="M52.9497475,23.4497475 C52.3698325,23.4497475 51.8997475,23.9198325 51.8997475,24.4997475 L51.8997475,25.8997475 L50.4997475,25.8997475 C49.91985,25.8997475 49.4497475,26.3698675 49.4497475,26.9497475 C49.4497475,27.5296625 49.91985,27.9997475 50.4997475,27.9997475 L51.8997475,27.9997475 L51.8997475,29.3997475 C51.8997475,29.9796275 52.3698325,30.4497475 52.9497475,30.4497475 C53.5296275,30.4497475 53.9997475,29.9796275 53.9997475,29.3997475 L53.9997475,27.9997475 L55.3997475,27.9997475 C55.979645,27.9997475 56.4497475,27.5296625 56.4497475,26.9497475 C56.4497475,26.3698675 55.979645,25.8997475 55.3997475,25.8997475 L53.9997475,25.8997475 L53.9997475,24.4997475 C53.9997475,23.9198325 53.5296275,23.4497475 52.9497475,23.4497475 Z" id="Path" fill="#D81E05" transform="translate(52.949747, 26.949747) rotate(-45.000000) translate(-52.949747, -26.949747) "></path>
            </g>
        </g>
    </g>
</svg>