<?xml version="1.0" encoding="utf-8"?>
<!-- Generator: Adobe Illustrator 15.0.0, SVG Export Plug-In . SVG Version: 6.00 Build 0)  -->
<!DOCTYPE svg PUBLIC "-//W3C//DTD SVG 1.1//EN" "http://www.w3.org/Graphics/SVG/1.1/DTD/svg11.dtd">
<svg version="1.1" id="Capa_1" xmlns="http://www.w3.org/2000/svg" xmlns:xlink="http://www.w3.org/1999/xlink" x="0px" y="0px"
	 width="72.843px" height="45px" viewBox="0 0 72.843 45" enable-background="new 0 0 72.843 45" xml:space="preserve">
<title>logo select tarjeta / bbva</title>
<desc>Created with Sketch.</desc>
<g id="logo-select-tarjeta-_x2F_-bbva">
	<g id="BBVA-only" transform="translate(10.000000, 15.000000)">
		<g id="bbva">
			<path id="Fill-29" fill="#105297" d="M44.347,10.078l2.511-7.763l2.543,7.763H44.347z M48.604-0.764h-3.509l-5.618,17.008h2.861
				l1.207-3.662h6.673l1.212,3.662h4.977l-5.57-15.281C50.327-0.435,50.042-0.764,48.604-0.764L48.604-0.764z"/>
			<path id="Fill-35" fill="#105297" d="M38.628-0.764l-3.894,12.918L31.459,1.453c-0.614-1.917-0.926-2.216-2.104-2.216H26.31
				l5.644,17.008h4.145l5.259-17.008H38.628z"/>
			<path id="Fill-31" fill="#105297" d="M18.421,13.972h-1.225V1.452h2.213c1.065,0,1.985,0.868,1.985,1.917
				c0,0.369-0.07,0.713-0.435,1.23l-1.435,2.125c1.501,0.355,2.504,1.485,2.504,3.592C22.029,12.881,20.475,13.972,18.421,13.972
				 M22.768,5.902l0.845-1.23c1.777-2.606,0.554-5.435-2.963-5.435h-7.508v17.008h7.24C26.749,16.244,28.656,8.925,22.768,5.902"/>
			<path id="Fill-33" fill="#105297" d="M3.37,13.972H2.156V1.452h2.201c1.067,0,1.994,0.868,1.994,1.917
				c0,0.369-0.068,0.713-0.439,1.23L4.469,6.723c1.505,0.355,2.507,1.485,2.507,3.592C6.976,12.881,5.424,13.972,3.37,13.972
				 M7.715,5.902l0.838-1.23c1.784-2.606,0.562-5.435-2.963-5.435H5.333h-7.24v17.008h7.24C11.692,16.244,13.616,8.925,7.715,5.902"
				/>
		</g>
	</g>
</g>
</svg>
