<?xml version="1.0" encoding="UTF-8"?>
<svg width="47px" height="35px" viewBox="0 0 47 35" version="1.1" xmlns="http://www.w3.org/2000/svg" xmlns:xlink="http://www.w3.org/1999/xlink">
    <!-- Generator: sketchtool 52 (66869) - http://www.bohemiancoding.com/sketch -->
    <title>D1F41A65-3018-4E52-9134-B9E5182ECC0F</title>
    <desc>Created with sketchtool.</desc>
    <g id="--Symbols" stroke="none" stroke-width="1" fill="none" fill-rule="evenodd">
        <g id="Imagemaking-/-upload-img" transform="translate(-7.000000, -14.000000)">
            <g id="imagemaking_" transform="translate(7.000000, 13.000000)">
                <path d="M3.82978723,1 C1.73293085,1 0,2.75967288 0,4.88888727 L0,27.2500036 C0,29.379218 1.73293085,31.1388909 3.82978723,31.1388909 L29.4564495,31.1388909 C30.740242,33.9972231 33.5787367,36 36.8617021,36 C41.3393505,36 45,32.2828557 45,27.7361146 C45,24.4024632 43.0276596,21.5201658 40.212766,20.2165621 L40.212766,4.88888727 C40.212766,2.75967288 38.4798351,1 36.3829787,1 L3.82978723,1 Z M3.82978723,3.91666545 L36.3829787,3.91666545 C36.9382404,3.91666545 37.3404255,4.32505695 37.3404255,4.88888727 L37.3404255,19.502611 C37.1898335,19.4933749 37.0442441,19.4729583 36.8916223,19.4724722 L31.221742,14.9151678 C30.7058314,14.4982645 29.8987851,14.5116958 29.396609,14.9455497 L23.1133644,20.3535482 L14.9451463,11.1933812 C14.2475218,10.5720002 13.545134,10.5710766 12.9255319,11.0868014 L2.87234043,20.1102497 L2.87234043,4.88888727 C2.87234043,4.32505695 3.27452553,3.91666545 3.82978723,3.91666545 Z M23.9361702,6.8333309 C21.8380452,6.8333309 20.106383,8.59171559 20.106383,10.7222182 C20.106383,12.8527208 21.8380452,14.6111054 23.9361702,14.6111054 C26.0342952,14.6111054 27.7659574,12.8527208 27.7659574,10.7222182 C27.7659574,8.59171559 26.0342952,6.8333309 23.9361702,6.8333309 Z M23.9361702,9.74999635 C24.4819676,9.74999635 24.893617,10.1679983 24.893617,10.7222182 C24.893617,11.2764381 24.4819676,11.69444 23.9361702,11.69444 C23.3903729,11.69444 22.9787234,11.2764381 22.9787234,10.7222182 C22.9787234,10.1679983 23.3903729,9.74999635 23.9361702,9.74999635 Z M13.778258,14.2161403 L21.9165559,23.3611164 C22.4097606,23.9141161 23.3441665,23.9783314 23.90625,23.4978108 L30.3540559,17.9531325 L33.3011968,20.3229232 C30.598942,21.6705685 28.7234043,24.4860256 28.7234043,27.7361146 C28.7234043,27.9015381 28.7437979,28.0591353 28.7533245,28.2222255 L3.82978723,28.2222255 C3.27452553,28.2222255 2.87234043,27.8138437 2.87234043,27.2500036 L2.87234043,24.0143036 L13.778258,14.2161403 Z" id="Shape" fill="#797B7F" fill-rule="nonzero"></path>
                <path d="M37.5,18 C42.2218814,18 46,21.7780955 46,26.5 C46,31.2219045 42.2218814,35 37.5,35 C32.7781186,35 29,31.2219045 29,26.5 C29,21.7780955 32.7781186,18 37.5,18 Z" id="Path" stroke="#8DB602" stroke-width="2" fill="#F2F2F2"></path>
                <path d="M37.4524793,21.5 C36.631903,21.5 35.9667355,22.1651675 35.9667355,22.9857438 L35.9667355,24.9667355 L33.9857438,24.9667355 C33.1651923,24.9667355 32.5,25.6319526 32.5,26.4524793 C32.5,27.2730556 33.1651923,27.9382231 33.9857438,27.9382231 L35.9667355,27.9382231 L35.9667355,29.9192149 C35.9667355,30.7397417 36.631903,31.4049587 37.4524793,31.4049587 C38.2730061,31.4049587 38.9382231,30.7397417 38.9382231,29.9192149 L38.9382231,27.9382231 L40.9192149,27.9382231 C41.7397664,27.9382231 42.4049587,27.2730556 42.4049587,26.4524793 C42.4049587,25.6319526 41.7397664,24.9667355 40.9192149,24.9667355 L38.9382231,24.9667355 L38.9382231,22.9857438 C38.9382231,22.1651675 38.2730061,21.5 37.4524793,21.5 Z" id="Path" fill="#8DB602"></path>
            </g>
        </g>
    </g>
</svg>