<?xml version="1.0" encoding="UTF-8"?>
<svg width="60px" height="60px" viewBox="0 0 60 60" version="1.1" xmlns="http://www.w3.org/2000/svg" xmlns:xlink="http://www.w3.org/1999/xlink">
    <title>Icons / Imagemaking / document add</title>
    <g id="Icons-/-Imagemaking-/-document-add" stroke="none" stroke-width="1" fill="none" fill-rule="evenodd">
        <g id="imagemaking_file" transform="translate(11.000000, 8.000000)" fill="#4A4A4A">
            <path d="M36,0 C37.1045695,-2.02906125e-16 38,0.8954305 38,2 L38,42 C38,43.1045695 37.1045695,44 36,44 L2,44 C0.8954305,44 1.3527075e-16,43.1045695 0,42 L0,2 C-1.3527075e-16,0.8954305 0.8954305,2.02906125e-16 2,0 L36,0 Z M34,2 L4,2 C2.8954305,2 2,2.8954305 2,4 L2,4 L2,40 C2,41.1045695 2.8954305,42 4,42 L4,42 L34,42 C35.1045695,42 36,41.1045695 36,40 L36,40 L36,4 C36,2.8954305 35.1045695,2 34,2 L34,2 Z M24.9361702,24 C25.5237072,24 26,24.4477153 26,25 C26,25.5522847 25.5237072,26 24.9361702,26 L7.06382979,26 C6.47629282,26 6,25.5522847 6,25 C6,24.4477153 6.47629282,24 7.06382979,24 L24.9361702,24 Z M31.3932794,17 C31.7283619,17 32,17.4477153 32,18 C32,18.5522847 31.7283619,19 31.3932794,19 L6.6067206,19 C6.27163806,19 6,18.5522847 6,18 C6,17.4477153 6.27163806,17 6.6067206,17 L31.3932794,17 Z M31.3932794,10 C31.7283619,10 32,10.4477153 32,11 C32,11.5522847 31.7283619,12 31.3932794,12 L6.6067206,12 C6.27163806,12 6,11.5522847 6,11 C6,10.4477153 6.27163806,10 6.6067206,10 L31.3932794,10 Z" id="Combined-Shape"></path>
        </g>
        <circle id="Oval" fill="#8DB602" cx="47.75" cy="39.82" r="9"></circle>
        <circle id="Oval" fill="#FFFFFF" cx="47.85" cy="43.18" r="1.08"></circle>
        <circle id="Oval" fill="#FFFFFF" cx="47.85" cy="36.46" r="1.08"></circle>
        <rect id="Rectangle" fill="#FFFFFF" x="46.77" y="36.36" width="2.15" height="6.82"></rect>
        <circle id="Oval" fill="#FFFFFF" cx="44.53" cy="39.77" r="1.08"></circle>
        <circle id="Oval" fill="#FFFFFF" cx="51.25" cy="39.77" r="1.08"></circle>
        <rect id="Rectangle" fill="#FFFFFF" transform="translate(47.930000, 39.765000) rotate(90.000000) translate(-47.930000, -39.765000) " x="46.855" y="36.355" width="2.15" height="6.82"></rect>
    </g>
</svg>