<svg width="19" height="14" viewBox="0 0 19 14" fill="none" xmlns="http://www.w3.org/2000/svg">
<path d="M17.2693 13.9999H14.1141C13.6776 13.9999 13.3176 13.6561 13.3176 13.2392V7.81183C13.3176 6.31236 14.5889 5.09814 16.1588 5.09814C17.7288 5.09814 19 6.31236 19 7.81183V12.3468C19 13.2612 18.2265 13.9999 17.2693 13.9999ZM16.1588 5.8296C15.0177 5.8296 14.0834 6.72197 14.0834 7.81183V13.2392L17.2693 13.2685C17.7977 13.2685 18.2342 12.8589 18.2342 12.3468V7.81183C18.2342 6.72197 17.3076 5.8296 16.1588 5.8296Z" fill="#8E8E8E"/>
<path d="M4.88593 13.9999H1.73075C0.773478 13.9999 0 13.2612 0 12.3542V7.81916C0 6.31968 1.27126 5.10547 2.84119 5.10547C4.41112 5.10547 5.68239 6.31968 5.68239 7.81916V13.2465C5.68239 13.6635 5.32245 13.9999 4.88593 13.9999ZM2.84119 5.82961C1.70012 5.82961 0.76582 6.72198 0.76582 7.81184V12.3468C0.76582 12.8516 1.19468 13.2685 1.73075 13.2685H4.88593C4.90125 13.2685 4.91657 13.2539 4.91657 13.2392V7.81184C4.91657 6.72198 3.98227 5.82961 2.84119 5.82961Z" fill="#8E8E8E"/>
<path d="M14.0757 14H4.89355V2.3187C4.89355 1.03866 5.98102 0 7.32121 0H11.6404C12.9806 0 14.0681 1.03866 14.0681 2.3187V14H14.0757ZM5.65937 13.2685H13.3099V2.3187C13.3099 1.44096 12.5594 0.731452 11.6404 0.731452H7.32121C6.40222 0.731452 5.65937 1.44096 5.65937 2.3187V13.2685V13.2685Z" fill="#8E8E8E"/>
<path d="M11.7247 13.9999H7.24463V9.7063C7.24463 8.89439 7.93387 8.23608 8.78393 8.23608H10.1777C11.0278 8.23608 11.717 8.89439 11.717 9.7063V13.9999H11.7247ZM8.01045 13.2685H10.9512V9.7063C10.9512 9.29669 10.6066 8.96754 10.1777 8.96754H8.78393C8.35507 8.96754 8.01045 9.29669 8.01045 9.7063V13.2685Z" fill="#8E8E8E"/>
<path d="M10.0323 6.68557H8.93715C8.56955 6.68557 8.27854 6.40031 8.27854 6.05652V5.54451H7.74247C7.37487 5.54451 7.08386 5.25924 7.08386 4.91546V3.86948C7.08386 3.51838 7.38253 3.24043 7.74247 3.24043H8.27854V2.72841C8.27854 2.37732 8.57721 2.09937 8.93715 2.09937H10.0323C10.3999 2.09937 10.6909 2.38463 10.6909 2.72841V3.24043H11.2269C11.5945 3.24043 11.8856 3.5257 11.8856 3.86948V4.91546C11.8856 5.26655 11.5869 5.54451 11.2269 5.54451H10.6909V6.05652C10.6909 6.40031 10.3922 6.68557 10.0323 6.68557ZM9.04436 5.95412H9.92505V4.81305H11.1197V3.97188H9.92505V2.83082H9.04436V3.97188H7.84968V4.81305H9.04436V5.95412Z" fill="#8E8E8E"/>
</svg>
