<svg width="40" height="40" viewBox="0 0 40 40" fill="none" xmlns="http://www.w3.org/2000/svg">
<rect width="40" height="40" rx="20" fill="#8DB602"/>
<path fill-rule="evenodd" clip-rule="evenodd" d="M20 8C21.6563 8 23.2148 8.3125 24.6758 8.9375C26.1367 9.5625 27.4102 10.418 28.4961 11.5039C29.582 12.5898 30.4375 13.8633 31.0625 15.3242C31.6875 16.7852 32 18.3437 32 20C32 21.6563 31.6875 23.2148 31.0625 24.6758C30.4375 26.1367 29.582 27.4102 28.4961 28.4961C27.4102 29.582 26.1367 30.4375 24.6758 31.0625C23.2148 31.6875 21.6563 32 20 32C18.3437 32 16.7852 31.6875 15.3242 31.0625C13.8633 30.4375 12.5898 29.582 11.5039 28.4961C10.418 27.4102 9.5625 26.1367 8.9375 24.6758C8.3125 23.2148 8 21.6563 8 20C8 18.3437 8.3125 16.7852 8.9375 15.3242C9.5625 13.8633 10.418 12.5898 11.5039 11.5039C12.5898 10.418 13.8633 9.5625 15.3242 8.9375C16.7852 8.3125 18.3437 8 20 8ZM20.0005 30.5231C21.4536 30.5231 22.8169 30.2458 24.0903 29.6911C25.3638 29.1364 26.4731 28.3825 27.4185 27.4294C28.3638 26.4762 29.1138 25.363 29.6685 24.0895C30.2231 22.8161 30.5005 21.4528 30.5005 19.9997C30.5005 18.5465 30.2231 17.1833 29.6685 15.9098C29.1138 14.6364 28.3638 13.527 27.4185 12.5817C26.4731 11.6364 25.3638 10.8864 24.0903 10.3317C22.8169 9.77701 21.4536 9.49967 20.0005 9.49967C18.5474 9.49967 17.1841 9.77701 15.9106 10.3317C14.6372 10.8864 13.5278 11.6364 12.5825 12.5817C11.6372 13.527 10.8872 14.6364 10.3325 15.9098C9.77783 17.1833 9.50049 18.5465 9.50049 19.9997C9.50049 21.4528 9.77783 22.8161 10.3325 24.0895C10.8872 25.363 11.6372 26.4762 12.5825 27.4294C13.5278 28.3825 14.6372 29.1364 15.9106 29.6911C17.1841 30.2458 18.5474 30.5231 20.0005 30.5231ZM25.3206 15.383C25.1174 15.383 24.9377 15.4611 24.7815 15.6174L17.7502 22.6955L14.5862 19.5314C14.4299 19.3752 14.2502 19.2971 14.0471 19.2971C13.844 19.2971 13.6643 19.3752 13.5081 19.5314C13.3674 19.6721 13.2971 19.8478 13.2971 20.0588C13.2971 20.2697 13.3674 20.4455 13.5081 20.5861L17.2346 24.2893C17.3752 24.4455 17.551 24.5236 17.762 24.5236C17.9729 24.5236 18.1487 24.4455 18.2893 24.2893L18.3831 24.1955L25.8596 16.6721C26.0002 16.5314 26.0706 16.3557 26.0706 16.1447C26.0706 15.9338 26.0002 15.758 25.8596 15.6174C25.7034 15.4611 25.5237 15.383 25.3206 15.383Z" fill="#303030"/>
</svg>
