<?xml version="1.0" encoding="UTF-8"?>
<svg width="200px" height="100px" viewBox="0 0 200 100" version="1.1" xmlns="http://www.w3.org/2000/svg" xmlns:xlink="http://www.w3.org/1999/xlink">
    <!-- Generator: Sketch 52 (66869) - http://www.bohemiancoding.com/sketch -->
    <title>imagemaking / chofer</title>
    <desc>Created with Sketch.</desc>
    <g id="imagemaking-/-chofer" stroke="none" stroke-width="1" fill="none" fill-rule="evenodd">
        <g id="Imagemaking_chofer" transform="translate(61.000000, 0.000000)">
            <path d="M39.3431373,24.2745098 C37.8133233,24.280265 36.5345348,23.1123048 36.4019608,21.5882353 L21.4313725,21.5882353 C19.8070056,21.5882353 18.4901961,22.9050449 18.4901961,24.5294118 L18.4901961,24.9509804 C18.4901961,26.5753473 19.8070056,27.8921569 21.4313725,27.8921569 L57.0196078,27.8921569 C58.6439748,27.8921569 59.9607843,26.5753473 59.9607843,24.9509804 L59.9607843,24.5098039 C59.9661688,24.431465 59.9661688,24.3528488 59.9607843,24.2745098 L39.3431373,24.2745098 Z" id="Path" fill="#E0E0E0"></path>
            <path d="M36.9607843,19.7941176 C34.7058824,18.0098039 32.9509804,15.4901961 32.9509804,13.0882353 C32.9509804,8.18627451 36.3235294,3.75490196 41.627451,0.833333333 C40.7843137,0.774509804 39.9215686,0.735294118 39.0588235,0.735294118 C25.7941176,0.735294118 15.0392157,7.84313725 15.0392157,16.6666667 C15.0392157,19.0588235 16.8039216,21.5686275 19.0588235,23.372549 L59.3921569,22.8627451 C60.6821489,22.0427836 61.7044323,20.8637501 62.3333333,19.4705882 L36.9607843,19.7941176 Z" id="Path" fill="#E0E0E0"></path>
            <path d="M23.3529412,95.1960784 L23.3529412,81.127451 C23.3529412,69.3627451 32.8823529,63.5686275 44.6372549,63.5686275 L47.4313725,63.5686275 L47.4313725,54.9509804 C42.2295098,58.2123822 35.6671223,58.3925851 30.2941176,55.4215686 L30.2941176,63.4215686 L21.8235294,63.4215686 C10.0669418,63.4269814 0.53921444,72.9590974 0.539215686,84.7156863 L0.539215686,98.7745098 L77.4509804,98.7745098 L77.4509804,95.1862745 L23.3529412,95.1960784 Z" id="Path" fill="#E0E0E0"></path>
            <path d="M39.0588235,58.2647059 C29.3260249,58.2324244 21.4440462,50.3504457 21.4117647,40.6176471 L21.4117647,27.872549 C21.4117647,27.4664573 21.7409671,27.1372549 22.1470588,27.1372549 L56.0098039,27.1372549 C56.4158956,27.1372549 56.745098,27.4664573 56.745098,27.872549 L56.745098,40.6176471 C56.7127182,50.365709 48.8069334,58.2539644 39.0588235,58.2647059 Z M22.8431373,28.5882353 L22.8431373,40.5784314 C22.8431373,49.5341076 30.1031473,56.7941176 39.0588235,56.7941176 C48.0144998,56.7941176 55.2745098,49.5341076 55.2745098,40.5784314 L55.2745098,28.5882353 L22.8431373,28.5882353 Z" id="Shape" fill="#303030" fill-rule="nonzero"></path>
            <circle id="Oval" fill="#303030" cx="30.1078431" cy="36.3627451" r="2.21568627"></circle>
            <circle id="Oval" fill="#303030" cx="48.0098039" cy="36.3627451" r="2.21568627"></circle>
            <path d="M57.0196078,28.5882353 L21.4313725,28.5882353 C19.4139786,28.5828484 17.7798967,26.9487665 17.7745098,24.9313725 L17.7745098,24.5098039 C17.7798967,22.4924099 19.4139786,20.8583281 21.4313725,20.8529412 L57.0196078,20.8529412 C59.0370018,20.8583281 60.6710837,22.4924099 60.6764706,24.5098039 L60.6764706,24.9313725 C60.6710837,26.9487665 59.0370018,28.5828484 57.0196078,28.5882353 Z M21.4313725,22.3235294 C20.2239265,22.3235294 19.245098,23.3023579 19.245098,24.5098039 L19.245098,24.9313725 C19.245098,26.1388186 20.2239265,27.1176471 21.4313725,27.1176471 L57.0196078,27.1176471 C58.2270539,27.1176471 59.2058824,26.1388186 59.2058824,24.9313725 L59.2058824,24.5098039 C59.2058824,23.3023579 58.2270539,22.3235294 57.0196078,22.3235294 L21.4313725,22.3235294 Z" id="Shape" fill="#303030" fill-rule="nonzero"></path>
            <path d="M0.735294118,99.5098039 C0.32920239,99.5098039 4.97318935e-17,99.1806015 0,98.7745098 L0,84.7156863 C0.0108012921,72.5574817 9.86140927,62.7024879 22.0196078,62.6862745 L29.754902,62.6862745 L29.754902,55.4215686 C29.7552025,55.1626768 29.8934399,54.9235635 30.1176471,54.7941176 C30.341559,54.6624645 30.6192253,54.6624645 30.8431373,54.7941176 C33.2515921,56.0954187 35.9487903,56.7697183 38.6862745,56.754902 C41.6933934,56.8359042 44.6616183,56.0606977 47.245098,54.5196078 C47.4724739,54.3762396 47.7599616,54.3683702 47.9948399,54.4990851 C48.2297183,54.6298 48.3745504,54.8782648 48.372549,55.1470588 L48.372549,62.6470588 L56.4117647,62.6470588 C68.5852737,62.6632926 78.4422091,72.5421712 78.4313725,84.7156863 L78.4313725,98.7647059 C78.4313725,99.1707976 78.1021702,99.5 77.6960784,99.5 L0.735294118,99.5098039 Z M22.0196078,64.1568627 C10.6490395,64.1568627 1.43137255,73.3745297 1.43137255,84.745098 L1.43137255,98.0392157 L76.9215686,98.0392157 L76.9215686,84.7156863 C76.9215686,73.3451179 67.7039017,64.127451 56.3333333,64.127451 L47.5098039,64.127451 C47.3139871,64.1301155 47.12541,64.0535032 46.9869338,63.915027 C46.8484576,63.7765508 46.7718453,63.5879737 46.7745098,63.3921569 L46.7745098,56.2254902 C41.8857492,58.7672245 36.0978961,58.9119208 31.0882353,56.6176471 L31.0882353,63.4215686 C31.0882353,63.8276604 30.7590329,64.1568627 30.3529412,64.1568627 L22.0196078,64.1568627 Z" id="Shape" fill="#303030" fill-rule="nonzero"></path>
            <path d="M39.0588235,72.8529412 C38.873577,72.8520101 38.6953203,72.7821055 38.5588235,72.6568627 L29.4117647,64.1078431 L30.3921569,63.0294118 L39.0588235,71.1176471 L47.7254902,63.0294118 L48.7058824,64.1078431 L39.5392157,72.6568627 C39.4077492,72.7776675 39.2372747,72.847249 39.0588235,72.8529412 Z" id="Path" fill="#303030"></path>
            <path d="M45.4411765,75.5980392 C45.340266,75.5975349 45.2404009,75.5775619 45.1470588,75.5392157 L38.7647059,72.7941176 C38.3888249,72.6285609 38.2178054,72.1900494 38.3823529,71.8137255 C38.4597631,71.6313945 38.6074637,71.4880081 38.7920088,71.4160356 C38.9765538,71.344063 39.1823317,71.3495927 39.3627451,71.4313725 L45.245098,73.9803922 L55.9313725,63.4803922 C56.2184486,63.1936732 56.6835122,63.1936732 56.9705882,63.4803922 C57.2573072,63.7674682 57.2573072,64.2325318 56.9705882,64.5196078 L45.9607843,75.3823529 C45.8236433,75.521212 45.6363397,75.5989607 45.4411765,75.5980392 Z" id="Path" fill="#303030"></path>
            <path d="M32.6764706,75.5980392 C32.4815242,75.5978676 32.2946249,75.5202868 32.1568627,75.3823529 L21.2647059,64.5294118 C20.9820686,64.2368518 20.9820686,63.7729521 21.2647059,63.4803922 C21.5517819,63.1936732 22.0168455,63.1936732 22.3039216,63.4803922 L32.8529412,74 L38.9607843,71.627451 C39.3479228,71.4733073 39.786739,71.6619982 39.9411765,72.0490196 C40.0208659,72.2344271 40.0208487,72.4444381 39.9411291,72.6298326 C39.8614095,72.815227 39.7089953,72.9597073 39.5196078,73.0294118 L32.9705882,75.5784314 C32.874461,75.6021874 32.7749006,75.6088248 32.6764706,75.5980392 Z" id="Path" fill="#303030"></path>
            <path d="M18.627451,23.9509804 C15.9411765,21.8137255 14.3333333,19.0980392 14.3333333,16.6764706 C14.3333333,7.48039216 25.4411765,0.00980392157 39.0882353,0.00980392157 C52.7352941,0.00980392157 63.8039216,7.48039216 63.8039216,16.6666667 C63.6889183,19.4753787 62.1911487,22.0450816 59.8039216,23.5294118 L59.0588235,22.2647059 C60.9840503,21.0309682 62.2015915,18.9494831 62.3333333,16.6666667 C62.3333333,8.29411765 51.8921569,1.47058824 39.0588235,1.47058824 C26.2254902,1.47058824 15.7745098,8.29411765 15.7745098,16.6666667 C15.7745098,18.627451 17.2058824,20.9607843 19.5098039,22.7941176 L18.627451,23.9509804 Z" id="Path" fill="#303030"></path>
            <path d="M39.0392157,17.127451 C38.3266498,17.138036 37.6328864,16.8986877 37.0784314,16.4509804 C35.7947111,15.4577408 35.0420172,13.9270219 35.0392157,12.3039216 L35.0392157,8.82352941 C35.0414221,8.6124146 35.1342702,8.41243415 35.2941176,8.2745098 C35.4510536,8.13875197 35.6559024,8.07164633 35.8627451,8.08823529 C36.5767841,8.16017892 37.2882166,7.92896337 37.8235294,7.45098039 C38.5169293,6.81544859 39.5811099,6.81544859 40.2745098,7.45098039 C40.8079447,7.93222177 41.5208586,8.16391878 42.2352941,8.08823529 C42.4426098,8.06565097 42.6496185,8.13337182 42.803502,8.27411888 C42.9573854,8.41486593 43.0432603,8.61502644 43.0392157,8.82352941 L43.0392157,12.3039216 C43.0403674,13.8964808 42.3192385,15.4036402 41.0784314,16.4019608 C40.5017473,16.8700317 39.7819492,17.1261137 39.0392157,17.127451 Z M36.5392157,9.55882353 L36.5392157,12.3039216 C36.5441583,13.4465946 37.0625195,14.5265138 37.9509804,15.245098 C38.5597895,15.767806 39.4515967,15.7923511 40.0882353,15.3039216 C41.0177362,14.5812393 41.5635716,13.4714944 41.5686275,12.2941176 L41.5686275,9.55882353 C40.7244553,9.48631833 39.9264698,9.14235904 39.2941176,8.57843137 C39.1585352,8.46287916 38.9591119,8.46287916 38.8235294,8.57843137 C38.1855372,9.13953853 37.3854511,9.48292313 36.5392157,9.55882353 Z" id="Shape" fill="#303030" fill-rule="nonzero"></path>
            <path d="M39.0588235,51.4411765 C36.6328247,51.4236071 34.3963698,50.1264632 33.1764706,48.0294118 C33.011391,47.802422 32.9899316,47.5012549 33.1211589,47.2531521 C33.2523863,47.0050492 33.5134076,46.8532927 33.7939425,46.8619988 C34.0744774,46.870705 34.3255861,47.038355 34.4411765,47.2941176 C35.463412,49.0519164 37.3904511,50.0819644 39.4199335,49.9553812 C41.4494158,49.8287979 43.2335248,48.5672774 44.0294118,46.6960784 C44.1049388,46.5119903 44.251849,46.3663712 44.4365967,46.2924721 C44.6213444,46.218573 44.8281546,46.2227039 45.0098039,46.3039216 C45.1920931,46.3815976 45.3359344,46.5286841 45.409525,46.7126606 C45.4831156,46.8966371 45.4803936,47.1023488 45.4019608,47.2843137 C44.314743,49.8184711 41.8163194,51.4557688 39.0588235,51.4411765 Z" id="Path" fill="#303030"></path>
            <path d="M25.3823529,98.0392157 C25.743081,95.3735878 26.8704695,92.8701722 28.627451,90.8333333 L35.5392157,97.6960784 C35.5392157,97.7941176 35.5392157,97.8921569 35.5392157,97.9901961 L43.1372549,97.9901961 L50.0784314,91.0490196 C51.7030852,93.0583495 52.7412488,95.4773385 53.0784314,98.0392157 L59.8039216,98.0392157 C58.6774409,87.5169745 49.7980545,79.5374503 39.2156863,79.5374503 C28.633318,79.5374503 19.7539317,87.5169745 18.627451,98.0392157 L25.3823529,98.0392157 Z M39.2156863,85.9411765 C41.7486593,85.923604 44.2378327,86.6018529 46.4117647,87.9019608 L39.9705882,94.3431373 C39.6226196,94.2943094 39.2695373,94.2943094 38.9215686,94.3431373 L32.3529412,87.754902 C34.4465561,86.5703912 36.8102198,85.9457086 39.2156863,85.9411765 Z" id="Shape" fill="#8DB602" fill-rule="nonzero"></path>
        </g>
    </g>
</svg>