<?xml version="1.0" encoding="UTF-8"?>
<svg width="200px" height="100px" viewBox="0 0 200 100" version="1.1" xmlns="http://www.w3.org/2000/svg" xmlns:xlink="http://www.w3.org/1999/xlink">
    <!-- Generator: Sketch 53 (72520) - https://sketchapp.com -->
    <title>imagemaking / pagos 3 pago al dia@1x</title>
    <desc>Created with Sketch.</desc>
    <defs>
        <polygon id="path-1" points="0.421806667 1.84614375 73.8732067 1.84614375 73.8732067 10.3125 0.421806667 10.3125"></polygon>
    </defs>
    <g id="imagemaking-/-pagos-3-pago-al-dia" stroke="none" stroke-width="1" fill="none" fill-rule="evenodd">
        <g id="Group-13" transform="translate(46.000000, 3.000000)">
            <g id="Group">
                <path d="M25.5154066,69.2725704 C20.401011,69.2725704 16.2161758,65.0839778 16.2161758,59.9649901 L16.2161758,3.15644691 C16.2161758,2.19096543 16.4071648,1.27629877 16.6815604,0.397928395 L10.245956,0.397928395 C5.13156044,0.397928395 0.946725275,4.58652099 0.946725275,9.70671852 L0.946725275,66.5152617 C0.946725275,71.6342494 5.13156044,75.822842 10.245956,75.822842 L98.245956,75.822842 C102.396945,75.822842 105.89156,73.0473852 107.079802,69.2725704 L25.5154066,69.2725704 Z" id="Fill-1" fill="#DFE0DF"></path>
                <path d="M95.6383516,76.2222222 L12.0879121,76.2222222 C5.43956044,76.2222222 0,70.7777778 0,64.1234568 L0,12.0987654 C0,5.44444444 5.43956044,-4.54747351e-13 12.0879121,-4.54747351e-13 L95.6383516,-4.54747351e-13 C102.286703,-4.54747351e-13 107.726264,5.44444444 107.726264,12.0987654 L107.726264,64.1234568 C107.726264,70.7777778 102.286703,76.2222222 95.6383516,76.2222222 Z" id="Stroke-3" stroke="#303030" stroke-width="1.8" stroke-linecap="round" stroke-linejoin="round"></path>
                <polygon id="Stroke-8" stroke="#303030" stroke-width="1.59219753" stroke-linecap="round" stroke-linejoin="round" points="0.562813187 36.0584346 107.562813 36.0584346 107.562813 20.9095704 0.562813187 20.9095704"></polygon>
                <path d="M91.7640549,59.1610272 C91.7640549,61.4997185 93.6582308,63.3955951 95.9948242,63.3955951 C98.3326264,63.3955951 100.225593,61.4997185 100.225593,59.1610272 C100.225593,56.8211259 98.3326264,54.9264593 95.9948242,54.9264593 C93.6582308,54.9264593 91.7640549,56.8211259 91.7640549,59.1610272" id="Fill-10" fill="#8DB602"></path>
                <path d="M75.8112747,59.1610272 C75.8112747,61.4997185 77.7054505,63.3955951 80.042044,63.3955951 C82.3798462,63.3955951 84.2728132,61.4997185 84.2728132,59.1610272 C84.2728132,56.8211259 82.3798462,54.9264593 80.042044,54.9264593 C77.7054505,54.9264593 75.8112747,56.8211259 75.8112747,59.1610272" id="Fill-11" fill="#8DB602"></path>
                <path d="M59.8584945,59.1610272 C59.8584945,61.4997185 61.7526703,63.3955951 64.0892637,63.3955951 C66.4270659,63.3955951 68.320033,61.4997185 68.320033,59.1610272 C68.320033,56.8211259 66.4270659,54.9264593 64.0892637,54.9264593 C61.7526703,54.9264593 59.8584945,56.8211259 59.8584945,59.1610272" id="Fill-12" fill="#8DB602"></path>
            </g>
            <g id="Group-7" transform="translate(17.000000, 85.000000)">
                <mask id="mask-2" fill="white">
                    <use xlink:href="#path-1"></use>
                </mask>
                <g id="Clip-6"></g>
                <path d="M73.8732067,6.08045625 C73.8732067,8.41726875 57.4308067,10.3127062 37.1464733,10.3127062 C16.8662733,10.3127062 0.421806667,8.41726875 0.421806667,6.08045625 C0.421806667,3.74158125 16.8662733,1.84614375 37.1464733,1.84614375 C57.4308067,1.84614375 73.8732067,3.74158125 73.8732067,6.08045625" id="Fill-5" fill="#DFE0DF" mask="url(#mask-2)"></path>
            </g>
        </g>
    </g>
</svg>