<?xml version="1.0" encoding="UTF-8"?>
<svg width="200px" height="100px" viewBox="0 0 200 100" version="1.1" xmlns="http://www.w3.org/2000/svg" xmlns:xlink="http://www.w3.org/1999/xlink">
    <!-- Generator: Sketch 52 (66869) - http://www.bohemiancoding.com/sketch -->
    <title>imagemaking / servicio ambulancia</title>
    <desc>Created with Sketch.</desc>
    <g id="imagemaking-/-servicio-ambulancia" stroke="none" stroke-width="1" fill="none" fill-rule="evenodd">
        <g id="Imagemaking_ambulancia" transform="translate(27.000000, 4.000000)">
            <path d="M115,68.53 L115,43.71 L104.82,43.71 L104.82,72.6 L114.7,72.6 C116.599799,70.3072968 119.422463,68.9804389 122.4,68.9804389 C125.377537,68.9804389 128.200201,70.3072968 130.1,72.6 L142.55,72.6 L142.55,68.53 L115,68.53 Z" id="Path" fill="#E0E0E0"></path>
            <path d="M60,86.35 C55.8233407,86.3539045 51.9934364,84.0273456 50.071892,80.3189544 C48.1503476,76.6105631 48.4582288,72.1399645 50.87,68.73 C46.35808,70.3710491 43.3995211,74.7117225 43.5216028,79.5112601 C43.6436845,84.3107976 46.8190946,88.4954466 51.4086099,89.9049903 C55.9981252,91.3145341 60.9749792,89.6336295 63.77,85.73 C62.5579236,86.1502971 61.2828402,86.3599925 60,86.35 Z" id="Path" fill="#E0E0E0"></path>
            <path d="M127.77,86.35 C123.593341,86.3539045 119.763436,84.0273456 117.841892,80.3189544 C115.920348,76.6105631 116.228229,72.1399645 118.64,68.73 C114.12808,70.3710491 111.169521,74.7117225 111.291603,79.5112601 C111.413684,84.3107976 114.589095,88.4954466 119.17861,89.9049903 C123.768125,91.3145341 128.744979,89.6336295 131.54,85.73 C130.327924,86.1502971 129.05284,86.3599925 127.77,86.35 Z" id="Path" fill="#E0E0E0"></path>
            <path d="M43.65,79.74 C43.73,79.04 43.81,78.33 43.92,77.63 C44.0743998,76.2202158 44.5205263,74.8579975 45.23,73.63 L45.81,72.88 L33.31,72.88 C30.7750131,72.8800001 28.7200002,74.9350131 28.7200002,77.47 C28.7200002,80.0049869 30.7750131,82.0599999 33.31,82.06 L43.94,82.06 C43.7534909,81.3005665 43.6561671,80.5219762 43.65,79.74 Z" id="Path" fill="#E0E0E0"></path>
            <path d="M143.77,72.9 L130.53,72.9 C132.47,74.54 133.23,77.51 133.34,79.9 C133.365829,80.6228137 133.295208,81.3458458 133.13,82.05 L143.77,82.05 C146.304987,82.05 148.36,79.994987 148.36,77.46 C148.36,74.925013 146.304987,72.87 143.77,72.87 L143.77,72.9 Z" id="Path" fill="#E0E0E0"></path>
            <path d="M111.91,82.08 C111.738704,81.5773882 111.647589,81.0509458 111.64,80.52 C111.375392,78.7333487 111.614345,76.9083057 112.33,75.25 C112.692627,74.4113107 113.159651,73.6217389 113.72,72.9 L63.57,72.9 C64.9322703,74.7097395 65.6850695,76.9051121 65.72,79.17 C65.705037,80.1600401 65.536359,81.1417462 65.22,82.08 L111.91,82.08 Z" id="Path" fill="#E0E0E0"></path>
            <path d="M83.68,66.79 L49.38,66.79 C45.8515761,66.7734861 42.9999614,63.9084625 43,60.38 L43,15.12 L35.13,15.12 C31.5898548,15.12 28.72,17.9898548 28.72,21.53 L28.72,66.53 C28.72,70.0701452 31.5898548,72.94 35.13,72.94 L45.46,72.94 C47.5934889,69.982384 51.0181839,68.2300659 54.665,68.2300659 C58.3118161,68.2300659 61.7365111,69.982384 63.87,72.94 L104.82,72.94 L104.82,66.79 L83.68,66.79 Z" id="Path" fill="#E0E0E0"></path>
            <rect id="Rectangle" fill="#221F1F" x="65.21" y="81.33" width="46.04" height="1.5"></rect>
            <path d="M143.77,82.83 L133.12,82.83 L133.12,81.33 L143.77,81.33 C145.1419,81.3300001 146.409588,80.5981002 147.095538,79.4100001 C147.781488,78.2218999 147.781488,76.7581001 147.095538,75.5699999 C146.409588,74.3818998 145.1419,73.6499999 143.77,73.65 L131.51,73.65 L131.51,72.15 L143.77,72.15 C145.677798,72.1499999 147.440677,73.1677982 148.394576,74.8199999 C149.348475,76.4722017 149.348475,78.5077983 148.394576,80.1600001 C147.440677,81.8122018 145.677798,82.8300001 143.77,82.83 Z" id="Path" fill="#221F1F"></path>
            <path d="M44.11,82.83 L33.31,82.83 C30.3607994,82.83 27.97,80.4392006 27.97,77.49 C27.97,74.5407994 30.3607994,72.15 33.31,72.15 L45.12,72.15 L45.12,73.65 L33.31,73.65 C31.1892266,73.65 29.47,75.3692266 29.47,77.49 C29.47,79.6107734 31.1892266,81.33 33.31,81.33 L44.11,81.33 L44.11,82.83 Z" id="Path" fill="#221F1F"></path>
            <path d="M143.3,73.65 L131.51,73.65 L131.51,72.15 L141.8,72.15 L141.8,52.15 C141.794491,48.0708996 138.4891,44.7655086 134.41,44.76 L104.82,44.76 L104.82,43.26 L134.41,43.26 C139.317527,43.265511 143.294489,47.2424731 143.3,52.15 L143.3,73.65 Z" id="Path" fill="#221F1F"></path>
            <polygon id="Path" fill="#221F1F" points="113.46 73.65 104.07 73.65 104.07 40.4 105.57 40.4 105.57 72.15 113.46 72.15"></polygon>
            <path d="M133.7,44.23 L127.09,23.42 C126.141898,20.3043772 123.256583,18.1841393 120,18.21 L105.56,18.21 L105.56,40.4 L104.06,40.4 L104.06,16.71 L120.06,16.71 C123.957368,16.7151327 127.392628,19.2692444 128.52,23 L135.13,43.81 L133.7,44.23 Z" id="Path" fill="#221F1F"></path>
            <path d="M122.42,91.5 C117.592948,91.5040445 113.239137,88.5988766 111.390035,84.1400346 C109.540933,79.6811926 110.560978,74.5474628 113.97422,71.1342203 C117.387463,67.7209777 122.521193,66.7009333 126.980035,68.5500349 C131.438877,70.3991366 134.344044,74.7529478 134.34,79.58 C134.32899,86.1586682 128.998668,91.4889897 122.42,91.5 Z M122.42,69.15 C118.200551,69.1459545 114.394327,71.6845759 112.77681,75.5816778 C111.159292,79.4787798 112.049169,83.9665479 115.03134,86.9515809 C118.013511,89.9366138 122.500423,90.8307947 126.399075,89.2170165 C130.297727,87.6032384 132.839998,83.7994508 132.84,79.58 C132.834499,73.8258528 128.174139,69.1610206 122.42,69.15 Z" id="Shape" fill="#221F1F" fill-rule="nonzero"></path>
            <path d="M62.74,73 C60.7825654,70.6090949 57.8649416,69.2102665 54.7750972,69.1812992 C51.6852528,69.152332 48.7419161,70.4962139 46.74,72.85 L45.59,71.85 C47.8788204,69.1519728 51.2471338,67.6090596 54.7851008,67.6380276 C58.3230677,67.6669957 61.6656652,69.2648564 63.91,72 L62.74,73 Z" id="Path" fill="#221F1F"></path>
            <path d="M54.67,91.5 C50.024506,91.4984857 45.8023562,88.8004625 43.8493655,84.5854365 C41.8963749,80.3704106 42.5677566,75.4050178 45.57,71.86 L46.72,72.86 C43.1488015,77.058896 43.4656053,83.3127335 47.4428443,87.1292444 C51.4200833,90.9457554 57.6816647,91.0044577 61.7297579,87.2631842 C65.7778511,83.5219108 66.2118484,77.275112 62.72,73.01 L63.91,72 C66.8394938,75.5682538 67.4472197,80.5064426 65.4703008,84.6785117 C63.4933819,88.8505808 59.2867426,91.5075013 54.67,91.5 Z" id="Path" fill="#221F1F"></path>
            <path d="M54.67,83.52 C53.0714652,83.5199949 51.6305233,82.5565227 51.0197289,81.0792808 C50.4089345,79.6020389 50.7487166,77.9022917 51.8804831,76.7733904 C53.0122496,75.6444892 54.7128526,75.3090168 56.1885415,75.9235538 C57.6642304,76.5380908 58.6240469,77.9814703 58.62,79.58 C58.614487,81.7576185 56.8476255,83.520007 54.67,83.52 Z M54.67,77.13 C53.3169024,77.13 52.22,78.2269024 52.22,79.58 C52.22,80.9330976 53.3169024,82.03 54.67,82.03 C56.0230976,82.03 57.12,80.9330976 57.12,79.58 C57.12,78.2269024 56.0230976,77.13 54.67,77.13 Z" id="Shape" fill="#221F1F" fill-rule="nonzero"></path>
            <path d="M122.42,83.52 C120.243898,83.4924457 118.500033,81.7099306 118.520181,79.5337472 C118.540329,77.3575638 120.316899,75.6076426 122.493138,75.6203843 C124.669378,75.633126 126.425335,77.4037299 126.42,79.58 C126.417415,80.6345913 125.993223,81.6443597 125.241898,82.3844144 C124.490574,83.1244691 123.47451,83.5333525 122.42,83.52 Z M122.42,77.13 C121.066902,77.13 119.97,78.2269024 119.97,79.58 C119.97,80.9330976 121.066902,82.03 122.42,82.03 C123.773098,82.03 124.87,80.9330976 124.87,79.58 C124.87,78.2269024 123.773098,77.13 122.42,77.13 Z" id="Shape" fill="#221F1F" fill-rule="nonzero"></path>
            <path d="M118.2,14.63 L108.72,14.63 L108.72,11.93 C108.72,9.31217029 110.84217,7.19 113.46,7.19 C116.07783,7.19 118.2,9.31217029 118.2,11.93 L118.2,14.63 Z M110.2,13.13 L116.68,13.13 L116.68,11.93 C116.68,10.1405974 115.229403,8.69 113.44,8.69 C111.650597,8.69 110.2,10.1405974 110.2,11.93 L110.2,13.13 Z" id="Shape" fill="#221F1F" fill-rule="nonzero"></path>
            <path d="M107.37,5.85 C107.170248,5.85450779 106.977841,5.77464102 106.84,5.63 L104.28,3.07 C103.984528,2.77728907 103.982289,2.30047238 104.275,2.00500006 C104.567711,1.70952775 105.044528,1.70728914 105.34,2 L107.9,4.56 C108.192453,4.85281755 108.192453,5.32718245 107.9,5.62 C107.761797,5.76531472 107.570534,5.84831571 107.37,5.85 Z" id="Path" fill="#221F1F"></path>
            <path d="M113.46,5.12 C113.048038,5.11461419 112.715386,4.78196206 112.71,4.37 L112.71,0.75 C112.71,0.335786438 113.045786,7.6089797e-17 113.46,0 C113.874214,-7.6089797e-17 114.21,0.335786438 114.21,0.75 L114.21,4.37 C114.204614,4.78196206 113.871962,5.11461419 113.46,5.12 Z" id="Path" fill="#221F1F"></path>
            <path d="M119.48,5.85 C119.280934,5.85093992 119.089884,5.77163629 118.95,5.63 C118.657547,5.33718245 118.657547,4.86281755 118.95,4.57 L121.51,2 C121.80551,1.72464114 122.26601,1.73276612 122.551622,2.0183782 C122.837234,2.30399028 122.845359,2.76449025 122.57,3.06 L120,5.63 C119.863191,5.77011127 119.675825,5.84938136 119.48,5.85 Z" id="Path" fill="#221F1F"></path>
            <path d="M64.36,30.58 L69.08,30.58 C70.3668235,30.58 71.41,31.6231765 71.41,32.91 L71.41,39.18 L78.11,39.18 C79.3968235,39.18 80.44,40.2231765 80.44,41.51 L80.44,46.1 C80.44,47.3868235 79.3968235,48.43 78.11,48.43 L71.41,48.43 L71.41,55.11 C71.4100057,55.7270388 71.1642056,56.3186604 70.726956,56.7540334 C70.2897064,57.1894064 69.6970331,57.4326596 69.08,57.43 L64.36,57.43 C63.7377967,57.4407292 63.1373672,57.2010462 62.6935929,56.7647934 C62.2498186,56.3285407 61.9999075,55.7322958 62,55.11 L62,48.43 L55.43,48.43 C54.1470835,48.4244939 53.1099882,47.3829283 53.11,46.1 L53.11,41.51 C53.1073404,40.8929669 53.3505936,40.3002936 53.7859666,39.863044 C54.2213396,39.4257944 54.8129612,39.1799943 55.43,39.18 L62,39.18 L62,32.91 C61.9972173,32.285972 62.2459438,31.6871346 62.6900161,31.2487073 C63.1340884,30.81028 63.7360587,30.5692346 64.36,30.58 Z" id="Path" fill="#8DB602"></path>
            <path d="M105.57,73.65 L63.32,73.65 L63.32,72.15 L104.07,72.15 L104.07,21.54 C104.064496,18.4163511 101.533649,15.8855042 98.41,15.88 L35.13,15.88 C32.0063511,15.8855042 29.4755042,18.4163511 29.47,21.54 L29.47,66.54 C29.4755042,69.6636489 32.0063511,72.1944958 35.13,72.2 L46.13,72.2 L46.13,73.7 L35.13,73.7 C33.2283885,73.6894209 31.408868,72.9238476 30.0717272,71.5717038 C28.7345865,70.2195601 27.9893617,68.3916111 28,66.49 L28,21.49 C28.0055081,17.537925 31.207925,14.3355081 35.16,14.33 L98.41,14.33 C102.362075,14.3355081 105.564492,17.537925 105.57,21.49 L105.57,73.65 Z" id="Path" fill="#221F1F"></path>
            <path d="M143.3,60 L137.12,60 C135.072603,59.8955532 133.46615,58.2050599 133.46615,56.155 C133.46615,54.1049401 135.072603,52.4144468 137.12,52.31 L143.3,52.31 L143.3,60 Z M137.12,53.81 C135.884246,53.8907406 134.923216,54.9166111 134.923216,56.155 C134.923216,57.3933889 135.884246,58.4192594 137.12,58.5 L141.8,58.5 L141.8,53.76 L137.12,53.81 Z" id="Shape" fill="#221F1F" fill-rule="nonzero"></path>
            <path d="M23.37,57.17 L14,57.17 C13.5857864,57.17 13.25,56.8342136 13.25,56.42 C13.25,56.0057864 13.5857864,55.67 14,55.67 L23.33,55.67 C23.7442136,55.67 24.08,56.0057864 24.08,56.42 C24.08,56.8342136 23.7442136,57.17 23.33,57.17 L23.37,57.17 Z" id="Path" fill="#303030"></path>
            <path d="M16.64,66.55 L0.75,66.55 C0.335786438,66.55 5.07265313e-17,66.2142136 0,65.8 C-5.07265313e-17,65.3857864 0.335786438,65.05 0.75,65.05 L16.64,65.05 C17.0542136,65.05 17.39,65.3857864 17.39,65.8 C17.39,66.2142136 17.0542136,66.55 16.64,66.55 Z" id="Path" fill="#303030"></path>
            <path d="M22.77,73.38 L10.5,73.38 C10.084174,73.3745281 9.749964,73.035862 9.75,72.62 C9.75547119,72.2096969 10.0896605,71.8799635 10.5,71.88 L22.77,71.88 C23.1803395,71.8799635 23.5145288,72.2096969 23.52,72.62 C23.520036,73.035862 23.185826,73.3745281 22.77,73.38 Z" id="Path" fill="#303030"></path>
        </g>
    </g>
</svg>