<?xml version="1.0" encoding="UTF-8"?>
<svg width="200px" height="100px" viewBox="0 0 200 100" version="1.1" xmlns="http://www.w3.org/2000/svg" xmlns:xlink="http://www.w3.org/1999/xlink">
    <!-- Generator: Sketch 52.2 (67145) - http://www.bohemiancoding.com/sketch -->
    <title>imagemaking / SOAT@1x</title>
    <desc>Created with Sketch.</desc>
    <defs>
        <polygon id="path-1" points="0 0.0858634615 87.3780696 0.0858634615 87.3780696 97.0961538 0 97.0961538"></polygon>
    </defs>
    <g id="imagemaking-/-SOAT" stroke="none" stroke-width="1" fill="none" fill-rule="evenodd">
        <g id="Group-28" transform="translate(56.000000, 1.000000)">
            <path d="M26.2295478,92.9272019 L26.2295478,91.2518173 L17.4199826,91.2518173 L17.4199826,85.9952981 C17.4199826,81.2528173 13.5575478,77.4089519 8.79215652,77.4089519 L8.79215652,56.8854904 C8.79215652,55.3033942 9.2665913,53.8393365 10.0528522,52.5923173 L9.09633043,52.5923173 C4.60067826,52.5923173 0.956330435,56.2191442 0.956330435,60.6931827 L0.956330435,95.0595096 L26.6236348,95.0595096 L26.2295478,92.9272019 Z" id="Fill-1" fill="#DFE0DF"></path>
            <path d="M66.9957391,77.0782538 C66.9957391,73.4609462 70.6094783,70.5290231 75.0687826,70.5290231 L67.1813043,70.5290231 C62.723913,70.5290231 59.1082609,73.4609462 59.1082609,77.0782538 C59.1082609,80.6955615 62.723913,83.6274846 67.1813043,83.6274846 L75.0687826,83.6274846 C70.6094783,83.6274846 66.9957391,80.6955615 66.9957391,77.0782538" id="Fill-3" fill="#DFE0DF"></path>
            <path d="M64.8548522,90.3345442 C64.8548522,86.7172365 68.4685913,83.7853135 72.9259826,83.7853135 L65.0404174,83.7853135 C60.581113,83.7853135 56.9673739,86.7172365 56.9673739,90.3345442 C56.9673739,93.9518519 60.581113,96.883775 65.0404174,96.883775 L72.9259826,96.883775 C68.4685913,96.883775 64.8548522,93.9518519 64.8548522,90.3345442" id="Fill-5" fill="#DFE0DF"></path>
            <path d="M66.9957391,50.8798077 C66.9957391,47.2625 70.6094783,44.3305769 75.0687826,44.3305769 L67.1813043,44.3305769 C62.723913,44.3305769 59.1082609,47.2625 59.1082609,50.8798077 C59.1082609,54.4971154 62.723913,57.4290385 67.1813043,57.4290385 L75.0687826,57.4290385 C70.6094783,57.4290385 66.9957391,54.4971154 66.9957391,50.8798077" id="Fill-7" fill="#DFE0DF"></path>
            <path d="M69.1366261,63.9790308 C69.1366261,60.3617231 72.7522783,57.4298 77.2096696,57.4298 L69.3221913,57.4298 C64.8648,57.4298 61.2510609,60.3617231 61.2510609,63.9790308 C61.2510609,67.5963385 64.8648,70.5282615 69.3221913,70.5282615 L77.2096696,70.5282615 C72.7522783,70.5282615 69.1366261,67.5963385 69.1366261,63.9790308" id="Fill-9" fill="#DFE0DF"></path>
            <path d="M49.6474957,84.2938308 C49.6474957,87.0448885 47.4054087,89.2742923 44.6429739,89.2742923 C41.876713,89.2742923 39.6384522,87.0448885 39.6384522,84.2938308 C39.6384522,81.5427731 41.876713,79.3133692 44.6429739,79.3133692 C47.4054087,79.3133692 49.6474957,81.5427731 49.6474957,84.2938308" id="Fill-11" fill="#DFE0DF"></path>
            <path d="M61.972087,95.0587481 C60.567913,94.0992096 59.5406087,92.7646135 58.892087,91.2510558 L41.2729565,91.2510558 C37.6094783,91.2510558 34.6117391,88.2677288 34.6117391,84.6218635 L34.6117391,74.2858827 L20.9851304,74.2858827 C21.2146957,74.6095365 21.4270435,74.9484212 21.5973043,75.3120558 C22.8484348,77.9869596 23.87,80.593325 24.3769565,83.4966904 C24.7825217,85.815575 25.0178261,88.1496904 25.5228696,90.4514404 C25.8767826,92.0544788 25.8270435,93.6080173 25.496087,95.0587481 L61.972087,95.0587481 Z" id="Fill-13" fill="#DFE0DF"></path>
            <path d="M25.7141739,28.14065 C26.2173043,27.94265 27.1585217,27.9198038 27.7726087,28.2339385 C28.0825217,28.3919577 28.3101739,28.5918615 28.4746957,28.8450731 L28.7788696,29.3191308 L30.8870435,27.4114769 L30.600087,27.0611692 C30.075913,26.4233808 29.4541739,25.9950154 28.755913,25.7855923 C27.3651304,25.3667462 25.7141739,25.3934 24.6046087,25.86365 C24.0230435,26.1130538 23.5371304,26.4290923 23.164087,26.8003423 C22.7833913,27.1811115 22.4983478,27.6075731 22.3185217,28.0702077 C22.1425217,28.5271308 22.0526087,28.9688231 22.0526087,29.3819577 C22.0526087,30.2634385 22.2305217,30.9849962 22.5786957,31.5275923 C22.9153913,32.05115 23.343913,32.4757077 23.8451304,32.7860346 C24.3272174,33.0868423 24.8590435,33.3210154 25.4214783,33.4885538 C25.9341739,33.6389577 26.4086087,33.7969769 26.8447826,33.9588038 C27.2388696,34.1073038 27.5698261,34.2900731 27.8261739,34.5033038 C27.9466957,34.6004 28.1035652,34.7793615 28.1035652,35.2134385 C28.1035652,35.4628423 28.051913,35.6722654 27.9466957,35.8512269 C27.828087,36.0492269 27.6788696,36.2110538 27.4952174,36.3481308 C27.302,36.4871115 27.0858261,36.5937269 26.8486087,36.6641692 C26.1446087,36.8735923 25.5133043,36.7822077 24.8877391,36.4985346 C24.4974783,36.3214769 24.1875652,36.0511308 23.9350435,35.6760731 L23.6366087,35.2248615 L21.5207826,37.0354192 L21.7771304,37.3895346 C22.2477391,38.0387462 22.8847826,38.5242269 23.6729565,38.8307462 C24.4305217,39.1277462 25.2416522,39.27815 26.0853043,39.27815 C26.7204348,39.27815 27.3326087,39.1829577 27.9007826,38.9963808 C28.4804348,38.8021885 28.9893043,38.5242269 29.412087,38.1644 C29.8425217,37.8007654 30.1906957,37.34765 30.4451304,36.8164769 C30.6995652,36.2834 30.8296522,35.6798808 30.8296522,35.0230538 C30.8296522,34.1929769 30.647913,33.5171115 30.2901739,33.0144962 C29.9496522,32.5385346 29.5211304,32.1539577 29.0141739,31.8721885 C28.534,31.60565 28.006,31.3962269 27.4473913,31.2515346 C26.9385217,31.1163615 26.464087,30.9659577 26.0432174,30.8003231 C25.6548696,30.6518231 25.3296522,30.4557269 25.0752174,30.2234577 C24.8743478,30.0387846 24.7786957,29.7646308 24.7786957,29.3819577 C24.7786957,29.2505923 24.8073913,29.0982846 24.8647826,28.9307462 C24.9164348,28.7803423 25.0082609,28.6375538 25.146,28.4966692 C25.2818261,28.3557846 25.4731304,28.2377462 25.7141739,28.14065 Z" id="Fill-15" fill="#8DB602"></path>
            <path d="M42.598887,32.3833712 C42.598887,32.9906981 42.4974957,33.5713712 42.2985391,34.1082558 C42.1014957,34.6394288 41.8202783,35.1058712 41.4568,35.4961596 C41.1009739,35.8826404 40.662887,36.196775 40.1578435,36.4290442 C39.1515826,36.8859673 37.7416696,36.8859673 36.7392348,36.4290442 C36.2322783,36.196775 35.7941913,35.8826404 35.4364522,35.4942558 C35.0768,35.107775 34.7936696,34.6413327 34.594713,34.1082558 C34.3976696,33.5713712 34.2962783,32.9906981 34.2962783,32.3833712 C34.2962783,31.7779481 34.3976696,31.197275 34.594713,30.6603904 C34.7936696,30.1273135 35.0768,29.6608712 35.4364522,29.2724865 C35.7961043,28.8841019 36.2341913,28.5699673 36.7392348,28.3376981 C37.2385391,28.1092365 37.8143652,27.9931019 38.4475826,27.9931019 C39.0808,27.9931019 39.6566261,28.1092365 40.1559304,28.3376981 C40.6609739,28.5699673 41.0990609,28.8841019 41.458713,29.2724865 C41.8202783,29.6608712 42.1014957,30.1273135 42.2985391,30.6603904 C42.4974957,31.1953712 42.598887,31.7760442 42.598887,32.3833712 M44.8103652,29.6684865 C44.4717565,28.8346019 43.9954087,28.0997173 43.394713,27.4790635 C42.7921043,26.8622173 42.0594087,26.3691212 41.2157565,26.0169096 C39.5303652,25.3162942 37.3648,25.3162942 35.6794087,26.0169096 C34.8376696,26.3672173 34.106887,26.8603135 33.5004522,27.4790635 C32.8997565,28.0997173 32.4234087,28.8346019 32.0848,29.6684865 C31.7423652,30.5023712 31.5701913,31.4162173 31.5701913,32.3833712 C31.5701913,33.3524288 31.7423652,34.266275 32.0848,35.0982558 C32.4234087,35.9340442 32.8997565,36.6708327 33.5004522,37.2895827 C34.106887,37.9083327 34.8376696,38.399525 35.6794087,38.7498327 C36.5192348,39.1001404 37.4528,39.2791019 38.4475826,39.2791019 C39.4442783,39.2791019 40.3759304,39.1001404 41.2157565,38.7498327 C42.0594087,38.399525 42.7921043,37.9064288 43.394713,37.2876788 C43.9954087,36.6708327 44.4717565,35.9340442 44.8103652,35.1001596 C45.150887,34.2681788 45.3230609,33.3543327 45.3230609,32.3833712 C45.3230609,31.4143135 45.150887,30.5004673 44.8103652,29.6684865" id="Fill-17" fill="#8DB602"></path>
            <path d="M53.3597565,33.5471923 L50.1362783,33.5471923 L51.7604522,29.6290769 L53.3597565,33.5471923 Z M50.7733217,25.8004423 L44.9442783,38.9674423 L47.9420174,38.9674423 L49.1568,35.9479423 L54.3564522,35.9479423 L55.5846261,38.9674423 L58.574713,38.9674423 L52.9121043,25.8004423 L50.7733217,25.8004423 Z" id="Fill-19" fill="#8DB602"></path>
            <polygon id="Fill-21" fill="#8DB602" points="55.9844522 25.7998712 55.9844522 28.3034288 59.9368 28.3034288 59.9368 38.968775 62.5595826 38.968775 62.5595826 28.3034288 66.5119304 28.3034288 66.5119304 25.7998712"></polygon>
            <g id="Group-25" transform="translate(0.000000, 0.818363)">
                <mask id="mask-2" fill="white">
                    <use xlink:href="#path-1"></use>
                </mask>
                <g id="Clip-24"></g>
                <path d="M76.2078087,81.9360173 L68.0544174,81.9360173 C64.1326783,81.9360173 60.9398087,79.4248442 60.9398087,76.3387096 C60.9398087,73.2506712 64.1326783,70.7414019 68.0544174,70.7414019 L70.195113,70.7414019 L76.2078087,70.7414019 C80.1314609,70.7414019 83.3224174,73.2506712 83.3224174,76.3387096 C83.3224174,79.4248442 80.1314609,81.9360173 76.2078087,81.9360173 Z M81.1817217,89.5932865 C81.1817217,92.681325 77.9888522,95.1924981 74.0652,95.1924981 L65.9137217,95.1924981 C61.9900696,95.1924981 58.7972,92.681325 58.7972,89.5932865 C58.7972,86.5071519 61.9900696,83.9959788 65.9137217,83.9959788 L74.0652,83.9959788 C77.9888522,83.9959788 81.1817217,86.5071519 81.1817217,89.5932865 Z M27.1860696,92.7689019 L27.1860696,89.4961904 C27.1860696,83.1544788 25.4088522,78.4519788 23.1667652,75.0288635 L58.7704174,75.0288635 C58.927287,75.0288635 59.0688522,74.9812673 59.1989391,74.9146327 C59.0918087,75.3772673 59.0267652,75.851325 59.0267652,76.3387096 C59.0267652,78.9108058 60.5954609,81.1820942 62.9772,82.533825 C59.4438087,83.5523827 56.8841565,86.3167673 56.8841565,89.5932865 C56.8841565,90.7336904 57.215113,91.8017481 57.7622435,92.7689019 L27.1860696,92.7689019 Z M17.3147652,68.9270365 L22.2925043,68.9270365 C27.3085043,68.9270365 31.3890261,64.8661327 31.3890261,59.8742481 C31.3890261,54.8823635 27.3085043,50.8214596 22.2925043,50.8214596 L12.991287,50.8214596 L12.991287,6.88069038 C12.991287,4.18294038 15.195113,1.98970962 17.9058957,1.98970962 L68.2132,1.98970962 C70.9239826,1.98970962 73.1297217,4.18294038 73.1297217,6.88069038 L73.1297217,42.636825 L68.0544174,42.636825 C63.0766783,42.636825 59.0267652,46.002825 59.0267652,50.1398827 C59.0267652,53.3669019 61.5041565,56.100825 64.9533739,57.1555558 C62.671113,58.5187096 61.1693739,60.729075 61.1693739,63.2383442 C61.1693739,65.7476135 62.671113,67.9579788 64.9533739,69.3211327 C62.5065913,70.0712481 60.5648522,71.6628635 59.6370261,73.6847481 C59.4878087,73.3553827 59.1587652,73.1250173 58.7704174,73.1250173 L21.7759826,73.1250173 C20.2608522,71.2649596 18.6634609,69.886575 17.3147652,68.9270365 Z M83.3224174,50.1398827 C83.3224174,53.2260173 80.1314609,55.7371904 76.2078087,55.7371904 L70.195113,55.7371904 L68.0544174,55.7371904 C64.1326783,55.7371904 60.9398087,53.2260173 60.9398087,50.1398827 C60.9398087,47.0518442 64.1326783,44.5406712 68.0544174,44.5406712 L76.2078087,44.5406712 C80.1314609,44.5406712 83.3224174,47.0518442 83.3224174,50.1398827 Z M78.3485043,57.6410365 C82.2721565,57.6410365 85.4650261,60.1522096 85.4650261,63.2383442 C85.4650261,66.3263827 82.2721565,68.8375558 78.3485043,68.8375558 L76.2078087,68.8375558 L70.195113,68.8375558 C66.2733739,68.8375558 63.0824174,66.3263827 63.0824174,63.2383442 C63.0824174,60.1522096 66.2733739,57.6410365 70.195113,57.6410365 L76.2078087,57.6410365 L78.3485043,57.6410365 Z M85.2354609,76.3387096 C85.2354609,73.8294404 83.7337217,71.619075 81.4495478,70.2559212 C84.8987652,69.2011904 87.3780696,66.4672673 87.3780696,63.2383442 C87.3780696,60.011325 84.8987652,57.2774019 81.4495478,56.2207673 C83.7337217,54.8576135 85.2354609,52.6472481 85.2354609,50.1398827 C85.2354609,46.002825 81.1855478,42.636825 76.2078087,42.636825 L75.0427652,42.636825 L75.0427652,6.88069038 C75.0427652,3.13392115 71.9780696,0.0858634615 68.2132,0.0858634615 L17.9058957,0.0858634615 C14.1429391,0.0858634615 11.0782435,3.13392115 11.0782435,6.88069038 L11.0782435,50.8214596 L9.09633043,50.8214596 C4.08033043,50.8214596 -0.000191304348,54.8823635 -0.000191304348,59.8742481 L-0.000191304348,94.240575 C-0.000191304348,94.7660365 0.428330435,95.1924981 0.956330435,95.1924981 C1.48433043,95.1924981 1.91285217,94.7660365 1.91285217,94.240575 L1.91285217,59.8742481 C1.91285217,55.9332865 5.13633043,52.7253058 9.09633043,52.7253058 L22.2925043,52.7253058 C26.2544174,52.7253058 29.4759826,55.9332865 29.4759826,59.8742481 C29.4759826,63.8152096 26.2544174,67.0231904 22.2925043,67.0231904 L15.3060696,67.0231904 C14.6996348,67.0231904 14.1850261,67.4153827 14.0281565,67.9979596 C13.871287,68.5786327 14.1199826,69.1745365 14.6441565,69.4772481 C16.0177217,70.2635365 18.1718087,71.7561519 20.1843304,74.1911712 C20.2283304,74.5452865 20.4540696,74.836575 20.779287,74.960325 C23.203113,78.1873442 25.2730261,82.8669981 25.2730261,89.4961904 L25.2730261,94.6727481 L59.3003304,94.6727481 C59.3041565,94.6727481 59.3060696,94.6708442 59.3079826,94.6708442 C60.9589391,96.1520365 63.2985913,97.0963442 65.9137217,97.0963442 L74.0652,97.0963442 C79.0429391,97.0963442 83.0947652,93.7303442 83.0947652,89.5932865 C83.0947652,87.0211904 81.5241565,84.7499019 79.1424174,83.3981712 C82.6758087,82.3796135 85.2354609,79.6152288 85.2354609,76.3387096 Z" id="Fill-23" fill="#231F20" mask="url(#mask-2)"></path>
            </g>
            <path d="M44.6425913,88.32275 C42.4100696,88.32275 40.5945913,86.516 40.5945913,84.2942115 C40.5945913,82.0724231 42.4100696,80.2656731 44.6425913,80.2656731 C46.875113,80.2656731 48.6905913,82.0724231 48.6905913,84.2942115 C48.6905913,86.516 46.875113,88.32275 44.6425913,88.32275 M44.6425913,78.3618269 C41.3540696,78.3618269 38.6815478,81.0234038 38.6815478,84.2942115 C38.6815478,87.5650192 41.3540696,90.2265962 44.6425913,90.2265962 C47.931113,90.2265962 50.6036348,87.5650192 50.6036348,84.2942115 C50.6036348,81.0234038 47.931113,78.3618269 44.6425913,78.3618269" id="Fill-26" fill="#231F20"></path>
        </g>
    </g>
</svg>