<?xml version="1.0" encoding="UTF-8"?>
<svg width="200px" height="100px" viewBox="0 0 200 100" version="1.1" xmlns="http://www.w3.org/2000/svg" xmlns:xlink="http://www.w3.org/1999/xlink">
    <!-- Generator: Sketch 53.2 (72643) - https://sketchapp.com -->
    <title>imagemaking / reembolso 3@1x</title>
    <desc>Created with Sketch.</desc>
    <g id="imagemaking-/-reembolso-3" stroke="none" stroke-width="1" fill="none" fill-rule="evenodd">
        <g id="Group-11" transform="translate(69.000000, 5.000000)">
            <path d="M25.1022957,11.7367129 L25.1022957,8.61344554 C25.1022957,4.89582178 28.0921797,1.88215842 31.7804696,1.88215842 L34.4653536,1.88215842 C34.4653536,1.35017822 34.5705565,0.845821782 34.7261507,0.365524752 C34.3822522,0.288 34.028629,0.240772277 33.6617449,0.240772277 L27.9480783,0.240772277 C25.2481652,0.240772277 23.0601217,2.44621782 23.0601217,5.16760396 L20.3743536,5.16760396 C16.6869478,5.16760396 13.6979478,8.18126733 13.6979478,11.898 L13.6979478,15.0212673 L47.9127594,15.0212673 L47.9127594,11.898 C47.9127594,11.8427525 47.8977304,11.7919604 47.8959623,11.7367129 L25.1022957,11.7367129 Z" id="Fill-1" fill="#DFE0DF"></path>
            <path d="M20.3297971,84.4231188 C16.7307971,84.4231188 13.8125217,81.4816337 13.8125217,77.8540099 L13.8125217,17.0897525 C13.8125217,16.5203465 13.9071159,15.9758911 14.0432609,15.4483663 L7.29524638,15.4483663 C3.69624638,15.4483663 0.312072464,15.4483663 0.778855072,22.0174752 L0.778855072,82.7799505 C0.778855072,86.4084653 0.735573973,89.3490594 7.29524638,89.3490594 L54.5446087,89.3490594 C60.3166232,89.3490594 60.1044493,87.2514356 60.8311449,84.4231188 L20.3297971,84.4231188 Z" id="Fill-3" fill="#DFE0DF"></path>
            <path d="M30.8046464,11.8855248 C29.0639362,11.8855248 27.6538638,10.4633465 27.6538638,8.70968317 C27.6538638,6.95512871 29.0639362,5.5329505 30.8046464,5.5329505 C32.5453565,5.5329505 33.955429,6.95512871 33.955429,8.70968317 C33.955429,10.4633465 32.5453565,11.8855248 30.8046464,11.8855248 Z M41.2347623,5.59443564 L38.5498783,5.59443564 C38.5498783,2.87394059 36.3609507,0.66760396 33.6610377,0.66760396 L27.9482551,0.66760396 C25.248342,0.66760396 23.0602986,2.87394059 23.0602986,5.59443564 L20.3745304,5.59443564 C16.6871246,5.59443564 13.6972406,8.60809901 13.6972406,12.3257228 L13.6972406,15.448099 L47.9129362,15.448099 L47.9129362,12.3257228 C47.9129362,8.60809901 44.9230522,5.59443564 41.2347623,5.59443564 Z" id="Stroke-5" stroke="#000000" stroke-width="1.33663366"></path>
            <path d="M57.4101058,89.3493267 L4.19954058,89.3493267 C2.24665652,89.3493267 0.663308696,87.7533861 0.663308696,85.7849703 L0.663308696,19.012099 C0.663308696,17.0436832 2.24665652,15.4477426 4.19954058,15.4477426 L57.4101058,15.4477426 C59.3638739,15.4477426 60.9463377,17.0436832 60.9463377,19.012099 L60.9463377,85.7849703 C60.9463377,87.7533861 59.3638739,89.3493267 57.4101058,89.3493267 Z" id="Stroke-7" stroke="#000000" stroke-width="1.33663366"></path>
            <path d="M28.4382,37.0962178 L33.0750841,37.0962178 C34.3375188,37.0962178 35.361258,38.128099 35.361258,39.4014653 L35.361258,45.6096832 L41.9421855,45.6096832 C43.2055043,45.6096832 44.2292435,46.6415644 44.2292435,47.9149307 L44.2292435,52.4585941 C44.2292435,53.7319604 43.2055043,54.7638416 41.9421855,54.7638416 L35.361258,54.7638416 L35.361258,61.377505 C35.361258,62.6508713 34.3375188,63.6827525 33.0750841,63.6827525 L28.4382,63.6827525 C27.1748812,63.6827525 26.151142,62.6508713 26.151142,61.377505 L26.151142,54.7638416 L19.6665768,54.7638416 C18.404142,54.7638416 17.3804029,53.7319604 17.3804029,52.4585941 L17.3804029,47.9149307 C17.3804029,46.6415644 18.404142,45.6096832 19.6665768,45.6096832 L26.151142,45.6096832 L26.151142,39.4014653 C26.151142,38.128099 27.1748812,37.0962178 28.4382,37.0962178" id="Fill-9" fill="#8DB602"></path>
        </g>
    </g>
</svg>