<svg width="200" height="100" viewBox="0 0 38 34" fill="none" xmlns="http://www.w3.org/2000/svg">
<g clip-path="url(#clip0)">
<path d="M35.0511 15.4424H29.6896V18.2562H35.0511V15.4424Z" stroke="#979797" stroke-linecap="round"/>
<path d="M35.0511 27.3675H29.6896V30.1813H35.0511V27.3675Z" fill="white"/>
<path d="M8.2769 15.4424H2.91534V18.2562H8.2769V15.4424Z" fill="#F7F8F9"/>
<path d="M35.0511 21.405H29.6896V24.2188H35.0511V21.405Z" stroke="#979797" stroke-linecap="round"/>
<path d="M8.2769 21.405H2.91534V24.2188H8.2769V21.405Z" fill="#F7F8F9"/>
<path d="M27.9471 11.8581H36.8607C37.3633 11.8581 37.7654 12.2601 37.7654 12.7625V33.732H27.0423V12.7625C27.0423 12.528 27.1429 12.2936 27.3104 12.1261C27.478 11.9586 27.7125 11.8581 27.9471 11.8581Z" stroke="#979797" stroke-linecap="round"/>
<path d="M1.14001 11.8581H10.0536C10.5562 11.8581 10.9583 12.2601 10.9583 12.7625V33.732H0.268753V12.7625C0.268753 12.2601 0.63736 11.8581 1.14001 11.8581Z" stroke="#979797" stroke-linecap="round"/>
<path d="M11.8289 0.268015H26.1376C26.6402 0.268015 27.0423 0.669985 27.0423 1.17245V33.7656H10.9577V1.13895C10.9577 0.904468 11.0582 0.669985 11.2257 0.502498C11.3933 0.33501 11.5944 0.234517 11.8289 0.268015Z" stroke="#979797" stroke-linecap="round"/>
<path d="M23.0212 22.3094H14.9453V33.7656H23.0212V22.3094Z" stroke="#979797" stroke-linecap="round"/>
<path d="M19 33.7656V22.3094" stroke="#979797" stroke-linecap="round"/>
<path d="M35.0511 15.4424H29.6896V18.2562H35.0511V15.4424Z" stroke="#979797" stroke-linecap="round"/>
<path d="M35.0511 27.3675H29.6896V30.1813H35.0511V27.3675Z" stroke="#979797" stroke-linecap="round"/>
<path d="M8.2769 15.4424H2.91534V18.2562H8.2769V15.4424Z" stroke="#979797" stroke-linecap="round"/>
<path d="M8.2769 27.3675H2.91534V30.1813H8.2769V27.3675Z" stroke="#979797" stroke-linecap="round"/>
<path d="M35.0511 21.405H29.6896V24.2188H35.0511V21.405Z" stroke="#979797" stroke-linecap="round"/>
<path d="M8.2769 21.405H2.91534V24.2188H8.2769V21.405Z" stroke="#979797" stroke-linecap="round"/>
<path d="M18.9175 4.75665H20.66C20.8945 4.75665 21.0956 4.85715 21.2631 5.02463C21.4307 5.19212 21.4977 5.39311 21.4977 5.62759V7.97242H23.9774C24.212 7.97242 24.413 8.07291 24.5806 8.2404C24.7481 8.40788 24.8152 8.60887 24.8152 8.84335V10.5517C24.8152 10.7862 24.7146 10.9872 24.5806 11.1547C24.413 11.3222 24.212 11.4227 23.9774 11.4227H21.5312V13.935C21.5312 14.4039 21.1626 14.8059 20.6935 14.8059H18.9175C18.6829 14.8059 18.4818 14.7054 18.3143 14.5379C18.1467 14.3704 18.0797 14.1695 18.0797 13.935V11.4227H15.667C15.4325 11.4227 15.2314 11.3222 15.0638 11.1547C14.8963 10.9872 14.8293 10.7862 14.8293 10.5517V8.84335C14.8293 8.60887 14.9298 8.40788 15.0638 8.2404C15.2314 8.07291 15.4325 7.97242 15.667 7.97242H18.0797V5.62759C18.0797 5.15862 18.4483 4.75665 18.9175 4.75665Z" fill="#8DB602"/>
</g>
<defs>
<clipPath id="clip0">
<rect width="38" height="34" fill="white"/>
</clipPath>
</defs>
</svg>
