<?xml version="1.0" encoding="UTF-8"?>
<svg width="200px" height="100px" viewBox="0 0 200 100" version="1.1" xmlns="http://www.w3.org/2000/svg" xmlns:xlink="http://www.w3.org/1999/xlink">
    <!-- Generator: Sketch 52.2 (67145) - http://www.bohemiancoding.com/sketch -->
    <title>imagemaking / poliza vigente vehicular</title>
    <desc>Created with Sketch.</desc>
    <g id="imagemaking-/-poliza-vigente-vehicular" stroke="none" stroke-width="1" fill="none" fill-rule="evenodd">
        <g id="imagemaking-/-confirmacion_ok" transform="translate(32.000000, 0.000000)">
            <path d="M35.9285437,9.03742574 L35.9285437,42.8346535 C35.9285437,72.3092079 67.6601942,79.9155446 67.6601942,79.9155446 C67.6601942,79.9155446 99.431068,73.7893069 99.431068,42.8346535 L99.431068,9.03742574 L92.8807767,11.1154455 C85.319279,13.5083451 77.0569224,11.2401583 71.7786408,5.32247525 L67.6601942,0.735148515 L62.8553398,5.80277228 C57.4792625,11.4453722 49.3286075,13.480328 41.9297087,11.0272277 L35.9285437,9.03742574 Z" id="Path" fill="#FFFFFF"></path>
            <path d="M43.6947573,11.1154455 C44.4040114,11.324556 45.124182,11.4947114 45.8520388,11.6251485 L45.8520388,34.3069307 C45.8520388,65.2615842 77.603301,71.3780198 77.603301,71.3780198 C83.4764926,69.7439182 89.0162513,67.0895927 93.9692233,63.5364356 C84.6536893,76.0829703 68.8859223,79.8763366 68.8859223,79.8763366 C68.8859223,79.8763366 37.1346602,73.7893069 37.1346602,42.8346535 L37.1346602,9.03742574 L43.6947573,11.1154455 Z" id="Path" fill="#E0E0E0"></path>
            <path d="M67.5259223,80.6506931 L67.3592233,80.6506931 C67.0356311,80.5722772 35,72.5640594 35,42.8542574 L35,9.03742574 C35.0023049,8.80159017 35.1147627,8.5803892 35.3039806,8.43950495 C35.4973075,8.30095937 35.7457329,8.26444056 35.9707767,8.34148515 L41.9719417,10.3018812 C49.1091213,12.674507 56.9751014,10.7288123 62.1817476,5.30287129 L67.0160194,0.225445545 C67.1471492,0.0825762005 67.3319586,0.000865661803 67.5259223,0 C67.7315851,0.00482991359 67.926372,0.0933346846 68.0652427,0.245049505 L72.1640777,4.83237624 C77.2525292,10.5265155 85.2081044,12.7093168 92.4915534,10.409703 L99.0516505,8.34148515 C99.2747611,8.26364171 99.5221417,8.30424051 99.7086408,8.44930693 C99.8950638,8.58710854 100.004385,8.80566487 100.002816,9.03742574 L100.002816,42.8346535 C100.002816,74.0343564 67.9769903,80.5722772 67.6435922,80.6408911 L67.5259223,80.6506931 Z M36.5100971,10.0764356 L36.5100971,42.8346535 C36.5100971,70.280198 65.1627184,78.5236634 67.545534,79.1607921 C69.9283495,78.6314851 98.5417476,71.7112871 98.5417476,42.8346535 L98.5417476,10.0470297 L93.021068,11.8113861 C85.168555,14.3107321 76.5799276,11.9609204 71.0952427,5.81257426 L67.5259223,1.82316832 L63.2505825,6.31247525 C57.6763345,12.1505238 49.2437204,14.2702411 41.5699029,11.7623762 L36.5100971,10.0764356 Z" id="Shape" fill="#303030" fill-rule="nonzero"></path>
            <path d="M29.2605825,63.879505 L19.1213592,63.879505 C18.7151886,63.879505 18.3859223,63.5503677 18.3859223,63.1443564 C18.3859223,62.7383451 18.7151886,62.4092079 19.1213592,62.4092079 L29.2605825,62.4092079 C29.6667531,62.4092079 29.9960194,62.7383451 29.9960194,63.1443564 C29.9960194,63.5503677 29.6667531,63.879505 29.2605825,63.879505 Z" id="Path" fill="#303030"></path>
            <path d="M23.7791262,70.9369307 L0.735436893,70.9369307 C0.329266313,70.9369307 4.97415501e-17,70.6077935 0,70.2017822 C-4.97415501e-17,69.7957709 0.329266313,69.4666337 0.735436893,69.4666337 L23.7791262,69.4666337 C24.1852968,69.4666337 24.5145631,69.7957709 24.5145631,70.2017822 C24.5145631,70.6077935 24.1852968,70.9369307 23.7791262,70.9369307 Z" id="Path" fill="#303030"></path>
            <path d="M38.4486408,80.6506931 L15.3951456,80.6506931 C14.9889751,80.6506931 14.6597087,80.3215559 14.6597087,79.9155446 C14.6597087,79.5095332 14.9889751,79.180396 15.3951456,79.180396 L38.4486408,79.180396 C38.8548114,79.180396 39.1840777,79.5095332 39.1840777,79.9155446 C39.1840777,80.3215559 38.8548114,80.6506931 38.4486408,80.6506931 Z" id="Path" fill="#303030"></path>
            <ellipse id="Oval" fill="#E0E0E0" cx="67.2875728" cy="95.6183168" rx="20.9158252" ry="3.13663366"></ellipse>
            <path d="M77.4258379,46.7917518 C77.37304,47.6211234 77.0170628,48.4060792 76.4203956,48.9971674 C75.7722323,49.6392703 74.8931343,50 73.976493,50 C72.1461914,50 70.648186,48.5905736 70.5280625,46.8075301 L62.5185426,46.8075301 C62.4099976,47.5287974 62.0708194,48.2018001 61.5440164,48.7236774 C60.8958531,49.3657803 60.0167551,49.72651 59.1001138,49.72651 C57.3589433,49.72651 55.9184931,48.4510123 55.6789144,46.7917518 L53,46.7917518 L53,37.0250029 L55.6757679,37.0250029 L55.6757679,31.9601783 C55.7274569,30.8395907 56.67824,29.967988 57.8100114,30.0036729 L69.4527873,30.0036729 C72.4358765,29.9061229 75.1298014,31.760125 76.0784983,34.5635928 L76.7773038,37.0250029 L81,37.0250029 L81,46.7917518 L77.4258379,46.7917518 Z M77.1483442,45.2139249 L79.407281,45.2139249 L79.407281,38.6028299 L54.592719,38.6028299 L54.592719,45.2139249 L55.8223006,45.2139249 C56.2814492,43.8566953 57.5754968,42.878741 59.1001138,42.878741 C60.6306324,42.878741 61.9287932,43.8642811 62.3832214,45.2297031 L70.7977753,45.2297031 C71.3257079,44.0081061 72.5502069,43.152231 73.976493,43.152231 C75.3966305,43.152231 76.6167169,44.0007427 77.1483442,45.2139249 Z M57.2684869,37.0250029 L75.2025028,37.0250029 L74.6131968,35.0053844 C73.8655358,32.8446948 71.7542702,31.4438894 69.4527873,31.5814999 L57.8100114,31.5814999 C57.523322,31.5814999 57.2684869,31.7550608 57.2684869,31.9601783 L57.2684869,37.0250029 Z M59.1001138,44.4565679 C58.0709415,44.4565679 57.2366325,45.283076 57.2366325,46.3026255 C57.2366325,47.3221749 58.0709415,48.148683 59.1001138,48.148683 C60.129286,48.148683 60.963595,47.3221749 60.963595,46.3026255 C60.963595,45.283076 60.129286,44.4565679 59.1001138,44.4565679 Z M73.976493,44.7300579 C72.9473207,44.7300579 72.1130118,45.556566 72.1130118,46.5761155 C72.1130118,47.5956649 72.9473207,48.422173 73.976493,48.422173 C75.0056653,48.422173 75.8399742,47.5956649 75.8399742,46.5761155 C75.8399742,45.556566 75.0056653,44.7300579 73.976493,44.7300579 Z" id="Rectangle-2" fill="#000000"></path>
            <ellipse id="Oval" fill="#8DB602" cx="91.4243478" cy="63.392" rx="13.4243478" ry="13.392"></ellipse>
            <path d="M98.3730435,58.7570103 C98.3557441,58.0355386 97.9081679,57.3941221 97.2359472,57.1274504 C96.5637266,56.8607787 95.7968345,57.0204125 95.2876087,57.5330103 L89.7302174,63.0950103 L87.9258696,64.8950103 L86.1215217,63.0950103 C85.7814531,62.7292087 85.30445,62.5206153 84.8043478,62.5190103 C83.807834,62.5190103 83,63.3248978 83,64.3190103 C83.0065654,64.8116329 83.2152495,65.2800409 83.5773913,65.6150103 L86.5906522,68.6210103 C87.2718048,69.2179729 88.2912387,69.2179729 88.9723913,68.6210103 L91.8413043,65.7590103 L97.525,60.0710103 C97.9934773,59.7846575 98.3056449,59.3009697 98.3730435,58.7570103 Z" id="Path" fill="#FFFFFF"></path>
        </g>
    </g>
</svg>