<svg xmlns="http://www.w3.org/2000/svg" width="200" height="100" viewBox="0 0 200 100">
    <g fill="none" fill-rule="evenodd">
        <g transform="translate(69)">
            <path fill="#E0E0E0" fill-rule="nonzero" d="M33.72 34c-2.599-.008-4.979-1.461-6.173-3.77-1.195-2.31-1.007-5.091.488-7.218-2.86.988-4.757 3.706-4.697 6.731.06 3.025 2.062 5.667 4.958 6.542 2.896.874 6.026-.217 7.75-2.704-.745.271-1.532.413-2.325.419z"/>
            <path fill="#E0E0E0" fill-rule="nonzero" d="M13.953 30.79C14 16.769 23.753 4.649 37.442 1.606c-8.876-2.002-18.18.137-25.292 5.813C5.038 13.093.89 21.692.872 30.79c0 13.953 21 39.953 27.79 48 .518.618 1.282.975 2.088.975s1.57-.357 2.087-.975c1.163-1.35 2.71-3.21 4.5-5.43-8.79-11.012-23.384-31-23.384-42.57z"/>
            <path stroke="#303030" stroke-width="1.5" d="M60.872 30.942c0 13.953-21.198 39.849-28.035 47.86-.517.618-1.281.976-2.087.976-.806 0-1.57-.358-2.087-.976C21.873 70.744.837 44.686.872 30.791.914 14.222 14.379.825 30.948.866c16.568.042 29.966 13.507 29.924 30.076zM30.92 9.628c-8.42-.024-16.024 5.028-19.267 12.798-3.242 7.77-1.485 16.728 4.454 22.696 5.938 5.969 14.888 7.772 22.674 4.568 7.786-3.203 12.876-10.782 12.894-19.202C51.7 18.998 42.41 9.66 30.92 9.628z"/>
            <circle cx="30.872" cy="29.465" r="7.453" stroke="#303030" stroke-width="1.5"/>
            <rect width="55.186" height="11.36" x="2.558" y="88.128" stroke="#303030" stroke-width="1.5" rx="1.5"/>
            <path fill="#8DB602" fill-rule="nonzero" d="M47.395 91.36H6.977c-.489 0-.872.291-.872.652v3.581c.065.42.45.712.872.663h40.418V91.36z"/>
        </g>
    </g>
</svg>
