<?xml version="1.0" encoding="UTF-8"?>
<svg width="200px" height="100px" viewBox="0 0 200 100" version="1.1" xmlns="http://www.w3.org/2000/svg" xmlns:xlink="http://www.w3.org/1999/xlink">
    <title>imagemaking / SCTR_paso4@1x</title>
    <g id="imagemaking-/-SCTR_paso4" stroke="none" stroke-width="1" fill="none" fill-rule="evenodd">
        <g id="imagemaking_sctr-paso2" transform="translate(52.000000, 2.000000)" fill-rule="nonzero">
            <path d="M54.17,36.77 L54.17,44.37 C54.1755104,46.1002676 55.5797236,47.5 57.31,47.5 L64.89,47.5 L54.17,36.77 Z" id="Path" fill="#E0E0E0"></path>
            <path d="M44.37,66.06 C42.904819,66.0600104 41.7155082,64.8751707 41.71,63.41 L41.71,36.77 L35.37,36.77 C33.9009226,36.77 32.71,37.9609226 32.71,39.43 L32.71,72.43 C32.7155082,73.8951707 33.904819,75.08 35.37,75.08 L62.37,75.08 C63.8312534,75.0635293 65.0055866,73.8713356 65.0000199,72.41 L65.0000199,66.06 L44.37,66.06 Z" id="Path" fill="#E0E0E0"></path>
            <path d="M44.25,7.6 C44.25,6.35183647 45.2618365,5.34 46.51,5.34 L37.22,5.34 C35.9718365,5.34 34.96,6.35183648 34.96,7.6 C34.96,8.84816352 35.9718365,9.86 37.22,9.86 L46.51,9.86 C45.2618365,9.86 44.25,8.84816353 44.25,7.6 L44.25,7.6 Z" id="Path" fill="#E0E0E0"></path>
            <path d="M5.75,0.86 L9.75,0.86 L9.75,80.57 C9.75,83.3314237 11.9885763,85.57 14.75,85.57 L94.34,85.57 L94.34,89.45 C94.34,92.2114237 92.1014237,94.45 89.34,94.45 L5.75,94.45 C2.98857625,94.45 0.75,92.2114237 0.75,89.45 L0.75,5.86 C0.75,3.09857625 2.98857625,0.86 5.75,0.86 Z" id="Path" fill="#E0E0E0"></path>
            <path d="M62.33,75.81 L35.33,75.81 C33.4819033,75.7666375 32.0049125,74.2585988 32,72.41 L32,39.41 C32,37.526709 33.526709,36 35.41,36 L54.59,36 L65.74,47.19 L65.74,72.41 C65.7344886,74.2893846 64.2093927,75.81 62.33,75.81 L62.33,75.81 Z M35.33,37.52 C34.2774094,37.5254681 33.4254681,38.3774094 33.42,39.43 L33.42,72.43 C33.4255025,73.4809565 34.2790291,74.3300264 35.33,74.3300264 L62.33,74.3300264 C62.8356417,74.3326613 63.3214872,74.1336588 63.679972,73.7770508 C64.0384569,73.4204428 64.24,72.9356487 64.24,72.43 L64.24,47.81 L54,37.52 L35.33,37.52 Z" id="Shape" fill="#221F1F"></path>
            <path d="M64.89,48.25 L57.31,48.25 C55.1655115,48.25 53.4255128,46.5144814 53.42,44.37 L53.42,36.77 L54.92,36.77 L54.92,44.37 C54.9255065,45.6860536 55.9939348,46.7500115 57.31,46.75 L64.89,46.75 L64.89,48.25 Z" id="Path" fill="#221F1F"></path>
            <path d="M47.07,24 L51.07,24 C51.4765981,23.9973493 51.8673209,24.1576832 52.1548354,24.4451977 C52.4423499,24.7327123 52.6026839,25.1234351 52.6,25.5300332 L52.6,37.1900332 L53.92,37.1900332 C54.570107,37.1590558 55.168655,37.5427508 55.4119252,38.1464215 C55.6551955,38.7500922 55.4899346,39.4415908 55,39.8700332 L49.92,44.7500332 C49.3278375,45.3189489 48.3921625,45.3189489 47.8,44.7500332 L42.71,39.8700332 C42.2547798,39.4382041 42.1093605,38.7722094 42.3431524,38.1899353 C42.5769443,37.6076611 43.14255,37.2271537 43.77,37.2300332 L45.54,37.2300332 L45.54,25.5300332 C45.54,24.6850375 46.2250043,24 47.07,24 Z" id="Path" fill="#8DB602" transform="translate(48.877909, 34.588360) rotate(-180.000000) translate(-48.877909, -34.588360) "></path>
            <path d="M89.34,95.09 L5.75,95.09 C2.57664554,95.0844955 0.00550453013,92.5133545 0,89.34 L0,5.75 C0.00550453013,2.57664554 2.57664554,0.00550453013 5.75,0 L89.34,0 C92.5133545,0.00550453013 95.0844955,2.57664554 95.09,5.75 L95.09,89.34 C95.0844955,92.5133545 92.5133545,95.0844955 89.34,95.09 Z M5.75,1.5 C3.40507098,1.5054981 1.5054981,3.40507098 1.5,5.75 L1.5,89.34 C1.5,91.6872102 3.40278981,93.59 5.75,93.59 L89.34,93.59 C91.6872102,93.59 93.59,91.6872102 93.59,89.34 L93.59,5.75 C93.59,3.40278981 91.6872102,1.5 89.34,1.5 L5.75,1.5 Z" id="Shape" fill="#221F1F"></path>
            <rect id="Rectangle" fill="#221F1F" x="0.75" y="14.78" width="93.59" height="1.5"></rect>
            <circle id="Oval" fill="#8DB602" cx="9.21" cy="7.6" r="2.26"></circle>
            <circle id="Oval" fill="#8DB602" cx="16.77" cy="7.6" r="2.26"></circle>
            <circle id="Oval" fill="#8DB602" cx="24.33" cy="7.6" r="2.26"></circle>
            <path d="M86,10.61 L37.11,10.61 C36.0382032,10.61 35.0478221,10.0382032 34.5119238,9.11 C33.9760254,8.18179678 33.9760254,7.03820322 34.5119238,6.11 C35.0478221,5.18179675 36.0382032,4.61 37.11,4.61 L86,4.61 C87.6568542,4.61 89,5.95314575 89,7.61 C89,9.26685425 87.6568542,10.61 86,10.61 L86,10.61 Z M37.11,6.09 C36.5327445,6.02323327 35.9683935,6.29364394 35.6587438,6.78537431 C35.349094,7.27710468 35.349094,7.90289532 35.6587438,8.39462569 C35.9683935,8.88635606 36.5327445,9.15676673 37.11,9.09 L86,9.09 C86.7617501,9.0018942 87.3365065,8.35682841 87.3365065,7.59 C87.3365065,6.82317159 86.7617501,6.1781058 86,6.09 L37.11,6.09 Z" id="Shape" fill="#221F1F"></path>
        </g>
    </g>
</svg>