<?xml version="1.0" encoding="UTF-8"?>
<svg width="200px" height="100px" viewBox="0 0 200 100" version="1.1" xmlns="http://www.w3.org/2000/svg" xmlns:xlink="http://www.w3.org/1999/xlink">
    <!-- Generator: Sketch 52.2 (67145) - http://www.bohemiancoding.com/sketch -->
    <title>imagemaking / chofer de reemplazo paso1@1x</title>
    <desc>Created with Sketch.</desc>
    <g id="imagemaking-/-chofer-de-reemplazo-paso1" stroke="none" stroke-width="1" fill="none" fill-rule="evenodd">
        <g id="Asset-210" transform="translate(37.000000, 4.000000)">
            <polygon id="Path" fill="#E0E0E0" points="33.45 67.16 33.45 0.75 8.57 0.75 8.57 74.53 120.72 74.53 120.72 67.16"></polygon>
            <path d="M34.6,85.43 C32.3236331,85.4379702 30.1376232,84.5399547 28.5242312,82.9340668 C26.9108392,81.3281789 26.0026423,79.1463793 26,76.87 L26,74.53 L3.64,74.53 C2.27422958,74.5299889 1.16550714,75.6342407 1.16,77 L1.16,81.82 C1.15999678,86.5491778 4.99082541,90.3844817 9.72,90.39 L117.08,90.39 C120.420736,90.3803929 123.450637,88.4281371 124.84,85.39 L34.6,85.43 Z" id="Path" fill="#E0E0E0"></path>
            <path d="M120.32,75.28 L8.17,75.28 C7.75578644,75.28 7.42,74.9442136 7.42,74.53 L7.42,0.75 C7.42,0.335786438 7.75578644,7.6089797e-17 8.17,0 L120.32,0 C120.731962,0.00538581231 121.064614,0.338037936 121.07,0.75 L121.07,74.53 C121.064614,74.9419621 120.731962,75.2746142 120.32,75.28 Z M8.92,73.78 L119.57,73.78 L119.57,1.5 L8.92,1.5 L8.92,73.78 Z" id="Shape" fill="#303030" fill-rule="nonzero"></path>
            <path d="M111.41,67.75 L15.76,67.75 C15.344138,67.750036 15.0054719,67.415826 15,67 L15,8.28 C15.0053858,7.86803794 15.3380379,7.53538581 15.75,7.53 L111.4,7.53 C111.811962,7.53538581 112.144614,7.86803794 112.15,8.28 L112.15,67 C112.14477,67.408159 111.818052,67.7392916 111.41,67.75 Z M16.51,66.25 L110.66,66.25 L110.66,9 L16.51,9 L16.51,66.25 Z" id="Shape" fill="#303030" fill-rule="nonzero"></path>
            <path d="M116.68,91.16 L9.31,91.16 C4.16889648,91.1489823 0.00549850008,86.9811124 0,81.84 L0,77 C9.72749467e-17,75.2105974 1.45059741,73.76 3.24,73.76 L122.75,73.76 C123.611033,73.7573425 124.437711,74.0975251 125.047493,74.7054312 C125.657276,75.3133374 126.000004,76.1389632 126,77 L126,81.82 C126.002654,84.2944703 125.022218,86.6686467 123.274379,88.4202368 C121.52654,90.1718269 119.15447,91.1573493 116.68,91.16 Z M3.24,75.28 C2.28678115,75.279937 1.51095654,76.0468441 1.5,77 L1.5,81.82 C1.49999647,86.1349645 4.99503902,89.6344821 9.31,89.64 L116.68,89.64 C120.994961,89.6344821 124.490004,86.1349645 124.49,81.82 L124.49,77 C124.49,76.0390245 123.710975,75.26 122.75,75.26 L3.24,75.28 Z" id="Shape" fill="#303030" fill-rule="nonzero"></path>
            <path d="M35.3,33.91 L30.5,33.91 C30.0857864,33.91 29.75,33.5742136 29.75,33.16 C29.75,32.7457864 30.0857864,32.41 30.5,32.41 L35.3,32.41 C35.7142136,32.41 36.05,32.7457864 36.05,33.16 C36.05,33.5742136 35.7142136,33.91 35.3,33.91 Z" id="Path" fill="#303030"></path>
            <path d="M64.3,34.86 C64.1516527,34.8592157 64.0063696,34.8177062 63.88,34.74 C63.0945297,34.1994527 62.1634962,33.9100303 61.21,33.91 L54.76,33.91 C54.3457864,33.91 54.01,33.5742136 54.01,33.16 C54.01,32.7457864 54.3457864,32.41 54.76,32.41 L61.21,32.41 C62.4647007,32.4114482 63.690391,32.7875122 64.73,33.49 C65.0436057,33.722494 65.1300614,34.1547726 64.93,34.49 C64.7956068,34.7114538 64.5588685,34.8504906 64.3,34.86 Z M49.9,33.86 L40.16,33.86 C39.7457864,33.86 39.41,33.5242136 39.41,33.11 C39.41,32.6957864 39.7457864,32.36 40.16,32.36 L49.9,32.36 C50.3142136,32.36 50.65,32.6957864 50.65,33.11 C50.65,33.5242136 50.3142136,33.86 49.9,33.86 Z" id="Shape" fill="#303030" fill-rule="nonzero"></path>
            <path d="M85.91,53.18 L76.17,53.18 C75.7557864,53.18 75.42,52.8442136 75.42,52.43 C75.42,52.0157864 75.7557864,51.68 76.17,51.68 L85.91,51.68 C86.3242136,51.68 86.66,52.0157864 86.66,52.43 C86.66,52.8442136 86.3242136,53.18 85.91,53.18 Z M71.31,53.18 L61.57,53.18 C61.1557864,53.18 60.82,52.8442136 60.82,52.43 C60.82,52.0157864 61.1557864,51.68 61.57,51.68 L71.31,51.68 C71.7242136,51.68 72.06,52.0157864 72.06,52.43 C72.06,52.8442136 71.7242136,53.18 71.31,53.18 Z M56.71,53.18 L47,53.18 C46.5857864,53.18 46.25,52.8442136 46.25,52.43 C46.25,52.0157864 46.5857864,51.68 47,51.68 L56.74,51.68 C57.1542136,51.68 57.49,52.0157864 57.49,52.43 C57.49,52.8442136 57.1542136,53.18 56.74,53.18 L56.71,53.18 Z M42.12,53 L41.92,53 C39.9854964,52.4827219 38.5662969,50.8318698 38.3451612,48.8416488 C38.1240255,46.8514277 39.1462283,44.9293087 40.92,44 C41.2822492,43.8151018 41.725857,43.9526202 41.92,44.31 C42.1010012,44.6701471 41.9693572,45.1089604 41.62,45.31 C40.4204738,45.9567122 39.7322461,47.2656032 39.8793627,48.6203934 C40.0264793,49.9751835 40.9796172,51.1058387 42.29,51.48 C42.4828001,51.5335639 42.6462012,51.661952 42.7438575,51.8366066 C42.8415138,52.0112611 42.8653269,52.2176984 42.81,52.41 C42.7418271,52.7412232 42.4577918,52.9840939 42.12,53 Z M61.21,45 L60.68,45 C60.2657864,45 59.93,44.6642136 59.93,44.25 C59.93,43.8357864 60.2657864,43.5 60.68,43.5 L61.21,43.5 C62.4821215,43.5000028 63.7019947,42.993971 64.6005819,42.0935078 C65.4991692,41.1930446 66.0026558,39.9721187 66,38.7 C66,38.55 66,38.4 66,38.25 C65.9776736,38.0519366 66.0361902,37.8532414 66.1623032,37.6988941 C66.2884163,37.5445468 66.4714608,37.4476 66.67,37.43 C67.0830348,37.3951261 67.4478376,37.6976455 67.49,38.11 C67.5002211,38.3065339 67.5002211,38.5034661 67.49,38.7 C67.4926543,40.3682124 66.832504,41.9691533 65.6547751,43.1506329 C64.4770461,44.3321126 62.8782124,44.9973499 61.21,45 Z M55.81,45 L46.08,45 C45.6657864,45 45.33,44.6642136 45.33,44.25 C45.33,43.8357864 45.6657864,43.5 46.08,43.5 L55.81,43.5 C56.2242136,43.5 56.56,43.8357864 56.56,44.25 C56.56,44.6642136 56.2242136,45 55.81,45 Z" id="Shape" fill="#303030" fill-rule="nonzero"></path>
            <path d="M95.62,53.18 L90.82,53.18 C90.4057864,53.18 90.07,52.8442136 90.07,52.43 C90.07,52.0157864 90.4057864,51.68 90.82,51.68 L95.62,51.68 C96.0342136,51.68 96.37,52.0157864 96.37,52.43 C96.37,52.8442136 96.0342136,53.18 95.62,53.18 Z" id="Path" fill="#303030"></path>
            <path d="M30.5,16.46 C27.1476316,16.46 24.43,19.1776316 24.43,22.53 C24.43,26.4 29.08,31.77 30.24,33.05 C30.3079051,33.1209055 30.4018231,33.161002 30.5,33.161002 C30.5981769,33.161002 30.6920949,33.1209055 30.76,33.05 C31.92,31.76 36.57,26.37 36.57,22.53 C36.57,19.1776316 33.8523684,16.46 30.5,16.46 Z M30.5,25.73 C28.7326888,25.73 27.3,24.2973112 27.3,22.53 C27.3,20.7626888 28.7326888,19.33 30.5,19.33 C32.2673112,19.33 33.7,20.7626888 33.7,22.53 C33.7,24.2973112 32.2673112,25.73 30.5,25.73 Z" id="Shape" fill="#8DB602" fill-rule="nonzero"></path>
            <path d="M95.88,35.36 C94.2693219,35.3573399 92.7238476,35.9960017 91.5849246,37.1349246 C90.4460017,38.2738476 89.8073399,39.8193219 89.81,41.43 C89.81,45.3 94.45,50.67 95.61,51.95 C95.6779051,52.0209055 95.7718231,52.061002 95.87,52.061002 C95.9681769,52.061002 96.0620949,52.0209055 96.13,51.95 C97.29,50.66 101.94,45.27 101.94,41.43 C101.942655,39.8210562 101.305365,38.2771012 100.168607,37.138467 C99.0318482,35.9998328 97.488946,35.3599978 95.88,35.36 Z M95.88,44.63 C94.5848185,44.6340475 93.4149168,43.8569639 92.9164652,42.661532 C92.4180137,41.4661 92.6893183,40.088086 93.60372,39.1708178 C94.5181218,38.2535495 95.8952799,37.9779333 97.0922661,38.4726408 C98.2892523,38.9673484 99.0699937,40.1348122 99.07,41.43 C99.0700086,43.1934133 97.6434047,44.6244893 95.88,44.63 Z" id="Shape" fill="#8DB602" fill-rule="nonzero"></path>
            <path d="M41.83,75.3 L87.46,75.3 L87.46,75.48 C87.46,76.8882996 86.9005552,78.2389188 85.904737,79.234737 C84.9089188,80.2305552 83.5582996,80.79 82.15,80.79 L47.15,80.79 C45.7417004,80.79 44.3910812,80.2305552 43.395263,79.234737 C42.3994448,78.2389188 41.84,76.8882996 41.84,75.48 L41.84,75.3 L41.83,75.3 Z" id="Path" fill="#8DB602"></path>
        </g>
    </g>
</svg>