<?xml version="1.0" encoding="UTF-8"?>
<svg width="200px" height="100px" viewBox="0 0 200 100" version="1.1" xmlns="http://www.w3.org/2000/svg" xmlns:xlink="http://www.w3.org/1999/xlink">
    <title>imagemaking / SCTR_paso3@1x</title>
    <g id="imagemaking-/-SCTR_paso3" stroke="none" stroke-width="1" fill="none" fill-rule="evenodd">
        <g id="imagemaking_sctr-paso3" transform="translate(62.000000, 5.000000)" fill-rule="nonzero">
            <path d="M44.1699909,0.75 L44.1699909,14.19 C44.1673392,15.6627656 44.7512151,17.0759764 45.7926194,18.1173806 C46.8340236,19.1587849 48.2472344,19.7426608 49.72,19.7400091 L63.13,19.7400091 L44.1699909,0.75 Z" id="Path" fill="#E0E0E0"></path>
            <path d="M26.81,63.07 C25.5626682,63.0726624 24.3656573,62.5783403 23.4836585,61.6963415 C22.6016597,60.8143427 22.1073376,59.6173318 22.11,58.37 L22.11,0.75 L10.88,0.75 C8.28426168,0.75 6.1799893,2.85426168 6.1799893,5.45 L6.1799893,74.3 C6.1773376,75.5473318 6.67165974,76.7443427 7.55365851,77.6263415 C8.43565729,78.5083403 9.63266821,79.0026624 10.88,79.0000107 L58.61,79.0000107 C59.8582492,79.0026559 61.0562832,78.5086514 61.9398682,77.6269424 C62.8234532,76.7452334 63.32,75.548252 63.32,74.3 L63.32,63.07 L26.81,63.07 Z" id="Path" fill="#E0E0E0"></path>
            <path d="M58.61,79.75 L10.88,79.75 C7.87004811,79.75 5.43,77.3099519 5.43,74.3 L5.43,5.45 C5.43550353,2.4423307 7.8723307,0.0055035258 10.88,0 L44.66,0 L64.07,19.43 L64.07,74.3 C64.0644843,77.3115688 61.6215738,79.75 58.61,79.75 Z M10.88,1.5 C8.670861,1.5 6.88,3.290861 6.88,5.5 L6.88,74.3 C6.88,76.509139 8.670861,78.3 10.88,78.3 L58.61,78.3 C60.819139,78.3 62.61,76.509139 62.61,74.3 L62.61,20.05 L44,1.5 L10.88,1.5 Z" id="Shape" fill="#221F1F"></path>
            <path d="M63.13,20.49 L49.72,20.49 C46.2406061,20.49 43.42,17.6693939 43.42,14.19 L43.42,0.75 L44.92,0.75 L44.92,14.19 C44.92,16.8409668 47.0690332,18.99 49.72,18.99 L63.13,18.99 L63.13,20.49 Z" id="Path" fill="#221F1F"></path>
            <rect id="Rectangle" fill="#8DB602" x="0" y="9.69" width="28.33" height="10.27" rx="1"></rect>
            <text id="XLS" fill="#FFFFFF" font-family="Avenir-Black, Avenir" font-size="8.8" font-weight="700">
                <tspan x="5.35" y="17.61">XLS</tspan>
            </text>
            <path d="M58.93,70.12 L10.86,70.12 L10.86,28.75 L58.93,28.75 L58.93,70.12 Z M12.36,68.62 L57.43,68.62 L57.43,30.25 L12.36,30.25 L12.36,68.62 Z" id="Shape" fill="#221F1F"></path>
            <rect id="Rectangle" fill="#221F1F" x="19.82" y="29.47" width="1.5" height="39.88"></rect>
            <rect id="Rectangle" fill="#221F1F" x="32.91" y="29.47" width="1.5" height="39.88"></rect>
            <rect id="Rectangle" fill="#221F1F" x="46.01" y="29.47" width="1.5" height="39.88"></rect>
            <rect id="Rectangle" fill="#221F1F" x="11.61" y="39.13" width="46.57" height="1.5"></rect>
            <rect id="Rectangle" fill="#221F1F" x="11.61" y="48.68" width="46.57" height="1.5"></rect>
            <rect id="Rectangle" fill="#221F1F" x="11.61" y="58.24" width="46.57" height="1.5"></rect>
            <circle id="Oval" fill="#8DB602" cx="62.44" cy="76.75" r="13.71"></circle>
            <circle id="Oval" fill="#FFFFFF" cx="59.6" cy="81.15" r="1.84"></circle>
            <rect id="Rectangle" fill="#FFFFFF" transform="translate(61.102689, 79.634721) rotate(-135.000000) translate(-61.102689, -79.634721) " x="59.2626887" y="77.4047205" width="3.68" height="4.46"></rect>
            <circle id="Oval" fill="#FFFFFF" cx="68.4" cy="72.34" r="1.84"></circle>
            <rect id="Rectangle" fill="#FFFFFF" transform="translate(65.455605, 75.298815) rotate(45.000000) translate(-65.455605, -75.298815) " x="63.6156048" y="71.183815" width="3.68" height="8.23"></rect>
            <circle id="Oval" fill="#FFFFFF" cx="59.6" cy="81.15" r="1.84"></circle>
            <circle id="Oval" fill="#FFFFFF" cx="56.47" cy="78.02" r="1.84"></circle>
            <rect id="Rectangle" fill="#FFFFFF" transform="translate(58.089817, 79.638151) rotate(-45.000000) translate(-58.089817, -79.638151) " x="56.249817" y="77.4081511" width="3.68" height="4.46"></rect>
        </g>
    </g>
</svg>