<?xml version="1.0" encoding="UTF-8"?>
<svg width="200px" height="100px" viewBox="0 0 200 100" version="1.1" xmlns="http://www.w3.org/2000/svg" xmlns:xlink="http://www.w3.org/1999/xlink">
    <!-- Generator: Sketch 52 (66869) - http://www.bohemiancoding.com/sketch -->
    <title>imagemaking / lupa</title>
    <desc>Created with Sketch.</desc>
    <g id="imagemaking-/-lupa" stroke="none" stroke-width="1" fill="none" fill-rule="evenodd">
        <g id="Imagemaking_lupa" transform="translate(50.000000, 0.000000)">
            <path d="M85.3267327,91.0891089 L74.4356436,80.1980198 C74.2167675,79.9805622 74.0936843,79.6847737 74.0936843,79.3762376 C74.0936843,79.0677015 74.2167675,78.7719131 74.4356436,78.5544554 L82.7227723,70.2970297 L69.4059406,83.6435644 C69.1870645,83.861022 69.0639813,84.1568104 69.0639813,84.4653465 C69.0639813,84.7738827 69.1870645,85.0696711 69.4059406,85.2871287 L80.2970297,96.1782178 C82.2790439,98.1655864 84.9704477,99.2825297 87.7772277,99.2825297 C90.5840078,99.2825297 93.2754116,98.1655864 95.2574257,96.1782178 C95.8709898,95.5424816 96.400097,94.8303499 96.8316832,94.0594059 C92.7722772,96.5049505 88.8217822,94.5544554 85.3267327,91.0891089 Z" id="Path" fill="#E0E0E0"></path>
            <path d="M63.3663366,54.4554455 L62.8415842,53.9207921 C62.1254414,55.009776 61.348638,56.0576343 60.5148515,57.0594059 C61.5143883,56.2466951 62.4664493,55.3772783 63.3663366,54.4554455 Z" id="Path" fill="#E0E0E0"></path>
            <path d="M53.5247525,63.5148515 L70.9108911,81.4059406 L75.5841584,76.7326733 L58.5940594,59.2475248 C57.0436568,60.827741 55.3462176,62.25664 53.5247525,63.5148515 Z" id="Path" fill="#E0E0E0"></path>
            <path d="M34.4356436,56.970297 C23.2385417,56.9599325 13.7792968,48.6608302 12.3122374,37.5602476 C10.845178,26.459665 17.823686,15.9881398 28.6336634,13.0693069 C31.4245654,8.23282728 35.3576455,4.15357386 40.0891089,1.18811881 C27.5269114,-0.797921952 14.9108739,4.4206244 7.42239837,14.7005027 C-0.066077113,24.980381 -1.16476114,38.5888535 4.57757543,49.9369253 C10.319912,61.2849971 21.9353625,68.4598798 34.6534653,68.5148515 C40.9792072,68.5128098 47.1763781,66.7284638 52.5346535,63.3663366 C47.0027678,62.4581344 41.7834969,60.1887382 37.3465347,56.7623762 C36.3820142,56.8970338 35.4095111,56.9664983 34.4356436,56.970297 Z" id="Path" fill="#E0E0E0"></path>
            <path d="M34.6534653,57.7128713 C25.3093974,57.7248842 16.879282,52.1038111 13.2979105,43.4733113 C9.71653902,34.8428114 11.6900567,24.9045752 18.297316,18.297316 C24.9045752,11.6900567 34.8428114,9.71653902 43.4733113,13.2979105 C52.1038111,16.879282 57.7248842,25.3093974 57.7128713,34.6534653 C57.6856423,47.3775279 47.3775279,57.6856423 34.6534653,57.7128713 Z M34.6534653,13.029703 C25.914589,13.0176917 18.0291479,18.2715625 14.6747494,26.3410183 C11.320351,34.410474 13.1577289,43.7060311 19.329968,49.8924332 C25.502207,56.0788352 34.7935284,57.9375137 42.8706513,54.6016193 C50.9477741,51.2657248 56.2197045,43.3923463 56.2277228,34.6534653 C56.2223119,22.7325486 46.5743384,13.0624365 34.6534653,13.029703 Z" id="Shape" fill="#303030" fill-rule="nonzero"></path>
            <path d="M34.6534653,69.3069307 C15.5148849,69.3069307 2.34380013e-15,53.7920458 0,34.6534653 C-2.34380013e-15,15.5148849 15.5148849,3.51570019e-15 34.6534653,0 C53.7920458,-3.51570019e-15 69.3069307,15.5148849 69.3069307,34.6534653 C69.3069307,43.8441358 65.6559511,52.6583803 59.1571657,59.1571657 C52.6583803,65.6559511 43.8441358,69.3069307 34.6534653,69.3069307 Z M34.6534653,1.48514851 C21.2452487,1.47313637 9.15024065,9.53974955 4.0089634,21.9231128 C-1.13231385,34.306476 1.69276858,48.5675552 11.1667299,58.0556779 C20.6406913,67.5438007 34.8975348,70.390181 47.2885635,65.2674059 C59.6795923,60.1446308 67.7642622,48.0616849 67.7722772,34.6534653 C67.7614015,16.3589357 52.9479583,1.52334986 34.6534653,1.48514851 Z" id="Shape" fill="#303030" fill-rule="nonzero"></path>
            <path d="M71.5544554,82.1782178 C71.357278,82.1703277 71.1701465,82.0891197 71.029703,81.950495 L52.990099,63.5940594 C52.839584,63.4345459 52.7639889,63.21856 52.7821782,63 C52.8043399,62.7812927 52.9198288,62.5827961 53.0990099,62.4554455 C56.7247983,59.97043 59.8209868,56.7901059 62.2079208,53.0990099 C62.3272931,52.904351 62.5305976,52.7764774 62.7577518,52.7531795 C62.9849061,52.7298816 63.2099353,52.8138236 63.3663366,52.980198 L81.5247525,71.4455446 C81.7862925,71.7237622 81.7862925,72.157426 81.5247525,72.4356436 L72.0792079,81.9306931 C71.9450954,82.0809497 71.7557023,82.1702861 71.5544554,82.1782178 Z M54.6633663,63.1782178 L71.5544554,80.3465347 L79.950495,71.960396 L62.9405941,54.6732673 C60.6911104,57.9631285 57.8909795,60.8402964 54.6633663,63.1782178 Z" id="Shape" fill="#303030" fill-rule="nonzero"></path>
            <path d="M87.980198,99.7128713 C84.9742838,99.7220123 82.08978,98.5275639 79.970297,96.3960396 L69.0792079,85.5049505 C68.7206743,85.1465661 68.5192397,84.6604029 68.5192397,84.1534653 C68.5192397,83.6465277 68.7206743,83.1603646 69.0792079,82.8019802 L82.4059406,69.5049505 C82.7635481,69.1417101 83.2526498,68.9382152 83.7623762,68.9405941 C84.2828094,68.9277111 84.7850858,69.1322094 85.1485149,69.5049505 L96.039604,80.3960396 C98.1642014,82.5202702 99.3578187,85.4015654 99.3578187,88.4059406 C99.3578187,91.4103158 98.1642014,94.291611 96.039604,96.4158416 C93.9047785,98.5523734 91.0003772,99.7405376 87.980198,99.7128713 Z M83.7623762,70.4257426 C83.6486519,70.4247217 83.5388422,70.4672287 83.4554455,70.5445545 L70.1386139,83.8712871 C70.0600213,83.9498597 70.0170781,84.0572177 70.019802,84.1683168 C70.0182131,84.2792088 70.0609861,84.3861412 70.1386139,84.4653465 L81.029703,95.3564356 C84.8756498,99.1961448 91.1045482,99.1961448 94.950495,95.3564356 C98.7902042,91.5104888 98.7902042,85.2815904 94.950495,81.4356436 L84.0594059,70.5445545 C83.9822296,70.46387 83.873907,70.4205409 83.7623762,70.4257426 Z" id="Shape" fill="#303030" fill-rule="nonzero"></path>
            <circle id="Oval" fill="#8DB602" cx="23.039604" cy="34.6336634" r="3.43564356"></circle>
            <circle id="Oval" fill="#8DB602" cx="34.6336634" cy="34.6336634" r="3.43564356"></circle>
            <circle id="Oval" fill="#8DB602" cx="46.2178218" cy="34.6336634" r="3.43564356"></circle>
        </g>
    </g>
</svg>