<?xml version="1.0" encoding="UTF-8"?>
<svg width="200px" height="100px" viewBox="0 0 200 100" version="1.1" xmlns="http://www.w3.org/2000/svg" xmlns:xlink="http://www.w3.org/1999/xlink">
    <!-- Generator: sketchtool 52.2 (67145) - http://www.bohemiancoding.com/sketch -->
    <title>DC9041F7-B3D8-42A7-B16E-6B5B34E95C26</title>
    <desc>Created with sketchtool.</desc>
    <g id="--Symbols" stroke="none" stroke-width="1" fill="none" fill-rule="evenodd">
        <g id="imagemaking-/-sin-tramite">
            <g id="img_sintramites_pendientes" transform="translate(49.000000, 14.000000)">
                <path d="M24.28,65.63 C19.4410255,65.6190023 15.5209977,61.6989745 15.51,56.86 L15.51,3.35 C15.5388809,2.46331656 15.7041515,1.58637033 16,0.75 L9.88,0.75 C5.04329746,0.766460843 1.12646084,4.68329746 1.11,9.52 L1.11,63 C1.10997183,67.8484141 5.03161404,71.7834713 9.88,71.8 L92.88,71.8 C96.7051022,71.7800368 100.076027,69.2832055 101.21,65.63 L24.28,65.63 Z" id="Path" fill="#E0E0E0"></path>
                <path d="M92.49,72.55 L9.49,72.55 C4.23454041,72.5279529 -0.0110756377,68.2554942 4.61076286e-15,63 L4.61076286e-15,9.52 C0.0055117676,4.26453392 4.26453392,0.0055117676 9.52,0 L92.52,0 C97.7598384,0.027488851 101.994574,4.2800923 102,9.52 L102,63 C102.00531,65.5275148 101.006348,67.953618 99.2228759,69.7445916 C97.4394038,71.5355652 95.0175149,72.5447012 92.49,72.55 Z M9.49,1.55 C5.071722,1.55 1.49,5.131722 1.49,9.55 L1.49,63 C1.49,67.418278 5.071722,71 9.49,71 L92.49,71 C96.908278,71 100.49,67.418278 100.49,63 L100.49,9.52 C100.49,5.101722 96.908278,1.52 92.49,1.52 L9.49,1.55 Z" id="Shape" fill="#000000" fill-rule="nonzero"></path>
                <circle id="Oval" fill="#8DB602" cx="23.73" cy="27.74" r="8.25"></circle>
                <path d="M22.44,38.1 L25,38.1 C29.1364574,38.0973467 33.1044044,39.7386885 36.0302598,42.6626682 C38.9561151,45.586648 40.6000009,49.5535417 40.6,53.69 L40.6,55.52 L6.85,55.52 L6.85,53.69 C6.85,45.0798808 13.8298808,38.1 22.44,38.1 Z" id="Path" fill="#8DB602"></path>
                <path d="M87.77,37 L67.45,37 C67.0357864,37 66.7,36.6642136 66.7,36.25 C66.7,35.8357864 67.0357864,35.5 67.45,35.5 L87.77,35.5 C88.1842136,35.5 88.52,35.8357864 88.52,36.25 C88.52,36.6642136 88.1842136,37 87.77,37 Z" id="Path" fill="#000000"></path>
                <path d="M61.59,37 L55.73,37 C55.3157864,37 54.98,36.6642136 54.98,36.25 C54.98,35.8357864 55.3157864,35.5 55.73,35.5 L61.59,35.5 C62.0042136,35.5 62.34,35.8357864 62.34,36.25 C62.34,36.6642136 62.0042136,37 61.59,37 Z" id="Path" fill="#000000"></path>
                <path d="M87.77,28.36 L82.57,28.36 C82.1557864,28.36 81.82,28.0242136 81.82,27.61 C81.82,27.1957864 82.1557864,26.86 82.57,26.86 L87.77,26.86 C88.1842136,26.86 88.52,27.1957864 88.52,27.61 C88.52,28.0242136 88.1842136,28.36 87.77,28.36 Z" id="Path" fill="#000000"></path>
                <path d="M76.4,28.36 L55.73,28.36 C55.3157864,28.36 54.98,28.0242136 54.98,27.61 C54.98,27.1957864 55.3157864,26.86 55.73,26.86 L76.4,26.86 C76.8142136,26.86 77.15,27.1957864 77.15,27.61 C77.15,28.0242136 76.8142136,28.36 76.4,28.36 Z" id="Path" fill="#000000"></path>
                <path d="M87.77,45.8 L82.57,45.8 C82.1557864,45.8 81.82,45.4642136 81.82,45.05 C81.82,44.6357864 82.1557864,44.3 82.57,44.3 L87.77,44.3 C88.1842136,44.3 88.52,44.6357864 88.52,45.05 C88.52,45.4642136 88.1842136,45.8 87.77,45.8 Z" id="Path" fill="#000000"></path>
                <path d="M76.4,45.8 L55.73,45.8 C55.3157864,45.8 54.98,45.4642136 54.98,45.05 C54.98,44.6357864 55.3157864,44.3 55.73,44.3 L76.4,44.3 C76.8142136,44.3 77.15,44.6357864 77.15,45.05 C77.15,45.4642136 76.8142136,45.8 76.4,45.8 Z" id="Path" fill="#000000"></path>
            </g>
        </g>
    </g>
</svg>