<?xml version="1.0" encoding="UTF-8"?>
<svg width="200px" height="100px" viewBox="0 0 200 100" version="1.1" xmlns="http://www.w3.org/2000/svg" xmlns:xlink="http://www.w3.org/1999/xlink">
    <!-- Generator: Sketch 58 (84663) - https://sketch.com -->
    <title>imagemaking /mapfre dolares@1x</title>
    <desc>Created with Sketch.</desc>
    <g id="imagemaking-/mapfre-dolares" stroke="none" stroke-width="1" fill="none" fill-rule="evenodd">
        <g id="Mapfre-dólares" transform="translate(47.000000, 0.000000)" fill-rule="nonzero">
            <path d="M39.25,35.35 C38.7247345,34.4375123 38.44883,33.4028705 38.45,32.35 C38.4526111,31.1141581 38.8367782,29.9092704 39.55,28.9 C37.1585426,29.7454966 35.5571287,32.0034902 35.55,34.54 C35.5546901,34.8075944 35.574723,35.0746996 35.61,35.34 L39.25,35.35 Z" id="Path" fill="#E0E0E0"></path>
            <path d="M68.3,35.35 C68.1720196,34.8567032 68.1048543,34.3496049 68.1,33.84 C68.1026111,32.6041581 68.4867782,31.3992704 69.2,30.39 C67.0496265,31.1744009 65.5328972,33.1139526 65.29,35.39 L68.3,35.35 Z" id="Path" fill="#E0E0E0"></path>
            <path d="M27.69,25.46 C25.4506582,25.4555702 23.4001417,24.2044627 22.3718497,22.2151697 C21.3435576,20.2258767 21.5086393,17.8294969 22.8,16 C20.3535296,16.8644913 18.7399492,19.2036307 18.8006849,21.7976379 C18.8614207,24.3916452 20.5827095,26.6527023 23.066959,27.4017465 C25.5512085,28.1507906 28.2354723,27.2180837 29.72,25.09 C29.0701012,25.3308195 28.3830706,25.4560418 27.69,25.46 L27.69,25.46 Z" id="Path" fill="#E0E0E0"></path>
            <path d="M43.26,13.51 C41.0241225,13.5029571 38.9776313,12.2532659 37.9500698,10.2674877 C36.9225084,8.28170942 37.084353,5.88929208 38.37,4.06 C35.9192253,4.91956305 34.299704,7.2583309 34.3572638,9.85483474 C34.4148236,12.4513386 36.1363956,14.7160404 38.622854,15.4661538 C41.1093123,16.2162673 43.7961049,15.2814785 45.28,13.15 C44.6316745,13.3826369 43.948777,13.5043414 43.26,13.51 Z" id="Path" fill="#E0E0E0"></path>
            <path d="M59.09,24.94 C56.8575776,24.9303655 54.815092,23.6820917 53.788257,21.6998171 C52.761422,19.7175425 52.9200451,17.3290757 54.2,15.5 C51.7492253,16.359563 50.129704,18.6983309 50.1872638,21.2948347 C50.2448236,23.8913386 51.9663956,26.1560404 54.452854,26.9061538 C56.9393123,27.6562673 59.6261049,26.7214785 61.11,24.59 C60.4611361,24.8194167 59.7782233,24.9377432 59.09,24.94 L59.09,24.94 Z" id="Path" fill="#E0E0E0"></path>
            <path d="M85.22,23.13 C82.9841225,23.1229571 80.9376313,21.8732659 79.9100698,19.8874877 C78.8825084,17.9017094 79.044353,15.5092921 80.33,13.68 C77.8835296,14.5444913 76.2699492,16.8836307 76.3306849,19.4776379 C76.3914207,22.0716452 78.1127095,24.3327023 80.596959,25.0817465 C83.0812085,25.8307906 85.7654723,24.8980837 87.25,22.77 C86.5994905,23.0074102 85.9124779,23.1292449 85.22,23.13 Z" id="Path" fill="#E0E0E0"></path>
            <path d="M32.44,89.66 L32.44,34.73 L23.84,34.73 C22.4440178,34.8210102 21.3844216,36.0236743 21.47,37.42 L21.47,98.73 L84.47,98.73 L84.47,89.66 L32.44,89.66 Z" id="Path" fill="#E0E0E0"></path>
            <path d="M83,99.4999999 L22.36,99.4999999 C21.1007908,99.4999999 20.08,98.4792092 20.08,97.22 L20.08,36.22 C20.1125301,34.9842829 21.1238549,33.9999999 22.36,33.9999999 L83,33.9999999 C84.2592092,33.9999999 85.28,35.0207908 85.28,36.28 L85.28,97.28 C85.2474699,98.5157171 84.2361451,99.4999999 83,99.4999999 Z M22.38,35.5 C21.9492179,35.5 21.6,35.8492179 21.6,36.28 L21.6,97.28 C21.6,97.7107821 21.9492179,98.06 22.38,98.06 L83,98.06 C83.2068689,98.06 83.4052649,97.9778217 83.5515433,97.8315433 C83.6978217,97.6852649 83.78,97.4868689 83.78,97.28 L83.78,36.28 C83.78,36.0731311 83.6978217,35.8747351 83.5515433,35.7284567 C83.4052649,35.5821783 83.2068689,35.5 83,35.5 L22.38,35.5 Z" id="Shape" fill="#221F1F"></path>
            <path d="M20.83,35.48 C20.6320028,35.4756915 20.4428457,35.3971735 20.3,35.26 L0.22,15.18 C-0.0724533781,14.8871825 -0.0724533781,14.4128175 0.22,14.12 C0.359287795,13.9770522 0.550412529,13.8964301 0.75,13.8964301 C0.949587471,13.8964301 1.14071221,13.9770522 1.28,14.12 L21.36,34.2 C21.6524534,34.4928175 21.6524534,34.9671825 21.36,35.26 C21.2171543,35.3971735 21.0279972,35.4756915 20.83,35.48 Z" id="Path" fill="#221F1F"></path>
            <path d="M84.51,35.48 C84.3115859,35.477696 84.1217206,35.398884 83.98,35.26 C83.8370522,35.1207122 83.7564301,34.9295875 83.7564301,34.73 C83.7564301,34.5304125 83.8370522,34.3392878 83.98,34.2 L104.06,14.12 C104.199288,13.9770522 104.390413,13.8964301 104.59,13.8964301 C104.789587,13.8964301 104.980712,13.9770522 105.12,14.12 C105.412453,14.4128175 105.412453,14.8871825 105.12,15.18 L85,35.26 C84.8673746,35.388312 84.6940151,35.4661469 84.51,35.48 L84.51,35.48 Z" id="Path" fill="#221F1F"></path>
            <path d="M24.83,28.2 C22.0312166,28.256881 19.4762255,26.6147306 18.3655334,24.0451417 C17.2548414,21.4755528 17.8092609,18.4893752 19.7682882,16.4897163 C21.7273154,14.4900573 24.7014841,13.8744613 27.2933294,14.9321767 C29.8851747,15.9898921 31.579422,18.5106387 31.58,21.31 C31.6133275,25.0744349 28.5943259,28.1560529 24.83,28.2 Z M24.83,15.92 C22.638106,15.8630486 20.6301594,17.1395565 19.7516005,19.1484808 C18.8730415,21.1574052 19.2989868,23.4983222 20.8288802,25.0690128 C22.3587737,26.6397034 24.6876731,27.1270936 26.7190179,26.3016961 C28.7503627,25.4762986 30.0792602,23.5026336 30.08,21.31 C30.1133812,18.3739534 27.7659084,15.9638813 24.83,15.92 Z" id="Shape" fill="#30302F"></path>
            <path d="M56.24,28.06 C53.4420299,28.1128012 50.8900635,26.4679979 49.7825415,23.8980135 C48.6750194,21.3280291 49.2319766,18.3434505 51.1918578,16.3458793 C53.1517389,14.3483081 56.1251684,13.734608 58.7157803,14.7929815 C61.3063923,15.851355 62.9995018,18.3715317 63,21.17 C63.0186533,22.980521 62.3165865,24.7241498 61.0485377,26.0165841 C59.7804889,27.3090185 58.0505479,28.0441669 56.24,28.06 L56.24,28.06 Z M56.24,15.78 C54.048106,15.7230486 52.0401594,16.9995565 51.1616005,19.0084808 C50.2830415,21.0174052 50.7089868,23.3583222 52.2388802,24.9290128 C53.7687737,26.4997034 56.0976731,26.9870936 58.1290179,26.1616961 C60.1603627,25.3362986 61.4892602,23.3626336 61.49,21.17 C61.5233812,18.2339534 59.1759084,15.8238813 56.24,15.78 L56.24,15.78 Z" id="Shape" fill="#30302F"></path>
            <path d="M40.47,16.76 C36.7056741,16.7160529 33.6866725,13.6344349 33.72,9.87 C33.72,6.14207794 36.7420779,3.12 40.47,3.12 C44.1979221,3.12 47.22,6.14207794 47.22,9.87 C47.2386607,11.6788047 46.537963,13.4209284 45.272072,14.7130749 C44.006181,16.0052214 42.2788066,16.7415298 40.47,16.76 L40.47,16.76 Z M40.47,4.48 C37.5340916,4.52388133 35.1866188,6.93395344 35.22,9.87 C35.22,12.7694949 37.5705051,15.12 40.47,15.12 C43.3694949,15.12 45.72,12.7694949 45.72,9.87 C45.7533812,6.93395344 43.4059084,4.52388133 40.47,4.48 L40.47,4.48 Z" id="Shape" fill="#30302F"></path>
            <path d="M40.47,14.23 C38.6988128,14.266569 37.0815858,13.2277884 36.3782922,11.6018057 C35.6749986,9.97582302 36.0254782,8.08594149 37.2650323,6.82026096 C38.5045864,5.55458044 40.3867475,5.16476325 42.0270439,5.83399368 C43.6673403,6.50322411 44.7396225,8.09843533 44.74,9.87 C44.7533305,11.0148206 44.3106169,12.1179027 43.5095379,12.9358662 C42.7084589,13.7538298 41.6148496,14.2194521 40.47,14.23 Z M40.47,6.23 C39.0057904,6.19759779 37.667104,7.05304789 37.0813903,8.39539623 C36.4956766,9.73774457 36.7790214,11.3009438 37.7986195,12.352314 C38.8182176,13.4036843 40.3719892,13.7348487 41.7316732,13.1905888 C43.0913573,12.6463289 43.9874706,11.3345145 44,9.87 C44.0133495,8.92330579 43.6479802,8.01050155 42.9851044,7.33448094 C42.3222287,6.65846034 41.4167738,6.2752399 40.47,6.27 L40.47,6.23 Z" id="Shape" fill="#30302F"></path>
            <path d="M71.11,10.52 C68.8775776,10.5103655 66.835092,9.26209165 65.808257,7.27981709 C64.781422,5.29754253 64.9400451,2.90907575 66.22,1.08 C63.7691233,1.94156149 62.1511243,4.28255173 62.2114434,6.87975149 C62.2717625,9.47695125 63.9966958,11.740303 66.4849274,12.4871553 C68.973159,13.2340077 71.6593879,12.2946833 73.14,10.16 C72.4891729,10.3962275 71.8023694,10.5180251 71.11,10.52 Z" id="Path" fill="#E0E0E0"></path>
            <path d="M68.33,13.78 C66.5211934,13.7615298 64.793819,13.0252214 63.527928,11.7330749 C62.262037,10.4409284 61.5613393,8.69880469 61.58,6.89 C61.58,3.16207794 64.6020779,0.14 68.33,0.14 C72.0579221,0.14 75.08,3.16207794 75.08,6.89 C75.1133275,10.6544349 72.0943259,13.7360529 68.33,13.78 Z M68.33,1.5 C65.3940916,1.54388133 63.0466188,3.95395344 63.08,6.89 C63.08,9.78949494 65.4305051,12.14 68.33,12.14 C71.2294949,12.14 73.58,9.78949494 73.58,6.89 C73.6133812,3.95395344 71.2659084,1.54388133 68.33,1.5 Z" id="Shape" fill="#30302F"></path>
            <path d="M68.33,11.25 C65.9480073,11.2225324 64.0377847,9.27204745 64.06,6.89 C63.9838098,5.31699067 64.77964,3.82974137 66.1306228,3.02041528 C67.4816056,2.2110892 69.1683944,2.2110892 70.5193772,3.02041528 C71.87036,3.82974137 72.6661902,5.31699067 72.59,6.89 C72.6122492,9.26819409 70.7080702,11.2170722 68.33,11.25 Z M68.33,3.25 C66.3622147,3.27743701 64.7877586,4.89214912 64.81,6.86 C64.666568,8.19977078 65.3005403,9.5038651 66.442763,10.2186278 C67.5849857,10.9333906 69.0350143,10.9333906 70.177237,10.2186278 C71.3194597,9.5038651 71.953432,8.19977078 71.81,6.86 C71.8160534,4.91907886 70.2703139,3.32892158 68.33,3.28 L68.33,3.25 Z" id="Shape" fill="#30302F"></path>
            <path d="M56.24,25.53 C54.4680104,25.5706526 52.8477637,24.5345349 52.141298,22.9089563 C51.4348324,21.2833777 51.7827664,19.3919017 53.0214589,18.1241319 C54.2601515,16.856362 56.1430467,16.4646418 57.784577,17.133206 C59.4261073,17.8017702 60.4995337,19.3975442 60.5,21.17 C60.5222492,23.5481941 58.6180702,25.4970722 56.24,25.53 L56.24,25.53 Z M56.24,17.53 C54.7714751,17.4893051 53.4247601,18.3425832 52.834357,19.6878139 C52.243954,21.0330446 52.5276366,22.6018815 53.5517482,23.6551701 C54.5758597,24.7084586 56.1361108,25.036089 57.4973919,24.4836988 C58.8586731,23.9313086 59.7494363,22.6090885 59.7500158,21.14 C59.7557444,19.1876487 58.1920841,17.5928043 56.24,17.56 L56.24,17.53 Z" id="Shape" fill="#30302F"></path>
            <path d="M82.36,23.53 C80.5888128,23.566569 78.9715858,22.5277884 78.2682922,20.9018057 C77.5649986,19.275823 77.9154782,17.3859415 79.1550323,16.120261 C80.3945864,14.8545804 82.2767475,14.4647633 83.9170439,15.1339937 C85.5573403,15.8032241 86.6296225,17.3984353 86.63,19.17 C86.6467165,21.5498295 84.7396605,23.497081 82.36,23.53 L82.36,23.53 Z M82.36,15.53 C80.892255,15.4933967 79.5485492,16.3493583 78.9613226,17.6950106 C78.374096,19.0406629 78.6603403,20.6079152 79.6853291,21.6591112 C80.710318,22.7103072 82.2698457,23.0360199 83.6298917,22.4829466 C84.9899378,21.9298733 85.8795437,20.6082013 85.8800153,19.14 C85.8856713,17.183813 84.3160035,15.5873895 82.36,15.56 L82.36,15.53 Z" id="Shape" fill="#30302F"></path>
            <path d="M24.83,25.67 C23.0588128,25.706569 21.4415858,24.6677884 20.7382922,23.0418057 C20.0349986,21.415823 20.3854782,19.5259415 21.6250323,18.260261 C22.8645864,16.9945804 24.7467475,16.6047633 26.3870439,17.2739937 C28.0273403,17.9432241 29.0996225,19.5384353 29.1,21.31 C29.1167165,23.6898295 27.2096605,25.637081 24.83,25.67 Z M24.83,17.67 C23.362255,17.6333967 22.0185492,18.4893583 21.4313226,19.8350106 C20.844096,21.1806629 21.1303403,22.7479152 22.1553291,23.7991112 C23.180318,24.8503072 24.7398457,25.1760199 26.0998917,24.6229466 C27.4599378,24.0698733 28.3495437,22.7482013 28.3500153,21.28 C28.3556713,19.323813 26.7860035,17.7273895 24.83,17.7 L24.83,17.67 Z" id="Shape" fill="#30302F"></path>
            <path d="M82.36,26.06 C79.5612166,26.116881 77.0062255,24.4747306 75.8955334,21.9051417 C74.7848414,19.3355528 75.3392609,16.3493752 77.2982882,14.3497163 C79.2573154,12.3500573 82.2314841,11.7344613 84.8233294,12.7921767 C87.4151747,13.8498921 89.109422,16.3706387 89.11,19.17 C89.1433275,22.9344349 86.1243259,26.0160529 82.36,26.06 L82.36,26.06 Z M82.36,13.78 C80.168106,13.7230486 78.1601594,14.9995565 77.2816005,17.0084808 C76.4030415,19.0174052 76.8289868,21.3583222 78.3588802,22.9290128 C79.8887737,24.4997034 82.2176731,24.9870936 84.2490179,24.1616961 C86.2803627,23.3362986 87.6092602,21.3626336 87.61,19.17 C87.6433812,16.2339534 85.2959084,13.8238813 82.36,13.78 Z" id="Shape" fill="#30302F"></path>
            <path d="M77.46,35.48 L63.89,35.48 L64.08,34.57 C64.6865249,31.4037161 67.4561473,29.1142785 70.68,29.1142785 C73.9038527,29.1142785 76.6734751,31.4037161 77.28,34.57 L77.46,35.48 Z M65.82,34 L75.54,34 C74.7807083,31.9736946 72.843894,30.631126 70.68,30.631126 C68.516106,30.631126 66.5792917,31.9736946 65.82,34 Z" id="Shape" fill="#30302F"></path>
            <path d="M47.55,35.48 L34.91,35.48 L34.91,34.77 C34.8989159,34.636897 34.8989159,34.503103 34.91,34.37 C34.9099999,31.9584572 36.1965426,29.7300998 38.2849999,28.5243284 C40.3734572,27.3185569 42.9465428,27.3185569 45.0350001,28.5243284 C47.1234574,29.7300998 48.4100001,31.9584572 48.41,34.37 C48.4153425,34.4732643 48.4153425,34.5767357 48.41,34.68 L48.36,35.38 L47.55,35.48 Z M36.34,34 L46.82,34 C46.6488835,31.2315588 44.3537245,29.0738827 41.58,29.0738827 C38.8062755,29.0738827 36.5111165,31.2315588 36.34,34 L36.34,34 Z" id="Shape" fill="#30302F"></path>
            <polygon id="Path" fill="#8DB602" points="66.37 67.17 66.37 65.57 64.07 65.57 64.07 55.12 59.09 55.12 52.7 72.11 46.31 55.12 41.31 55.12 41.31 65.57 39.13 65.57 39.13 67.17 41.31 67.17 41.31 70.37 39.13 70.37 39.13 71.97 41.31 71.97 41.31 77.29 45.15 77.29 45.15 69.98 44.77 60.22 51.3 77.29 54.06 77.29 60.61 60.2 60.23 69.98 60.23 77.29 64.07 77.29 64.07 71.97 66.37 71.97 66.37 70.37 64.07 70.37 64.07 67.17"></polygon>
            <path d="M74.84,35.1 L66.51,35.1 L66.71,34.59 C67.3131931,32.9164645 68.9010782,31.8009088 70.68,31.8009088 C72.4589218,31.8009088 74.0468069,32.9164645 74.65,34.59 L74.84,35.1 Z M67.65,34.35 L73.71,34.35 C73.1013812,33.2460958 71.9405639,32.5605388 70.68,32.5605388 C69.4194361,32.5605388 68.2586188,33.2460958 67.65,34.35 L67.65,34.35 Z" id="Shape" fill="#30302F"></path>
            <path d="M45.78,35.1 L37.38,35.1 L37.38,34.65 C37.3745509,34.5567462 37.3745509,34.4632538 37.38,34.37 C37.38,32.0117441 39.2917441,30.1 41.65,30.1 C44.0082559,30.1 45.92,32.0117441 45.92,34.37 C45.925316,34.4632576 45.925316,34.5567424 45.92,34.65 L45.78,35.1 Z M38.06,34.35 L45.06,34.35 C45.203432,33.0102292 44.5694597,31.7061349 43.427237,30.9913722 C42.2850143,30.2766094 40.8349857,30.2766094 39.692763,30.9913722 C38.5505403,31.7061349 37.916568,33.0102292 38.06,34.35 L38.06,34.35 Z" id="Shape" fill="#30302F"></path>
            <path d="M77.36,43.51 L26.83,43.51 C26.4157864,43.51 26.08,43.1742136 26.08,42.76 C26.08,42.3457864 26.4157864,42.01 26.83,42.01 L77.36,42.01 C77.7742136,42.01 78.11,42.3457864 78.11,42.76 C78.11,43.1742136 77.7742136,43.51 77.36,43.51 Z" id="Path" fill="#221F1F"></path>
            <path d="M67.5,50.86 L37,50.86 C36.5857864,50.86 36.25,50.5242136 36.25,50.11 C36.25,49.6957864 36.5857864,49.36 37,49.36 L67.5,49.36 C67.9142136,49.36 68.25,49.6957864 68.25,50.11 C68.25,50.5242136 67.9142136,50.86 67.5,50.86 Z" id="Path" fill="#221F1F"></path>
            <path d="M67.5,83.05 L37,83.05 C36.5857864,83.05 36.25,82.7142136 36.25,82.3 C36.25,81.8857864 36.5857864,81.55 37,81.55 L67.5,81.55 C67.9142136,81.55 68.25,81.8857864 68.25,82.3 C68.25,82.7142136 67.9142136,83.05 67.5,83.05 L67.5,83.05 Z" id="Path" fill="#221F1F"></path>
        </g>
    </g>
</svg>