<?xml version="1.0" encoding="UTF-8"?>
<svg width="135px" height="35px" viewBox="0 0 135 35" version="1.1" xmlns="http://www.w3.org/2000/svg" xmlns:xlink="http://www.w3.org/1999/xlink">
    <!-- Generator: sketchtool 49.2 (51160) - http://www.bohemiancoding.com/sketch -->
    <title>FD727E81-1BBB-47BC-A6FA-5C78770F5F14</title>
    <desc>Created with sketchtool.</desc>
    <defs>
        <polygon id="path-1" points="2.02312139e-05 0.0209055877 44.0868574 0.0209055877 44.0868574 34.9325626 2.02312139e-05 34.9325626"></polygon>
        <polygon id="path-3" points="0.0561715234 0.0481363433 2.15347784 0.0481363433 2.15347784 2.17118542 0.0561715234 2.17118542"></polygon>
    </defs>
    <g id="Symbols" stroke="none" stroke-width="1" fill="none" fill-rule="evenodd">
        <g id="logo-select-tarjeta-/-dinners" transform="translate(-7.000000, -5.000000)">
            <g id="img_diners" transform="translate(7.000000, 5.000000)">
                <g id="Group-3" transform="translate(0.000000, 0.046532)">
                    <mask id="mask-2" fill="white">
                        <use xlink:href="#path-1"></use>
                    </mask>
                    <g id="Clip-2"></g>
                    <path d="M33.6840472,17.468473 C33.7584306,8.87283719 26.797342,1.50651734 17.8281705,1.42087187 C8.85131118,1.3352264 1.62971195,8.51643064 1.62627264,17.4380588 C1.62283333,26.4062861 8.82096435,33.4181551 17.5286137,33.4878179 C26.6125636,33.560448 33.7473709,26.1488102 33.6840472,17.468473 Z M26.5703478,0.020871869 C27.0012726,0.181777457 27.4588353,0.116902697 27.9025058,0.166941233 C31.6026599,0.584580925 34.910396,1.94074663 37.7878141,4.30253854 C40.7851358,6.76265414 42.7714364,9.87893545 43.6272168,13.6701301 C44.781475,18.7832996 43.7614171,23.4484152 40.5712245,27.609369 C38.2531994,30.6328565 35.2483921,32.7265173 31.6511474,33.9641956 C30.1935559,34.4657948 28.6928044,34.785448 27.1480838,34.8628661 C24.4085077,35.0001012 21.666841,34.8853227 18.9264557,34.9249085 C17.2178622,34.949658 15.5170915,34.8949663 13.8393844,34.5250048 C11.0144326,33.9020857 8.48357514,32.6743882 6.27068497,30.8134538 C3.67245761,28.6282803 1.82818015,25.9259971 0.805155106,22.679764 C0.402756262,21.4029721 0.145280347,20.0963054 0.0839123314,18.7552457 C0.0777755299,18.6199663 0.0640183044,18.4866426 2.02312139e-05,18.3638391 L2.02312139e-05,16.745342 C0.0819566474,16.6276638 0.0839123314,16.4909682 0.0860028902,16.3567678 C0.0968603083,15.6707948 0.191137765,14.9918353 0.313469171,14.3209008 C1.07443256,10.1472688 3.02128227,6.65043834 6.32935549,3.95941715 C9.01154239,1.77748073 12.0998372,0.56050578 15.5286908,0.168627168 C15.9718218,0.117981696 16.429317,0.184677264 16.8593651,0.020871869 L26.5703478,0.020871869 Z" id="Fill-1" fill="#007BC1" mask="url(#mask-2)"></path>
                </g>
                <path d="M51.5176464,11.3789923 C51.5176464,12.9735491 51.5149489,14.5680385 51.518658,16.1625954 C51.5209509,17.1827206 52.0151994,17.7020559 53.025816,17.7462274 C53.3393324,17.7599171 53.6552765,17.7641657 53.9680511,17.7426532 C55.853263,17.6133757 57.2738988,16.7662274 58.087396,15.0202736 C58.7088988,13.6865645 58.8346021,12.2706493 58.5955366,10.8434721 C58.2340048,8.68520617 57.0655173,7.14203661 54.9362495,6.43745087 C53.9308931,6.1046474 52.8921551,6.07645857 51.8419528,6.18408863 C51.5856908,6.21032177 51.5092168,6.26508092 51.5113073,6.52801927 C51.5238507,8.14496532 51.5176464,9.76191137 51.5176464,11.3789923 Z M49.7067505,11.9361599 C49.7067505,10.4526724 49.7043227,8.96918497 49.709448,7.4856975 C49.7101224,7.26922351 49.678157,7.05929094 49.6303439,6.85266281 C49.5170491,6.36286513 49.1830318,6.0918343 48.6760376,6.05872254 C48.5415,6.05002312 48.405816,6.02925241 48.2723574,6.03842389 C48.0546696,6.05332755 48.0192649,5.94826012 48.0150164,5.75619846 C48.0099586,5.52893449 48.1339759,5.53345279 48.2923189,5.53931985 C50.0790048,5.60601541 51.8660954,5.49676686 53.6521744,5.54363584 C55.5327331,5.593 57.2736965,6.09156455 58.6817216,7.39978227 C60.391394,8.98820231 61.0674538,10.9602736 60.5752283,13.2546956 C60.0633786,15.6407649 58.585421,17.1891946 56.2645636,17.9353218 C55.1732919,18.286131 54.0470877,18.38958 52.9104306,18.3690116 C51.3822322,18.3413622 49.8544383,18.3190405 48.3262399,18.3621329 C48.1927813,18.365842 48.0200067,18.4297726 48.0185231,18.1804566 C48.0174441,17.994869 48.0176464,17.8391561 48.2730992,17.865659 C48.3370973,17.8723353 48.4043998,17.834975 48.4710954,17.8305241 C49.2588314,17.777316 49.7132919,17.5391272 49.7091108,16.3528362 C49.7039181,14.8806108 49.7078295,13.4083854 49.7078295,11.9361599 L49.7067505,11.9361599 Z" id="Fill-4" fill="#211D1E"></path>
                <path d="M127.31018,14.2270347 C127.31018,14.9123333 127.31018,15.5975645 127.310248,16.2828632 C127.310248,16.3053198 127.310989,16.3277765 127.311664,16.3502331 C127.339313,17.190368 128.09886,18.0547129 128.915729,18.1388748 C129.830585,18.2331522 130.595999,17.9289422 131.16544,17.1933353 C132.284024,15.7484894 132.243764,13.4566975 131.059159,12.0672852 C130.114564,10.9593565 128.849573,10.4885087 127.515257,11.64742 C127.364602,11.7781811 127.30229,11.9061098 127.305392,12.1039037 C127.31625,12.8115241 127.309641,13.5193468 127.31018,14.2270347 Z M127.309169,11.2595877 C127.722695,10.9466108 128.067502,10.6817842 128.441375,10.4556667 C130.136346,9.43088825 132.071664,10.1126127 132.948417,11.7527572 C134.314833,14.308499 132.785961,18.0075742 129.842319,18.571553 C128.797039,18.7719094 127.787165,18.6103969 126.832319,18.1477765 C126.588937,18.0298285 126.402878,18.0247707 126.21203,18.2243179 C126.074255,18.3683642 125.931828,18.4459846 125.715758,18.3131329 C125.490517,18.1745491 125.591876,18.0073044 125.615344,17.8426898 C125.763369,16.8071214 125.817724,15.7644721 125.821837,14.7205414 C125.831481,12.2489615 125.825479,9.7773815 125.82386,7.3057341 C125.823725,7.11502119 125.798571,6.92417341 125.802011,6.73373025 C125.812059,6.16718882 125.587155,5.78158189 125.001799,5.66565703 C124.90125,5.64576301 124.840084,5.60745857 124.835228,5.49375915 C124.830238,5.37594605 124.871645,5.30635067 124.98649,5.26737187 C125.687502,5.02952023 126.369294,4.7462158 127.013658,4.37949133 C127.192637,4.27759345 127.26493,4.36829672 127.296895,4.5217842 C127.317194,4.61909634 127.308764,4.7229499 127.308764,4.82390366 C127.309303,6.82369171 127.309169,8.82341233 127.309169,10.8231329 L127.309169,11.2595877 Z" id="Fill-6" fill="#211D1E"></path>
                <path d="M101.607846,11.6675771 C101.666179,14.0019894 102.476035,15.971026 104.503742,17.2696676 C105.866719,18.1425771 107.341574,18.3743593 108.844079,17.597683 C109.838039,17.0838102 110.420697,16.2226349 110.694224,15.150448 C110.745813,14.9482033 110.817432,14.856421 111.033164,14.9287813 C111.16379,14.9726156 111.200678,15.0375578 111.176468,15.1780299 C111.04537,15.9396002 110.917037,16.7017775 110.807653,17.4666522 C110.782971,17.639157 110.709127,17.7272977 110.564676,17.7869798 C109.160495,18.3670087 107.710996,18.7014306 106.179763,18.6260356 C104.99617,18.5677023 103.872798,18.2949181 102.845187,17.6971532 C101.228713,16.7569412 100.272923,15.3382611 99.876526,13.5243979 C99.4765549,11.6942148 99.6355048,9.94401252 100.708568,8.36388728 C101.904301,6.60289499 103.605139,5.63685453 105.699069,5.33055395 C107.256738,5.10268304 108.726873,5.47891618 110.182374,5.96143064 C111.043347,6.24675819 111.035659,6.25168112 111.066208,7.18278902 C111.081314,7.64257707 111.125216,8.101421 111.152865,8.56087187 C111.160688,8.69068882 111.264811,8.86838632 111.006054,8.88200867 C110.822692,8.89165222 110.707037,8.87438825 110.658077,8.63680636 C110.373424,7.25460983 109.546709,6.36774085 108.169435,6.02003372 C107.611324,5.8790896 107.038376,5.8119894 106.465967,5.87005299 C104.30959,6.08895472 102.773771,7.15669075 102.000197,9.21872351 C101.705967,10.0029528 101.595033,10.8246098 101.607846,11.6675771" id="Fill-8" fill="#211D1E"></path>
                <path d="M68.5128574,11.3292707 C68.8798516,11.0843382 69.1866917,10.8627389 69.509447,10.6675077 C70.1585318,10.2749547 70.8387726,9.97971387 71.6216532,9.97411657 C72.8758536,9.96507996 73.6516532,10.6472765 73.7709499,11.8990491 C73.8949672,13.1997813 73.801499,14.5040877 73.8267206,15.8065732 C73.836499,16.3120838 73.8235511,16.8180665 73.8321156,17.3236445 C73.8383873,17.6921898 73.9962582,17.8484422 74.3673661,17.8740684 C74.5017013,17.8833073 74.6380597,17.8884326 74.7715857,17.8757543 C74.9803044,17.8560626 75.0693892,17.9139239 75.065343,18.1482013 C75.0608921,18.4037216 74.9134066,18.3704075 74.7534451,18.3653497 C73.6412004,18.3302823 72.5288882,18.3178064 71.4168459,18.3637987 C71.2351021,18.3712168 71.1229538,18.3575944 71.1220771,18.1249355 C71.1212678,17.8974017 71.2268073,17.8774403 71.4111811,17.8748776 C72.2899576,17.8627389 72.3360173,17.8114865 72.3362197,16.93008 C72.3364894,15.5252919 72.3398613,14.1205713 72.3351407,12.7158507 C72.3305549,11.3555713 71.4453044,10.6885482 70.1304778,11.060263 C69.6099287,11.2074114 69.1375973,11.4685289 68.6755164,11.7465058 C68.5586474,11.8167755 68.5098902,11.9064672 68.5102274,12.0480183 C68.5148131,13.7899258 68.5089461,15.5318333 68.517106,17.2736734 C68.5190617,17.6932013 68.7037052,17.8590299 69.1213449,17.8762264 C69.2560173,17.8817563 69.3922408,17.889579 69.525632,17.8756869 C69.739341,17.8533651 69.7914027,17.947238 69.7902563,18.1470549 C69.7891098,18.3654846 69.6732524,18.3740491 69.508975,18.3683844 C68.3631464,18.3285963 67.2170482,18.3157158 66.0713545,18.3668333 C65.8736956,18.3756676 65.8237245,18.3053304 65.8204875,18.1184615 C65.8170482,17.9197909 65.894264,17.8793285 66.0769518,17.8741358 C67.0388112,17.8468911 67.0398227,17.8408892 67.0398227,16.8716792 C67.0398227,15.4219104 67.0203333,13.9718719 67.0489942,12.52271 C67.0610655,11.9167852 66.8222697,11.5423054 66.274341,11.3302148 C66.125237,11.272421 65.9467977,11.2445019 65.9639268,11.0025366 C65.9803815,10.7690684 66.1719037,10.7857254 66.302395,10.7424981 C66.9292929,10.5346561 67.553763,10.3219586 68.1623179,10.0638757 C68.4920867,9.9240106 68.5105645,9.94026301 68.5125202,10.3126522 C68.5142062,10.626843 68.5128574,10.9409663 68.5128574,11.3292707" id="Fill-10" fill="#211D1E"></path>
                <path d="M122.136566,17.1249335 C121.623503,17.5189027 121.191162,17.8769277 120.701432,18.1538931 C119.975738,18.5643844 119.204254,18.7644711 118.375921,18.5892688 C117.48015,18.3997023 116.880025,17.5972649 116.875642,16.6059355 C116.868696,15.0221012 116.874158,13.4382669 116.873214,11.8545 C116.872809,11.134606 116.711904,10.9355983 116.001046,10.7692303 C115.879119,10.7406368 115.763127,10.7239798 115.765555,10.5470915 C115.768185,10.3579971 115.895507,10.3631898 116.016422,10.3565809 C116.666451,10.3207717 117.317424,10.2981802 117.966644,10.250974 C118.269437,10.2289894 118.353667,10.3487582 118.352048,10.6364461 C118.342877,12.3101069 118.347395,13.9838353 118.348339,15.6574961 C118.348541,16.0416869 118.399119,16.4181898 118.549775,16.7747312 C118.845353,17.4743266 119.580285,17.8057139 120.369842,17.5802707 C121.007125,17.3982572 121.535834,17.0171012 122.052202,16.6176696 C122.161114,16.5334403 122.147289,16.4230453 122.147356,16.3129875 C122.148098,14.7853285 122.144187,13.2576696 122.151672,11.730078 C122.152819,11.494789 122.059418,11.3513497 121.859062,11.2505308 C121.546557,11.0932669 121.210854,11.0075539 120.876769,10.914895 C120.749245,10.8795578 120.609852,10.8618218 120.615516,10.6702322 C120.621518,10.4644807 120.770487,10.4758776 120.900237,10.4698083 C121.651557,10.434606 122.397684,10.3459258 123.144823,10.2647312 C123.625382,10.2125347 123.648647,10.2410607 123.648985,10.7442784 C123.650198,12.8560125 123.649322,14.9678141 123.649794,17.0795482 C123.649929,17.6816291 123.664495,17.6948468 124.279592,17.6874961 C124.414331,17.6858102 124.549071,17.6823709 124.683879,17.6798757 C124.787867,17.67792 124.892732,17.6705019 124.889023,17.8256753 C124.886056,17.947737 124.915256,18.0767447 124.732299,18.1010896 C123.931884,18.2073035 123.151566,18.4082669 122.371316,18.6088931 C122.186133,18.6565039 122.131711,18.5743651 122.134543,18.3998372 C122.14095,17.9989894 122.136566,17.5980067 122.136566,17.1249335" id="Fill-12" fill="#211D1E"></path>
                <path d="M78.2482996,12.6900694 L78.2482996,12.6889229 C78.753473,12.6889229 79.258579,12.6864952 79.7637524,12.6898671 C80.0728854,12.6918902 80.2066137,12.5427861 80.2114017,12.2359461 C80.2296773,11.0760231 79.2933092,10.3334701 78.1643401,10.6218998 C77.218396,10.8635954 76.8060838,11.5680462 76.5736272,12.4398767 C76.5182611,12.6472466 76.5677601,12.6961387 76.7666329,12.6927669 C77.2604094,12.6846069 77.7543882,12.6900694 78.2482996,12.6900694 M79.0661127,13.290262 C78.2909875,13.2903969 77.5158622,13.2901272 76.740737,13.2906667 C76.6080202,13.2907341 76.4616811,13.2624104 76.4541281,13.4722755 C76.4140029,14.582632 76.5435501,15.6501657 77.2718738,16.5526802 C78.1459971,17.6361965 79.4157755,17.839183 80.6401012,17.1047225 C80.9592823,16.9131329 81.2464981,16.6797322 81.5140222,16.4227958 C81.603579,16.3368131 81.6721628,16.3142216 81.7609104,16.4190193 C81.8261898,16.4961002 81.9150048,16.5530848 81.8208622,16.6723815 C81.0688006,17.6256089 80.2281262,18.4596744 78.9449277,18.6066204 C77.1705829,18.8098092 75.8485405,17.9738555 75.2778179,16.2887977 C74.8086561,14.9034316 74.887895,13.5275742 75.4718353,12.190763 C76.0561802,10.8529403 77.4996098,9.85237187 79.0109489,9.98279576 C80.5059682,10.1119383 81.8457466,11.1633545 81.8062283,12.9261676 C81.7998218,13.2118998 81.6911802,13.2964663 81.4252071,13.2934316 C80.6389547,13.284395 79.8525,13.2901946 79.0661127,13.290262" id="Fill-14" fill="#211D1E"></path>
                <path d="M114.555432,11.0161859 C114.555499,13.0605501 114.554487,15.1049143 114.556173,17.1492784 C114.556645,17.7470434 114.688216,17.8740954 115.290769,17.8782091 C115.380663,17.878816 115.471434,17.8869759 115.560181,17.8768603 C115.782455,17.8517062 115.778678,17.9898854 115.784613,18.1494422 C115.791626,18.3380645 115.700518,18.3753574 115.538264,18.3709066 C114.988177,18.3556657 114.437956,18.340762 113.887734,18.3400202 C113.292532,18.3391435 112.697329,18.351552 112.102262,18.3640279 C111.944324,18.3673324 111.816395,18.3769759 111.817204,18.1506561 C111.817879,17.9562341 111.860432,17.8780742 112.07704,17.8727466 C113.059198,17.8484692 113.059131,17.8412534 113.059131,16.8577466 C113.059198,13.7012726 113.059738,10.5449335 113.058052,7.38845954 C113.057917,7.11911464 113.047329,6.84943256 113.033235,6.58035742 C113.006058,6.06419171 112.856684,5.8812341 112.357782,5.70259249 C112.24732,5.66307418 112.082098,5.68330539 112.082705,5.47357514 C112.083245,5.2745 112.233158,5.2678237 112.348678,5.22729383 C112.973283,5.0083921 113.581096,4.75334393 114.161058,4.43281407 C114.449083,4.27372929 114.542484,4.32080058 114.551453,4.64726493 C114.563524,5.08500096 114.555297,5.52334393 114.555364,5.96141715 C114.555432,7.64634008 114.555364,9.33126301 114.555432,11.0161859" id="Fill-16" fill="#211D1E"></path>
                <path d="M75.392158,24.2786301 C75.392158,24.5474355 75.392158,24.8162408 75.392158,25.0849788 C75.392158,25.7232062 75.3927649,25.733052 76.037264,25.6944104 C76.5099326,25.6660867 76.9666859,25.5579846 77.1682563,25.0607013 C77.4050963,24.4766262 77.4446821,23.8771079 77.0795087,23.3272909 C76.7310597,22.802763 76.1799615,22.7648632 75.6132852,22.7863083 C75.4316763,22.7932543 75.3873699,22.8722235 75.3900674,23.0355568 C75.3969461,23.4498247 75.3923603,23.8642274 75.392158,24.2786301 M75.0849807,22.3269923 C75.7685934,22.3550462 76.451869,22.2778304 77.1360212,22.3859326 C78.0473025,22.5297765 78.5866667,22.9671079 78.7412331,23.730499 C78.906185,24.54521 78.5644798,25.2662505 77.8002119,25.7159229 C77.4242486,25.937185 77.4241811,25.9372524 77.6729576,26.3091021 C78.1472447,27.017869 78.6248362,27.7245453 79.0944027,28.4364143 C79.2754721,28.7109518 79.497341,28.9210193 79.8335838,28.9680906 C80.0160694,28.9936493 80.0730539,29.0815877 80.0524855,29.260027 C80.0282081,29.471106 79.8735742,29.3912601 79.7705299,29.3926763 C79.2878805,29.39942 78.804894,29.3849884 78.322447,29.3968574 C78.1332177,29.401578 78.0168882,29.3393333 77.9058189,29.18679 C77.257948,28.2965491 76.6595087,27.3741407 76.1405106,26.4043237 C75.9717148,26.0887842 75.7295472,26.1622235 75.4846146,26.1697765 C75.3701734,26.1733507 75.3937091,26.2802389 75.3937091,26.3530713 C75.393237,27.0046513 75.3789403,27.6569056 75.4024759,28.3077437 C75.4225048,28.8609326 75.57579,28.9892659 76.1301252,29.0011349 C76.2811175,29.0043719 76.4158574,28.9813757 76.4075626,29.2155857 C76.3995376,29.4418382 76.2566378,29.3953064 76.1304624,29.3955761 C75.2319942,29.3974644 74.3334586,29.3988805 73.4349904,29.3950366 C73.3046339,29.3944297 73.1321291,29.4614624 73.120395,29.2136975 C73.1092678,28.9786782 73.2542582,29.0091599 73.4029576,29.0003256 C73.8522929,28.9734855 74.0238536,28.7964624 74.025,28.3415299 C74.0287765,26.7460963 74.0350482,25.1505279 74.0212909,23.5551618 C74.0167052,23.0309037 74.0051734,22.709632 73.3030829,22.7223102 C73.1411657,22.72521 73.126869,22.6341696 73.1222832,22.507657 C73.1166185,22.3490443 73.201657,22.324632 73.3329576,22.3254412 C73.9169653,22.328948 74.500973,22.3269923 75.0849807,22.3269923" id="Fill-18" fill="#211D1E"></path>
                <path d="M81.9090501,24.020473 C81.9090501,24.9625732 81.9075665,25.904606 81.9097245,26.8467062 C81.910736,27.295974 81.9093873,27.7455116 81.9261118,28.1943073 C81.9482312,28.7858006 82.1430578,28.9750299 82.7242331,29.0024769 C82.8607264,29.0089509 83.0183276,28.9527081 83.0163044,29.2007428 C83.0144162,29.448238 82.855264,29.4023131 82.7205241,29.3946927 C81.9795896,29.3532861 81.2390597,29.3748661 80.4984624,29.3967158 C80.3724894,29.4003574 80.2509672,29.4135077 80.2535299,29.2173998 C80.2554855,29.063238 80.2943969,29.0097601 80.4595511,28.9972842 C81.0073449,28.9558776 81.2482312,28.7236908 81.2648882,28.1661859 C81.2934143,27.2122168 81.2893006,26.257236 81.2953699,25.3026599 C81.2989441,24.7523035 81.3039345,24.2016773 81.2928748,23.6514557 C81.2811407,23.0714942 81.0282505,22.7908198 80.4468054,22.7278333 C80.2679615,22.7084788 80.2583854,22.6295771 80.2550135,22.4915328 C80.2508324,22.3170048 80.3604181,22.3265809 80.4766802,22.3269181 C81.0491561,22.3282669 81.6218343,22.3373035 82.193973,22.323816 C82.385158,22.3192303 82.4742428,22.4317158 82.5773545,22.5480453 C83.8960925,24.0354441 85.2145607,25.5230453 86.5351195,27.0088256 C86.591025,27.0717447 86.6306782,27.1627177 86.7782312,27.1760029 L86.7782312,26.3803767 C86.7782312,25.5154249 86.7776917,24.6505405 86.7782987,23.7855886 C86.7787033,23.1809451 86.6440983,22.7090183 85.8498208,22.722236 C85.6841272,22.7249335 85.6758324,22.6263401 85.6738767,22.5038738 C85.6717861,22.3762823 85.7241175,22.3247601 85.8540019,22.3252996 C86.6511118,22.3287389 87.448289,22.329683 88.2453314,22.3254345 C88.3899846,22.3246927 88.4061021,22.3984017 88.4075183,22.514394 C88.4091368,22.6436715 88.3877592,22.7102322 88.2293487,22.7262823 C87.6080482,22.788999 87.4000039,22.9961667 87.3960925,23.6236715 C87.3844258,25.4769181 87.3958227,27.3302996 87.3875279,29.1836137 C87.3870559,29.2950202 87.5209865,29.4791917 87.3242042,29.5243748 C87.1478555,29.5648372 86.9632119,29.559105 86.8108709,29.3768892 C86.4220944,28.911841 86.0088382,28.4672938 85.6039441,28.0159355 C84.4414586,26.7201936 83.277894,25.4254634 82.1169595,24.1284403 C82.0736647,24.0800877 82.0530289,24.0115039 82.0218054,23.9523613 C81.9842428,23.9750877 81.9466802,23.9977466 81.9090501,24.020473" id="Fill-20" fill="#211D1E"></path>
                <path d="M57.8700318,27.1424798 C57.8700318,25.8863911 57.8842611,24.6301002 57.8618719,23.3744162 C57.8545886,22.9649364 57.5441069,22.7438092 57.0657736,22.7243873 C56.905947,22.7179807 56.7821994,22.722027 56.7923825,22.4987418 C56.8027678,22.2687803 56.9586156,22.3298786 57.0788565,22.3292042 C57.8088661,22.3255626 58.5389432,22.3264393 59.2689528,22.3287996 C59.3934422,22.3292717 59.5433555,22.2775472 59.5459181,22.5068343 C59.5480087,22.7011888 59.4576426,22.7173064 59.3007158,22.7254663 C58.8040395,22.7511599 58.5750222,22.9697919 58.5339528,23.4769884 C58.5032013,23.8571329 58.4959181,24.2401773 58.4981435,24.6218054 C58.507315,26.1385395 58.4668526,27.6556108 58.5215443,29.1723449 C58.5257929,29.2894162 58.6208796,29.4735877 58.4489143,29.5201869 C58.2878064,29.5638189 58.1070067,29.5691464 57.9606002,29.3990694 C57.506342,28.8713044 57.0353593,28.3578362 56.5703786,27.8393776 C55.482816,26.6265838 54.395658,25.4132505 53.3053304,24.2029518 C53.235263,24.1251965 53.1865058,24.0109576 53.0506195,23.9971329 C52.9863516,24.1268825 53.0181146,24.262499 53.0200029,24.3915067 C53.0384133,25.683 52.9648391,26.9759094 53.0589817,28.2660539 C53.0992418,28.8179615 53.2899547,28.9768439 53.85508,29.002605 C53.9915732,29.0088767 54.1513324,28.952499 54.1486349,29.2006686 C54.1459374,29.4474894 53.9865154,29.3944836 53.850157,29.3948208 C53.12008,29.3969788 52.3900029,29.3966416 51.6599933,29.3952929 C51.532604,29.3950906 51.3890299,29.4400713 51.3861975,29.213684 C51.3837697,29.017711 51.4738661,29.0087418 51.6293092,28.9979518 C52.1436541,28.9623449 52.3937794,28.6812659 52.4024788,28.0890983 C52.4190684,26.9543969 52.4139432,25.8194258 52.4171127,24.6845222 C52.4181243,24.3249461 52.4220356,23.9653025 52.4154268,23.6057938 C52.4062553,23.1043969 52.1191069,22.7766513 51.6277582,22.7275568 C51.4704942,22.7119114 51.3852534,22.698896 51.3863324,22.5069692 C51.3876811,22.2766031 51.536448,22.3292717 51.6607351,22.3289345 C52.1659759,22.3275183 52.6716888,22.342422 53.1763902,22.3258324 C53.4108699,22.3182119 53.5661782,22.3880096 53.7233073,22.566921 C55.0284904,24.0522967 56.3450703,25.5276243 57.6576715,27.0063911 C57.7081821,27.0632408 57.7538372,27.1244066 57.8017852,27.1836166 C57.824579,27.1698593 57.8473054,27.1561696 57.8700318,27.1424798" id="Fill-22" fill="#211D1E"></path>
                <path d="M114.572089,23.9466493 C114.572089,25.4588651 114.560287,26.8963603 114.5789,28.3335183 C114.584902,28.8004547 114.833341,28.9785568 115.372233,29.001553 C115.514931,29.0076224 115.661405,28.9655414 115.656414,29.2076416 C115.651154,29.4615434 115.484786,29.3933642 115.354632,29.3939711 C114.62442,29.397815 113.894141,29.3958593 113.163929,29.3964663 C113.028514,29.3966012 112.897551,29.4217553 112.894449,29.2050116 C112.891414,28.9969672 113.005653,29.0093757 113.149902,28.9992601 C113.608004,28.9670925 113.843967,28.7286339 113.907224,28.2524586 C113.974121,27.7489711 113.951462,27.2425838 113.952407,26.7372081 C113.954227,25.7369094 113.956048,24.7365434 113.951597,23.7363121 C113.948765,23.0901946 113.711723,22.8118805 113.077069,22.7265048 C112.920682,22.7054644 112.902474,22.6391734 112.897146,22.5111098 C112.890672,22.3546551 112.965123,22.3243083 113.100807,22.3255222 C113.684815,22.3307148 114.269025,22.3371888 114.85283,22.3252524 C115.046713,22.3212736 115.130403,22.4469769 115.231761,22.5610135 C116.567763,24.0646647 117.902416,25.5694624 119.236125,27.0751368 C119.273013,27.1168131 119.295875,27.1708979 119.31125,27.1961869 C119.461299,27.155657 119.42441,27.0739904 119.424545,27.0165337 C119.426973,25.915079 119.431424,24.8135568 119.424343,23.7121696 C119.41996,23.0177669 119.211915,22.7927958 118.521222,22.7251561 C118.375759,22.7109268 118.327002,22.6617649 118.325721,22.5224393 C118.324439,22.3796069 118.376838,22.3243083 118.52284,22.325185 C119.297965,22.3297033 120.073158,22.3297033 120.848283,22.3250501 C120.986867,22.3241734 121.055653,22.3570829 121.048235,22.5115819 C121.042301,22.6360713 121.039603,22.7331811 120.872763,22.7221888 C120.336568,22.6867168 120.04996,22.9516782 120.041462,23.624501 C120.017724,25.4898863 120.035663,27.3557437 120.031279,29.2214663 C120.031077,29.3214085 120.142416,29.4774586 119.998572,29.5161002 C119.850277,29.5560231 119.663476,29.5954066 119.526173,29.4466397 C119.47283,29.3889133 119.423466,29.3276127 119.371,29.2690771 C117.825268,27.5459171 116.279401,25.8228247 114.733129,24.1002042 C114.698331,24.0614952 114.657734,24.0279114 114.572089,23.9466493" id="Fill-24" fill="#211D1E"></path>
                <path d="M111.247406,26.2447197 C111.290768,25.3052495 111.131413,24.4135925 110.571481,23.6325328 C110.07177,22.9354326 109.380267,22.6209046 108.528668,22.7326484 C107.692646,22.8423015 107.164275,23.3448449 106.873889,24.1241513 C106.731124,24.5070607 106.663822,24.9035925 106.648379,25.3059239 C106.6094,26.3226098 106.764438,27.2994403 107.377714,28.1455771 C107.876885,28.8341802 108.57675,29.1017042 109.410479,28.9870607 C110.237868,28.8732938 110.752887,28.3793825 111.01913,27.5989971 C111.169313,27.1589008 111.220093,26.7055867 111.247406,26.2447197 M108.991962,29.5372823 C107.051587,29.5261551 105.652666,28.4765597 105.240623,26.79892 C104.662078,24.4429952 106.394612,22.2113574 108.820941,22.1879566 C110.148851,22.1751435 111.304323,22.5724171 112.124159,23.6686792 C113.455845,25.4491609 112.723408,28.8665501 109.759602,29.466001 C109.471307,29.5243343 109.182001,29.5435539 108.991962,29.5372823" id="Fill-26" fill="#211D1E"></path>
                <path d="M91.8549778,9.98052312 C92.6101416,9.95516667 93.2501898,10.1453401 93.8727717,10.4165732 C93.9965867,10.4705231 94.0650356,10.5398487 94.0716445,10.6898969 C94.0932919,11.1831339 94.131394,11.675764 94.1649778,12.1684615 C94.1719239,12.2702245 94.2024056,12.3877678 94.0450742,12.388105 C93.9228102,12.3884422 93.7723574,12.4515636 93.7244094,12.2458121 C93.6763266,12.0396561 93.6170491,11.8324884 93.532078,11.6392803 C93.1179451,10.6971802 91.8810761,10.2699644 90.9654788,10.7445212 C90.2504403,11.1150896 90.1024152,12.0425559 90.6628873,12.6644634 C90.9548911,12.9885 91.3365867,13.180157 91.7253632,13.3583266 C92.1630318,13.5588179 92.6057582,13.7489913 93.0384364,13.9598006 C94.236394,14.5435385 94.6364326,15.2960048 94.5764807,16.2591455 C94.5060087,17.3924306 93.7392457,18.2167177 92.5427042,18.5147235 C91.4419239,18.7889239 90.3861243,18.6324017 89.3743613,18.1305328 C89.2305173,18.0591166 89.1618661,17.9759663 89.1497274,17.8016407 C89.1105462,17.2424499 89.0480318,16.6846753 88.9845058,16.1275751 C88.9683208,15.986159 88.9726368,15.8901281 89.1385328,15.8527678 C89.3218276,15.8114961 89.3298526,15.9246561 89.36492,16.0531243 C89.4896792,16.5106195 89.670816,16.9436349 89.9874345,17.3065829 C90.5694865,17.9738757 91.3150742,18.1774017 92.1492746,17.9792033 C93.0927235,17.7551089 93.4183786,16.6055713 92.7806908,15.8530376 C92.482078,15.5006773 92.0815,15.2951956 91.6753247,15.1023247 C91.2301031,14.8909085 90.7775983,14.695475 90.351394,14.4453497 C89.3425308,13.8532495 88.99071,12.9757543 89.1183015,12.0588083 C89.2618083,11.0279605 90.0234461,10.2886445 91.0861243,10.0555135 C91.3625501,9.99488728 91.6408642,9.97681407 91.8549778,9.98052312" id="Fill-28" fill="#211D1E"></path>
                <path d="M85.1286927,11.7894162 C85.4370838,11.3509383 85.7111493,10.9256782 86.086843,10.583501 C86.5155424,10.1930385 86.9909085,9.92119846 87.600475,9.98492678 C88.2492225,10.0528362 88.6491936,10.6629422 88.4462071,11.279657 C88.2714769,11.810659 87.6784326,12.0381252 87.1893092,11.7616994 C86.1308121,11.1635973 85.1021224,11.7706686 85.0957832,13.0057842 C85.0885674,14.409763 85.0924114,15.8138092 85.094974,17.2177881 C85.0959855,17.7355048 85.2374692,17.8734817 85.7552534,17.8775954 C86.0921705,17.8802254 86.4296946,17.8905434 86.7658699,17.8742235 C86.9849066,17.8635684 86.9898295,17.9779422 86.9936734,18.1421522 C86.9978545,18.3199171 86.9345308,18.3758902 86.7589239,18.3700906 C85.3217659,18.3224123 83.8842707,18.3187033 82.4470453,18.3671908 C82.2690106,18.3731927 82.2121609,18.3112852 82.2117563,18.1366224 C82.2113516,17.960341 82.2437216,17.8601965 82.4506869,17.8751676 C82.6517852,17.8897341 82.854974,17.8824509 83.0568815,17.8751002 C83.3662842,17.863973 83.571631,17.7301773 83.5848487,17.3925183 C83.5940877,17.1572293 83.6059566,16.921738 83.6062938,16.6863815 C83.608317,15.2711407 83.6074403,13.8559672 83.6071705,12.440659 C83.6071031,11.7920462 83.5159952,11.6556204 82.9132399,11.4059672 C82.792527,11.3559961 82.6431532,11.3468247 82.6385,11.1627206 C82.6338468,10.9786166 82.7871994,10.9584528 82.9020453,10.9022775 C83.4750607,10.6218054 84.048683,10.3423449 84.6242611,10.0669981 C84.9735867,9.89988825 85.0568044,9.95262428 85.0634807,10.3465934 C85.0711012,10.7957264 85.069685,11.2448593 85.0742033,11.6939249 C85.0744056,11.7124701 85.0944345,11.7308805 85.1286927,11.7894162" id="Fill-30" fill="#211D1E"></path>
                <path d="M69.6894846,29.3969586 C68.8810453,29.397026 68.0726734,29.3972283 67.2643015,29.3967563 C67.1217389,29.3966888 66.9708815,29.4333073 66.9723651,29.1931628 C66.9737813,28.9733844 67.1078468,29.0084518 67.2405636,29.0015732 C67.7338006,28.9758121 67.8536368,28.854762 67.8542437,28.3666503 C67.8562669,26.7043863 67.8560645,25.0421898 67.8545135,23.3799258 C67.853974,22.8662553 67.7429046,22.7485771 67.2295713,22.7242996 C67.0829624,22.7172861 66.9724326,22.7207254 66.9725,22.516525 C66.9725674,22.2965443 67.1084538,22.3246657 67.241238,22.3271609 C68.7908141,22.3565636 70.3404576,22.3535289 71.8899663,22.3236541 C72.0756888,22.3201474 72.1483189,22.3685674 72.1422495,22.5673728 C72.1306503,22.9485963 72.1369894,23.3311012 72.1534441,23.7122572 C72.1612669,23.8938661 72.1011127,23.9783651 71.9207177,24.004396 C71.7051879,24.0354846 71.7569798,23.8662842 71.7342534,23.7662071 C71.576922,23.0734904 71.3342148,22.8690202 70.624369,22.8578931 C70.242606,22.8518237 69.8604383,22.8642996 69.4788776,22.8535096 C69.3042823,22.8485867 69.2445328,22.9031435 69.2468256,23.0817177 C69.2553902,23.7667466 69.2546484,24.4519778 69.2470954,25.1369393 C69.2452071,25.3086349 69.2931551,25.3788372 69.4743593,25.3714865 C69.7770857,25.3592129 70.0807563,25.3712842 70.3839547,25.3671705 C70.8294461,25.361236 70.9978372,25.2157736 71.0859778,24.7654942 C71.1031069,24.6780279 71.0921821,24.5653401 71.1758719,24.5242033 C71.2490414,24.4882592 71.351816,24.4884615 71.435843,24.5038372 C71.5606696,24.5267659 71.5303902,24.6405328 71.5232418,24.7244923 C71.4677408,25.3751281 71.4571532,26.0263035 71.5276927,26.6755231 C71.5500819,26.8815443 71.4386079,26.9289528 71.2845135,26.9555231 C71.0821339,26.9903208 71.1087717,26.8265154 71.0930588,26.7158507 C71.0055925,26.0997428 70.8900723,25.9880665 70.2833382,25.970263 C70.0252553,25.96271 69.7659586,25.981053 69.5086175,25.964868 C69.2946387,25.951448 69.2435886,26.0394538 69.2464884,26.237922 C69.2563343,26.9116214 69.2532322,27.585658 69.2494557,28.2594923 C69.2475674,28.5829894 69.4061127,28.7556965 69.7181455,28.8110626 C70.3120665,28.9165347 70.9059875,28.8950896 71.4913439,28.7751185 C71.9583478,28.6794249 72.192895,28.327132 72.3278372,27.8958025 C72.3699855,27.7609952 72.3855636,27.5989432 72.6092534,27.6729894 C72.8306503,27.7462264 72.7412958,27.8826522 72.7098699,28.0222476 C72.6313054,28.3713035 72.546604,28.720157 72.4940703,29.0734615 C72.4585983,29.3124595 72.3799663,29.4107832 72.1145328,29.4041069 C71.3066329,29.3840106 70.4979913,29.3968237 69.6894846,29.3969586" id="Fill-32" fill="#211D1E"></path>
                <path d="M124.063212,23.6265173 C123.77748,24.4911994 123.523578,25.2547929 123.274262,26.0198025 C123.239936,26.125342 123.156449,26.2639258 123.389715,26.2602168 C123.838848,26.2529335 124.28825,26.2580588 124.737586,26.2573844 C124.841776,26.2571821 124.916767,26.2322303 124.87327,26.0997832 C124.612152,25.305236 124.352451,24.5101493 124.063212,23.6265173 M126.496825,29.39592 C126.08141,29.3957852 125.665996,29.3919412 125.250717,29.3978757 C125.10721,29.3998988 125.021632,29.3809489 125.021767,29.2025771 C125.021902,29.0316233 125.093925,29.0100434 125.242692,28.9976349 C125.746044,28.9557563 125.804445,28.8609393 125.650013,28.382606 C125.516083,27.9677987 125.367855,27.5573748 125.24222,27.1401397 C125.190563,26.9685116 125.101006,26.9140896 124.928299,26.9165848 C124.35562,26.9248796 123.78247,26.9295328 123.210129,26.9144942 C123.005929,26.9090992 122.938289,27.0035116 122.88906,27.1717004 C122.782441,27.5364692 122.666179,27.8984056 122.550389,28.2604769 C122.367027,28.8339644 122.447884,28.9547447 123.047942,29.0033671 C123.138848,29.0107852 123.27062,28.9566329 123.291863,29.1072881 C123.312297,29.2518064 123.33617,29.4092052 123.097037,29.3968642 C122.435004,29.3626734 121.772566,29.3575482 121.110331,29.3956503 C120.99562,29.4022592 120.913279,29.3837813 120.918607,29.2378468 C120.923193,29.1111994 120.905457,29.0123362 121.097181,28.9940607 C121.511179,28.9545424 121.74222,28.6875578 121.873857,28.3030299 C122.511276,26.4407466 123.158809,24.5819701 123.7938,22.7188102 C123.842692,22.575236 123.905071,22.4986272 124.047094,22.4474422 C124.235784,22.3794653 124.425553,22.2963825 124.589898,22.1835597 C124.866796,21.9935212 124.971189,22.1086368 125.064252,22.3769027 C125.720486,24.2683863 126.38063,26.1585212 127.052037,28.0446098 C127.203434,28.4700048 127.254618,29.0029624 127.903906,29.013685 C128.051661,29.0161127 127.977412,29.1737139 127.98773,29.2622592 C128.003173,29.39592 127.903906,29.3961224 127.81037,29.3960549 C127.372499,29.39592 126.934696,29.3959875 126.496825,29.39592" id="Fill-34" fill="#211D1E"></path>
                <path d="M91.4171946,23.6219046 C91.1312601,24.4967697 90.8752004,25.2905077 90.6101715,26.0813459 C90.5609422,26.228157 90.612869,26.2590434 90.7416069,26.2586387 C91.1897958,26.2570202 91.6379171,26.2585713 92.086106,26.2574249 C92.1809904,26.2572225 92.2770212,26.2505462 92.2312987,26.1104788 C91.9688324,25.306895 91.7056917,24.5035809 91.4171946,23.6219046 M93.8588998,29.3958256 C93.443553,29.3956233 93.028341,29.3929933 92.6130617,29.3971069 C92.4771079,29.3984557 92.3750751,29.3946118 92.3756821,29.2093613 C92.376289,29.0460954 92.4364432,29.0105559 92.5914817,28.9973382 C93.102185,28.9535713 93.1595742,28.8618565 93.006896,28.3861532 C92.8735723,27.9707389 92.7268285,27.5596407 92.5991021,27.1425405 C92.5481195,26.9760376 92.4637553,26.9131859 92.287474,26.9161532 C91.7148632,26.9257293 91.1417129,26.9296407 90.5693044,26.9143324 C90.3666551,26.9089374 90.2956435,26.9994383 90.2460096,27.1685713 C90.1327823,27.5547177 90.0086975,27.937762 89.8888613,28.3220202 C89.7306532,28.8294191 89.8211541,28.956606 90.365104,29.0022611 C90.483659,29.0122418 90.6531291,28.9406233 90.6546802,29.169843 C90.6556243,29.3117987 90.6360674,29.4076946 90.4566166,29.3971744 C89.794921,29.358263 89.1327534,29.3477428 88.4707206,29.3952861 C88.3573584,29.4034461 88.2717129,29.3875983 88.2788613,29.2396407 C88.2848632,29.1155559 88.2605857,29.0123767 88.4550077,28.9938988 C88.8699499,28.9546503 89.0983603,28.6837543 89.229526,28.3007775 C89.8671464,26.438764 90.5136686,24.5797177 91.1498054,22.7171647 C91.198158,22.5755462 91.2604027,22.4947563 91.4054605,22.4463362 C91.5739865,22.3901609 91.7316551,22.2991204 91.8904701,22.2163748 C92.2865973,22.0101513 92.2871368,22.0080607 92.4395453,22.4417505 C93.1106146,24.3516445 93.7804027,26.2619432 94.4516744,28.1718372 C94.5927534,28.5732245 94.6899306,29.0106233 95.2600462,29.0132534 C95.4092177,29.0139277 95.3373969,29.170922 95.3477148,29.2596021 C95.3630906,29.3917794 95.2674644,29.3963651 95.1721079,29.3962303 C94.7343719,29.3958256 94.2967033,29.3960279 93.8588998,29.3958256" id="Fill-36" fill="#211D1E"></path>
                <path d="M98.7200896,25.7549422 C98.7200896,26.5866474 98.7146946,27.4183526 98.7219778,28.2499904 C98.7269682,28.815183 98.9012938,28.9826301 99.4722187,29.0019171 C99.6057447,29.0064355 99.7392033,28.9735934 99.7386638,29.1936416 C99.7381917,29.3997977 99.6277293,29.3981792 99.481525,29.3979094 C98.5039528,29.3952794 97.526448,29.3944701 96.5489432,29.3986513 C96.392421,29.3993931 96.298683,29.381657 96.301448,29.184605 C96.3041455,28.9905202 96.4147428,29.0065029 96.5428738,29.0014451 C97.2149547,28.974605 97.3192129,28.871763 97.3205617,28.2013006 C97.3238661,26.5378902 97.3185385,24.8744798 97.3250125,23.2111368 C97.3258218,23.0059923 97.2908892,22.9084778 97.0534422,22.9177168 C96.5708603,22.9363295 96.0869971,22.9187283 95.6038083,22.9257418 C95.1570356,22.9322832 95.049473,23.0268304 94.9371898,23.4747495 C94.9181724,23.5507514 94.8961879,23.626079 94.8779123,23.7022832 C94.8391358,23.8638632 94.7091166,23.8181407 94.6043863,23.8200289 C94.4687023,23.8224566 94.4747042,23.7227842 94.4854268,23.6313391 C94.5414672,23.1526686 94.637026,22.6780443 94.6287312,22.1928998 C94.6275173,22.1206744 94.6486927,22.0551252 94.7339335,22.0479094 C94.8328642,22.0396146 94.9395501,22.0177649 95.0031435,22.130183 C95.1084133,22.3164451 95.285369,22.3271002 95.4709566,22.3269653 C97.2130665,22.3257514 98.9551763,22.3265607 100.697219,22.3258863 C100.888606,22.3257514 101.085793,22.339104 101.171438,22.1030732 C101.2177,21.9756166 101.321217,22.046763 101.402883,22.0544509 C101.523731,22.0658478 101.500196,22.1569557 101.491159,22.2318112 C101.435793,22.6888343 101.390475,23.1465318 101.393442,23.6076686 C101.394791,23.8156455 101.221072,23.8352023 101.090648,23.8534104 C100.934329,23.8750578 100.977151,23.7196821 100.965485,23.6319461 C100.892922,23.0850289 100.720485,22.9254046 100.18456,22.9234489 C99.8023921,22.9220328 99.4189432,22.9426686 99.0385963,22.9165703 C98.7567081,22.8972832 98.7081532,23.0090944 98.7123343,23.259894 C98.726159,24.0913969 98.717527,24.923237 98.717527,25.7549422 L98.7200896,25.7549422 Z" id="Fill-38" fill="#211D1E"></path>
                <path d="M62.5855771,25.7273468 C62.5856445,24.8848516 62.5783613,24.0422216 62.5905674,23.1998613 C62.5938044,22.9779249 62.526974,22.911027 62.3073304,22.9185125 C61.8472726,22.9340906 61.3862707,22.9215472 60.9257408,22.924447 C60.4008083,22.9278189 60.2813092,23.0232428 60.1589778,23.5307091 C60.1381397,23.6170289 60.1529759,23.7198035 60.0792669,23.781711 C59.9949701,23.8525877 59.8853844,23.8359306 59.7890164,23.8108439 C59.6447678,23.7732813 59.7329085,23.6681464 59.7412033,23.5905934 C59.7889489,23.1450347 59.8385154,22.6996108 59.8899027,22.2543218 C59.8980626,22.1832428 59.8524075,22.0811426 59.9597004,22.0552466 C60.054315,22.0323854 60.1666657,22.0066243 60.2321474,22.116817 C60.3561647,22.3258054 60.5554422,22.3274239 60.7624075,22.3272216 C62.481184,22.3256031 64.1998931,22.3264123 65.9186021,22.3260751 C66.1215212,22.3260077 66.3325328,22.3415183 66.4288333,22.099553 C66.481974,21.9661618 66.5805,22.0532235 66.6590645,22.0558536 C66.782475,22.0598324 66.7625135,22.1578863 66.7505771,22.2291002 C66.6724171,22.6946879 66.6197486,23.1623661 66.6237274,23.6351021 C66.6253459,23.8331657 66.4541898,23.8353911 66.339816,23.8524528 C66.1662322,23.8784162 66.2409528,23.7172408 66.2281397,23.6355742 C66.1420222,23.0870385 65.9577158,22.924447 65.4037852,22.9233006 C64.9992958,22.9224239 64.5947389,22.9296397 64.1905867,22.9201985 C64.0182168,22.9161522 63.952263,22.9718555 63.9528699,23.1490809 C63.9586696,24.8340039 63.9461262,26.5191291 63.9662225,28.2039171 C63.9740453,28.8633198 64.0963767,28.9556416 64.7727736,28.9998805 C64.9023208,29.0083776 64.9854037,29.0234162 64.9854711,29.181894 C64.9854711,29.3374046 64.9348931,29.4002563 64.7707505,29.3993121 C63.7713285,29.3937148 62.7718391,29.3931753 61.7723497,29.3995145 C61.6044981,29.4006609 61.5650472,29.3367977 61.5641705,29.1823661 C61.5632938,29.0220674 61.6405771,28.9964412 61.7722148,29.0019037 C62.4639875,29.0306994 62.5668969,28.8417399 62.5817331,28.120025 C62.5982553,27.3227803 62.5855771,26.5249287 62.5855771,25.7273468" id="Fill-40" fill="#211D1E"></path>
                <path d="M64.0677832,13.7698565 C64.0679181,14.8594422 64.0675135,15.9490954 64.068053,17.038816 C64.0683902,17.7518988 64.1943632,17.8693073 64.9125039,17.8841435 C65.0574942,17.8871108 65.2937948,17.7549335 65.3166561,18.0734403 C65.33392,18.313922 65.2456445,18.3764364 65.0078603,18.3705694 C64.0872052,18.3479104 63.1660106,18.3465617 62.2450183,18.3409644 C62.0543054,18.3398179 61.8633227,18.3523613 61.6726098,18.3617351 C61.5123112,18.3695578 61.3682649,18.3995 61.364421,18.1435077 C61.3607119,17.9025539 61.4605867,17.8753767 61.6618198,17.8742977 C62.5412033,17.8697794 62.5897582,17.8154923 62.5897582,16.9406272 C62.5897582,15.4015713 62.5785636,13.8625154 62.5955578,12.3237293 C62.6015597,11.7780934 62.4071378,11.3948468 61.9081012,11.16529 C61.7736985,11.1034499 61.6133998,11.0566484 61.6390934,10.8379489 C61.6647871,10.6191146 61.8513863,10.6556657 61.9693343,10.6176985 C62.5335829,10.4357524 63.1013382,10.2657428 63.6513574,10.0415809 C63.9880048,9.90434586 64.0657601,9.95870039 64.0666368,10.3323709 C64.0694692,11.4781994 64.0677158,12.6240279 64.0677832,13.7698565" id="Fill-42" fill="#211D1E"></path>
                <path d="M130.918775,29.397026 C130.132252,29.3969586 129.34573,29.3992514 128.559343,29.3946657 C128.430605,29.3939239 128.257696,29.4651378 128.247243,29.2142033 C128.237464,28.9797909 128.379218,29.0091936 128.528254,28.9998873 C128.967339,28.9723728 129.137753,28.8150414 129.140383,28.3659759 C129.150364,26.669184 129.149353,24.9722572 129.141193,23.2753979 C129.139372,22.8988276 128.962618,22.7505328 128.563322,22.7227486 C128.416848,22.7126329 128.235913,22.7763613 128.248254,22.5087023 C128.261135,22.2281628 128.462705,22.3330954 128.591983,22.3318815 C129.445605,22.3237216 130.299362,22.3277678 131.153119,22.3272283 C131.296963,22.3271609 131.441886,22.2905424 131.437233,22.532238 C131.432985,22.7538372 131.300875,22.7180279 131.169372,22.7216696 C130.583746,22.7377197 130.50943,22.807315 130.508283,23.3885578 C130.505181,24.9843285 130.505653,26.5800992 130.508148,28.1758699 C130.508958,28.7152341 130.642686,28.8587408 131.179555,28.8747909 C131.560981,28.8861879 131.945644,28.8969104 132.324507,28.8617081 C132.866096,28.8111975 133.272879,28.5425944 133.474044,28.013211 C133.513832,27.9085482 133.555171,27.8044249 133.593408,27.6991551 C133.655518,27.5284037 133.800913,27.5851185 133.908274,27.6037312 C134.046385,27.6277389 133.975846,27.7410337 133.958245,27.8210819 C133.864844,28.2473536 133.752021,28.6703208 133.681279,29.1002341 C133.642031,29.3387601 133.552002,29.4080857 133.311857,29.4032303 C132.514478,29.3869104 131.716559,29.397026 130.918775,29.397026" id="Fill-44" fill="#211D1E"></path>
                <path d="M49.526369,22.3269653 C49.9756368,22.3268979 50.4247697,22.3276397 50.8739027,22.3264933 C51.0008873,22.3261561 51.1139123,22.3114547 51.1168121,22.5067534 C51.1197119,22.700973 51.0289412,22.7181021 50.8718121,22.725183 C50.3387197,22.7494605 50.2335848,22.8658574 50.2333825,23.4016474 C50.2326407,25.0417245 50.2326407,26.6818015 50.2333825,28.3218786 C50.2335848,28.8557803 50.3420915,28.9760212 50.8724191,28.9989499 C51.0289412,29.0056936 51.1215328,29.0190462 51.1167447,29.2150867 C51.1119566,29.4076879 51.0016291,29.3971676 50.873026,29.3970328 C49.9746252,29.3959538 49.0762919,29.394605 48.1778911,29.3983141 C48.0333054,29.398921 47.9506272,29.3761946 47.9496156,29.1998459 C47.948604,29.0236994 48.0295289,29.0069075 48.1746541,28.9990848 C48.7316195,28.9692775 48.8316965,28.8585453 48.8319663,28.3044123 C48.8325058,26.6642678 48.8327081,25.0241908 48.831764,23.3841137 C48.8314942,22.8753661 48.7124672,22.7475723 48.207631,22.7239017 C48.0647312,22.717158 47.9490087,22.7288921 47.9488064,22.5202408 C47.948604,22.3038343 48.0760607,22.3262235 48.2126214,22.3265607 C48.6504923,22.3277746 49.0884306,22.3270328 49.526369,22.3269653" id="Fill-46" fill="#211D1E"></path>
                <path d="M103.336327,29.3965607 C102.898456,29.3964933 102.46072,29.395684 102.022916,29.3970328 C101.894448,29.3974374 101.781355,29.4070809 101.774814,29.2161657 C101.768138,29.0205299 101.863697,29.0060983 102.020286,28.9989499 C102.556683,28.9748748 102.655344,28.8665029 102.655816,28.3224855 C102.657367,26.6824759 102.657367,25.0423988 102.655816,23.4022543 C102.655344,22.8570906 102.558571,22.7504046 102.021365,22.7252505 C101.863359,22.7178324 101.771375,22.6981407 101.774612,22.5054046 C101.777916,22.3100385 101.895662,22.3232563 102.021298,22.3274374 C102.908436,22.3567052 103.795575,22.3525915 104.682646,22.3260886 C104.831278,22.3216378 104.938234,22.3250096 104.933851,22.5306262 C104.930007,22.7137861 104.840045,22.7170231 104.702406,22.7244412 C104.175045,22.7528998 104.052039,22.8837283 104.051702,23.4013776 C104.050758,25.0414547 104.050758,26.6815318 104.051702,28.3216763 C104.051972,28.8379769 104.177271,28.9715029 104.701596,28.9998266 C104.837618,29.0072447 104.930816,29.0056262 104.933986,29.1912139 C104.93756,29.3950096 104.833571,29.4000674 104.683456,29.3983141 C104.234458,29.3933237 103.78546,29.3965607 103.336327,29.3965607" id="Fill-48" fill="#211D1E"></path>
                <path d="M62.4463526,6.21819171 C62.4500617,5.74666956 62.8895511,5.32397206 63.36458,5.33509923 C63.8313815,5.34595665 64.2484817,5.76521484 64.2490212,6.2241262 C64.2496281,6.71554239 63.8108131,7.15091811 63.3231734,7.1429605 C62.8514489,7.13527264 62.4425087,6.70387572 62.4463526,6.21819171" id="Fill-50" fill="#211D1E"></path>
                <g id="Group-54" transform="translate(132.716763, 22.031118)">
                    <mask id="mask-4" fill="white">
                        <use xlink:href="#path-3"></use>
                    </mask>
                    <g id="Clip-53"></g>
                    <path d="M1.61579961,1.72368593 C1.9544027,1.51732755 1.9573025,1.194842 1.88750482,0.867500963 C1.81028902,0.505564547 1.47472062,0.270208092 1.09241811,0.274861272 C0.704518304,0.279514451 0.41150289,0.520333333 0.303063584,0.923541426 C0.210809249,1.26666281 0.376907514,1.65746243 0.694065511,1.84331985 C1.01513487,2.03153757 1.36587669,1.98264547 1.62584778,1.71336802 L1.61579961,1.72368593 Z M2.1534104,1.13994798 C2.14639692,1.723079 1.68040462,2.17679769 1.09423892,2.17113295 C0.491618497,2.16540077 0.0434971098,1.6958343 0.0564450867,1.08377264 C0.0688535645,0.497202312 0.538082852,0.0391001927 1.11689788,0.0482716763 C1.71506744,0.0579152216 2.16076108,0.527279383 2.1534104,1.13994798 Z" id="Fill-52" fill="#211D1E" mask="url(#mask-4)"></path>
                </g>
                <path d="M13.9978015,17.5038776 C13.9978015,20.4804287 13.9978015,23.4569798 13.9978015,26.4335983 C13.9978015,26.9043786 13.9938902,26.9121339 13.5798921,26.7158237 C10.3171368,25.168473 8.31303276,22.6388969 7.70784971,19.065525 C6.94917919,14.5849855 9.45326397,10.0397062 13.6178593,8.2585501 C13.9968574,8.09649807 13.9976667,8.09649807 13.9976667,8.50678709 C13.997869,11.5057948 13.9978015,14.5048025 13.9978015,17.5038776" id="Fill-55" fill="#007BC1"></path>
                <path d="M21.337578,17.5022929 C21.337578,14.5138054 21.3375106,11.5253179 21.3376455,8.53683044 C21.3376455,8.09815029 21.3428382,8.08816956 21.752183,8.28319846 C25.0375973,9.84794798 27.053975,12.3997784 27.6253719,16.0085549 C28.3384547,20.5117534 25.8707861,24.9336898 21.6973565,26.7428324 C21.3393988,26.8980058 21.3377803,26.897736 21.3377129,26.501474 C21.3374432,23.5017919 21.337578,20.501975 21.337578,17.5022929" id="Fill-57" fill="#007BC1"></path>
                <path d="M133.646563,22.9170424 C133.699096,22.9757803 133.588229,23.1275819 133.765724,23.1307514 C133.913682,23.1333815 133.948277,23.0225819 133.954549,22.9044316 C133.960956,22.7837187 133.926091,22.6714355 133.784742,22.6621965 C133.586071,22.6490462 133.686013,22.8141329 133.646563,22.9170424 M134.342584,23.744499 C133.99427,23.7493545 133.942141,23.3941618 133.735715,23.2283333 C133.611765,23.2859923 133.638942,23.4021195 133.662478,23.4642967 C133.799713,23.8256262 133.547699,23.6918304 133.388817,23.7058574 C133.491592,23.3251734 133.482218,22.9640462 133.399472,22.5981985 C133.589915,22.5981985 133.783393,22.572842 133.96689,22.6047399 C134.190647,22.6436513 134.288836,22.8453565 134.144385,23.0004624 C133.938499,23.2217919 134.062247,23.3453372 134.193615,23.4964644 C134.259906,23.5728035 134.331861,23.6436127 134.332536,23.7545472 C134.332536,23.754817 134.342584,23.744499 134.342584,23.744499" id="Fill-59" fill="#211D1E"></path>
            </g>
        </g>
    </g>
</svg>