<?xml version="1.0" encoding="UTF-8"?>
<svg width="100px" height="45px" viewBox="0 0 100 45" version="1.1" xmlns="http://www.w3.org/2000/svg" xmlns:xlink="http://www.w3.org/1999/xlink">
    <!-- Generator: sketchtool 49.2 (51160) - http://www.bohemiancoding.com/sketch -->
    <title>6BA5CAF7-C76E-451C-BCCE-99574AB3D415</title>
    <desc>Created with sketchtool.</desc>
    <defs>
        <polygon id="path-1" points="0 0.0373293515 81.5843754 0.0373293515 81.5843754 15.9392807 0 15.9392807"></polygon>
        <polygon id="path-3" points="0.0100162116 0.0149523435 70.1920819 0.0149523435 70.1920819 16.1624923 0.0100162116 16.1624923"></polygon>
    </defs>
    <g id="Symbols" stroke="none" stroke-width="1" fill="none" fill-rule="evenodd">
        <g id="logo-select-tarjeta-/-american-xpress" transform="translate(-7.000000, 0.000000)">
            <g id="ing_american" transform="translate(7.000000, 0.000000)">
                <rect id="Rectangle-3" fill="#026ED0" x="0" y="0" width="100" height="45"></rect>
                <g transform="translate(5.000000, 5.000000)">
                    <g id="Group-3" transform="translate(0.000000, 0.022398)">
                        <mask id="mask-2" fill="white">
                            <use xlink:href="#path-1"></use>
                        </mask>
                        <g id="Clip-2"></g>
                        <path d="M50.7812073,8.03304949 C50.7812073,6.06241809 50.7777432,4.09178669 50.7860452,2.12121502 C50.7870009,1.90034471 50.7315742,1.83237543 50.5044923,1.83506314 C49.4894326,1.84712799 48.4740742,1.8489198 47.4590742,1.83356997 C47.2052346,1.82974744 47.1695179,1.92901365 47.1697568,2.14570307 C47.1750128,6.06701706 47.1760282,9.98839078 47.1698166,13.9097048 C47.1693985,14.151599 47.2303797,14.2373072 47.4842193,14.2340222 C48.4792705,14.2211212 49.4747398,14.2219573 50.4698507,14.2349181 C50.7186135,14.2382031 50.7882551,14.1633652 50.7870606,13.9149608 C50.7773251,11.9543635 50.7816254,9.99370648 50.7812073,8.03304949 M72.9827944,7.89770819 C73.1374872,7.98084812 73.1660964,8.09253754 73.2179394,8.18212799 C74.3285623,10.1011553 75.4361988,12.0218549 76.5444326,13.9423157 C76.6279906,14.0871536 76.6892705,14.2339625 76.910977,14.2317526 C77.9259172,14.2215392 78.9410367,14.2231519 79.9560367,14.2304386 C80.1590486,14.231872 80.2139974,14.1477765 80.2076664,13.9625034 C80.1978114,13.6742611 80.2037244,13.3854215 80.2037244,13.0968208 C80.2039633,9.46440614 80.2012756,5.83193174 80.2107125,2.19951706 C80.2114292,1.91676962 80.1438183,1.82694027 79.8492449,1.8332116 C78.9041852,1.85322014 77.958349,1.84999488 77.0131698,1.83500341 C76.7596288,1.83100171 76.6987671,1.90966212 76.7000213,2.15358703 C76.7096971,4.07422696 76.7058746,5.99498635 76.7062329,7.91568601 C76.7062927,8.0386041 76.7062329,8.16146246 76.7062329,8.30964505 C76.5541084,8.23970478 76.5298592,8.13601877 76.483093,8.0547901 C75.3371118,6.06456826 74.1918473,4.07380887 73.0533916,2.07922696 C72.9531101,1.90345051 72.8433319,1.83237543 72.6344667,1.83506314 C71.6792534,1.84742662 70.7237415,1.84700853 69.7684684,1.83470478 C69.5424019,1.83177816 69.4808831,1.90368942 69.4811817,2.12252901 C69.4862585,6.05351877 69.4866169,9.98450853 69.4798677,13.9154386 C69.4794497,14.1658737 69.5593643,14.2365904 69.8047227,14.2333652 C70.7499616,14.2208225 71.6956186,14.2188515 72.6407978,14.2343208 C72.9178712,14.2388003 72.9928285,14.1510614 72.9901408,13.8788857 C72.9767022,12.5255324 72.9832125,11.1720597 72.9827944,9.81858703 C72.9826152,9.19240956 72.9827944,8.56629181 72.9827944,7.89770819 M67.3910367,14.2341416 C67.9184258,14.2341416 68.4460538,14.2254812 68.9731442,14.2382031 C69.1973592,14.2436382 69.2240572,14.1617526 69.1620606,13.9742099 C68.9999019,13.4838515 68.8462841,12.9906263 68.6896203,12.4984164 C67.5928541,9.05282765 66.4933404,5.60801536 65.4051152,2.15973891 C65.3249616,1.90589932 65.2120179,1.82664164 64.9470691,1.83273379 C64.1016937,1.85220478 63.2555418,1.83870648 62.4096886,1.84133447 C62.1320179,1.84217065 61.8050128,1.76482423 61.5904735,1.88445734 C61.3682892,2.00827133 61.3950469,2.37959386 61.2907039,2.63468771 C61.2457295,2.74470478 61.2152688,2.86081399 61.1788353,2.97435495 C60.2960111,5.72723038 59.4125299,8.47986689 58.5324531,11.2335785 C58.4873592,11.374773 58.4264974,11.4464454 58.2632039,11.4428618 C57.6857637,11.4301399 57.1093985,11.4178959 56.545337,11.2732372 C55.8236561,11.0882031 55.3001493,10.6765051 55.040994,9.96127474 C54.8974104,9.56486689 54.8357125,9.15245222 54.8135538,8.73454266 C54.761651,7.75513993 54.792291,6.78320307 55.1618814,5.85588225 C55.3734343,5.32520819 55.7169838,4.87325427 56.280866,4.73397099 C57.1894326,4.50957679 58.0993729,4.56834812 58.9479735,5.00901365 C59.1168814,5.09669283 59.153494,5.06647099 59.2137585,4.91255461 C59.5036135,4.17241809 59.8030247,3.43604437 60.0997483,2.69859556 C60.2436903,2.34077133 60.2448251,2.33993515 59.8812073,2.20238396 C59.2762927,1.97351024 58.660209,1.78841638 58.019936,1.68108703 C55.1743643,1.20404778 52.8446544,2.34937201 51.7291937,5.05291297 C50.8153712,7.26776792 51.0163524,9.46930375 52.0214974,11.6135017 C52.3538183,12.3223413 52.7876749,12.9581348 53.4413268,13.4225717 C54.4507125,14.1398925 55.6089377,14.3225375 56.8034172,14.3724693 C58.1881271,14.4304044 59.5657892,14.2469232 60.9486476,14.240413 C61.1333234,14.2395171 61.1870179,14.1421621 61.2217193,13.9961297 C61.3067108,13.6384846 61.4057978,13.2837065 61.4756186,12.9231945 C61.5199957,12.6940222 61.6338353,12.6184078 61.8600213,12.6201997 C62.9047654,12.628442 63.9496288,12.6272474 64.9943729,12.6220512 C65.1655503,12.621215 65.24218,12.6857201 65.2781954,12.8503874 C65.3609172,13.2288771 65.468366,13.6020512 65.5472056,13.9812577 C65.5868046,14.1718464 65.6717961,14.242384 65.8685964,14.237785 C66.3758575,14.225959 66.8835367,14.2337833 67.3910367,14.2341416 M21.8835111,7.62851877 C21.910866,7.63437201 21.938221,7.64022526 21.9655759,7.6460785 C21.9655759,7.8128959 21.9655759,7.97971331 21.9655162,8.14653072 C21.9650384,10.0672901 21.9681442,11.9880495 21.9594838,13.9087491 C21.9584087,14.1483737 22.0174189,14.2395171 22.2732295,14.2354556 C23.1686561,14.2211809 24.0645606,14.2245256 24.9602261,14.2327679 C25.1722568,14.2346792 25.2587415,14.1796109 25.2583831,13.949244 C25.2524104,10.0081604 25.2525896,6.06701706 25.2570094,2.12593345 C25.2572483,1.913843 25.2063609,1.83213652 24.9742619,1.83416724 C23.6905503,1.84557509 22.4065998,1.84545563 21.1228285,1.83482423 C20.899151,1.83291297 20.8194753,1.90804949 20.7663183,2.11996075 C20.2634172,4.12439761 19.7485708,6.12584812 19.2365913,8.12795563 C19.1299787,8.54473038 19.0207381,8.9607884 18.912692,9.37714505 C18.8182039,9.27405631 18.7833234,9.17443174 18.7572227,9.07259727 C18.1631783,6.75262287 17.5672824,4.43312628 16.9814206,2.11106143 C16.9276067,1.8978959 16.8392705,1.83273379 16.6198336,1.83476451 C15.3858746,1.84617235 14.1517363,1.84019966 12.9176578,1.84031911 C12.498494,1.84037884 12.49718,1.84061775 12.4970606,2.25327133 C12.4963439,5.40816894 12.4962244,8.56306655 12.495866,11.7179044 L12.495866,12.1291843 C12.3881186,11.995814 12.3408746,11.8653106 12.2981698,11.733314 C11.2574275,8.51934642 10.2149531,5.30585666 9.18203498,2.08938055 C9.11711177,1.88726451 9.02381826,1.83476451 8.82313567,1.83661604 C7.80813567,1.84617235 6.79265785,1.85399659 5.77801621,1.83177816 C5.47860495,1.82526792 5.37462031,1.93534471 5.28986775,2.20232423 C4.6043814,4.36133447 3.90414249,6.51568601 3.20647184,8.67081399 C2.63733362,10.4289369 2.06729949,12.1867611 1.49254693,13.9431519 C1.43049061,14.132785 1.42308447,14.2346195 1.67537116,14.2324096 C2.70034556,14.22357 3.72549915,14.2264966 4.75053328,14.2307372 C4.90648038,14.2313345 4.98322952,14.1714881 5.02306741,14.021872 C5.12531997,13.6378874 5.24835751,13.2592782 5.34493601,12.8739795 C5.3887756,12.699099 5.47042235,12.6262321 5.65121587,12.6271877 C6.70611348,12.633041 7.76101109,12.6344147 8.8159087,12.6311894 C8.9909087,12.6307116 9.05571246,12.7085956 9.08981655,12.871471 C9.16513225,13.2311468 9.27413396,13.5840734 9.34258106,13.9448242 C9.38415102,14.1641416 9.48198379,14.2346792 9.70225683,14.233843 C11.6230162,14.226616 13.5438353,14.2245853 15.4645947,14.2352167 C15.732052,14.2367099 15.7948848,14.1551229 15.7933319,13.8956689 C15.781506,11.9550802 15.7858063,10.014372 15.7850896,8.07372355 C15.7850299,7.90977304 15.7850299,7.74582253 15.7850299,7.58193174 C15.8563439,7.63885154 15.8772483,7.69445734 15.8919411,7.75161604 C16.4224957,9.81040444 16.9560964,11.8684164 17.4771544,13.9296536 C17.5338951,14.1541075 17.6231271,14.2383225 17.8576749,14.2334846 C18.5241681,14.219628 19.1913183,14.220942 19.8578712,14.2340819 C20.0699019,14.2382628 20.1499957,14.1588259 20.201122,13.9614881 C20.5103882,12.7689198 20.8326152,11.5798157 21.1497654,10.3893379 C21.3948848,9.4691843 21.6389889,8.54879181 21.8835111,7.62851877 M45.9615401,14.2094147 C46.0795009,14.2136553 46.1974616,14.2208823 46.3154224,14.221599 C46.6877005,14.2238089 46.7252688,14.1654556 46.5986476,13.7892952 C46.2076749,13.609099 46.1996118,13.2378362 46.1914889,12.8967355 C46.1745862,12.181087 46.2045691,11.4644829 46.195192,10.7484761 C46.1847995,9.95858703 45.8374275,9.33521672 45.1953626,8.88033618 C44.9640401,8.71638567 44.717308,8.57417577 44.4726664,8.41888567 C44.5384258,8.32887713 44.6274787,8.31251195 44.7074531,8.2798413 C45.3318985,8.02486689 45.7534514,7.57237543 45.9961817,6.9485273 C46.2014633,6.42089932 46.2488268,5.870157 46.2498422,5.3086041 C46.2524104,3.85980717 45.562564,2.87753754 44.2475555,2.32004608 C43.1294667,1.84599317 41.9443643,1.73985836 40.7460623,1.71184642 C39.2824531,1.67762287 37.823622,1.79988396 36.362163,1.83064334 C36.1200896,1.83572014 36.0703968,1.91097611 36.0708148,2.13710239 C36.0772056,6.05698294 36.0791169,9.97692321 36.067948,13.8968038 C36.0671118,14.1911382 36.1694241,14.2367696 36.4247568,14.2333055 C37.3200043,14.2210017 38.2155503,14.2269147 39.1109172,14.229901 C39.6648848,14.2318123 39.5510452,14.2318123 39.5535538,13.7820085 C39.5601237,12.5981604 39.5546886,11.4141928 39.5540913,10.230285 C39.5540316,10.0805495 39.5297227,9.93093345 39.7668985,9.92926109 C40.2544497,9.92567747 40.7426578,9.90554949 41.2274616,9.96665017 C42.0353285,10.0684846 42.4636305,10.4894403 42.5987329,11.301727 C42.6231613,11.4483567 42.6331357,11.5977338 42.6435282,11.7462747 C42.6950128,12.4802594 42.7443473,13.2144232 42.7945776,13.9485273 C42.804134,14.0885273 42.7966681,14.2309761 43.0084599,14.2287662 C43.99282,14.2186724 44.97718,14.2152679 45.9615401,14.2094147 M29.7597056,4.7661041 C31.4816937,4.76723891 33.2036817,4.76873208 34.9256698,4.76831399 C35.0140657,4.76831399 35.1024616,4.75176962 35.1908575,4.74287031 C35.2050128,4.69688055 35.2313524,4.65089078 35.2314718,4.6048413 C35.2340998,3.75892833 35.2278882,2.91301536 35.2375043,2.06728157 C35.2400725,1.84479863 35.1247398,1.83798976 34.9570265,1.83816894 C32.140721,1.84127474 29.3244155,1.84264846 26.5081698,1.83649659 C26.2964974,1.83601877 26.2144326,1.87693174 26.214791,2.11159898 C26.2218985,6.05238396 26.2219582,9.99322867 26.2146715,13.9340137 C26.2142534,14.1783567 26.2997227,14.2327082 26.5244753,14.2322304 C29.420337,14.2267355 32.3162585,14.2263771 35.21218,14.233843 C35.4444582,14.2344403 35.4949872,14.1513601 35.4922995,13.9388515 C35.4821459,13.1428703 35.4752176,12.3463515 35.4949275,11.5507287 C35.5017961,11.2740137 35.4053968,11.2232457 35.1539462,11.2246792 C33.4523251,11.2345939 31.7505845,11.2255751 30.0489036,11.2342952 C29.7988865,11.2356092 29.6898251,11.179884 29.7039206,10.9044232 C29.7263183,10.4676399 29.7229138,10.0285273 29.7061305,9.59126621 C29.6965145,9.34142833 29.7784002,9.27023379 30.0292534,9.27190614 C31.4023166,9.28128328 32.7755589,9.26784471 34.1486817,9.27375768 C34.3698507,9.27471331 34.4440913,9.20692321 34.4405674,8.98533618 C34.4296374,8.29883447 34.4367449,7.61209386 34.4361476,6.9254727 C34.435849,6.4979471 34.4353114,6.49914164 33.9960196,6.49926109 C32.6624957,6.49967918 31.3289718,6.5003959 29.9955077,6.49621502 C29.8906869,6.49585666 29.7162841,6.55582253 29.7188524,6.36756314 C29.7260794,5.83372355 29.6508234,5.29725597 29.7597056,4.7661041 M64.5848848,15.7437406 C64.4690742,15.2917867 64.3438268,14.8419232 64.242291,14.3868038 C64.2030503,14.2108481 64.1408746,14.1322474 63.9497483,14.1390563 C63.5722739,14.1524949 63.1934258,14.1542867 62.8161305,14.138459 C62.6333063,14.130814 62.5739377,14.213715 62.5381613,14.3673328 C62.4479735,14.754244 62.3426152,15.1377509 62.2588183,15.5259761 C62.2263268,15.6766075 62.1705418,15.744756 62.0070094,15.7482201 C60.30718,15.7844744 58.6126664,15.9912491 56.9100896,15.9269829 C55.4525725,15.8719744 54.0448677,15.618314 52.8131783,14.7604556 C52.6910367,14.6754044 52.5770776,14.5787662 52.457564,14.4898925 C52.3976578,14.4453959 52.348622,14.3470256 52.260465,14.3960017 C52.1782807,14.4415734 52.2205077,14.5406007 52.2183575,14.6159761 C52.207965,14.9933311 52.2019326,15.3707457 52.194407,15.7481604 C49.6020776,15.746727 47.0096288,15.7461894 44.41718,15.7435614 C43.5630845,15.7426655 42.7089889,15.7364539 41.8548933,15.7326314 C41.7270179,14.7078362 41.6506869,13.676471 41.4593814,12.6598584 C41.3987585,12.3376911 41.326907,12.0181519 41.1900128,11.7182628 C41.1499957,11.6306433 41.1069326,11.4981092 40.9977517,11.5203874 C40.8754309,11.5453532 40.9227944,11.6862491 40.9225555,11.776198 C40.9198677,12.9890734 40.9224957,14.2018891 40.9222568,15.4147048 C40.9222568,15.5237662 40.911506,15.6328276 40.9058916,15.7418294 C30.615593,15.7424863 20.3251749,15.7430239 10.0347568,15.7442782 C9.5174616,15.7443379 9.00016638,15.7503703 8.48281143,15.7535956 C8.27352816,15.3347901 8.20060154,14.8728618 8.07224829,14.4290307 C8.01013225,14.2143123 7.91994454,14.1206604 7.68462031,14.1383396 C7.37953498,14.161215 7.06907423,14.1671877 6.7653029,14.1369659 C6.50351962,14.1109249 6.43178754,14.2336041 6.37020904,14.450413 C6.24639505,14.8860614 6.16128413,15.3344915 5.97212884,15.7502509 C3.98549061,15.7491758 1.99873294,15.7481007 0.011975256,15.7470853 C0.0100042662,15.2196365 -0.0143643345,14.6909932 0.0126322526,14.1650375 C0.0367619454,13.6949863 0.253869454,13.2663857 0.396139078,12.8238089 C1.70069539,8.76548123 3.01683874,4.71079693 4.31984215,0.651931741 C4.40513225,0.386206485 4.53067833,0.308740614 4.80482509,0.310950512 C6.45699232,0.324627986 8.10933874,0.322895904 9.7615657,0.312085324 C10.0051323,0.310472696 10.1056527,0.391940273 10.1765486,0.620395904 C10.4325981,1.44606143 10.7117022,2.26455973 10.9832807,3.08538737 C11.0066937,3.15598464 11.0385282,3.22377474 11.1290145,3.28129181 C11.1290145,2.83943174 11.1290742,2.39757167 11.1290145,1.95577133 C11.1288951,1.49790444 11.1382722,1.03979863 11.1244155,0.582290102 C11.1179053,0.366078498 11.2033746,0.312622867 11.4037585,0.313220137 C13.494023,0.319133106 15.5842875,0.321522184 17.6744923,0.313996587 C17.9019326,0.313220137 17.9818473,0.404303754 18.0321374,0.607255973 C18.2734343,1.58116382 18.526378,2.55214505 18.7768131,3.52378328 C18.7952688,3.59533618 18.8270435,3.66348464 18.9104821,3.73509727 C18.9635794,3.53996928 19.0188865,3.34549829 19.0694753,3.14971331 C19.2883148,2.30320307 19.5140828,1.45830546 19.7182295,0.608211604 C19.7738951,0.376590444 19.88218,0.313279863 20.1083063,0.313459044 C27.314663,0.318953925 34.5210196,0.315549488 41.727436,0.322716724 C42.8252176,0.323851536 43.9140401,0.420250853 44.9408063,0.865993174 C45.1603029,0.961317406 45.371378,1.0700802 45.5707466,1.20171843 C45.7142108,1.29644539 45.8114462,1.30432935 45.800994,1.08793857 C45.7980674,1.02839078 45.8011732,0.968544369 45.8007551,0.908877133 C45.796634,0.317759386 45.796634,0.3166843 46.3730589,0.316624573 C48.2045265,0.316564846 50.035994,0.322537543 51.8674019,0.312085324 C52.1378456,0.310532423 52.2404565,0.378023891 52.2203285,0.66059215 C52.1959599,1.00354437 52.214535,1.34960239 52.214535,1.77563481 C52.6496459,1.39839932 53.0352432,1.09409044 53.4683831,0.855302048 C54.8074019,0.117136519 56.2437756,-0.0705853242 57.7416084,0.0912150171 C58.586506,0.182477816 59.401779,0.397255973 60.1818131,0.734056314 C60.3709684,0.815703072 60.483494,0.797546075 60.503622,0.582827645 C60.5260196,0.343322526 60.6649445,0.312622867 60.8712415,0.313399317 C62.5334428,0.319849829 64.1958234,0.326837884 65.8578456,0.308680887 C66.1883148,0.305037543 66.3188183,0.422580205 66.4119923,0.723604096 C66.920448,2.36543857 67.4485538,4.00124061 67.9710452,5.63871502 C67.9935623,5.70931229 67.9904565,5.79621502 68.1130162,5.85988396 C68.1130162,5.64146246 68.1131357,5.44693174 68.1130162,5.2523413 C68.1120009,3.71950853 68.1161817,2.18667577 68.1047142,0.65390273 C68.1028029,0.395643345 68.173878,0.310890785 68.4402005,0.312622867 C70.0725384,0.323433447 71.704936,0.320865188 73.3372739,0.312622867 C73.5427346,0.311607509 73.6640998,0.37587372 73.7661732,0.554636519 C74.2052261,1.32302389 74.6568217,2.08424403 75.1048336,2.84749488 C75.157692,2.93756314 75.1958575,3.04106997 75.3395009,3.12707679 C75.3395009,2.87622355 75.3396203,2.66192321 75.3395009,2.44756314 C75.339023,1.88021672 75.337709,1.31287031 75.3383063,0.745523891 C75.3387244,0.318296928 75.3397995,0.317341297 75.7541254,0.317221843 C77.4064121,0.316863481 79.0586988,0.317162116 80.7109855,0.317162116 C80.8702773,0.317162116 81.0315998,0.333527304 81.1883234,0.313578498 C81.4818814,0.276249147 81.5849701,0.372469283 81.5843729,0.684303754 C81.5745179,5.61130034 81.5763695,10.5382969 81.5745179,15.4652935 C81.5744582,15.5628874 81.5941084,15.6659761 81.5258404,15.7529386 C81.3474957,15.7499522 81.1689718,15.7445768 80.9905674,15.7443379 C79.3234684,15.742128 77.6564292,15.7408737 75.9893899,15.7393208 C75.4688097,14.8604983 74.9482892,13.981616 74.4278285,13.1027338 C74.3976067,13.1068549 74.3674445,13.1109164 74.3372824,13.1149778 C74.3372824,13.9905154 74.3372824,14.8660529 74.3376408,15.7413515 C71.0869411,15.7419488 67.8359428,15.7428447 64.5848848,15.7437406" id="Fill-1" fill="#F6FAFA" mask="url(#mask-2)"></path>
                    </g>
                    <g id="Group-6" transform="translate(17.619454, 18.716937)">
                        <mask id="mask-4" fill="white">
                            <use xlink:href="#path-3"></use>
                        </mask>
                        <g id="Clip-5"></g>
                        <path d="M67.1831988,5.49806399 C67.6906988,5.49806399 68.1981988,5.4929872 68.7055196,5.50069198 C68.8944957,5.50355887 68.9367824,5.45458276 68.8979599,5.25790188 C68.7439241,4.47685239 68.4170384,3.781093 67.8765691,3.2020401 C66.6101186,1.84510324 65.0222176,1.35946331 63.2044872,1.53153669 C61.4320299,1.69936945 59.6504343,2.80885751 59.3887705,5.07471928 C59.2257756,6.48612713 59.5867654,7.68150256 60.9701015,8.50059812 C61.8643336,9.03013737 62.8647602,9.25536775 63.8460145,9.54026536 C64.4189753,9.70660495 64.9929514,9.88202304 65.4301527,10.322808 C65.7277125,10.6228166 65.7164838,10.9504787 65.3976015,11.2254616 C64.7380367,11.7943012 63.1061169,11.8414258 62.715622,10.6398985 C62.6625845,10.4767244 62.5648114,10.4366476 62.405878,10.4386186 C61.8488046,10.4455469 61.2913729,10.4473387 60.7343592,10.437006 C60.5245384,10.4331237 60.4592568,10.5103507 60.4622432,10.716349 C60.4720384,11.3928166 60.5046493,12.0725691 60.451791,12.745035 C60.4144616,13.2199838 60.6183695,13.4869633 60.9795981,13.7096254 C63.0677722,14.9970401 65.1927978,15.0198558 67.3008012,13.8075776 C68.7166288,12.99332 69.4427892,11.3240708 69.1650589,9.77887457 C68.9428746,8.54270563 68.1280794,7.80961689 67.0555026,7.29363567 C66.1738729,6.86951451 65.2243933,6.63962543 64.3051357,6.3230128 C63.8647688,6.17130631 63.4058268,6.0430128 63.066936,5.69880631 C62.6848029,5.31076024 62.8145299,4.70494966 63.3098456,4.49477048 C63.9932415,4.20473635 64.9969531,4.57289334 65.3612875,5.27289334 C65.456791,5.4564343 65.5610742,5.50606741 65.7504684,5.50176706 C66.2278063,5.49089676 66.7055623,5.49812372 67.1831988,5.49806399 M50.8543251,10.4433968 L50.8543251,10.4398729 C50.3467056,10.4398729 49.8389667,10.4465026 49.3315265,10.4366476 C49.1251698,10.4325862 49.0489582,10.4826971 49.086407,10.7085247 C49.2683353,11.8049923 49.7625162,12.7367329 50.6363814,13.4145145 C52.4621749,14.8306408 54.501552,15.0808968 56.6306391,14.2661015 C58.4877295,13.5553507 59.4495725,11.8266135 59.1892227,9.85132338 C59.0212108,8.57651109 58.1856305,7.82353328 57.0884462,7.29889164 C56.1875247,6.86814078 55.2174991,6.63771416 54.2752466,6.32665614 C53.8877978,6.19872099 53.4990947,6.06869539 53.1634889,5.82978754 C52.6728319,5.48062372 52.6920043,4.83043601 53.1931135,4.5464343 C53.919692,4.13461689 55.0549821,4.52773976 55.3595896,5.30395137 C55.4094019,5.43081143 55.4607073,5.50158788 55.609308,5.50087116 C56.6344616,5.49615273 57.6596749,5.49692918 58.6848285,5.49961689 C58.8351613,5.50003498 58.8923797,5.47088823 58.859709,5.29451451 C58.751006,4.70817491 58.5394531,4.16549573 58.2036084,3.6758541 C56.8108951,1.64525683 53.8095555,0.90368686 51.5346152,1.97715956 C49.2571664,3.05176706 48.9209036,5.74025683 49.6486766,7.19592235 C50.1008695,8.10042747 50.9156647,8.56814932 51.8115094,8.92047867 C52.5985913,9.22998379 53.4304684,9.39608447 54.2330196,9.65649403 C54.6787022,9.801093 55.1164411,9.97221075 55.4509718,10.3206578 C55.7523541,10.6345828 55.7217142,10.9713831 55.3830623,11.2446937 C55.2090776,11.385052 55.0100674,11.4745828 54.7977978,11.5312637 C53.9416715,11.759779 52.9462022,11.5290538 52.6518677,10.6031664 C52.6027722,10.4487722 52.5018933,10.4425009 52.3771834,10.4427995 C51.869564,10.4441732 51.3619445,10.4433968 50.8543251,10.4433968 M14.1138217,10.8488831 C14.1869275,10.969651 14.2372773,11.0431749 14.2780708,11.1217159 C14.7726101,12.0748387 15.2716288,13.025692 15.7542824,13.9847875 C15.8537278,14.1823046 15.9713899,14.2544548 16.1899309,14.2534991 C17.881936,14.2459735 19.5740606,14.2425094 21.2659462,14.2561869 C21.5654172,14.2585759 21.6292056,14.1540538 21.6255623,13.8778763 C21.6117654,12.8330128 21.6304599,11.7876715 21.6146323,10.742808 C21.6103319,10.4619718 21.6751954,10.3684991 21.9725759,10.3737551 C23.1777466,10.3950776 24.3807073,10.3584053 25.5506988,10.0174241 C26.7495981,9.66802133 27.6027381,8.94711689 27.9629514,7.72056399 C28.2139241,6.86611007 28.2431305,5.99236433 28.0902295,5.11951451 C27.8714497,3.87110154 27.1722858,2.99120392 26.0062363,2.47850768 C25.1528575,2.10324317 24.2511596,1.95464249 23.3339923,1.94592235 C20.9156476,1.92292747 18.4969445,1.93505205 16.0783609,1.92645137 C15.8926698,1.92573464 15.7888046,1.98707423 15.7085913,2.1526971 C15.4442995,2.69866126 15.1723626,3.24110154 14.8934974,3.77977901 C14.6858268,4.18084556 14.5157244,4.60305546 14.2446834,5.01260324 C14.1802381,4.89147696 14.1325759,4.80570904 14.0884377,4.71820904 C13.6719616,3.8920657 13.2471834,3.06998379 12.845878,2.23655375 C12.7350247,2.00624659 12.6040435,1.92400256 12.3478148,1.92459983 C8.80457253,1.9327227 5.26121075,1.93290188 1.7179087,1.9236442 C1.43778925,1.92292747 1.37471758,2.0082773 1.37531485,2.27842235 C1.38361689,6.14018857 1.38027218,10.0020145 1.37943601,13.8638404 C1.37937628,14.2489002 1.37865956,14.250035 1.77208106,14.250035 C5.16612543,14.2503336 8.56011007,14.2453763 11.9540947,14.2583968 C12.2610913,14.2595913 12.4127978,14.1622961 12.5458695,13.8950179 C13.0459633,12.8908285 13.5706647,11.8989428 14.1138217,10.8488831 M30.38918,1.88583703 C29.9117824,1.89557253 29.4342654,1.91605887 28.9569872,1.91062372 C28.7047602,1.90775683 28.6161254,1.98343089 28.616663,2.25130631 C28.624965,6.15237287 28.6242483,10.0534991 28.6169019,13.9545657 C28.6164241,14.2009991 28.7037449,14.255709 28.9297517,14.2532005 C29.8153234,14.2434053 30.7011937,14.2537978 31.5868251,14.2491391 C32.1998029,14.2459138 32.1188131,14.3192585 32.1216203,13.7024582 C32.126936,12.5480555 32.1237108,11.3936527 32.1242483,10.23925 C32.1243677,10.1008626 32.0992227,9.95984727 32.3172261,9.94909642 C32.9045811,9.92012884 33.4905026,9.89635751 34.0712875,10.0184394 C34.7211766,10.155035 35.1190179,10.5529957 35.2249138,11.1851459 C35.2610486,11.4006408 35.2793848,11.6193012 35.2993933,11.8371254 C35.3640179,12.540291 35.4239241,13.2438746 35.4897432,13.9468609 C35.5032415,14.0909224 35.4939838,14.2514087 35.7227978,14.2504531 C36.8174735,14.2458541 37.9121493,14.2497363 39.0068251,14.2490196 C39.0854855,14.2489599 39.1790179,14.2490196 39.1946067,14.1452739 C39.2089411,14.0501288 39.2443592,13.9261357 39.147064,13.8679616 C38.8231049,13.6742073 38.8128916,13.34332 38.7759206,13.0339343 C38.6919445,12.3304701 38.7132073,11.62175 38.7362022,10.9163746 C38.7698285,9.88578584 38.2883695,9.17718515 37.4278831,8.67983874 C37.2886596,8.59938652 37.1508097,8.51654522 36.9647602,8.40676706 C37.9306647,8.10556399 38.4629514,7.47448891 38.6896749,6.56926706 C38.7795043,6.21042747 38.8151613,5.84328584 38.8159377,5.47494966 C38.8188643,4.10678413 38.2607159,3.07314932 36.9881135,2.48824317 C35.5565776,1.83029096 34.0310913,1.76632338 32.491808,1.80436945 C31.7900162,1.80789334 31.0876869,1.79660495 30.38918,1.88583703 M43.2559206,9.36317491 C44.7179172,9.36562372 46.1799735,9.36872952 47.6420299,9.36878925 C47.7136425,9.36878925 47.8066374,9.40343089 47.8468336,9.29914761 C47.8535828,8.48381485 47.8513131,7.66824317 47.8722176,6.85320904 C47.8788473,6.59333703 47.8053234,6.51491553 47.5382244,6.51778242 C46.1951442,6.53193771 44.8518251,6.52064932 43.5086254,6.52847355 C43.2833353,6.52978754 43.1856817,6.47483874 43.1989411,6.22804693 C43.2191288,5.85105034 43.2212193,5.47112713 43.1989411,5.09436945 C43.1828746,4.82189505 43.2857841,4.7648558 43.5402807,4.76652816 C45.1720213,4.77745819 46.8038814,4.76760324 48.4356817,4.77745819 C48.6719616,4.77883191 48.7424991,4.71032509 48.7381391,4.4755384 C48.7245213,3.73952304 48.71825,3.0026715 48.7394531,2.26695478 C48.7476954,1.98092235 48.650878,1.92012031 48.385093,1.92083703 C45.5891544,1.92890017 42.7931561,1.92913908 39.9972773,1.91928413 C39.7238473,1.91826877 39.6483524,1.99334556 39.6489497,2.26779096 C39.6577892,6.14825171 39.6582073,10.0287722 39.6485316,13.9092927 C39.6478148,14.1923985 39.7364497,14.2558285 40.0018166,14.2551118 C42.8972602,14.2469889 45.7927637,14.2478251 48.6882073,14.2540367 C48.9150503,14.2545145 49.0026101,14.2017756 48.9980111,13.9561186 C48.9830196,13.1504616 48.9831988,12.3442073 48.9972944,11.5384906 C49.001535,11.2983882 48.9219787,11.2357944 48.6923882,11.2381834 C47.7174053,11.2482773 46.7422432,11.2415879 45.7671408,11.2415879 C45.010878,11.2416476 44.2547346,11.2445145 43.4985316,11.2408712 C43.3905452,11.2403336 43.2150674,11.2912807 43.2162619,11.1140111 C43.2202637,10.5304189 43.144709,9.94431826 43.2559206,9.36317491 M0.0107329352,0.361425768 C0.209384812,0.354437713 0.407917235,0.341536689 0.606509386,0.341476962 C4.80686775,0.340521331 9.00716638,0.343388225 13.207465,0.335265358 C13.4528234,0.334787543 13.5802807,0.406818259 13.674709,0.631391638 C13.8430196,1.03174147 14.0425077,1.41901109 14.2550759,1.86660495 C14.496552,1.402407 14.7192739,0.993994027 14.9217483,0.575785836 C15.0067398,0.40012884 15.1105452,0.335145904 15.3102722,0.335743174 C17.818506,0.34308959 20.3267398,0.338550341 22.8349735,0.341596416 C24.327849,0.343388225 25.7933097,0.485956485 27.1520981,1.25064078 C27.2234121,1.01041894 27.185366,0.783994027 27.1856049,0.563362628 C27.1858439,0.398337031 27.2324309,0.337236348 27.404564,0.337833618 C29.8828746,0.346195392 32.3619019,0.317227816 34.8392568,0.367517918 C35.9827295,0.39069198 37.1191544,0.581280717 38.1094872,1.24305546 C38.2617312,1.34477048 38.2996578,1.27644283 38.2930282,1.12903669 C38.2921323,1.10920734 38.2929684,1.08925853 38.2933268,1.06930973 C38.3066459,0.34034215 38.3066459,0.340282423 39.0220555,0.34034215 C42.565477,0.340581058 46.1088985,0.339685154 49.6522602,0.342790956 C50.1086937,0.343209044 50.0996152,0.235999147 50.1055282,0.784471843 C50.1065435,0.879676621 50.0546408,1.00958276 50.1456647,1.06196331 C50.2385401,1.11541894 50.319948,1.00169881 50.4045811,0.955231229 C51.8842568,0.142884812 53.4672005,-0.128693686 55.1325674,0.0848899317 C56.6285486,0.276673208 57.9506647,0.831835324 58.9411169,2.02225341 C59.075622,2.1839343 59.1346323,2.0742756 59.2105452,1.98486433 C59.8658097,1.21325171 60.6861596,0.696374573 61.6462705,0.387825085 C62.149709,0.226024744 62.6707671,0.156860922 63.1877039,0.0668523891 C63.7677125,0.0655981229 64.348378,0.0642841297 64.9290435,0.0630298635 C65.5964326,0.160563993 66.2662705,0.240180034 66.9110828,0.457645904 C68.6227381,1.03484727 69.6814582,2.21809812 70.1657244,3.93954863 C70.18418,4.00518857 70.1833439,4.07763737 70.183523,4.14692065 C70.1850759,4.78396843 70.1785657,5.42107594 70.1889582,6.05800427 C70.1921237,6.25289334 70.13168,6.31357594 69.9349991,6.30987287 C69.3180794,6.29840529 68.7008012,6.30509471 68.0837022,6.30778242 C67.9888558,6.30814078 67.889291,6.28257765 67.7669104,6.35287628 C68.2999138,6.61459983 68.7987534,6.89023976 69.2137363,7.29417321 C69.6427551,7.7117244 69.949692,8.20244113 70.148523,8.76524829 C70.1866886,8.87305546 70.1836425,8.98044454 70.1838814,9.0889087 C70.1854343,9.97477901 70.2031732,10.8611271 70.1811937,11.7464599 C70.1434462,13.2675862 69.4622602,14.4489855 68.2052466,15.29018 C67.4248541,15.8124326 66.5280538,16.0213575 65.6100503,16.0880128 C64.1500845,16.1940282 62.7069616,16.0940452 61.3251783,15.545035 C60.6233865,15.2661698 59.9993592,14.8696425 59.4697005,14.3291135 C59.3848882,14.2425691 59.3213387,14.1376886 59.185878,14.2807944 C58.0848114,15.4441561 56.6915009,15.9739343 55.1314326,16.1379445 C55.1023456,16.1409906 55.0743933,16.1540708 55.0462619,16.1624923 C54.5752551,16.1572363 54.1038302,16.1519804 53.6324053,16.1467244 C52.5922005,16.003977 51.5859804,15.7549753 50.6756817,15.2043524 C50.5347261,15.119122 50.4898114,15.1734138 50.4810316,15.3266135 C50.4562449,15.7579019 50.4511681,15.7581408 50.0214326,15.7581408 C44.9562875,15.7584991 39.8911425,15.7564087 34.8260572,15.7650691 C34.5564497,15.7655469 34.450494,15.6973387 34.4043251,15.4224753 C34.289052,14.7372875 34.1331049,14.0589684 33.9964497,13.3773046 C33.9306903,13.0491647 33.9917312,12.7237125 34.0307927,12.3986783 C34.0583865,12.1684906 34.064837,11.9386015 33.9748285,11.7222705 C33.9197005,11.5897961 33.8127892,11.4702227 33.6580367,11.4954872 C33.4862619,11.5234991 33.5578148,11.6879872 33.557337,11.791494 C33.5519616,13.0154787 33.5480196,14.2394633 33.5590691,15.4633882 C33.5611596,15.7009821 33.4877551,15.7638148 33.2554172,15.7627995 C31.3249224,15.7542585 29.3943677,15.7537807 27.4638729,15.7631578 C27.2314155,15.7642927 27.1838131,15.6865879 27.1850674,15.4725265 C27.19325,14.1192927 27.1888899,12.7659394 27.1884718,11.4126459 C27.1883524,11.0432944 27.1892483,11.0455043 26.8760998,11.212023 C26.0540179,11.6491647 25.1614582,11.8306152 24.2467398,11.9233114 C24.0298712,11.945291 23.8113899,11.9451715 23.6033012,12.0207261 C23.1116288,11.8865794 23.0496323,11.9297619 23.0504684,12.4106834 C23.0524394,13.517663 23.0551869,14.6247022 23.0576357,15.7317415 C22.9491715,15.7405811 22.8407073,15.7571852 22.7321834,15.7572449 C20.2750759,15.7586186 17.8179087,15.7548558 15.3608012,15.7636357 C15.1292398,15.7644718 15.0017824,15.6987722 14.9022773,15.487279 C14.6661766,14.9854531 14.4047517,14.4955128 14.1246323,13.9437551 C13.8902039,14.3732517 13.641023,14.7380043 13.4848968,15.1389514 C13.284035,15.6544548 12.9631817,15.7760589 12.4228916,15.7723558 C8.42405205,15.74518 4.4248541,15.75832 0.425835324,15.7574838 C0.287149317,15.7574241 0.148523038,15.7433285 0.0100162116,15.7359224 C0.0102551195,10.6111698 0.0104940273,5.48629778 0.0107329352,0.361425768" id="Fill-4" fill="#F6FAFA" mask="url(#mask-4)"></path>
                    </g>
                    <path d="M40.6770896,34.4486664 C40.6746408,33.3416271 40.6718933,32.2346476 40.6699224,31.1276084 C40.6690862,30.6466869 40.7310828,30.603564 41.2227551,30.737651 C40.7363985,30.7979155 40.7346664,30.7979155 40.7338899,31.2995623 C40.7324565,32.2347671 40.7344872,33.1699121 40.7314411,34.1050572 C40.7310828,34.2206288 40.767337,34.3458166 40.6770896,34.4486664" id="Fill-19" fill="#1B889F"></path>
                    <path d="M7.21677901,5.72224317 C7.17168515,5.77056229 7.15048208,5.78268686 7.14636092,5.79911177 C6.80382679,7.16476877 6.4640401,8.53108276 6.11977389,9.89632167 C6.07551621,10.0717995 6.15519198,10.0980196 6.30223976,10.0971237 C6.90828925,10.0935401 7.51451792,10.0882841 8.1203285,10.1015435 C8.35087457,10.1065606 8.35320392,10.0217483 8.30183874,9.8376698 C8.15258106,9.30275512 8.02171928,8.76276365 7.88034556,8.22563908 C7.66347696,7.4016459 7.44386092,6.57836945 7.21677901,5.72224317 M21.8835111,7.65088652 C21.6389889,8.57115956 21.3948848,9.49161177 21.1497654,10.4117654 C20.8326152,11.6021834 20.5103882,12.7913473 20.201122,13.9838558 C20.1499957,14.1811937 20.0699019,14.2606903 19.8578712,14.2565094 C19.1913183,14.2433097 18.5241681,14.2419957 17.8576749,14.2558524 C17.6231271,14.2606903 17.5338951,14.1764753 17.4771544,13.9520213 C16.9560964,11.8908439 16.4224957,9.83283191 15.8920009,7.77404352 C15.8772483,7.71688481 15.8563439,7.66127901 15.7850896,7.60429949 C15.7850896,7.76825 15.7850299,7.93214078 15.7850896,8.0960913 C15.7858063,10.0367398 15.781506,11.977448 15.7933319,13.9180964 C15.7949445,14.1774906 15.732052,14.2590776 15.4645947,14.2575845 C13.5438353,14.2469531 11.6230162,14.2490435 9.70225683,14.2562705 C9.48198379,14.2570469 9.38415102,14.1865691 9.34258106,13.9672517 C9.27413396,13.6064411 9.16513225,13.2535742 9.08981655,12.8938387 C9.05571246,12.7309633 8.9909087,12.6530794 8.8159087,12.6536169 C7.76101109,12.6567824 6.70611348,12.6554684 5.65121587,12.6496152 C5.47042235,12.6485998 5.38883532,12.7215265 5.34493601,12.896407 C5.24835751,13.2816459 5.12531997,13.6602551 5.02306741,14.0442398 C4.98322952,14.1938558 4.90648038,14.2537619 4.75053328,14.2531049 C3.72549915,14.2488643 2.70034556,14.2459377 1.67537116,14.2547773 C1.4231442,14.2569872 1.43049061,14.1551527 1.49254693,13.9655196 C2.06729949,12.2091886 2.63733362,10.4513643 3.20647184,8.69318174 C3.90414249,6.53805375 4.6043814,4.38370222 5.28986775,2.22469198 C5.37462031,1.95777218 5.47860495,1.84763567 5.77801621,1.85420563 C6.79265785,1.87636433 7.80813567,1.8685401 8.82319539,1.85904352 C9.02381826,1.85713225 9.11711177,1.90963225 9.18203498,2.11180802 C10.2149531,5.32828413 11.2574275,8.54171416 12.2981698,11.7557415 C12.3408746,11.8876783 12.3881186,12.0181817 12.495866,12.151552 L12.495866,11.7403319 C12.4962244,8.5854343 12.4963439,5.43059642 12.4970606,2.27569881 C12.49718,1.86298549 12.498494,1.86274659 12.9176578,1.86274659 C14.1517363,1.86256741 15.3858746,1.8685401 16.6198336,1.85713225 C16.8392705,1.85510154 16.9276067,1.92032338 16.9814206,2.13342918 C17.5672824,4.45549403 18.1631783,6.77499061 18.7572227,9.09502474 C18.7833234,9.19685922 18.8182039,9.29642406 18.912692,9.3995128 C19.0207381,8.98315614 19.1299787,8.56709812 19.2365913,8.15038311 C19.7485708,6.14821587 20.2634172,4.14682509 20.7663183,2.1423285 C20.8194753,1.93047696 20.899151,1.85534044 21.1228285,1.85719198 C22.4065998,1.86782338 23.6905503,1.86794283 24.9743217,1.85659471 C25.2063609,1.85450427 25.2572483,1.93621075 25.2570094,2.14836092 C25.2525896,6.08944454 25.2524104,10.0305282 25.2583831,13.9716715 C25.2587415,14.2020384 25.1722568,14.2571067 24.9602261,14.2551357 C24.0646203,14.2469531 23.1687159,14.2435486 22.2732295,14.2578234 C22.0174189,14.2618848 21.9584087,14.1707415 21.9594838,13.9311766 C21.9681442,12.010477 21.9650384,10.0897176 21.9655759,8.16895819 C21.9655759,8.00214078 21.9655759,7.83532338 21.9655759,7.66850597 C21.938221,7.66265273 21.910866,7.65673976 21.8835111,7.65088652" id="Fill-26" fill="#026ED0"></path>
                    <path d="M63.4144215,5.70981997 C63.3652065,5.76285751 63.3444812,5.77492235 63.3401212,5.79128754 C62.9810427,7.15395819 62.6239949,8.51716638 62.2643788,9.87971758 C62.224302,10.031663 62.259302,10.099035 62.4300017,10.0976015 C63.0661536,10.0923456 63.7026041,10.0901357 64.3386962,10.1004684 C64.5445154,10.1038131 64.5420666,10.0048456 64.5036621,9.86048549 C64.4270922,9.57278072 64.3501638,9.28513567 64.2747287,8.99713225 C63.990727,7.91320734 63.7072628,6.82910324 63.4144215,5.70981997 M67.3910427,14.2563899 C66.8835427,14.2562108 66.3758635,14.2483268 65.8686024,14.2601527 C65.671802,14.2647517 65.5868106,14.1942142 65.5471519,14.0036254 C65.468372,13.6244787 65.3609232,13.2513046 65.2782014,12.8728148 C65.242186,12.7081476 65.1655563,12.6435828 64.9943788,12.6444189 C63.9496348,12.6496749 62.9047713,12.6508695 61.8600273,12.6426271 C61.6338413,12.6408353 61.5200017,12.7163899 61.4756246,12.9455623 C61.4058038,13.306134 61.3067167,13.6609121 61.2217253,14.0184974 C61.1870239,14.1645896 61.1333294,14.2619445 60.9486536,14.2627807 C59.5657952,14.269291 58.1881331,14.4528319 56.8034232,14.3948968 C55.6089437,14.3449053 54.4507184,14.1622602 53.441273,13.4449991 C52.7876809,12.9805623 52.3537645,12.344709 52.0215034,11.6359292 C51.0163584,9.49173123 50.8153771,7.29013567 51.7291399,5.07528072 C52.8446604,2.37173976 55.1743703,1.22647526 58.019942,1.70345478 C58.660215,1.81078413 59.2762986,1.99593771 59.8812133,2.22475171 C60.2448311,2.36236263 60.2436962,2.36319881 60.0996945,2.72096331 C59.8030307,3.45841212 59.5036195,4.19484556 59.2137645,4.93498208 C59.1535,5.08883874 59.1168874,5.11906058 58.9479795,5.0313814 C58.0993788,4.59071587 57.1894386,4.53194454 56.280872,4.75639846 C55.7169898,4.89562201 55.3734403,5.34757594 55.1618874,5.87825 C54.7922969,6.80563055 54.761657,7.77756741 54.8135597,8.75691041 C54.8357184,9.17481997 54.8973567,9.58729437 55.041,9.98364249 C55.3001553,10.6988729 55.8236621,11.1105708 56.545343,11.2956049 C57.1094044,11.4402637 57.6857099,11.4525077 58.2631502,11.4652295 C58.4265034,11.4688131 58.4873652,11.3972005 58.532459,11.256006 C59.4125358,8.50223464 60.2960171,5.74959812 61.1788413,2.99678242 C61.2152747,2.88318174 61.2457355,2.76713225 61.2907099,2.65705546 C61.3949932,2.40202133 61.3682952,2.03063908 61.5904198,1.90682509 C61.8050188,1.78719198 62.1320239,1.86459812 62.4096945,1.86370222 C63.2555478,1.86107423 64.1016997,1.87463225 64.9470751,1.85516126 C65.2120239,1.84906911 65.3249676,1.92826706 65.4051212,2.18210666 C66.4933464,5.63044283 67.5928601,9.07519539 68.6896263,12.5208439 C68.8462901,13.012994 68.9999078,13.5062193 69.1620068,13.9966374 C69.2240631,14.1841203 69.1973652,14.266006 68.9731502,14.2606305 C68.4460597,14.2479087 67.9184317,14.2565094 67.3910427,14.2563899" id="Fill-28" fill="#026ED0"></path>
                    <path d="M72.9827824,9.84100853 C72.9832005,11.1944215 72.9766903,12.5479539 72.9901886,13.9013072 C72.9928166,14.1734829 72.9179189,14.2611621 72.6407858,14.2566826 C71.6956067,14.241273 70.7499497,14.243244 69.8047108,14.2557867 C69.5593524,14.2590119 69.4794377,14.1882952 69.4798558,13.9378601 C69.4866049,10.0068703 69.4862466,6.07594027 69.4811698,2.14495051 C69.4808712,1.92611092 69.5423899,1.85419966 69.7685162,1.85712628 C70.7237295,1.86937031 71.6792415,1.8697884 72.6344548,1.85748464 C72.8433797,1.85479693 72.9530981,1.92581229 73.0534394,2.10164846 C74.1918353,4.09623038 75.3370998,6.08693003 76.4830811,8.0772116 C76.529907,8.15838055 76.5540964,8.26212628 76.706221,8.33206655 C76.706221,8.18388396 76.7062807,8.06096587 76.706221,7.93810751 C76.7058626,6.01740785 76.7096852,4.09664846 76.7000094,2.17600853 C76.6987551,1.93208362 76.7596169,1.85336348 77.0131578,1.85742491 C77.9583968,1.87235666 78.9042329,1.87564164 79.8492329,1.85557338 C80.1438063,1.84936177 80.2114172,1.93919113 80.2107005,2.22193857 C80.2012637,5.85435324 80.2039514,9.48676792 80.2037125,13.1192423 C80.2037125,13.4077833 80.1977995,13.6966229 80.2076544,13.9849249 C80.2139855,14.170198 80.1590367,14.2542338 79.9560247,14.2528003 C78.9410247,14.2455734 77.9259053,14.2439608 76.9110247,14.2541143 C76.6893183,14.2563242 76.6279787,14.1095154 76.5444206,13.9646775 C75.4362466,12.0442765 74.3285503,10.1235768 73.2179275,8.20454949 C73.1660845,8.11495904 73.1374753,8.00326962 72.9827824,7.92012969 C72.9827824,8.58865358 72.982663,9.21483106 72.9827824,9.84100853 Z" id="Fill-30" fill="#026ED0"></path>
                    <path d="M40.1613592,7.28867833 C40.566308,7.38316638 40.9713763,7.39947184 41.3764445,7.2892756 C41.4831766,7.27028242 41.5897295,7.25009471 41.6967005,7.23241553 C42.3907875,7.11762031 42.7954974,6.72073464 42.8223148,6.12770563 C42.8534923,5.43851621 42.5785691,5.09281655 41.8316237,4.9064087 C41.1257108,4.73021416 40.4097039,4.85773123 39.6981169,4.85283362 C39.5258046,4.85163908 39.5569821,4.98763737 39.5565043,5.09042747 C39.5538763,5.58651962 39.5555486,6.08261177 39.5553097,6.57870392 C39.5550111,7.21121246 39.5548319,7.21121246 40.1613592,7.28867833 M45.9615043,14.2318183 C44.9771442,14.2376715 43.9927841,14.2410759 43.0084838,14.2511698 C42.796692,14.25332 42.8041578,14.1109309 42.7945418,13.9709309 C42.7443712,13.2368268 42.694977,12.502663 42.643552,11.7686783 C42.6330998,11.6201374 42.6231254,11.4707602 42.5987568,11.3241305 C42.4636544,10.5118439 42.0353524,10.0908882 41.2274855,9.98899403 C40.7426817,9.92789334 40.2544735,9.94808106 39.7669224,9.95160495 C39.5297466,9.95333703 39.5540555,10.1029531 39.5541152,10.2526288 C39.5546527,11.4365964 39.5601476,12.620564 39.5535776,13.8044121 C39.5510691,14.2542159 39.664849,14.2542159 39.1109411,14.2523046 C38.2155145,14.2493183 37.3200282,14.2433456 36.4247807,14.2556493 C36.169448,14.2591732 36.0670759,14.2135418 36.0679121,13.9192073 C36.0791408,9.99932679 36.0772295,6.07938652 36.070779,2.15950597 C36.0704206,1.93331997 36.1201135,1.85812372 36.3621869,1.85304693 C37.8236459,1.82228754 39.282477,1.70002645 40.7460862,1.73419027 C41.9443882,1.76226195 43.1294906,1.86839676 44.2475794,2.34244966 C45.5625282,2.89994113 46.2523746,3.88221075 46.2498063,5.33100768 C46.2488507,5.89256058 46.2014275,6.4433029 45.9961459,6.97093089 C45.7534155,7.59477901 45.3319224,8.04727048 44.707477,8.30224488 C44.6274428,8.33491553 44.5383899,8.35128072 44.4726903,8.44128925 C44.7173319,8.59651962 44.9640043,8.73878925 45.1953865,8.90268003 C45.8374514,9.35762031 46.1848234,9.98099061 46.1951561,10.7708797 C46.204593,11.4868865 46.1745503,12.2034906 46.1915128,12.9191391 C46.1995759,13.2602398 46.2076988,13.6315026 46.5986118,13.8116988 C46.6412568,14.0714514 46.5472466,14.1995657 46.2686203,14.1751971 C46.1660691,14.1662381 46.0517517,14.148977 45.9615043,14.2318183" id="Fill-32" fill="#026ED0"></path>
                    <path d="M29.7597056,4.78851365 C29.6508234,5.31966553 29.7260794,5.85613311 29.7188524,6.38991297 C29.7162841,6.57823208 29.8906869,6.51826621 29.9955077,6.51856485 C31.3289718,6.52280546 32.6624957,6.52202901 33.9960196,6.52167065 C34.4353114,6.52155119 34.435849,6.52035666 34.4361476,6.94782253 C34.4367449,7.63444369 34.4296374,8.32124403 34.4405674,9.00774573 C34.4440913,9.22933276 34.3698507,9.29712287 34.1486817,9.29616724 C32.7755589,9.29025427 31.4023166,9.30369283 30.0292534,9.2943157 C29.7784002,9.29264334 29.6965145,9.36383788 29.7061305,9.61367577 C29.7229138,10.0508771 29.7263183,10.4900495 29.7039206,10.926773 C29.6898251,11.2022338 29.7988865,11.257959 30.0489036,11.2567048 C31.7505845,11.2479249 33.4523251,11.2569437 35.1539462,11.2470887 C35.4053968,11.2455956 35.5017961,11.2964232 35.4949275,11.5731382 C35.4752176,12.3687611 35.4821459,13.1652201 35.4922995,13.9612611 C35.4949872,14.1737696 35.4444582,14.2568498 35.21218,14.2562526 C32.3162585,14.2487867 29.420337,14.2490853 26.5244753,14.2546399 C26.2997227,14.2551177 26.2142534,14.2007065 26.2146715,13.9564232 C26.2219582,10.0156382 26.2218985,6.07479352 26.214791,2.13400853 C26.2144326,1.8993413 26.2964974,1.85842833 26.5081698,1.85890614 C29.3244155,1.86505802 32.140721,1.8636843 34.9570265,1.8605785 C35.1247398,1.86039932 35.2400725,1.86720819 35.2375043,2.0896314 C35.2278882,2.93542491 35.2340998,3.78133788 35.2314718,4.62719113 C35.2313524,4.67324061 35.2050128,4.71923038 35.1907978,4.76527986 C35.1087927,4.71702048 35.0184258,4.7268157 34.9293131,4.72687543 C33.3001408,4.72723379 31.6709684,4.72723379 30.0417363,4.72848805 C29.9445009,4.72854778 29.8407551,4.70818089 29.7597056,4.78851365" id="Fill-34" fill="#026ED0"></path>
                    <path d="M50.7814164,8.0554471 C50.7816553,10.0161041 50.7773549,11.9767611 50.7870307,13.9373584 C50.788285,14.1857628 50.7185836,14.2606007 50.4698805,14.2573157 C49.4747696,14.2443549 48.4793003,14.2435188 47.4841894,14.2564198 C47.2303498,14.2597048 47.1694283,14.1739966 47.1698464,13.9321024 C47.1759983,10.0107884 47.1750427,6.08941468 47.1697867,2.16810068 C47.1694881,1.95141126 47.2052645,1.85214505 47.4591041,1.85596758 C48.4740444,1.87131741 49.4894625,1.8695256 50.5044625,1.85746075 C50.7316041,1.85477304 50.786971,1.92274232 50.7860751,2.14361263 C50.7777133,4.1141843 50.7812372,6.0848157 50.7814164,8.0554471" id="Fill-36" fill="#026ED0"></path>
                    <path d="M35.653634,23.77857 C35.6070469,23.8123754 35.5781391,23.8234249 35.56482,23.8444488 C35.0267398,24.692273 34.4921237,25.5423072 33.9512363,26.3883396 C33.8584206,26.5334164 33.9067398,26.643971 33.9817568,26.7711297 C34.4919445,27.6357372 34.9972346,28.5031519 35.5071237,29.3678788 C35.5380026,29.4201997 35.5534718,29.5062065 35.653634,29.4921109 L35.653634,23.77857 Z M39.2410145,24.8875802 C39.2410145,25.2458225 39.242866,25.6041246 39.2400589,25.9623669 C39.2391032,26.087913 39.2684292,26.1684846 39.4166715,26.1801911 C40.0641118,26.2314369 40.7110145,26.2412321 41.3468677,26.0939454 C41.9373285,25.9571109 42.2692312,25.5532969 42.2980794,24.9842782 C42.3303319,24.3480666 42.0939923,23.9884505 41.4622602,23.7806007 C40.7877039,23.5585956 40.0878234,23.6076314 39.3924224,23.6355239 C39.2310401,23.6419744 39.2408951,23.7622645 39.2405964,23.8725802 C39.23982,24.2109334 39.2403575,24.5492867 39.2410145,24.8875802 Z M27.1931903,28.0239027 C25.754308,28.0237833 24.3154258,28.0232457 22.8765435,28.0243208 C22.7797858,28.0244403 22.675622,28.0019232 22.5945725,28.0830324 C22.5058183,28.6562918 22.5833439,29.2330751 22.5581988,29.8077679 C22.5509718,29.97357 22.6728746,29.9644317 22.7848029,29.9644915 C24.327192,29.9650887 25.8695213,29.9648498 27.4119104,29.9681348 C27.5442056,29.9684334 27.6339155,29.9266843 27.7064241,29.8113515 C28.3572688,28.7764027 29.0109206,27.743186 29.6683353,26.7124181 C29.7424565,26.5961297 29.7438302,26.5057031 29.6719189,26.3872645 C29.1196834,25.478041 28.5726442,24.5655922 28.0263217,23.652785 C27.9666544,23.5529812 27.9046578,23.4865648 27.7727807,23.4868635 C26.101023,23.4908652 24.4293251,23.4909846 22.7575674,23.4884761 C22.6226442,23.4882372 22.55575,23.5273584 22.5567056,23.6724352 C22.5597517,24.1301229 22.5578404,24.58793 22.5540776,25.0456177 C22.5529428,25.1850802 22.6149991,25.2455836 22.7523712,25.2394317 C22.831808,25.2359078 22.9115435,25.2394317 22.9910998,25.2394317 C24.3046152,25.2393123 25.6181903,25.243971 26.9316459,25.2341758 C27.1552039,25.2325034 27.2357756,25.2994573 27.2228148,25.5222389 C27.2078831,25.7801399 27.2239497,26.0395939 27.2178575,26.2982116 C27.2042398,26.8733823 27.2520811,27.4493891 27.1931903,28.0239027 Z M31.7332756,29.565814 C31.1901186,30.6158737 30.6654172,31.6077594 30.1653234,32.6119488 C30.0322517,32.879227 29.8805452,32.9765222 29.5735486,32.9753276 C26.179564,32.9623072 22.7855794,32.9672645 19.391535,32.9669659 C18.9981135,32.9669659 18.9988302,32.9658311 18.9988899,32.5807713 C18.9996664,28.7189454 19.0030708,24.8571792 18.9947688,20.9953532 C18.9941715,20.7252082 19.0572432,20.6398584 19.3373626,20.6405751 C22.8806647,20.6498328 26.4240265,20.6496536 29.9672688,20.6415307 C30.2234974,20.6409334 30.3544787,20.7231775 30.4653319,20.9534846 C30.8666374,21.7869147 31.2914155,22.6089966 31.7078916,23.4351399 C31.7520299,23.5226399 31.799692,23.6084078 31.8641374,23.7295341 C32.1351783,23.3199863 32.3052807,22.8977765 32.5129514,22.4967099 C32.7918166,21.9580324 33.0637534,21.4155922 33.3280452,20.869628 C33.4082585,20.7040051 33.5121834,20.6427253 33.6978148,20.6433823 C36.1163985,20.6519829 38.5351015,20.6398584 40.9534462,20.6628532 C41.8706135,20.6715734 42.7723114,20.8201741 43.6256903,21.1954386 C44.7917398,21.7081348 45.4909036,22.5880324 45.7096834,23.8364454 C45.8625845,24.7092952 45.833378,25.583041 45.5824053,26.4374949 C45.222192,27.6640478 44.369052,28.3849522 43.1701527,28.7344147 C42.0001613,29.0753959 40.7972005,29.1120085 39.5920299,29.090686 C39.2946493,29.08543 39.2297858,29.1789027 39.2340862,29.4597389 C39.2499138,30.5046024 39.2312193,31.5499437 39.2450162,32.5948072 C39.2486596,32.8709846 39.1848712,32.9755068 38.8854002,32.9731177 C37.1935145,32.9594403 35.5013899,32.9629044 33.8093848,32.97043 C33.5908439,32.9714454 33.4731817,32.8992952 33.3737363,32.7017184 C32.8910828,31.7426229 32.392064,30.7917696 31.8975247,29.8386468 C31.8567312,29.7601058 31.8063814,29.6865819 31.7332756,29.565814 Z" id="Fill-42" fill="#026ED0"></path>
                    <path d="M49.8214966,23.5494334 C49.797128,23.6021724 49.7519147,23.6547321 49.7514966,23.7076502 C49.7454642,24.4031706 49.7468976,25.0986911 49.7436126,25.7942713 C49.7427765,25.9681962 49.858587,25.9782901 49.9845512,25.9788874 C50.5210188,25.9815154 51.0579044,25.9971041 51.593715,25.9805 C51.9323669,25.9699881 52.2658225,25.8838618 52.5547218,25.6986485 C52.9311212,25.4572918 53.0295512,25.0806536 52.9971195,24.659041 C52.9638515,24.2263191 52.7570768,23.9050478 52.3532628,23.7335119 C52.1722901,23.6565836 51.9776997,23.6118481 51.7893208,23.5525392 C51.7287577,23.4610973 51.6321195,23.4833157 51.547785,23.4828379 C51.0859761,23.4803294 50.6241672,23.4834949 50.1624181,23.4824198 C50.0435017,23.4821809 49.9263771,23.4824795 49.8214966,23.5494334 M50.1112918,20.5212765 C51.6505751,20.4832304 53.1760614,20.547198 54.6075973,21.2051502 C55.8801399,21.7900563 56.4382884,22.8236911 56.4353618,24.1919164 C56.4345853,24.5601928 56.3989881,24.9273345 56.309099,25.2862338 C56.0824352,26.1914556 55.5501485,26.8225307 54.584244,27.1236741 C54.7702935,27.2335119 54.9081433,27.3162935 55.0473669,27.3968055 C55.9078532,27.8940922 56.3893123,28.6026928 56.3556263,29.6333413 C56.3326314,30.338657 56.3114283,31.0473771 56.3954044,31.7508413 C56.4323157,32.060227 56.442529,32.3911741 56.7665478,32.5848686 C56.863843,32.6430427 56.8283652,32.7670358 56.8140904,32.8622406 C56.7985017,32.9659266 56.7049693,32.9659266 56.6262491,32.9659863 C55.5316331,32.9667031 54.4368976,32.9628208 53.3422816,32.9673601 C53.1134078,32.9683157 53.1227253,32.8078294 53.109227,32.6638276 C53.0433481,31.9607816 52.983442,31.257198 52.9188771,30.5540922 C52.8988089,30.3362679 52.8804727,30.1175478 52.8443976,29.9021126 C52.7385017,29.2699027 52.3406604,28.871942 51.6907116,28.7354061 C51.1099266,28.6133242 50.5240051,28.6370956 49.9366502,28.6660034 C49.7187065,28.6767543 49.7437918,28.8178294 49.7437321,28.956157 C49.7431348,30.1106195 49.7464198,31.2650222 49.7411041,32.4194249 C49.7382372,33.0361655 49.819227,32.9628805 49.2063089,32.9661058 C48.3206177,32.9707645 47.4348072,32.9603123 46.5492355,32.9701075 C46.3232287,32.972616 46.2358481,32.9179659 46.2363259,32.6715324 C46.2436724,28.7704659 46.2443891,24.8693396 46.2361468,20.9682133 C46.2355495,20.7003379 46.3241843,20.6246638 46.576471,20.6275307 C47.0536894,20.6329659 47.5312065,20.6124795 48.0078874,20.6028635 C48.7117099,20.6589471 49.410157,20.5556195 50.1112918,20.5212765" id="Fill-44" fill="#026ED0"></path>
                    <path d="M60.8753567,28.0801357 C60.7641451,28.6612193 60.8396997,29.24732 60.835698,29.8309718 C60.8345034,30.0082415 61.0099812,29.9572944 61.1179676,29.9577722 C61.8741706,29.9614753 62.6303737,29.9585486 63.3865768,29.9585486 C64.3616792,29.9584889 65.3368413,29.9652381 66.3118242,29.9551442 C66.5414147,29.9527551 66.620971,30.0152892 66.6167304,30.2553916 C66.6026945,31.0611084 66.6024556,31.8674224 66.6175068,32.6730794 C66.6220461,32.9186766 66.5344863,32.9714753 66.3076433,32.9709974 C63.4121997,32.9647261 60.516756,32.9639497 57.6213123,32.9720725 C57.3558857,32.9727892 57.2672509,32.9092995 57.2679676,32.6261937 C57.2776433,28.7457329 57.2772253,24.8652125 57.2683857,20.984692 C57.2677884,20.7103063 57.3432833,20.6352295 57.6167133,20.6361852 C60.4125922,20.6460998 63.2085904,20.6458012 66.004529,20.6377978 C66.270314,20.6370213 66.3671314,20.6978831 66.3589488,20.9839155 C66.3377457,21.7195725 66.3439573,22.4564241 66.3576348,23.1924991 C66.3619352,23.4272261 66.2914573,23.4957927 66.0551177,23.4943592 C64.4233771,23.484564 62.7915171,23.4943592 61.1597765,23.4834889 C60.9052201,23.4817568 60.8023106,23.5387961 60.8183771,23.8113302 C60.8406553,24.1880879 60.8386246,24.5679514 60.8183771,24.9450077 C60.8051775,25.1917995 60.9027713,25.2467483 61.1280614,25.2454343 C62.4712611,25.2375503 63.8145802,25.2488387 65.1576604,25.2346834 C65.4247594,25.2318763 65.4982833,25.3102978 65.4916536,25.5701698 C65.4707491,26.3852039 65.4730188,27.2007159 65.4663294,28.0161084 C64.0704505,28.0180196 62.6746314,28.0190947 61.2787526,28.0232159 C61.1429334,28.023634 60.9997679,27.9913217 60.8753567,28.0801357" id="Fill-46" fill="#026ED0"></path>
                    <path d="M68.4738029,29.1603217 C68.9814224,29.1603217 69.4890418,29.1610981 69.9966613,29.1597244 C70.1213712,29.1594258 70.2221903,29.1656971 70.2712858,29.3200913 C70.5656203,30.2459787 71.5611493,30.4767637 72.4172756,30.2481886 C72.6295452,30.1915077 72.8284957,30.1020367 73.0024804,29.9616186 C73.341192,29.688308 73.3718319,29.3515077 73.0703899,29.0375828 C72.7359189,28.6891357 72.2981203,28.5180776 71.8524377,28.3734189 C71.0499462,28.1130094 70.2180094,27.9469087 69.4309872,27.6374036 C68.5351425,27.2850742 67.7203473,26.8173524 67.2680947,25.9128473 C66.5403217,24.4571817 66.8766442,21.768692 69.1540333,20.6940845 C71.4290333,19.6206118 74.4303131,20.3621817 75.8230265,22.392779 C76.1588712,22.8824804 76.3704241,23.4250998 76.4791271,24.0114394 C76.5118575,24.1878131 76.4546391,24.2169599 76.3043063,24.2165418 C75.279093,24.2138541 74.2539394,24.2130776 73.2287261,24.2178558 C73.0801852,24.2185128 73.02882,24.1477363 72.9790077,24.0208763 C72.6744599,23.2446647 71.5391698,22.8515418 70.8125913,23.2633592 C70.3114821,23.5473609 70.2923097,24.1975486 70.782907,24.5467125 C71.1185725,24.7856203 71.5072756,24.9157056 71.8946647,25.0435811 C72.8369172,25.3546391 73.8069428,25.5850657 74.7078643,26.0158763 C75.8051084,26.5404582 76.6406288,27.293436 76.8087005,28.5682483 C77.0690503,30.5435981 76.1072073,32.2723353 74.2500572,32.9830265 C72.1210299,33.7978814 70.0816527,33.5476254 68.2558592,32.1314394 C67.381994,31.4536578 66.8877534,30.5219172 66.7058251,29.4254497 C66.6683763,29.199622 66.7446476,29.1495111 66.9510043,29.1535725 C67.4584445,29.1634275 67.9661834,29.1567978 68.4738029,29.1567978 L68.4738029,29.1603217 Z" id="Fill-48" fill="#026ED0"></path>
                    <path d="M84.8026527,24.2150606 C84.3250162,24.2150606 83.8472602,24.2078336 83.3699224,24.2187039 C83.1805282,24.2230043 83.0762449,24.1733712 82.9807415,23.9898302 C82.616407,23.2898302 81.6126954,22.9216732 80.9292995,23.2117073 C80.4339838,23.4218865 80.3042568,24.0276971 80.6863899,24.4157432 C81.0252807,24.7599497 81.4842227,24.8882432 81.9245896,25.0399497 C82.8438473,25.3565623 83.7933268,25.5864514 84.6749565,26.0105725 C85.7475333,26.5265538 86.5623285,27.2596425 86.7845128,28.4958114 C87.0622432,30.0410077 86.3360828,31.7102568 84.9202551,32.5245145 C82.8122517,33.7367927 80.6872261,33.713977 78.599052,32.4265623 C78.2378234,32.2039002 78.0339155,31.9369206 78.0712449,31.4619718 C78.1241032,30.789506 78.0914923,30.1097534 78.0816971,29.4332858 C78.0787108,29.2272875 78.1439923,29.1500606 78.3538131,29.1539428 C78.9108268,29.1642756 79.4682585,29.1624838 80.0253319,29.1555555 C80.1842654,29.1535845 80.2820384,29.1936613 80.3350759,29.3568353 C80.7255708,30.5583626 82.3574906,30.5112381 83.0170555,29.9423985 C83.3359377,29.6674155 83.3471664,29.3397534 83.0496067,29.0397449 C82.6124053,28.5989599 82.0384292,28.4235418 81.4654684,28.2572022 C80.4842142,27.9723046 79.4837875,27.7470742 78.5895555,27.2175947 C77.2062193,26.3984394 76.8452295,25.203064 77.0082244,23.7916561 C77.2698882,21.5257944 79.0514838,20.4163063 80.8239411,20.2484735 C82.6416715,20.0764002 84.2295725,20.5620401 85.496023,21.918977 C86.0364923,22.4980299 86.363378,23.1937892 86.5174138,23.9748387 C86.5562363,24.1715196 86.5139497,24.2204957 86.3249735,24.2176288 C85.8176527,24.2099241 85.3101527,24.2150009 84.8026527,24.2150606" id="Fill-50" fill="#026ED0"></path>
                    <path d="M7.21677901,5.72224317 C7.44386092,6.57836945 7.66347696,7.4016459 7.88034556,8.22563908 C8.02171928,8.76276365 8.15258106,9.30275512 8.30183874,9.8376698 C8.35320392,10.0217483 8.35087457,10.1065606 8.1203285,10.1015435 C7.51451792,10.0882841 6.90828925,10.0935401 6.30223976,10.0971237 C6.15519198,10.0980196 6.07551621,10.0717995 6.11977389,9.89632167 C6.4640401,8.53108276 6.80382679,7.16476877 7.14636092,5.79911177 C7.15048208,5.78268686 7.17168515,5.77056229 7.21677901,5.72224317" id="Fill-56" fill="#F6FAFA"></path>
                    <path d="M63.4144215,5.70981997 C63.7072628,6.82910324 63.990727,7.91320734 64.2747287,8.99713225 C64.3501638,9.28513567 64.4270922,9.57278072 64.5036621,9.86048549 C64.5420666,10.0048456 64.5445154,10.1038131 64.3386962,10.1004684 C63.7026041,10.0901357 63.0661536,10.0923456 62.4300017,10.0976015 C62.259302,10.099035 62.224302,10.031663 62.2643788,9.87971758 C62.6239949,8.51716638 62.9810427,7.15395819 63.3401212,5.79128754 C63.3444812,5.77492235 63.3652065,5.76285751 63.4144215,5.70981997" id="Fill-58" fill="#F6FAFA"></path>
                    <path d="M40.1613592,7.28867833 C39.5548319,7.21121246 39.5550111,7.21121246 39.5553097,6.57870392 C39.5555486,6.08261177 39.5538763,5.58651962 39.5565043,5.09042747 C39.5569821,4.98763737 39.5258046,4.85163908 39.6981169,4.85283362 C40.4097039,4.85773123 41.1257108,4.73021416 41.8316237,4.9064087 C42.5785691,5.09281655 42.8534923,5.43851621 42.8223148,6.12770563 C42.7954974,6.72073464 42.3907875,7.11762031 41.6967005,7.23241553 C41.5897295,7.25009471 41.4831766,7.27028242 41.3766834,7.2892756 C40.9717346,7.28903669 40.5665469,7.28885751 40.1613592,7.28867833" id="Fill-60" fill="#F6FAFA"></path>
                    <path d="M27.1931962,28.0239087 C27.252087,27.4493951 27.2042457,26.8733882 27.2178635,26.2981578 C27.2239556,26.0395998 27.2078891,25.7801459 27.2228208,25.5222449 C27.2357816,25.2994633 27.1552099,25.2325094 26.9316519,25.2341817 C25.6181962,25.243977 24.3046212,25.2392585 22.9911058,25.2394377 C22.9114898,25.2394377 22.831814,25.2359138 22.7523174,25.2394377 C22.6150051,25.2455896 22.5529488,25.1850862 22.5540836,25.0456237 C22.5578464,24.587936 22.5597577,24.1301288 22.5567116,23.6724411 C22.555756,23.5273643 22.6226502,23.4882432 22.7575734,23.4884224 C24.4293311,23.4909309 26.101029,23.4908712 27.7727867,23.4868695 C27.9046638,23.4865708 27.9666604,23.5529872 28.0263276,23.6527312 C28.5726502,24.5655981 29.1196894,25.4780469 29.6719249,26.3872705 C29.7438362,26.505709 29.7424625,26.5961357 29.6682816,26.7124241 C29.0109266,27.743192 28.3572747,28.7764087 27.70643,29.8113575 C27.6339215,29.9266903 27.5441519,29.9684394 27.4119164,29.9681408 C25.8695273,29.9648558 24.327198,29.9650947 22.7848089,29.9644974 C22.6728208,29.9644377 22.5509181,29.9735759 22.5582048,29.8077739 C22.5833498,29.2330811 22.5058242,28.6562978 22.594459,28.0830981 C24.0494078,28.0843524 25.5045358,28.0865623 26.9596638,28.0844121 C27.0379061,28.0842927 27.1393225,28.1336869 27.1931962,28.0239087" id="Fill-64" fill="#F6FAFA"></path>
                    <path d="M39.240692,24.8875981 C39.2403336,24.5492449 39.2398558,24.2108916 39.2406323,23.8725384 C39.2408712,23.7622824 39.2310759,23.6419923 39.3924582,23.6355418 C40.0878592,23.6075896 40.7877398,23.5586135 41.4622363,23.7805589 C42.0939684,23.9884684 42.330308,24.3480247 42.2980555,24.9842961 C42.2692671,25.5533148 41.9373046,25.9571288 41.3469036,26.0939633 C40.7110503,26.24125 40.0641476,26.2314548 39.4166476,26.180209 C39.268465,26.1685026 39.2390794,26.0878712 39.240035,25.9623251 C39.2428422,25.6041425 39.2410503,25.2458404 39.240692,24.8875981" id="Fill-66" fill="#F6FAFA"></path>
                    <path d="M35.653634,23.77857 L35.653634,29.4921109 C35.5534718,29.5062065 35.5380026,29.4201997 35.5071237,29.3678788 C34.9972346,28.5031519 34.4919445,27.6357372 33.9817568,26.7711297 C33.9067398,26.643971 33.8584206,26.5334164 33.9512363,26.3883396 C34.4921237,25.5423072 35.0267398,24.692273 35.56482,23.8444488 C35.5781391,23.8234249 35.6070469,23.8123754 35.653634,23.77857" id="Fill-68" fill="#F6FAFA"></path>
                    <path d="M51.7893089,23.5525213 C51.9776877,23.6118302 52.1722782,23.6566254 52.3532509,23.733494 C52.7571246,23.9050299 52.9638993,24.2263609 52.9971672,24.659023 C53.029599,25.0806357 52.9311092,25.4572739 52.5547099,25.6986305 C52.2658703,25.8838439 51.9324147,25.9699701 51.5937628,25.9804821 C51.0578925,25.9971459 50.5210068,25.9814974 49.984599,25.9788695 C49.8585751,25.9782722 49.7427645,25.9681783 49.7436007,25.7942534 C49.7469454,25.0987329 49.7454522,24.4031527 49.7514846,23.707692 C49.7519625,23.6547142 49.797116,23.6022142 49.8208874,23.5495947 C50.4766297,23.5697227 51.1330887,23.5013951 51.7893089,23.5525213" id="Fill-72" fill="#F6FAFA"></path>
                </g>
            </g>
        </g>
    </g>
</svg>