{
  "addClass": "",
  "contentClass": "d-flex flex-column g-px--40 g-pt--50",
  "icon": false,
  "image": {
    "imageClass": "mx-auto text-center",
    "scr": "../../images/services/icon-chofer.svg"
  },
  "iconText": [
    {
      "addClass": "d-flex g-pt--15 justify-content-center ",
      "icon": false,
      "textClass": "text-center g-font--medium g-c--gray2 ",
      "text": "CHOFER PROGRAMADO"
    },
    {
      "addClass": "d-flex g-pt--10 justify-content-center g-pb--20 g-bb--1 g-bc--gray11",
      "icon": false,
      "textClass": "text-center g-font--light g-c--gray2 g-font--13 g-line--11 ",
      "text": "El chofer llegará a recogerte en el lugar y hora acordada, recuerda contar con S/. 20 en efectivo."
    },
    {
      "addClass": "d-flex g-pt--15 align-items-center ",
      "icon": {
        "iconFile": "icon-mapfre_037_user",
        "iconClass": " g-font--16 g-c--gray2 g-pr--10 "
      },
      "textClass": "g-c-gray2 g-font--light",
      "text": "CHOFER: JUAN RODRIGUEZ"
    },
    {
      "addClass": "d-flex g-pt--15 align-items-center g-pb--20 g-bb--1 g-bc--gray11 ",
      "icon": {
        "iconFile": "icon-mapfre_019_car",
        "iconClass": " g-font--16 g-c--gray2 g-pr--10 "
      },
      "textClass": "g-c-gray2 g-font--light",
      "text": "Lamborghini Centenario LP-770 - 2018"
    },
    {
      "addClass": "d-flex g-pt--15 align-items-center ",
      "icon": false,
      "textClass": "g-c-gray2 g-font--light g-font--13 g-line--11",
      "text": "FECHA"
    },
    {
      "addClass": "d-flex g-pt--5 align-items-center ",
      "icon": false,
      "textClass": "g-c-gray2 g-font--medium g-line--11",
      "text": "LUNES 23 JUL - 9:30am"
    },
    {
      "addClass": "d-flex g-pt--15 align-items-center ",
      "icon": false,
      "textClass": "g-c-gray2 g-font--light g-font--13 g-line--11",
      "text": "DESDE"
    },
    {
      "addClass": "d-flex g-pt--5 align-items-center ",
      "icon": false,
      "textClass": "g-c-gray2 g-font--medium g-line--11",
      "text": "Av. Javier Prado Este 499 <span class='g-c-gray11 g-font--light '> - San Isidro</span>"
    },
    {
      "addClass": "d-flex g-pt--15 align-items-center ",
      "icon": false,
      "textClass": "g-c-gray2 g-font--light g-font--13 g-line--11",
      "text": "HASTA"
    },
    {
      "addClass": "d-flex g-pt--5 align-items-center ",
      "icon": false,
      "textClass": "g-c-gray2 g-font--medium g-line--11",
      "text": "Calle Alcanfores 110  <span class='g-c-gray11 g-font--light'> - Miraflores</span>"
    },
    {
      "addClass": "d-flex g-pt--15 align-items-center ",
      "icon": false,
      "textClass": "g-c-gray2 g-font--light g-font--13 g-line--11",
      "text": "NÚMERO DE CONTACTO"
    },
    {
      "addClass": "d-flex g-pt--5 align-items-center ",
      "icon": false,
      "textClass": "g-c-gray2 g-font--medium g-line--11",
      "text": "987 654 321"
    }
  ],
  "footerBtns": {
    "footerClass": "d-flex g-py--30 mt-auto g-pt--10 g-bt--1 g-bc--gray11 g-mt--30 ",
    "btns": [
      {
        "addClass": "d-flex align-items-center justify-content-center w-50",
        "icon": {
          "iconFile": "icon-mapfre_035_edit ",
          "iconClass": " g-c--green1 g-pr--10"
        },
        "textClass": "g-c--green1 g-font--medium",
        "text": "Modificar"
      },
      {
        "addClass": "d-flex align-items-center justify-content-center w-50",
        "icon": {
          "iconFile": "icon-mapfre_053_eliminar ",
          "iconClass": " g-c--green1 g-pr--10 "
        },
        "textClass": "g-c--green1 g-font--medium",
        "text": "Cancelar servicio"
      }
    ]
  }
}