{
  "cardCheckClass": "g-box--shadow1 g-b-radius--5 g-p--10 g-mt--20 d-flex justify-content-between",
  "contentLeftClass": "",
  "text": [
    {
      "textClass": "",
      "iconFile": false,
      "text": "<span class='g-font--medium'>Notaría falsa</span> - 2km"
    },
    {
      "textClass": "g-c--gray2",
      "iconClass": "g-font--12",
      "iconFile": "icon-mapfre_015_location-pin",
      "text": "Calle falsa 123, Miraflores, Lima"
    },
    {
      "textClass": "g-c--gray2",
      "iconClass": "g-font--12",
      "iconFile": "icon-mapfre_062_reloj",
      "text": "L-V 9:00 am - 6:00pm / S 9:00 am - 3:00pm"
    }
  ],
  "right": {
    "rightClass": "",
    "checkbox": true
  }
}