{
  "iconFile": "icon-mapfre_044_logo_landing ",
  "addClass": "g-font--40",
  "acordion": [{
    "classAccordion": "g-bg-c--gray8 g-c--gray10 g-pt--5",
    "dataGroup": "true",
    "item": [{
        "dataOpen": "true",
        "itemClass": "",
        "titleClass": "",
        "boxClass": "",
        "clickClass": " g-pl--20   g-pr--15   g-py--10 ",
        "icon": {
          "iconFile": "icon-mapfre_022_car2",
          "iconClass": " g-px--15  g-font--20 "
        },
        "arrow": {
          "clickOn": {
            "iconFile": "icon-mapfre_101_ico-dow",
            "iconClass": "g-font--10 g-c-pointer g-c--white1"
          },
          "clickOff": {
            "iconFile": "icon-mapfre_102_ico-up",
            "iconClass": "g-c--pointer"
          }
        },
        "textClass": "g-text--uppercase g-font--bold",
        "text": "VEHÍCULOS",
        "contentClass": "",
        "content": false,
        "list": [{
            "iconFile": "",
            "text": "Seguro Vehicular"
          },
          {
            "iconFile": "",
            "text": "SOAT"
          },
          {
            "iconFile": "",
            "text": "Accidentes"
          },
          {
            "text": "Robo"
          },
          {
            "text": "Talleres"
          },
          {
            "text": "Cotización"
          }
        ],
        "classContent": "g-hover-nav g-font--12"
      },
      {
        "dataOpen": "",
        "itemClass": "",
        "titleClass": "",
        "boxClass": "",
        "clickClass": " g-pl--20   g-pr--15   g-py--10 ",
        "icon": {
          "iconFile": "icon-mapfre_023_cross2",
          "iconClass": " g-px--15  g-font--20 "
        },
        "arrow": {
          "clickOn": {
            "iconFile": "icon-mapfre_101_ico-dow",
            "iconClass": "g-font--10 g-c-pointer g-c--white1"
          },
          "clickOff": {
            "iconFile": "icon-mapfre_102_ico-up",
            "iconClass": "g-c--pointer g-font--10"
          }
        },
        "textClass": "g-text--uppercase g-font--bold",
        "text": "SALUD",
        "contentClass": "",
        "content": false,
        "list": [{
            "iconFile": "",
            "text": "Seguro Vehicular"
          },
          {
            "iconFile": "",
            "text": "SOAT"
          },
          {
            "iconFile": "",
            "text": "Accidentes"
          },
          {
            "text": "Robo"
          },
          {
            "text": "Talleres"
          },
          {
            "text": "Cotización"
          }
        ],
        "classContent": "g-hover-nav"
      },
      {
        "dataOpen": "",
        "itemClass": "",
        "titleClass": "",
        "boxClass": "",
        "clickClass": " g-pl--20   g-pr--15   g-py--10 ",
        "icon": {
          "iconFile": "icon-mapfre_024_house2",
          "iconClass": " g-px--15  g-font--20 "
        },
        "arrow": {
          "clickOn": {
            "iconFile": "icon-mapfre_101_ico-dow",
            "iconClass": "g-font--10 g-c-pointer g-c--white1"
          },
          "clickOff": {
            "iconFile": "icon-mapfre_102_ico-up",
            "iconClass": "g-c--pointer"
          }
        },
        "textClass": "g-text--uppercase g-font--bold",
        "text": "HOGAR",
        "contentClass": "",
        "content": false,
        "list": [{
            "iconFile": "",
            "text": "Seguro Vehicular"
          },
          {
            "iconFile": "",
            "text": "SOAT"
          },
          {
            "iconFile": "",
            "text": "Accidentes"
          },
          {
            "text": "Robo"
          },
          {
            "text": "Talleres"
          },
          {
            "text": "Cotización"
          }
        ],
        "classContent": "g-hover-nav"
      },
      {
        "dataOpen": "",
        "itemClass": "",
        "titleClass": "",
        "boxClass": "",
        "clickClass": " g-pl--20   g-pr--15   g-py--10 ",
        "icon": {
          "iconFile": "icon-mapfre_025_heart2",
          "iconClass": " g-px--15  g-font--20 "
        },
        "arrow": {
          "clickOn": {
            "iconFile": "icon-mapfre_101_ico-dow",
            "iconClass": "g-font--10 g-c-pointer g-c--white1"
          },
          "clickOff": {
            "iconFile": "icon-mapfre_102_ico-up",
            "iconClass": "g-c--pointer"
          }
        },
        "textClass": "g-text--uppercase g-font--bold",
        "text": "VIDA Y AHORROS",
        "contentClass": "",
        "content": false,
        "list": [{
            "iconFile": "",
            "text": "Seguro Vehicular"
          },
          {
            "iconFile": "",
            "text": "SOAT"
          },
          {
            "iconFile": "",
            "text": "Accidentes"
          },
          {
            "text": "Robo"
          },
          {
            "text": "Talleres"
          },
          {
            "text": "Cotización"
          }
        ],
        "classContent": "g-hover-nav"
      },
      {
        "dataOpen": "",
        "itemClass": "",
        "titleClass": "",
        "boxClass": "",
        "clickClass": " g-pl--20   g-pr--15   g-py--10 ",
        "icon": {
          "iconFile": "icon-mapfre_026_decesos",
          "iconClass": " g-px--15  g-font--20 "
        },
        "arrow": false,
        "textClass": "g-text--uppercase g-font--bold",
        "text": "DECESOS",
        "contentClass": "",
        "content": false,
        "classContent": "g-hover-nav"
      },
      {
        "dataOpen": "",
        "itemClass": "",
        "titleClass": "",
        "boxClass": "",
        "clickClass": " g-pl--20   g-pr--15   g-py--10 ",
        "icon": {
          "iconFile": "icon-mapfre_027_box",
          "iconClass": " g-px--15  g-font--20 "
        },
        "arrow": false,
        "textClass": "g-text--uppercase g-font--bold",
        "text": "SERVICIOS MAPFRE",
        "contentClass": "",
        "content": false,
        "classContent": "g-hover-nav"
      },
      {
        "dataOpen": "",
        "itemClass": "",
        "titleClass": "",
        "boxClass": "",
        "clickClass": " g-pl--20   g-pr--15   g-py--10 ",
        "icon": {
          "iconFile": "icon-mapfre_028_pagos",
          "iconClass": " g-px--15  g-font--20 "
        },
        "arrow": false,
        "textClass": "g-text--uppercase g-font--bold",
        "text": "Mis Pagos",
        "contentClass": "",
        "content": false,
        "classContent": "g-hover-nav"
      },
      {
        "dataOpen": "",
        "itemClass": "",
        "titleClass": "",
        "boxClass": "",
        "clickClass": " g-pl--20   g-pr--15   g-py--10 ",
        "icon": {
          "iconFile": "icon-mapfre_029_location-pin2",
          "iconClass": " g-px--15  g-font--20 "
        },
        "arrow": false,
        "textClass": "g-text--uppercase g-font--bold",
        "text": "Red de Oficinas",
        "contentClass": "",
        "content": false,
        "classContent": "g-hover-nav"
      }
    ]
  }],
  "list-btn": [{
      "iconFile": "icon-mapfre_030_call",
      "addClass": "g-font--30"
    },
    {
      "iconFile": "icon-mapfre_031_qanda",
      "addClass": "g-font--30"
    }
  ],
  "headerOIM": {
    "icoNav": {
      "iconFile": "icon-mapfre_047_bars",
      "addClass": "g-font--30",
      "iconFileOIM": "icon-mapfre_044_logo_landing ",
      "addClassOIM": "g-font--40"
    },
    "headOimMobile": {
      "llamadaClass": "g-font--light g-c--gray2",
      "llamada": "",
      "bajada": "Servicios Mapfre",
      "iconFile": "icon-mapfre_044_logo_landing ",
      "addClass": "g-font--30",
      "icoBack": false
    },
    "datos": {
      "icoCircle": "icon-mapfre_066_circle",
      "sizeCircle": "g-font--40 g-c--gray1",
      "icoUser": "icon-mapfre_037_user",
      "addClass": "g-c--white1 g-ico--center g-font--20",
      "tittle": "MIS NOTIFICACIONES",
      "icoAlert": "icon-mapfre_036_notification",
      "icoClose": "icon-mapfre_049_close2",
      "sizeClose": "g-font--40",
      "nameUser": "Hola <b>Gonzalo!</b>",
      "numb": 3,
      "alertBadge": {
        "icoCircle": "icon-mapfre_066_circle",
        "addClass": "g-font--30 g-c--green1",
        "addClassNum": "g-ico--center g-font--11 g-c--white1"
      },
      "list": [{
          "tipo": "Mi prefil"
        },
        {
          "tipo": "Cerrar sesión"
        }
      ]
    },
    "alert": {
      "ico": "icon-mapfre_014_perfil",
      "icoCircle": "icon-mapfre_066_circle",
      "sizeCircle": "g-font--40 g-c--gray1",
      "addClass": "g-c--white1 g-ico--center g-font--20",
      "tittle": "MIS NOTIFICACIONES",
      "icoAlert": "icon-mapfre_036_notification",
      "icoClose": "icon-mapfre_049_close2",
      "sizeClose": "g-font--40",
      "numb": 3,
      "alertBadge": {
        "icoCircle": "icon-mapfre_066_circle",
        "addClass": "g-font--30 g-c--green1",
        "addClassNum": "g-ico--center g-font--11 g-c--white1"
      },
      "list": [{
          "ico-drow": "icon-mapfre_057_circle-check",
          "fech": "HOY 10:23am",
          "tipo": "Solicitud de chofer de reemplazo confirmada",
          "desc": "Lunes 1 NOV - 9:30am"
        },
        {
          "ico-drow": "icon-mapfre_049_close2",
          "fech": "24/02  10:23am",
          "tipo": "Solicitud de chofer de reemplazo cancelada",
          "desc": "Servicio cancelado"
        },
        {
          "ico-drow": "icon-mapfre_057_circle-check",
          "fech": "24/02 10:23am",
          "tipo": "Pago automático emitido",
          "desc": "Fondo universitario"
        },
        {
          "ico-drow": "icon-mapfre_049_close2",
          "fech": "24/02 10:23am",
          "tipo": "Pago fallido",
          "desc": "Seguro SCTR"
        },
        {
          "ico-drow": "icon-mapfre_057_circle-check",
          "fech": "24/02 10:23am",
          "tipo": "Pago pendiente",
          "desc": "Seguro vehicular - Vence 17/05/18"
        },
        {
          "ico-drow": "icon-mapfre_049_close2",
          "fech": "24/02 10:23am",
          "tipo": "Póliza sin cobertura por inpago",
          "desc": "Salud - Venció 12/05/18"
        }
      ]
    }
  },
  "tabs": {
    "listTab": [{
        "addActive": "g-tablist__tab--active",
        "text": "Solicitar"
      },
      {
        "addActive": false,
        "text": "Mis asistencias"
      }
    ]
  },
  "driverTittle": {
    "classTitle": "g-font--bold g-font--18 g-font-md--30 text-center  g-mb--10 g-mb-lg--0  g-mt--20 ",
    "title": "¿Qué necesitas?",
    "classDes": "g-font--14 g-font-md--18 g-font-lg--medium g-font--normal g-line--10 text-center",
    "description": "Pide lo que quieras, estamos en confianza"
  },
  "tabsearch": {
    "listTab": [{
        "addActive": "",
        "text": "Todos"
      },
      {
        "addActive": "g-tabsearch__tab--active",
        "text": "Autos"
      },
      {
        "addActive": false,
        "text": "Salud"
      },
      {
        "addActive": false,
        "text": "Hogar"
      },
      {
        "addActive": false,
        "text": "Decesos"
      },
      {
        "addActive": false,
        "text": "Platino"
      },
      {
        "addActive": false,
        "text": "Platino"
      },
      {
        "addActive": false,
        "text": "Platino"
      }
    ],
    "select": {
      "addClass": "g-form-focus",
      "label": "Etiqueta",
      "disabled": false,
      "listOption": [{
          "value": "Todos"
        },
        {
          "value": "Autos"
        },
        {
          "value": "Salud"
        },
        {
          "value": "Hogar"
        },
        {
          "value": "Decesos"
        },
        {
          "value": "Platino"
        }
      ],
      "error": ""
    },
    "search": {
      "addClass": "g-b--1 g-bc--gray11  g-p--10  g-b-radius--5",
      "iconLeft": {
        "iconFile": "icon-mapfre_099_search",
        "iconClass": "g-font--21  g-pr--10  g-c--gray9"
      },
      "input": {
        "type": "text",
        "value": "",
        "inputClass": "w-10",
        "placeholder": "Buscar"
      },
      "iconRight": {
        "iconFile": "icon-mapfre_049_close2",
        "iconClass": "g-font--21  g-pl--10  g-c--gray9"
      }
    }
  },
  "boxItems" : [
    {
      "addClass": "col-12 col-md-6 col-lg-4 d-flex",
      "itemClass": "g-bg-c--white1 g-c--gray8 g-b--1 text-center d-flex flex-column g-b-radius--3 g-box--shadow1 w-10 g-mb--15 g-mb-lg--20",
      "contentClass": " g-p--20 ",
      "icon": {
        "iconFile": "",
        "iconClass": "g-font--55",
        "imgIcon" : {
          "imageClass" : "g-maxh--62",
          "urlImage" : "../../images/pngs/icon-auxiliomecanico.png",
          "name" : "chofer"

        }
      },
      "title": {
        "text": "Auxilio mecánico"
      },
      "description": {
        "textClass" : "g-font--14 g-font--light g-line--10",
        "text": ""
      },
      "footer": {
        "textClass" : "g-c--pointer",
        "text": "LLAMAR AL 2212 PARA SOLICITARLO"
      }
    },
    {
      "addClass": "col-12 col-md-6 col-lg-4 d-flex",
      "itemClass": "g-bg-c--white1 g-c--gray8 g-b--1 text-center d-flex flex-column g-b-radius--3 g-box--shadow1 w-10 g-mb--15 g-mb-lg--20",
      "contentClass": " g-p--20 ",
      "icon": {
        "iconFile": "",
        "iconClass": "g-font--55",
        "imgIcon" : {
          "imageClass" : "g-maxh--62",
          "urlImage" : "../../images/pngs/icon-chofer.png",
          "name" : "chofer"

        }
      },
      "title": {
        "text": "Chofer de reemplazo"
      },
      "description": {
        "textClass" : "g-font--14 g-font--light g-line--10",
        "text": "<span class='g-b-radius--15 g-font--10 g-bg-c--green1  g-px--10   g-py--5   g-c--white1 g-font--bold g-line--10'>2</span> Servicio solicitados &gt;"

      },
      "footer": {
        "textClass" : "g-c--green1 g-c--pointer",
        "text": "SOLICITAR OTRO SERVICIO"
      }
    }
  ]
}
