<svg width="40" height="27" viewBox="0 0 40 27" fill="none" xmlns="http://www.w3.org/2000/svg">
<rect width="40" height="27" rx="3" fill="white"/>
<path d="M7.57153 10.5714H8.61915L8.09534 9.23804L7.57153 10.5714Z" fill="#2FABF7"/>
<path d="M20.5714 9.42872C20.4761 9.3811 20.3333 9.3811 20.1904 9.3811H19.238V10.143H20.1904C20.3333 10.143 20.4761 10.143 20.5714 10.0954C20.6666 10.0478 20.7142 9.90491 20.7142 9.76206C20.7618 9.57158 20.6666 9.47634 20.5714 9.42872Z" fill="#228FE0"/>
<path d="M30.7619 8V8.57143L30.4762 8H28.2381V8.57143L27.9524 8H24.9047C24.3809 8 23.9524 8.09524 23.5714 8.28571V8H21.4286V8.28571C21.1905 8.09524 20.9047 8 20.5238 8H12.8571L12.3333 9.19047L11.8095 8H9.38095V8.57143L9.09523 8H7.04762L6.09524 10.2381L5 12.7143H6.09524H7.42857L7.71428 11.9524H8.38095L8.66666 12.7143H11.4286V12.1429L11.6667 12.7143H13.0476L13.2857 12.1429V12.7143H19.9047V11.4762H20C20.0952 11.4762 20.0952 11.4762 20.0952 11.619V12.6667H23.5238V12.3809C23.8095 12.5238 24.2381 12.6667 24.8095 12.6667H26.2381L26.5238 11.9048H27.1905L27.4762 12.6667H30.2381V11.9524L30.6666 12.6667H32.9047V8H30.7619ZM14.6667 12H13.8571V9.38095L12.7143 12H12L10.8571 9.38095V12H9.23809L8.90476 11.2857H7.28571L7 12.0476H6.09524L7.52381 8.66667H8.71428L10.0476 11.8571V8.66667H11.3333L12.3809 10.9524L13.3333 8.66667H14.6667V12ZM17.9047 9.38095H16.0476V10H17.8571V10.6667H16.0476V11.3333H17.9047V12.0476H15.2381V8.66667H17.9047V9.38095ZM21.4762 10.7619C21.5714 10.9524 21.619 11.0952 21.619 11.3809V12.0476H20.8095V11.619C20.8095 11.4286 20.8095 11.1429 20.6667 10.9524C20.5238 10.8095 20.3809 10.8095 20.0952 10.8095H19.2381V12.0476H18.4286V8.66667H20.2381C20.6667 8.66667 20.9524 8.66667 21.1905 8.80952C21.4286 8.95238 21.5714 9.19048 21.5714 9.57143C21.5714 10.0952 21.2381 10.381 21 10.4762C21.2381 10.5238 21.3809 10.6667 21.4762 10.7619ZM22.9047 12H22.0952V8.61905H22.9047V12ZM32.2857 12H31.1428L29.619 9.47619V12H28L27.7143 11.2857H26.0476L25.7619 12.0476H24.8571C24.4762 12.0476 24 11.9524 23.7143 11.6667C23.4286 11.3809 23.2857 11 23.2857 10.3809C23.2857 9.90476 23.3809 9.42857 23.7143 9.04762C23.9524 8.7619 24.3809 8.66667 24.9047 8.66667H25.6666V9.38095H24.9047C24.619 9.38095 24.4762 9.42857 24.2857 9.57143C24.1428 9.71428 24.0476 10 24.0476 10.3333C24.0476 10.7143 24.0952 10.9524 24.2857 11.1429C24.4286 11.2857 24.619 11.3333 24.8571 11.3333H25.1905L26.2857 8.71428H27.4762L28.8095 11.9048V8.71428H30L31.3809 11.0476V8.71428H32.1904V12H32.2857Z" fill="#0571C1"/>
<path d="M26.3335 10.5714H27.4287L26.9049 9.23804L26.3335 10.5714Z" fill="#228FE0"/>
<path d="M18.2378 17.4286V14.7144L16.9998 16.0477L18.2378 17.4286Z" fill="#228FE0"/>
<path d="M13.1428 15.0476V15.6667H14.9047V16.3333H13.1428V17.0476H15.0952L16 16.0476L15.1428 15.0476H13.1428Z" fill="#2FABF7"/>
<path d="M20.0476 15.0476H19.0476V15.9048H20.0952C20.3809 15.9048 20.5714 15.7619 20.5714 15.4762C20.5238 15.1905 20.3333 15.0476 20.0476 15.0476Z" fill="#228FE0"/>
<path d="M34.762 15.857V13.7141H34.1905H32.762C32.3334 13.7141 32.0001 13.8094 31.762 13.9998V13.7141H29.5715C29.2382 13.7141 28.8096 13.8094 28.6191 13.9998V13.7141H24.762V13.9998C24.4763 13.7617 23.9525 13.7141 23.7144 13.7141H21.1429V13.9998C20.9048 13.7617 20.3334 13.7141 20.0477 13.7141H17.1906L16.5239 14.4284L15.9049 13.7141H11.6191V18.3808H15.8096L16.4763 17.6665L17.0953 18.3808H19.6668V17.2855H20.0001C20.3334 17.2855 20.762 17.2855 21.0953 17.1427V18.4284H23.2382V17.1903H23.3334C23.4763 17.1903 23.4763 17.1903 23.4763 17.3332V18.4284H29.9525C30.381 18.4284 30.8096 18.3332 31.0477 18.1427V18.4284H33.0953C33.5239 18.4284 33.9525 18.3808 34.2382 18.1903C34.7144 17.9046 35.0001 17.3808 35.0001 16.7617C35.0001 16.4284 34.9048 16.0951 34.762 15.857ZM20.0001 16.6189H19.0477V17.7617H17.5239L16.5715 16.6665L15.5715 17.7617H12.4287V14.3808H15.6191L16.5715 15.476L17.5715 14.3808H20.0953C20.7144 14.3808 21.4287 14.5713 21.4287 15.476C21.381 16.4284 20.7144 16.6189 20.0001 16.6189ZM24.762 16.4284C24.8572 16.5713 24.9048 16.7617 24.9048 17.0474V17.7141H24.0953V17.2855C24.0953 17.0951 24.0953 16.7617 23.9525 16.6189C23.8572 16.476 23.6667 16.476 23.381 16.476H22.5239V17.7141H21.7144V14.3332H23.5239C23.9048 14.3332 24.2382 14.3332 24.4763 14.476C24.7144 14.6189 24.9048 14.857 24.9048 15.2379C24.9048 15.7617 24.5715 16.0474 24.3334 16.1427C24.5715 16.2379 24.7144 16.3332 24.762 16.4284ZM28.0477 15.0474H26.1906V15.6665H28.0001V16.3332H26.1906V16.9998H28.0477V17.7141H25.381V14.3332H28.0477V15.0474ZM30.0477 17.7141H28.5239V16.9998H30.0477C30.1905 16.9998 30.2858 16.9998 30.381 16.9046C30.4286 16.857 30.4763 16.7617 30.4763 16.6665C30.4763 16.5713 30.4286 16.476 30.381 16.4284C30.3334 16.3808 30.2382 16.3332 30.0953 16.3332C29.3334 16.2855 28.4286 16.3332 28.4286 15.2855C28.4286 14.8093 28.7144 14.2855 29.5715 14.2855H31.1429V15.0951H29.6667C29.5239 15.0951 29.4286 15.0951 29.3334 15.1427C29.2382 15.1903 29.2382 15.2855 29.2382 15.3808C29.2382 15.5236 29.3334 15.5713 29.4286 15.6189C29.5239 15.6665 29.6191 15.6665 29.7144 15.6665H30.1429C30.5715 15.6665 30.8572 15.7617 31.0477 15.9522C31.1905 16.0951 31.2858 16.3332 31.2858 16.6665C31.2858 17.3808 30.8572 17.7141 30.0477 17.7141ZM34.1429 17.3808C33.9525 17.5713 33.6191 17.7141 33.1429 17.7141H31.6191V16.9998H33.1429C33.2858 16.9998 33.381 16.9998 33.4763 16.9046C33.5239 16.857 33.5715 16.7617 33.5715 16.6665C33.5715 16.5713 33.5239 16.476 33.4763 16.4284C33.4286 16.3808 33.3334 16.3332 33.1905 16.3332C32.4286 16.2855 31.5239 16.3332 31.5239 15.2855C31.5239 14.8093 31.8096 14.2855 32.6667 14.2855H34.2382V15.0951H32.8096C32.6667 15.0951 32.5715 15.0951 32.4763 15.1427C32.381 15.1903 32.381 15.2855 32.381 15.3808C32.381 15.5236 32.4286 15.5713 32.5715 15.6189C32.6667 15.6665 32.762 15.6665 32.8572 15.6665H33.2858C33.7144 15.6665 34.0001 15.7617 34.1905 15.9522C34.2382 15.9522 34.2382 15.9998 34.2382 15.9998C34.381 16.1903 34.4286 16.4284 34.4286 16.6665C34.4286 16.9522 34.3334 17.1903 34.1429 17.3808Z" fill="#0571C1"/>
<path d="M23.9046 15.1428C23.8094 15.0952 23.6665 15.0952 23.5237 15.0952H22.5713V15.8571H23.5237C23.6665 15.8571 23.8094 15.8571 23.9046 15.8095C23.9999 15.7619 24.0475 15.619 24.0475 15.4762C24.0951 15.2857 23.9999 15.1905 23.9046 15.1428Z" fill="#228FE0"/>
<path d="M20.5714 9.42872C20.4761 9.3811 20.3333 9.3811 20.1904 9.3811H19.238V10.143H20.1904C20.3333 10.143 20.4761 10.143 20.5714 10.0954C20.6666 10.0478 20.7142 9.90491 20.7142 9.76206C20.7618 9.57158 20.6666 9.47634 20.5714 9.42872Z" fill="#228FE0"/>
<path d="M26.3335 10.5714H27.4287L26.9049 9.23804L26.3335 10.5714Z" fill="#228FE0"/>
<path d="M18.2378 17.4286V14.7144L16.9998 16.0477L18.2378 17.4286Z" fill="#228FE0"/>
<path d="M20.0476 15.0476H19.0476V15.9048H20.0952C20.3809 15.9048 20.5714 15.7619 20.5714 15.4762C20.5238 15.1905 20.3333 15.0476 20.0476 15.0476Z" fill="#228FE0"/>
<path d="M23.9046 15.1428C23.8094 15.0952 23.6665 15.0952 23.5237 15.0952H22.5713V15.8571H23.5237C23.6665 15.8571 23.8094 15.8571 23.9046 15.8095C23.9999 15.7619 24.0475 15.619 24.0475 15.4762C24.0951 15.2857 23.9999 15.1905 23.9046 15.1428Z" fill="#228FE0"/>
<path d="M19.7144 17.6189L19.0477 16.9046V17.7141H17.4763L16.5239 16.6189L15.4763 17.7141H12.3334V14.3808H15.5239L16.5239 15.476L17.0001 14.9046L15.8096 13.7141H11.6191V18.3808H15.8096L16.5239 17.6665L17.1429 18.3808H19.7144V17.6189Z" fill="#2FABF7"/>
<path d="M14.7619 12.6667L14.1428 12H13.8571V11.7143L13.1428 11L12.6667 12H12L10.8571 9.38095V12H9.23809L8.90476 11.2857H7.28571L6.95238 12H6.09524L7.52381 8.66667H8.71428L10.0476 11.8571V8.66667H10.7619L10.0952 8H9.38095V8.57143L9.14285 8H7.04762L6.09524 10.2381L5 12.6667H6.09524H7.47619L7.7619 11.9524H8.42857L8.7619 12.6667H11.4286V12.0952L11.6667 12.6667H13.0476L13.2857 12.0952V12.6667H14.7619Z" fill="#2FABF7"/>
<path d="M12.5715 10.476L11.8096 9.71411L12.381 10.9522L12.5715 10.476Z" fill="#2FABF7"/>
<path d="M34.238 18.143C34.6666 17.8572 34.9523 17.3811 34.9999 16.8572L34.3332 16.1906C34.3808 16.3334 34.4285 16.4763 34.4285 16.6668C34.4285 16.9525 34.3332 17.1906 34.1427 17.3811C33.9523 17.5715 33.6189 17.7144 33.1427 17.7144H31.6189V17.0001H33.1427C33.2856 17.0001 33.3808 17.0001 33.4761 16.9049C33.5237 16.8572 33.5713 16.762 33.5713 16.6668C33.5713 16.5715 33.5237 16.4763 33.4761 16.4287C33.4285 16.3811 33.3332 16.3334 33.1904 16.3334C32.4285 16.2858 31.5237 16.3334 31.5237 15.2858C31.5237 14.8096 31.8094 14.3811 32.5237 14.2858L31.9999 13.762C31.9047 13.8096 31.857 13.8572 31.8094 13.8572V13.5715H29.6189C29.2856 13.5715 28.857 13.6668 28.6666 13.8572V13.5715H24.7618V13.8572C24.4761 13.6192 23.9523 13.5715 23.7142 13.5715H21.1428V13.8572C20.9047 13.6192 20.3332 13.5715 20.0475 13.5715H17.1904L16.5237 14.2858L15.9047 13.5715H15.3809L16.8094 15.0001L17.5237 14.2382H20.0475C20.6666 14.2382 21.3809 14.4287 21.3809 15.3334C21.3809 16.2858 20.7142 16.4763 19.9999 16.4763H19.0475V17.1906L19.7618 17.9049V17.1906H19.9999C20.3332 17.1906 20.7618 17.1906 21.0951 17.0477V18.3334H23.238V17.0953H23.3332C23.4761 17.0953 23.4761 17.0953 23.4761 17.2382V18.3334H29.9523C30.3808 18.3334 30.8094 18.2382 31.0475 18.0477V18.3334H33.0951C33.4761 18.3811 33.9046 18.3334 34.238 18.143ZM24.7618 16.4287C24.857 16.5715 24.9047 16.762 24.9047 17.0477V17.7144H24.0951V17.2858C24.0951 17.0953 24.0951 16.762 23.9523 16.6191C23.857 16.4763 23.6666 16.4763 23.3809 16.4763H22.5237V17.7144H21.7142V14.3334H23.5237C23.9047 14.3334 24.238 14.3334 24.4761 14.4763C24.7142 14.6192 24.9047 14.8572 24.9047 15.2382C24.9047 15.762 24.5713 16.0477 24.3332 16.143C24.5713 16.2382 24.7142 16.3334 24.7618 16.4287ZM28.0475 15.0477H26.1904V15.6668H27.9999V16.3334H26.1904V17.0001H28.0475V17.7144H25.3808V14.3334H28.0475V15.0477ZM30.0475 17.7144H28.5237V17.0001H30.0475C30.1904 17.0001 30.2856 17.0001 30.3808 16.9049C30.4285 16.8572 30.4761 16.762 30.4761 16.6668C30.4761 16.5715 30.4285 16.4763 30.3808 16.4287C30.3332 16.3811 30.238 16.3334 30.0951 16.3334C29.3332 16.2858 28.4285 16.3334 28.4285 15.2858C28.4285 14.8096 28.7142 14.2858 29.5713 14.2858H31.1427V15.0953H29.6666C29.5237 15.0953 29.4285 15.0953 29.3332 15.143C29.238 15.1906 29.238 15.2858 29.238 15.3811C29.238 15.5239 29.3332 15.5715 29.4285 15.6191C29.5237 15.6668 29.6189 15.6668 29.7142 15.6668H30.1427C30.5713 15.6668 30.857 15.762 31.0475 15.9525C31.1904 16.0953 31.2856 16.3334 31.2856 16.6668C31.2856 17.3811 30.857 17.7144 30.0475 17.7144Z" fill="#228FE0"/>
<path d="M32.3333 15.3812C32.3333 15.524 32.3809 15.5716 32.5237 15.6193C32.619 15.6669 32.7142 15.6669 32.8094 15.6669H33.238C33.5237 15.6669 33.7142 15.7145 33.9047 15.8097L33.1904 15.0955H32.7618C32.619 15.0955 32.5237 15.0955 32.4285 15.1431C32.3809 15.1907 32.3333 15.2859 32.3333 15.3812Z" fill="#228FE0"/>
<path d="M30.6665 12.5239L30.7617 12.6668H30.8094L30.6665 12.5239Z" fill="#228FE0"/>
<path d="M28.0476 9.90479L28.8571 11.8572V10.7143L28.0476 9.90479Z" fill="#228FE0"/>
<path d="M19.9048 11.4764H20.0001C20.0953 11.4764 20.0953 11.4764 20.0953 11.6193V12.6669H23.5239V12.3812C23.8096 12.524 24.2381 12.6669 24.8096 12.6669H26.2381L26.5239 11.905H27.1905L27.4762 12.6669H30.2381V12.1907L29.5715 11.524V12.0478H27.9524L27.7143 11.2859H26.0477L25.762 12.0478H24.8572C24.4762 12.0478 24.0001 11.9526 23.7143 11.6669C23.4286 11.3812 23.2858 11.0002 23.2858 10.3812C23.2858 9.90499 23.381 9.4288 23.7143 9.04785C23.9524 8.76214 24.381 8.6669 24.9048 8.6669H25.6667V9.38118H24.9048C24.6191 9.38118 24.4762 9.4288 24.2858 9.57166C24.1429 9.71452 24.0477 10.0002 24.0477 10.3336C24.0477 10.7145 24.0953 10.9526 24.2858 11.1431C24.4286 11.2859 24.6191 11.3336 24.8572 11.3336H25.1905L26.2858 8.71452H26.762L26.0953 8.04785H24.8572C24.3334 8.04785 23.9048 8.14309 23.5239 8.33357V8.04785H21.4286V8.33357C21.1905 8.14309 20.9048 8.04785 20.5239 8.04785H12.8572L12.3334 9.23833L11.8096 8.04785H9.71436L10.381 8.71452H11.3334L12.1429 10.4764L12.4286 10.7621L13.2858 8.6669H14.6191V12.0478H13.8096V9.4288L13.0001 11.3336L14.381 12.7145H19.8572L19.9048 11.4764ZM22.0953 8.6669H22.9048V12.0478H22.0953V8.6669ZM17.9048 9.38118H16.0477V10.0002H17.8572V10.6669H16.0477V11.3336H17.9048V12.0478H15.2382V8.6669H17.9048V9.38118ZM19.2382 12.0002H18.4286V8.61928H20.2382C20.6667 8.61928 20.9524 8.61928 21.1905 8.76214C21.4286 8.90499 21.5715 9.14309 21.5715 9.52404C21.5715 10.0478 21.2382 10.3336 21.0001 10.4288C21.1905 10.4764 21.3334 10.6193 21.381 10.7145C21.4762 10.905 21.5239 11.0478 21.5239 11.3336V12.0002H20.7143V11.5717C20.7143 11.3812 20.7143 11.0955 20.5715 10.905C20.5239 10.8098 20.381 10.8098 20.0953 10.8098H19.2382V12.0002Z" fill="#228FE0"/>
</svg>
