<?xml version="1.0" encoding="utf-8"?>
<!-- Generator: Adobe Illustrator 15.0.0, SVG Export Plug-In . SVG Version: 6.00 Build 0)  -->
<!DOCTYPE svg PUBLIC "-//W3C//DTD SVG 1.1//EN" "http://www.w3.org/Graphics/SVG/1.1/DTD/svg11.dtd">
<svg version="1.1" id="Capa_1" xmlns="http://www.w3.org/2000/svg" xmlns:xlink="http://www.w3.org/1999/xlink" x="0px" y="0px"
	 width="109.75px" height="45px" viewBox="0 0 109.75 45" enable-background="new 0 0 109.75 45" xml:space="preserve">
<title>logo select tarjeta / interbank</title>
<desc>Created with Sketch.</desc>
<g>
	<path fill="#009949" d="M78.225,18.924c1.064-0.08,2.318,0.013,3.191,0.68c0.336,0.264,0.643,0.576,0.88,1.044
		c0.239,0.49,0.255,1.096,0.302,1.621v2.845c0,1.399-0.447,2.646-1.869,3.292c-0.463,0.199-0.983,0.316-1.565,0.328
		c-2.404,0.061-4.22-1.156-4.033-3.371c0.12-1.594,1.487-2.281,3.076-2.396c0.755-0.052,2.075,0.113,2.55,0.007
		c0.033-0.487-0.086-1.117-0.232-1.459c-0.131-0.292-0.353-0.624-0.736-0.742c-0.482-0.203-1.176-0.223-1.73-0.186
		c-0.728,0.053-1.279,0.159-2.121,0.643l0.006-0.827c0-0.25,0.033-0.557,0.166-0.768C76.425,19.127,77.555,18.97,78.225,18.924
		L78.225,18.924z"/>
	<path fill="#009949" d="M67.311,16.363l-0.026,3.988c1.149-1.171,2.432-1.455,4.034-1.018c1.805,0.494,2.836,2.188,2.859,4.517
		c0.047,2.975-2.025,4.838-4.476,4.857c-2.688,0.025-4.544-1.864-4.522-4.615v-7.729H67.311L67.311,16.363z"/>
	<path fill="#009949" d="M46.343,16.449v2.494h3.474l-0.08,0.798c-0.08,0.709-0.484,0.912-1.282,0.932h-2.112v4.528
		c0.007,0.134,0.013,0.443,0.04,0.564c0.14,0.705,0.546,0.896,1.209,0.963c0.646,0.088,1.702-0.039,2.206-0.258
		c0.08,0.774-0.027,1.809-0.471,1.979c-0.428,0.163-1.308,0.235-1.915,0.216c-0.284-0.006-0.589-0.032-0.883-0.09
		c-0.498-0.092-1.222-0.483-1.575-0.834c-0.659-0.747-0.697-1.6-0.737-2.487l-0.007-0.054v-8.752H46.343L46.343,16.449z"/>
	<rect x="30.123" y="16.264" fill="#009949" width="2.152" height="12.259"/>
	<rect x="94.287" y="16.264" fill="#009949" width="2.152" height="12.259"/>
	<path fill="#2E4187" d="M9.979,31.004h14.713c1.143,0,2.074-0.957,2.074-2.128v-14.88H12.053c-1.137,0-2.075,0.959-2.075,2.129
		L9.979,31.004L9.979,31.004z"/>
	<polygon fill="#FFFFFF" points="13.943,28.291 22.673,26.729 22.673,17.392 13.943,18.961 13.943,28.291 	"/>
	<path fill="#FFFFFF" d="M69.643,20.714c1.375,0,2.483,1.196,2.483,3.095c0,1.897-1.11,3.141-2.483,3.141
		c-0.74,0-1.373-0.313-1.824-0.893c-0.448-0.598-0.58-1.242-0.586-1.998c-0.012-0.894,0.064-1.639,0.461-2.249
		C68.163,21.118,68.869,20.714,69.643,20.714L69.643,20.714z"/>
	<path fill="#009949" d="M63.367,18.823h0.621v2.129h-0.621v-0.006c-0.46,0-0.885,0.199-1.203,0.509
		c-0.305,0.303-0.494,0.728-0.494,1.198h0.007v5.873h-2.132v-5.873h0.002c0-1.059,0.432-2.012,1.129-2.712
		c0.69-0.687,1.633-1.104,2.689-1.104v-0.014H63.367z"/>
	<path fill="#009949" d="M55.012,24.874H51.93c0.026,0.11,0.06,0.219,0.105,0.31c0.37,0.967,1.189,1.461,2.133,1.635h0.007
		c0.125,0.02,0.265,0.039,0.398,0.053c0.125,0.013,0.263,0.02,0.393,0.02c1.007,0.027,1.786-0.304,2.272-0.558
		c0.066,0.412,0.021,1.137-0.03,1.411c-0.179,0.898-1.792,0.965-2.385,0.965v0.006c-0.185,0-0.37-0.006-0.562-0.025
		c-0.193-0.014-0.376-0.037-0.566-0.073c-2.478-0.441-3.817-2.583-3.718-4.949v-0.04c0.064-1.99,1.176-3.765,3.095-4.352h0.006
		l0.034-0.013l0.007-0.006c1.538-0.457,2.954-0.026,3.902,0.8c0.178,0.166,0.35,0.343,0.494,0.527
		c0.146,0.192,0.286,0.391,0.385,0.61l0.014,0.02c0.218,0.457,0.318,0.865,0.318,1.257c0,0.48-0.159,0.904-0.424,1.263
		c-0.246,0.315-0.556,0.561-0.93,0.74v0.006C56.32,24.755,55.648,24.874,55.012,24.874L55.012,24.874z"/>
	<path fill="#FFFFFF" d="M51.889,23.266h3.216c0.715,0,1.542-0.363,1.129-1.314l-0.012-0.021c-0.048-0.1-0.1-0.199-0.166-0.295
		c-0.063-0.107-0.164-0.213-0.265-0.311c-0.522-0.524-1.312-0.826-2.171-0.536v-0.007l-0.026,0.012
		c-0.144,0.052-0.284,0.112-0.409,0.179c-0.126,0.067-0.247,0.153-0.357,0.246C52.374,21.588,52.035,22.354,51.889,23.266
		L51.889,23.266z"/>
	<path fill="#009949" d="M37.988,18.823h0.765v0.014c1.059,0,2.018,0.423,2.702,1.11c0.695,0.694,1.123,1.646,1.123,2.706v5.873
		h-2.126v-5.873h0.006c-0.006-0.471-0.199-0.895-0.5-1.204c-0.31-0.305-0.749-0.503-1.205-0.503v0.006h-0.765v-0.006
		c-0.46,0-0.884,0.199-1.203,0.509c-0.301,0.303-0.494,0.728-0.494,1.198h0.007v5.873h-2.125v-5.873
		c0-1.059,0.426-2.012,1.122-2.712c0.692-0.687,1.636-1.104,2.692-1.104L37.988,18.823L37.988,18.823z"/>
	<path fill="#009949" d="M87.975,18.823h0.76v0.014c1.05,0,2.007,0.423,2.707,1.11c0.68,0.694,1.119,1.646,1.119,2.706h0.006v5.873
		h-2.141v-5.873h0.012c0-0.471-0.184-0.895-0.508-1.204c-0.311-0.305-0.727-0.503-1.195-0.503v0.006h-0.767v-0.006
		c-0.469,0-0.891,0.199-1.194,0.509c-0.317,0.303-0.512,0.728-0.512,1.198h0.008v5.873h-2.133v-5.873h0.006
		c0-1.059,0.438-2.012,1.123-2.712c0.695-0.687,1.652-1.104,2.702-1.104v-0.014H87.975L87.975,18.823z"/>
	<polygon fill="#009949" points="102.423,19.273 100.291,19.273 96.434,23.645 100.74,28.51 102.868,28.51 98.561,23.645 
		102.423,19.273 	"/>
	<path fill="#FFFFFF" d="M80.85,24.323v-0.046c-0.496,0.065-0.983,0.031-1.402,0.031c-0.816,0.008-1.286,0.073-1.741,0.279
		c-0.437,0.192-0.667,0.602-0.722,0.958v0.065c-0.059,0.762,0.332,1.324,1.023,1.424h0.02v0.007c0.828,0.113,1.468-0.021,1.951-0.24
		c0.383-0.172,0.651-0.612,0.778-1.177C80.85,25.27,80.842,24.734,80.85,24.323L80.85,24.323z"/>
</g>
</svg>
