{
  "iconFile": "icon-mapfre_044_logo_landing ",
  "addClass": "g-font--45",
  "acordion": [
    {
      "classAccordion": "g-bg-c--gray8 g-c--gray10 g-pt--5",
      "dataGroup": "true",
      "item": [
        {
          "dataOpen": "true",
          "itemClass": "",
          "titleClass": "",
          "boxClass": "",
          "clickClass": "g-pl--20 g-pr--15 g-py--10",
          "icon": {
            "iconFile": "icon-mapfre_022_car2",
            "iconClass": "g-px--15 g-font--20 "
          },
          "arrow": {
            "clickOn": {
              "iconFile": "icon-mapfre_101_ico-dow",
              "iconClass": "g-font--10 g-c-pointer g-c--white1"
            },
            "clickOff": {
              "iconFile": "icon-mapfre_102_ico-up",
              "iconClass": "g-c--pointer g-font--10"
            }
          },
          "textClass": "g-text--uppercase g-font--bold",
          "text": "VEHÍCULOS",
          "contentClass": "",
          "content": false,
          "list": [
            {
              "iconFile": "",
              "text": "Seguro Vehicular"
            },
            {
              "iconFile": "",
              "text": "SOAT"
            },
            {
              "iconFile": "",
              "text": "Accidentes"
            },
            {
              "text": "Robo"
            },
            {
              "text": "Talleres"
            },
            {
              "text": "Cotización"
            }
          ],
          "classContent": "g-hover-nav g-font--12"
        },
        {
          "dataOpen": "",
          "itemClass": "",
          "titleClass": "",
          "boxClass": "",
          "clickClass": "g-pl--20 g-pr--15 g-py--10",
          "icon": {
            "iconFile": "icon-mapfre_023_cross2",
            "iconClass": "g-px--15 g-font--20 "
          },
          "arrow": {
            "clickOn": {
              "iconFile": "icon-mapfre_101_ico-dow",
              "iconClass": "g-font--10 g-c-pointer g-c--white1"
            },
            "clickOff": {
              "iconFile": "icon-mapfre_102_ico-up",
              "iconClass": "g-c--pointer g-font--10"
            }
          },
          "textClass": "g-text--uppercase g-font--bold",
          "text": "SALUD",
          "contentClass": "",
          "content": false,
          "list": [
            {
              "iconFile": "",
              "text": "Seguro Vehicular"
            },
            {
              "iconFile": "",
              "text": "SOAT"
            },
            {
              "iconFile": "",
              "text": "Accidentes"
            },
            {
              "text": "Robo"
            },
            {
              "text": "Talleres"
            },
            {
              "text": "Cotización"
            }
          ],
          "classContent": "g-hover-nav"
        },
        {
          "dataOpen": "",
          "itemClass": "",
          "titleClass": "",
          "boxClass": "",
          "clickClass": "g-pl--20 g-pr--15 g-py--10",
          "icon": {
            "iconFile": "icon-mapfre_024_house2",
            "iconClass": "g-px--15 g-font--20 "
          },
          "arrow": {
            "clickOn": {
              "iconFile": "icon-mapfre_101_ico-dow",
              "iconClass": "g-font--10 g-c-pointer g-c--white1"
            },
            "clickOff": {
              "iconFile": "icon-mapfre_102_ico-up",
              "iconClass": "g-c--pointer"
            }
          },
          "textClass": "g-text--uppercase g-font--bold",
          "text": "HOGAR",
          "contentClass": "",
          "content": false,
          "list": [
            {
              "iconFile": "",
              "text": "Seguro Vehicular"
            },
            {
              "iconFile": "",
              "text": "SOAT"
            },
            {
              "iconFile": "",
              "text": "Accidentes"
            },
            {
              "text": "Robo"
            },
            {
              "text": "Talleres"
            },
            {
              "text": "Cotización"
            }
          ],
          "classContent": "g-hover-nav"
        },
        {
          "dataOpen": "",
          "itemClass": "",
          "titleClass": "",
          "boxClass": "",
          "clickClass": "g-pl--20 g-pr--15 g-py--10",
          "icon": {
            "iconFile": "icon-mapfre_025_heart2",
            "iconClass": "g-px--15 g-font--20 "
          },
          "arrow": {
            "clickOn": {
              "iconFile": "icon-mapfre_101_ico-dow",
              "iconClass": "g-font--10 g-c-pointer g-c--white1"
            },
            "clickOff": {
              "iconFile": "icon-mapfre_102_ico-up",
              "iconClass": "g-c--pointer"
            }
          },
          "textClass": "g-text--uppercase g-font--bold",
          "text": "VIDA Y AHORROS",
          "contentClass": "",
          "content": false,
          "list": [
            {
              "iconFile": "",
              "text": "Seguro Vehicular"
            },
            {
              "iconFile": "",
              "text": "SOAT"
            },
            {
              "iconFile": "",
              "text": "Accidentes"
            },
            {
              "text": "Robo"
            },
            {
              "text": "Talleres"
            },
            {
              "text": "Cotización"
            }
          ],
          "classContent": "g-hover-nav"
        },
        {
          "dataOpen": "",
          "itemClass": "",
          "titleClass": "",
          "boxClass": "",
          "clickClass": "g-pl--20 g-pr--15 g-py--10",
          "icon": {
            "iconFile": "icon-mapfre_026_decesos",
            "iconClass": "g-px--15 g-font--20 "
          },
          "arrow": false,
          "textClass": "g-text--uppercase g-font--bold",
          "text": "DECESOS",
          "contentClass": "",
          "content": false,
          "classContent": "g-hover-nav"
        },
        {
          "dataOpen": "",
          "itemClass": "",
          "titleClass": "",
          "boxClass": "",
          "clickClass": "g-pl--20 g-pr--15 g-py--10",
          "icon": {
            "iconFile": "icon-mapfre_027_box",
            "iconClass": "g-px--15 g-font--20 "
          },
          "arrow": false,
          "textClass": "g-text--uppercase g-font--bold",
          "text": "SERVICIOS MAPFRE",
          "contentClass": "",
          "content": false,
          "classContent": "g-hover-nav"
        },
        {
          "dataOpen": "",
          "itemClass": "",
          "titleClass": "",
          "boxClass": "",
          "clickClass": "g-pl--20 g-pr--15 g-py--10",
          "icon": {
            "iconFile": "icon-mapfre_028_pagos",
            "iconClass": "g-px--15 g-font--20 "
          },
          "arrow": false,
          "textClass": "g-text--uppercase g-font--bold",
          "text": "Mis Pagos",
          "contentClass": "",
          "content": false,
          "classContent": "g-hover-nav"
        },
        {
          "dataOpen": "",
          "itemClass": "",
          "titleClass": "",
          "boxClass": "",
          "clickClass": "g-pl--20 g-pr--15 g-py--10",
          "icon": {
            "iconFile": "icon-mapfre_029_location-pin2",
            "iconClass": "g-px--15 g-font--20 "
          },
          "arrow": false,
          "textClass": "g-text--uppercase g-font--bold",
          "text": "Red de Oficinas",
          "contentClass": "",
          "content": false,
          "classContent": "g-hover-nav"
        }
      ]
    }
  ],
  "list-btn": [
    {
      "iconFile": "icon-mapfre_030_call",
      "addClass": "g-font--30"
    },
    {
      "iconFile": "icon-mapfre_031_qanda",
      "addClass": "g-font--30"
    }
  ],
  "headerOIM": {
    "icoNav": {
      "iconFile": "icon-mapfre_047_bars",
      "addClass": "g-font--30",
      "iconFileOIM": "icon-mapfre_044_logo_landing",
      "addClassOIM": "g-font--30"
    },
    "headOimMobile": {
      "llamadaClass": "g-font--light",
      "llamada": "Seguro de Salud",
      "bajada": "Trébol salud",
      "iconFile": "",
      "addClass": "",
      "icoBack": false
    },
    "datos": {
      "icoCircle": "icon-mapfre_066_circle",
      "sizeCircle": "g-font--40 g-c--gray1",
      "icoUser": "icon-mapfre_037_user",
      "addClass": "g-c--white1 g-ico--center g-font--20",
      "tittle": "MIS NOTIFICACIONES",
      "icoAlert": "icon-mapfre_036_notification",
      "icoClose": "icon-mapfre_049_close2",
      "sizeClose": "g-font--40",
      "nameUser": "Hola <b>Gonzalo!</b>",
      "numb": 3,
      "alertBadge": {
        "icoCircle": "icon-mapfre_066_circle",
        "addClass": "g-font--30 g-c--green1",
        "addClassNum": "g-ico--center g-font--11 g-c--white1"
      },
      "list": [
        {
          "tipo": "Mi prefil"
        },
        {
          "tipo": "Cerrar sesión"
        }
      ]
    },
    "alert": {
      "ico": "icon-mapfre_014_perfil",
      "icoCircle": "icon-mapfre_066_circle",
      "sizeCircle": "g-font--40 g-c--gray1",
      "addClass": "g-c--white1 g-ico--center g-font--20",
      "tittle": "MIS NOTIFICACIONES",
      "icoAlert": "icon-mapfre_036_notification",
      "icoClose": "icon-mapfre_049_close2",
      "sizeClose": "g-font--40",
      "numb": 3,
      "alertBadge": {
        "icoCircle": "icon-mapfre_066_circle",
        "addClass": "g-font--30 g-c--green1",
        "addClassNum": "g-ico--center g-font--11 g-c--white1"
      },
      "list": [
        {
          "ico-drow": "icon-mapfre_057_circle-check",
          "fech": "HOY 10:23am",
          "tipo": "Solicitud de chofer de reemplazo confirmada",
          "desc": "Lunes 1 NOV - 9:30am"
        },
        {
          "ico-drow": "icon-mapfre_049_close2",
          "fech": "24/02  10:23am",
          "tipo": "Solicitud de chofer de reemplazo cancelada",
          "desc": "Servicio cancelado"
        },
        {
          "ico-drow": "icon-mapfre_057_circle-check",
          "fech": "24/02 10:23am",
          "tipo": "Pago automático emitido",
          "desc": "Fondo universitario"
        },
        {
          "ico-drow": "icon-mapfre_049_close2",
          "fech": "24/02 10:23am",
          "tipo": "Pago fallido",
          "desc": "Seguro SCTR"
        },
        {
          "ico-drow": "icon-mapfre_057_circle-check",
          "fech": "24/02 10:23am",
          "tipo": "Pago pendiente",
          "desc": "Seguro vehicular - Vence 17/05/18"
        },
        {
          "ico-drow": "icon-mapfre_049_close2",
          "fech": "24/02 10:23am",
          "tipo": "Póliza sin cobertura por inpago",
          "desc": "Salud - Venció 12/05/18"
        }
      ]
    }
  },
  "tabs": {
    "listTab": [
      {
        "addActive": "",
        "text": "Detalles"
      },
      {
        "addActive": "g-tablist__tab--active",
        "text": "Coberturas"
      },
      {
        "addActive": "",
        "text": "Mis asistencias"
      }
    ]
  },
  "boxcard": {
    "card": {
      "addClass": "",
      "icon": false,
      "title": "MIS COBERTURAS",
      "titleClass": "g-pl--5 g-pl-lg--0",
      "payment": false,
      "dots": true,
      "filter": false,
      "mont": false,
      "dropdown": {
        "lists": [
          {
            "icon": {
              "iconFile": "icon-mapfre_031_qanda",
              "iconClass": "g-font--21 g-c--green1"
            },
            "textClass": "g-font--medium g-c--green1",
            "text": "Preguntas frecuentes"
          }
        ],
        "inputs": false
      },
      "accordion": false
    },
    "tab": {
      "tabVertical": {
        "listTab": [
          {
            "text": "Coberturas"
          },
          {
            "text": "Atención ambulatoria"
          },
          {
            "addActive": "active",
            "text": "Atención hospitalaria"
          },
          {
            "text": "Maternidad"
          },
          {
            "text": "Periodo de carencia"
          },
          {
            "text": "Condicionado"
          },
          {
            "text": "Hoja anexa"
          },
          {
            "text": "Exclusiones"
          },
          {
            "text": "Observaciones"
          }
        ]
      },
      "content": {
        "boxClass": "g-p--10 g-p-lg--0",
        "head": {
          "addClass": "text-center text-lg-left g-px--15 g-px-lg--0",
          "title": {
            "textClass": "g-font--16 g-font--medium g-mb--5",
            "text": "ATENCIÓN HOSPITALARIA"
          },
          "description": false,
          "rightContent": {
            "textClass": "",
            "text": "Ver en el mapa"
          }
        },
        "table": false
      },
      "alert": {
        "addClass": "g-b--1 g-bc--orange1 g-my--15",
        "boxClass": "align-items-start g-p--10",
        "icon": {
          "iconFile": "icon-mapfre_051_alerta",
          "iconClass": "g-font--30 g-c--orange1 g-pr--10"
        },
        "textClass": "",
        "titleClass": "g-c--orange1",
        "titleText": "Recuerda que la cobertura maternidad solo sirve para titular o conyuge mujer.",
        "subTitle": false,
        "btnDetalle": false,
        "tooltip": false
      },
      "contentDescrip": {
        "textClass": "",
        "text": "Lorem ipsum dolor sit amet, consectetur adipiscing elit, sed do eiusmod tempor incididunt ut labore et dolore magna aliqua. Ut enim ad minim veniam, quis nostrud exercitation ullamco laboris nisi ut aliquip ex ea commodo consequat."
      },
      "contentDrop": [
        {
          "titleDrop": {
            "titleClass": "g-pt--30 g-pb--20",
            "title": "LIMA"
          },
          "dropdown": {
            "addClass": "",
            "itemList": [
              {
                "addClass": "g-b--1 g-bc--gray11 g-b-radius--5 ",
                "openCard": "true",
                "contentTitleClass": "g-bg-c--gray11",
                "titleClass": "g-text--uppercase g-font--medium g-pb--10 g-pb-lg--0",
                "title": "RED 1 <span class='g-font--light g-pl--10'>2 CLÍNICAS</span>",
                "title2": false,
                "right": [
                  {
                    "contentRight": "align-self-center flex-wrap text-left g-px-lg--15",
                    "textClass": "w-100 g-line--11 g-mb--0 g-font--13 g-font--light g-pb--5",
                    "text": "DEDUCIBLE",
                    "text2Class": "w-100 g-line--11 g-mb--0 text-nowrap",
                    "text2": "Sin deducible"
                  },
                  {
                    "contentRight": "align-self-center flex-wrap text-left text-lg-center g-pl-lg--15 g-ml--30 g-ml-lg--0",
                    "textClass": "w-100 g-line--11 g-mb--0 g-font--13 g-font--light g-pb--5",
                    "text": "COBERTURA",
                    "text2Class": "w-100 g-line--11 g-mb--0 ",
                    "text2": "90%"
                  }
                ],
                "iconDropdown": true,
                "content": false,
                "list": {
                  "addClass": "g-list-icon g-p--15",
                  "list": [
                    {
                      "classActive": "g-list-icon--item g-p--0",
                      "classList": "g-line--11 g-font--light g-p--5",
                      "text": "Centro médico MAPFRE Independencia"
                    },
                    {
                      "classActive": "g-list-icon--item g-p--0",
                      "classList": "g-line--11 g-font--light g-p--5",
                      "text": "Centro médico MAPFRE San Miguel"
                    }
                  ]
                }
              },
              {
                "addClass": "g-b--1 g-bc--gray11 g-b-radius--5 ",
                "openCard": "true",
                "contentTitleClass": "g-bg-c--gray11",
                "titleClass": "g-text--uppercase g-font--medium g-pb--10 g-pb-lg--0",
                "title": "RED 1 <span class='g-font--light g-pl--10'>14 CLÍNICAS</span>",
                "title2": false,
                "right": [
                  {
                    "contentRight": "align-self-center flex-wrap text-left g-px-lg--15",
                    "textClass": "w-100 g-line--11 g-mb--0 g-font--13 g-font--light g-pb--5",
                    "text": "DEDUCIBLE",
                    "text2Class": "w-100 g-line--11 g-mb--0 text-nowrap",
                    "text2": "Sin deducible"
                  },
                  {
                    "contentRight": "align-self-center flex-wrap text-left text-lg-center g-pl-lg--15 g-ml--30 g-ml-lg--0",
                    "textClass": "w-100 g-line--11 g-mb--0 g-font--13 g-font--light g-pb--5",
                    "text": "COBERTURA",
                    "text2Class": "w-100 g-line--11 g-mb--0 ",
                    "text2": "90%"
                  }
                ],
                "iconDropdown": true,
                "content": false,
                "list": {
                  "addClass": "g-list-icon g-p--15",
                  "list": [
                    {
                      "classActive": "g-list-icon--item g-p--0",
                      "classList": "g-line--11 g-font--light g-p--5",
                      "text": "Nombre de clinica"
                    },
                    {
                      "classActive": "g-list-icon--item g-p--0",
                      "classList": "g-line--11 g-font--light g-p--5",
                      "text": "Nombre de clinica"
                    },
                    {
                      "classActive": "g-list-icon--item g-p--0",
                      "classList": "g-line--11 g-font--light g-p--5",
                      "text": "Nombre de clinica"
                    },
                    {
                      "classActive": "g-list-icon--item g-p--0",
                      "classList": "g-line--11 g-font--light g-p--5",
                      "text": "Nombre de clinica"
                    },
                    {
                      "classActive": "g-list-icon--item g-p--0",
                      "classList": "g-line--11 g-font--light g-p--5",
                      "text": "Nombre de clinica"
                    },
                    {
                      "classActive": "g-list-icon--item g-p--0",
                      "classList": "g-line--11 g-font--light g-p--5",
                      "text": "Nombre de clinica"
                    },
                    {
                      "classActive": "g-list-icon--item g-p--0",
                      "classList": "g-line--11 g-font--light g-p--5",
                      "text": "Nombre de clinica"
                    },
                    {
                      "classActive": "g-list-icon--item g-p--0",
                      "classList": "g-line--11 g-font--light g-p--5",
                      "text": "Nombre de clinica"
                    },
                    {
                      "classActive": "g-list-icon--item g-p--0",
                      "classList": "g-line--11 g-font--light g-p--5",
                      "text": "Nombre de clinica"
                    },
                    {
                      "classActive": "g-list-icon--item g-p--0",
                      "classList": "g-line--11 g-font--light g-p--5",
                      "text": "Nombre de clinica"
                    }
                  ]
                }
              },
              {
                "addClass": "g-b--1 g-bc--gray11 g-b-radius--5 ",
                "openCard": "true",
                "contentTitleClass": "g-bg-c--gray11",
                "titleClass": "g-text--uppercase g-font--medium g-pb--10 g-pb-lg--0",
                "title": "RED 2 <span class='g-font--light g-pl--10'>14 CLÍNICAS</span>",
                "title2": false,
                "right": [
                  {
                    "contentRight": "align-self-center flex-wrap text-left g-px-lg--15",
                    "textClass": "w-100 g-line--11 g-mb--0 g-font--13 g-font--light g-pb--5",
                    "text": "DEDUCIBLE",
                    "text2Class": "w-100 g-line--11 g-mb--0 text-nowrap",
                    "text2": "S/ 123.00"
                  },
                  {
                    "contentRight": "align-self-center flex-wrap text-left text-lg-center g-pl-lg--15 g-ml--30 g-ml-lg--0",
                    "textClass": "w-100 g-line--11 g-mb--0 g-font--13 g-font--light g-pb--5",
                    "text": "COBERTURA",
                    "text2Class": "w-100 g-line--11 g-mb--0 ",
                    "text2": "90%"
                  }
                ],
                "iconDropdown": true,
                "content": false,
                "list": {
                  "addClass": "g-list-icon g-p--15",
                  "list": [
                    {
                      "classActive": "g-list-icon--item g-p--0",
                      "classList": "g-line--11 g-font--light g-p--5",
                      "text": "Nombre de clinica"
                    },
                    {
                      "classActive": "g-list-icon--item g-p--0",
                      "classList": "g-line--11 g-font--light g-p--5",
                      "text": "Nombre de clinica"
                    },
                    {
                      "classActive": "g-list-icon--item g-p--0",
                      "classList": "g-line--11 g-font--light g-p--5",
                      "text": "Nombre de clinica"
                    },
                    {
                      "classActive": "g-list-icon--item g-p--0",
                      "classList": "g-line--11 g-font--light g-p--5",
                      "text": "Nombre de clinica"
                    },
                    {
                      "classActive": "g-list-icon--item g-p--0",
                      "classList": "g-line--11 g-font--light g-p--5",
                      "text": "Nombre de clinica"
                    },
                    {
                      "classActive": "g-list-icon--item g-p--0",
                      "classList": "g-line--11 g-font--light g-p--5",
                      "text": "Nombre de clinica"
                    },
                    {
                      "classActive": "g-list-icon--item g-p--0",
                      "classList": "g-line--11 g-font--light g-p--5",
                      "text": "Nombre de clinica"
                    },
                    {
                      "classActive": "g-list-icon--item g-p--0",
                      "classList": "g-line--11 g-font--light g-p--5",
                      "text": "Nombre de clinica"
                    },
                    {
                      "classActive": "g-list-icon--item g-p--0",
                      "classList": "g-line--11 g-font--light g-p--5",
                      "text": "Nombre de clinica"
                    },
                    {
                      "classActive": "g-list-icon--item g-p--0",
                      "classList": "g-line--11 g-font--light g-p--5",
                      "text": "Nombre de clinica"
                    }
                  ]
                }
              },
              {
                "addClass": "g-b--1 g-bc--gray11 g-b-radius--5 ",
                "openCard": "true",
                "contentTitleClass": "g-bg-c--gray11",
                "titleClass": "g-text--uppercase g-font--medium g-pb--10 g-pb-lg--0",
                "title": "RED 3 <span class='g-font--light g-pl--10'>14 CLÍNICAS</span>",
                "title2": false,
                "right": [
                  {
                    "contentRight": "align-self-center flex-wrap text-left g-px-lg--15",
                    "textClass": "w-100 g-line--11 g-mb--0 g-font--13 g-font--light g-pb--5",
                    "text": "DEDUCIBLE",
                    "text2Class": "w-100 g-line--11 g-mb--0 text-nowrap",
                    "text2": "S/ 123.00"
                  },
                  {
                    "contentRight": "align-self-center flex-wrap text-left text-lg-center g-pl-lg--15 g-ml--30 g-ml-lg--0",
                    "textClass": "w-100 g-line--11 g-mb--0 g-font--13 g-font--light g-pb--5",
                    "text": "COBERTURA",
                    "text2Class": "w-100 g-line--11 g-mb--0 ",
                    "text2": "90%"
                  }
                ],
                "iconDropdown": true,
                "content": false,
                "list": {
                  "addClass": "g-list-icon g-p--15",
                  "list": [
                    {
                      "classActive": "g-list-icon--item g-p--0",
                      "classList": "g-line--11 g-font--light g-p--5",
                      "text": "Nombre de clinica"
                    },
                    {
                      "classActive": "g-list-icon--item g-p--0",
                      "classList": "g-line--11 g-font--light g-p--5",
                      "text": "Nombre de clinica"
                    },
                    {
                      "classActive": "g-list-icon--item g-p--0",
                      "classList": "g-line--11 g-font--light g-p--5",
                      "text": "Nombre de clinica"
                    },
                    {
                      "classActive": "g-list-icon--item g-p--0",
                      "classList": "g-line--11 g-font--light g-p--5",
                      "text": "Nombre de clinica"
                    },
                    {
                      "classActive": "g-list-icon--item g-p--0",
                      "classList": "g-line--11 g-font--light g-p--5",
                      "text": "Nombre de clinica"
                    },
                    {
                      "classActive": "g-list-icon--item g-p--0",
                      "classList": "g-line--11 g-font--light g-p--5",
                      "text": "Nombre de clinica"
                    },
                    {
                      "classActive": "g-list-icon--item g-p--0",
                      "classList": "g-line--11 g-font--light g-p--5",
                      "text": "Nombre de clinica"
                    },
                    {
                      "classActive": "g-list-icon--item g-p--0",
                      "classList": "g-line--11 g-font--light g-p--5",
                      "text": "Nombre de clinica"
                    },
                    {
                      "classActive": "g-list-icon--item g-p--0",
                      "classList": "g-line--11 g-font--light g-p--5",
                      "text": "Nombre de clinica"
                    },
                    {
                      "classActive": "g-list-icon--item g-p--0",
                      "classList": "g-line--11 g-font--light g-p--5",
                      "text": "Nombre de clinica"
                    }
                  ]
                }
              }
            ]
          }
        },
        {
          "titleDrop": {
            "titleClass": "g-pt--30 g-pb--20",
            "title": "PROVINCIAS"
          },
          "dropdown": {
            "addClass": "",
            "itemList": [
              {
                "addClass": "g-b--1 g-bc--gray11 g-b-radius--5 ",
                "openCard": "true",
                "contentTitleClass": "g-bg-c--gray11",
                "titleClass": "g-text--uppercase g-font--medium g-pb--10 g-pb-lg--0",
                "title": "RED 1 <span class='g-font--light g-pl--10'>14 CLÍNICAS</span>",
                "title2": false,
                "right": [
                  {
                    "contentRight": "align-self-center flex-wrap text-left g-px-lg--15",
                    "textClass": "w-100 g-line--11 g-mb--0 g-font--13 g-font--light g-pb--5",
                    "text": "DEDUCIBLE",
                    "text2Class": "w-100 g-line--11 g-mb--0 text-nowrap",
                    "text2": "1 día de cuarto"
                  },
                  {
                    "contentRight": "align-self-center flex-wrap text-left text-lg-center g-pl-lg--15 g-ml--30 g-ml-lg--0",
                    "textClass": "w-100 g-line--11 g-mb--0 g-font--13 g-font--light g-pb--5",
                    "text": "COBERTURA",
                    "text2Class": "w-100 g-line--11 g-mb--0 ",
                    "text2": "75%"
                  }
                ],
                "iconDropdown": true,
                "content": false,
                "list": {
                  "addClass": "g-list-icon g-p--15",
                  "list": [
                    {
                      "classActive": "g-list-icon--item g-p--0",
                      "classList": "g-line--11 g-font--light g-p--5",
                      "text": "Nombre de clinica"
                    },
                    {
                      "classActive": "g-list-icon--item g-p--0",
                      "classList": "g-line--11 g-font--light g-p--5",
                      "text": "Nombre de clinica"
                    },
                    {
                      "classActive": "g-list-icon--item g-p--0",
                      "classList": "g-line--11 g-font--light g-p--5",
                      "text": "Nombre de clinica"
                    },
                    {
                      "classActive": "g-list-icon--item g-p--0",
                      "classList": "g-line--11 g-font--light g-p--5",
                      "text": "Nombre de clinica"
                    },
                    {
                      "classActive": "g-list-icon--item g-p--0",
                      "classList": "g-line--11 g-font--light g-p--5",
                      "text": "Nombre de clinica"
                    },
                    {
                      "classActive": "g-list-icon--item g-p--0",
                      "classList": "g-line--11 g-font--light g-p--5",
                      "text": "Nombre de clinica"
                    },
                    {
                      "classActive": "g-list-icon--item g-p--0",
                      "classList": "g-line--11 g-font--light g-p--5",
                      "text": "Nombre de clinica"
                    },
                    {
                      "classActive": "g-list-icon--item g-p--0",
                      "classList": "g-line--11 g-font--light g-p--5",
                      "text": "Nombre de clinica"
                    },
                    {
                      "classActive": "g-list-icon--item g-p--0",
                      "classList": "g-line--11 g-font--light g-p--5",
                      "text": "Nombre de clinica"
                    },
                    {
                      "classActive": "g-list-icon--item g-p--0",
                      "classList": "g-line--11 g-font--light g-p--5",
                      "text": "Nombre de clinica"
                    }
                  ]
                }
              },
              {
                "addClass": "g-b--1 g-bc--gray11 g-b-radius--5 ",
                "openCard": "true",
                "contentTitleClass": "g-bg-c--gray11",
                "titleClass": "g-text--uppercase g-font--medium g-pb--10 g-pb-lg--0",
                "title": "RED 2 <span class='g-font--light g-pl--10'>14 CLÍNICAS</span>",
                "title2": false,
                "right": [
                  {
                    "contentRight": "align-self-center flex-wrap text-left g-px-lg--15",
                    "textClass": "w-100 g-line--11 g-mb--0 g-font--13 g-font--light g-pb--5",
                    "text": "DEDUCIBLE",
                    "text2Class": "w-100 g-line--11 g-mb--0 text-nowrap",
                    "text2": "S/ 123.00"
                  },
                  {
                    "contentRight": "align-self-center flex-wrap text-left text-lg-center g-pl-lg--15 g-ml--30 g-ml-lg--0",
                    "textClass": "w-100 g-line--11 g-mb--0 g-font--13 g-font--light g-pb--5",
                    "text": "COBERTURA",
                    "text2Class": "w-100 g-line--11 g-mb--0 ",
                    "text2": "75%"
                  }
                ],
                "iconDropdown": true,
                "content": false,
                "list": {
                  "addClass": "g-list-icon g-p--15",
                  "list": [
                    {
                      "classActive": "g-list-icon--item g-p--0",
                      "classList": "g-line--11 g-font--light g-p--5",
                      "text": "Nombre de clinica"
                    },
                    {
                      "classActive": "g-list-icon--item g-p--0",
                      "classList": "g-line--11 g-font--light g-p--5",
                      "text": "Nombre de clinica"
                    },
                    {
                      "classActive": "g-list-icon--item g-p--0",
                      "classList": "g-line--11 g-font--light g-p--5",
                      "text": "Nombre de clinica"
                    },
                    {
                      "classActive": "g-list-icon--item g-p--0",
                      "classList": "g-line--11 g-font--light g-p--5",
                      "text": "Nombre de clinica"
                    },
                    {
                      "classActive": "g-list-icon--item g-p--0",
                      "classList": "g-line--11 g-font--light g-p--5",
                      "text": "Nombre de clinica"
                    },
                    {
                      "classActive": "g-list-icon--item g-p--0",
                      "classList": "g-line--11 g-font--light g-p--5",
                      "text": "Nombre de clinica"
                    },
                    {
                      "classActive": "g-list-icon--item g-p--0",
                      "classList": "g-line--11 g-font--light g-p--5",
                      "text": "Nombre de clinica"
                    },
                    {
                      "classActive": "g-list-icon--item g-p--0",
                      "classList": "g-line--11 g-font--light g-p--5",
                      "text": "Nombre de clinica"
                    },
                    {
                      "classActive": "g-list-icon--item g-p--0",
                      "classList": "g-line--11 g-font--light g-p--5",
                      "text": "Nombre de clinica"
                    },
                    {
                      "classActive": "g-list-icon--item g-p--0",
                      "classList": "g-line--11 g-font--light g-p--5",
                      "text": "Nombre de clinica"
                    }
                  ]
                }
              }
            ]
          }
        }
      ]
    }
  },
  "footerNav": {
    "boxHead": {
      "text": "¿QUÉ QUIERES HACER?",
      "class": "g-items-text g-font--14 g-font-md--18 g-text--uppercase text-center g-font--medium g-pt--15 g-pb--15"
    },
    "listNavIco": {
      "listNavIco": [
        {
          "icon": {
            "backgroundColor": "g-bg-c--green3",
            "iconName": "icon-mapfre_071_servicios",
            "iconSize": "g-font--45",
            "iconColor": "g-c--white1"
          },
          "title": "Reportar daño hogar"
        }
      ]
    },
    "listNavText": {
      "listOne": [
        {
          "boxClass": "g-p--15 g-bg-c--gray5",
          "navText": [
            {
              "text": "Modificar mis datos",
              "textClass": "w-100 g-font--medium",
              "iconRight": false
            },
            {
              "text": "",
              "textClass": "ml-auto",
              "iconRight": {
                "iconFile": "icon-mapfre_033_angle2-right",
                "iconClass": "g-font--10 g-font--bold"
              }
            }
          ]
        },
        {
          "boxClass": "g-p--15 g-bg-c--gray5",
          "navText": [
            {
              "text": "Sin Aplicación de Deducibles",
              "textClass": "w-100 g-font--medium",
              "iconRight": false
            },
            {
              "text": "",
              "textClass": "ml-auto",
              "iconRight": {
                "iconFile": "icon-mapfre_033_angle2-right",
                "iconClass": "g-font--10 g-font--bold"
              }
            }
          ]
        },
        {
          "boxClass": "g-p--15 g-bg-c--gray5",
          "navText": [
            {
              "text": "Comparar mi póliza con otros productos",
              "textClass": "w-100 g-font--medium",
              "iconRight": false
            },
            {
              "text": "",
              "textClass": "ml-auto",
              "iconRight": {
                "iconFile": "icon-mapfre_033_angle2-right",
                "iconClass": "g-font--10 g-font--bold"
              }
            }
          ]
        },
        {
          "boxClass": "g-p--15 g-bg-c--gray5",
          "navText": [
            {
              "text": "Ver mis pagos",
              "textClass": "w-100 g-font--medium",
              "iconRight": false
            },
            {
              "text": "",
              "textClass": "ml-auto",
              "iconRight": {
                "iconFile": "icon-mapfre_033_angle2-right",
                "iconClass": "g-font--10 g-font--bold"
              }
            }
          ]
        },
        {
          "boxClass": "g-p--15 g-bg-c--gray5",
          "navText": [
            {
              "text": "Hacer una reclamación",
              "textClass": "w-100 g-font--medium",
              "iconRight": false
            },
            {
              "text": "",
              "textClass": "ml-auto",
              "iconRight": {
                "iconFile": "icon-mapfre_033_angle2-right",
                "iconClass": "g-font--10 g-font--bold"
              }
            }
          ]
        }
      ]
    }
  }
}