{
  "iconFile": "icon-mapfre_044_logo_landing ",
  "addClass": "g-font--45",
  "acordion": [
    {
      "classAccordion": "g-bg-c--gray8 g-c--gray10 g-pt--5",
      "dataGroup": "true",
      "item": [
        {
          "dataOpen": "true",
          "itemClass": "",
          "titleClass": "",
          "boxClass": "",
          "clickClass": "g-pl--20 g-pr--15 g-py--10",
          "icon": {
            "iconFile": "icon-mapfre_022_car2",
            "iconClass": "g-px--15 g-font--20 "
          },
          "arrow": {
            "clickOn": {
              "iconFile": "icon-mapfre_101_ico-dow",
              "iconClass": "g-font--10 g-c-pointer g-c--white1"
            },
            "clickOff": {
              "iconFile": "icon-mapfre_102_ico-up",
              "iconClass": "g-c--pointer g-font--10"
            }
          },
          "textClass": "g-text--uppercase g-font--bold",
          "text": "VEHÍCULOS",
          "contentClass": "",
          "content": false,
          "list": [
            {
              "iconFile": "",
              "text": "Seguro Vehicular"
            },
            {
              "iconFile": "",
              "text": "SOAT"
            },
            {
              "iconFile": "",
              "text": "Accidentes"
            },
            {
              "text": "Robo"
            },
            {
              "text": "Talleres"
            },
            {
              "text": "Cotización"
            }
          ],
          "classContent": "g-hover-nav g-font--12"
        },
        {
          "dataOpen": "",
          "itemClass": "",
          "titleClass": "",
          "boxClass": "",
          "clickClass": "g-pl--20 g-pr--15 g-py--10",
          "icon": {
            "iconFile": "icon-mapfre_023_cross2",
            "iconClass": "g-px--15 g-font--20 "
          },
          "arrow": {
            "clickOn": {
              "iconFile": "icon-mapfre_101_ico-dow",
              "iconClass": "g-font--10 g-c-pointer g-c--white1"
            },
            "clickOff": {
              "iconFile": "icon-mapfre_102_ico-up",
              "iconClass": "g-c--pointer g-font--10"
            }
          },
          "textClass": "g-text--uppercase g-font--bold",
          "text": "SALUD",
          "contentClass": "",
          "content": false,
          "list": [
            {
              "iconFile": "",
              "text": "Seguro Vehicular"
            },
            {
              "iconFile": "",
              "text": "SOAT"
            },
            {
              "iconFile": "",
              "text": "Accidentes"
            },
            {
              "text": "Robo"
            },
            {
              "text": "Talleres"
            },
            {
              "text": "Cotización"
            }
          ],
          "classContent": "g-hover-nav"
        },
        {
          "dataOpen": "",
          "itemClass": "",
          "titleClass": "",
          "boxClass": "",
          "clickClass": "g-pl--20 g-pr--15 g-py--10",
          "icon": {
            "iconFile": "icon-mapfre_024_house2",
            "iconClass": "g-px--15 g-font--20 "
          },
          "arrow": {
            "clickOn": {
              "iconFile": "icon-mapfre_101_ico-dow",
              "iconClass": "g-font--10 g-c-pointer g-c--white1"
            },
            "clickOff": {
              "iconFile": "icon-mapfre_102_ico-up",
              "iconClass": "g-c--pointer"
            }
          },
          "textClass": "g-text--uppercase g-font--bold",
          "text": "HOGAR",
          "contentClass": "",
          "content": false,
          "list": [
            {
              "iconFile": "",
              "text": "Seguro Vehicular"
            },
            {
              "iconFile": "",
              "text": "SOAT"
            },
            {
              "iconFile": "",
              "text": "Accidentes"
            },
            {
              "text": "Robo"
            },
            {
              "text": "Talleres"
            },
            {
              "text": "Cotización"
            }
          ],
          "classContent": "g-hover-nav"
        },
        {
          "dataOpen": "",
          "itemClass": "",
          "titleClass": "",
          "boxClass": "",
          "clickClass": "g-pl--20 g-pr--15 g-py--10",
          "icon": {
            "iconFile": "icon-mapfre_025_heart2",
            "iconClass": "g-px--15 g-font--20 "
          },
          "arrow": {
            "clickOn": {
              "iconFile": "icon-mapfre_101_ico-dow",
              "iconClass": "g-font--10 g-c-pointer g-c--white1"
            },
            "clickOff": {
              "iconFile": "icon-mapfre_102_ico-up",
              "iconClass": "g-c--pointer"
            }
          },
          "textClass": "g-text--uppercase g-font--bold",
          "text": "VIDA Y AHORROS",
          "contentClass": "",
          "content": false,
          "list": [
            {
              "iconFile": "",
              "text": "Seguro Vehicular"
            },
            {
              "iconFile": "",
              "text": "SOAT"
            },
            {
              "iconFile": "",
              "text": "Accidentes"
            },
            {
              "text": "Robo"
            },
            {
              "text": "Talleres"
            },
            {
              "text": "Cotización"
            }
          ],
          "classContent": "g-hover-nav"
        },
        {
          "dataOpen": "",
          "itemClass": "",
          "titleClass": "",
          "boxClass": "",
          "clickClass": "g-pl--20 g-pr--15 g-py--10",
          "icon": {
            "iconFile": "icon-mapfre_026_decesos",
            "iconClass": "g-px--15 g-font--20 "
          },
          "arrow": false,
          "textClass": "g-text--uppercase g-font--bold",
          "text": "DECESOS",
          "contentClass": "",
          "content": false,
          "classContent": "g-hover-nav"
        },
        {
          "dataOpen": "",
          "itemClass": "",
          "titleClass": "",
          "boxClass": "",
          "clickClass": "g-pl--20 g-pr--15 g-py--10",
          "icon": {
            "iconFile": "icon-mapfre_027_box",
            "iconClass": "g-px--15 g-font--20 "
          },
          "arrow": false,
          "textClass": "g-text--uppercase g-font--bold",
          "text": "SERVICIOS MAPFRE",
          "contentClass": "",
          "content": false,
          "classContent": "g-hover-nav"
        },
        {
          "dataOpen": "",
          "itemClass": "",
          "titleClass": "",
          "boxClass": "",
          "clickClass": "g-pl--20 g-pr--15 g-py--10",
          "icon": {
            "iconFile": "icon-mapfre_028_pagos",
            "iconClass": "g-px--15 g-font--20 "
          },
          "arrow": false,
          "textClass": "g-text--uppercase g-font--bold",
          "text": "Mis Pagos",
          "contentClass": "",
          "content": false,
          "classContent": "g-hover-nav"
        },
        {
          "dataOpen": "",
          "itemClass": "",
          "titleClass": "",
          "boxClass": "",
          "clickClass": "g-pl--20 g-pr--15 g-py--10",
          "icon": {
            "iconFile": "icon-mapfre_029_location-pin2",
            "iconClass": "g-px--15 g-font--20 "
          },
          "arrow": false,
          "textClass": "g-text--uppercase g-font--bold",
          "text": "Red de Oficinas",
          "contentClass": "",
          "content": false,
          "classContent": "g-hover-nav"
        }
      ]
    }
  ],
  "list-btn": [
    {
      "iconFile": "icon-mapfre_030_call",
      "addClass": "g-font--30"
    },
    {
      "iconFile": "icon-mapfre_031_qanda",
      "addClass": "g-font--30"
    }
  ],
  "headerOIM": {
    "icoNav": {
      "iconFile": "icon-mapfre_047_bars",
      "addClass": "g-font--30",
      "iconFileOIM": "icon-mapfre_044_logo_landing",
      "addClassOIM": "g-font--30"
    },
    "headOimMobile": {
      "llamadaClass": "g-font--light",
      "llamada": "SOLICITUD DE REEMBOLSO",
      "bajada": "NUEVA SOLICITUD",
      "iconFile": "",
      "addClass": "",
      "icoBack": {
        "icon": "icon-mapfre_010_arrow-left",
        "addClass": "g-items-icon g-c--gray3 g-font--25 g-font-md--21"
      }
    },
    "datos": {
      "icoCircle": "icon-mapfre_066_circle",
      "sizeCircle": "g-font--40 g-c--gray1",
      "icoUser": "icon-mapfre_037_user",
      "addClass": "g-c--white1 g-ico--center g-font--20",
      "tittle": "MIS NOTIFICACIONES",
      "icoAlert": "icon-mapfre_036_notification",
      "icoClose": "icon-mapfre_049_close2",
      "sizeClose": "g-font--40",
      "nameUser": "Hola <b>Gonzalo!</b>",
      "numb": 3,
      "alertBadge": {
        "icoCircle": "icon-mapfre_066_circle",
        "addClass": "g-font--30 g-c--green1",
        "addClassNum": "g-ico--center g-font--11 g-c--white1"
      },
      "list": [
        {
          "tipo": "Mi prefil"
        },
        {
          "tipo": "Cerrar sesión"
        }
      ]
    },
    "alert": {
      "ico": "icon-mapfre_014_perfil",
      "icoCircle": "icon-mapfre_066_circle",
      "sizeCircle": "g-font--40 g-c--gray1",
      "addClass": "g-c--white1 g-ico--center g-font--20",
      "tittle": "MIS NOTIFICACIONES",
      "icoAlert": "icon-mapfre_036_notification",
      "icoClose": "icon-mapfre_049_close2",
      "sizeClose": "g-font--40",
      "numb": 3,
      "alertBadge": {
        "icoCircle": "icon-mapfre_066_circle",
        "addClass": "g-font--30 g-c--green1",
        "addClassNum": "g-ico--center g-font--11 g-c--white1"
      },
      "list": [
        {
          "ico-drow": "icon-mapfre_057_circle-check",
          "fech": "HOY 10:23am",
          "tipo": "Solicitud de chofer de reemplazo confirmada",
          "desc": "Lunes 1 NOV - 9:30am"
        },
        {
          "ico-drow": "icon-mapfre_049_close2",
          "fech": "24/02  10:23am",
          "tipo": "Solicitud de chofer de reemplazo cancelada",
          "desc": "Servicio cancelado"
        },
        {
          "ico-drow": "icon-mapfre_057_circle-check",
          "fech": "24/02 10:23am",
          "tipo": "Pago automático emitido",
          "desc": "Fondo universitario"
        },
        {
          "ico-drow": "icon-mapfre_049_close2",
          "fech": "24/02 10:23am",
          "tipo": "Pago fallido",
          "desc": "Seguro SCTR"
        },
        {
          "ico-drow": "icon-mapfre_057_circle-check",
          "fech": "24/02 10:23am",
          "tipo": "Pago pendiente",
          "desc": "Seguro vehicular - Vence 17/05/18"
        },
        {
          "ico-drow": "icon-mapfre_049_close2",
          "fech": "24/02 10:23am",
          "tipo": "Póliza sin cobertura por inpago",
          "desc": "Salud - Venció 12/05/18"
        }
      ]
    }
  },
  "setContainerClass": "g-shadow--line g-mx-n--15 g-mx-md--0 g-bg-c--white1 g-bg-c-md--gray11",
  "steps": {
    "stepsClass": "g-pt-lg--40 g-pt--20 g-pb-lg--40 g-pb--20 g-px--20 g-px-lg--0",
    "stepsItems": [
      {
        "active": "active",
        "numberClass": "g-font--normal g-font-lg--medium g-font--12 g-font-lg--14 g-c--white1",
        "number": "1",
        "textClass": "g-font--13 g-font-lg--14 g-pt--10 g-font--light",
        "text": "ATENCIÓN",
        "subtitleClass": "g-font--13 g-font--light",
        "subtitle": false
      },
      {
        "active": "active",
        "numberClass": "g-font--normal g-font-lg--medium g-font--12 g-font-lg--14 g-c--white1",
        "number": "2",
        "textClass": "g-font--13 g-font-lg--14 g-pt--10 g-font--light",
        "text": "CUENTA",
        "subtitleClass": "g-font--13 g-font--light",
        "subtitle": false
      },
      {
        "active": "active active--last",
        "numberClass": "g-font--normal g-font-lg--medium g-font--12 g-font-lg--14 g-c--white1",
        "number": "3",
        "textClass": "g-font--13 g-font-lg--14 g-pt--10 g-font--light",
        "text": "DOCUMENTACIÓN",
        "subtitleClass": "g-font--13 g-font--light",
        "subtitle": false
      }
    ]
  },
  "runway": {
    "addClass": "g-px--10 g-px-md--0",
    "icon": {
      "iconFile": "icon-mapfre_020_cross",
      "iconClass": "g-font--42"
    },
    "contentLeft": "g-mb-md--40",
    "addClassHeader": "",
    "contentClass": "w-10",
    "title": {
      "textClass": "g-px--10 g-px-md--0 text-center text-md-left",
      "text": "RESUMEN DE SOLICITUD DE REEMBOLSO"
    },
    "subTitle": {
      "textClass": "",
      "text": "Antes de enviar tu solicitud por favor verifica que los datos sean correctos."
    },
    "contentRigth": false,
    "alert": false,
    "quotetionStep1": false, 
    "summary": [
      {
        "addClass": "g-bt--1 g-bc--gray11 g-pt--20 g-mt--20 g-mb--30",
        "header": {
          "contentHeaderClass": "d-flex align-items-center justify-content-between",
          "content": [
            {
              "contentClass": "g-font--medium g-font--20",
              "text": "1. DATOS DE LA ATENCIÓN"
            },
            {
              "contentClass": "",
              "iconRight": {
                "iconClass": "g-c--green1 g-font--15 g-c--pointer",
                "iconFile": "icon-mapfre_035_edit"
              }
            }
          ]
        },
        "conteiner": {
          "conteinerClass": "d-flex flex-wrap g-pt--15",
          "contentLeft": [
            {
              "contentClass": "w-md-50 g-mb--20",
              "text": [
                {
                  "textClass": "g-font--light g-font--13",
                  "text": "Tipo de lugar de atención"
                },
                {
                  "textClass": "",
                  "text": "Clínica"
                }
              ]
            },
            {
              "contentClass": "w-md-50 g-mb--20",
              "text": [
                {
                  "textClass": "g-font--light g-font--13",
                  "text": "Nombre del lugar de atención"
                },
                {
                  "textClass": "",
                  "text": "San Fátima de Cuzco"
                }
              ]
            },
            {
              "contentClass": "w-md-50 g-mb--20",
              "text": [
                {
                  "textClass": "g-font--light g-font--13",
                  "text": "Tipo de asistencia"
                },
                {
                  "textClass": "",
                  "text": "Emergencia"
                }
              ]
            },
            {
              "contentClass": "w-md-50 g-mb--20",
              "text": [
                {
                  "textClass": "g-font--light g-font--13",
                  "text": "Tipo de atención"
                },
                {
                  "textClass": "",
                  "text": "Emergencia"
                }
              ]
            }
          ]
        }
      },
      {
        "addClass": "g-mb--30",
        "header": {
          "contentHeaderClass": "d-flex align-items-center justify-content-between",
          "content": [
            {
              "contentClass": "g-font--medium g-font--20",
              "text": "2. DATOS DE LA CUENTA"
            },
            {
              "contentClass": "",
              "iconRight": {
                "iconClass": "g-c--green1 g-font--15 g-c--pointer",
                "iconFile": "icon-mapfre_035_edit"
              }
            }
          ]
        },
        "conteiner": {
          "conteinerClass": "d-flex flex-wrap g-pt--15",
          "contentLeft": [
            {
              "contentClass": "w-md-50 g-mb--20",
              "text": [
                {
                  "textClass": "g-font--light g-font--13",
                  "text": "Banco"
                },
                {
                  "textClass": "",
                  "text": "BCP - Banco de Crédito del Perú"
                }
              ]
            },
            {
              "contentClass": "w-md-50 g-mb--20",
              "text": [
                {
                  "textClass": "g-font--light g-font--13",
                  "text": "Número de cuenta "
                },
                {
                  "textClass": "",
                  "text": "3123 3323 3232 2332"
                }
              ]
            },
            {
              "contentClass": "w-md-50 g-mb--20",
              "text": [
                {
                  "textClass": "g-font--light g-font--13",
                  "text": "Tipo de cuenta"
                },
                {
                  "textClass": "",
                  "text": "Ahorros"
                }
              ]
            },
            {
              "contentClass": "w-md-50 g-mb--20",
              "text": [
                {
                  "textClass": "g-font--light g-font--13",
                  "text": "Tipo de moneda"
                },
                {
                  "textClass": "",
                  "text": "Soles"
                }
              ]
            }
          ]
        }
      },
      {
        "addClass": "g-mb--30",
        "header": {
          "contentHeaderClass": "d-flex align-items-center justify-content-between",
          "content": [
            {
              "contentClass": "g-font--medium g-font--20",
              "text": "3. DOCUMENTACIÓN"
            },
            {
              "contentClass": "",
              "iconRight": {
                "iconClass": "g-c--green1 g-font--15 g-c--pointer",
                "iconFile": "icon-mapfre_035_edit"
              }
            }
          ]
        },
        "conteiner": {
          "conteinerClass": "d-flex flex-column flex-md-row g-pt--30 g-ie-flex--0-1-auto",
          "contentLeft": [
            {
              "contentClass": "g-max-w--14 w-px--14 mx-auto text-center g-mb--20 g-mb-md--0",
              "img": {
                "srcClass": "g-pb--10",
                "src": "../../images/services/icon-inspection.svg"
              },
              "text": [
                {
                  "textClass": "g-font--light g-font--13 ",
                  "text": "Comprobante de pago.pdf (2 mb)"
                }
              ]
            },
            {
              "contentClass": "g-max-w--14 w-px--14 mx-auto text-center g-mb--20 g-mb-md--0",
              "img": {
                "srcClass": "g-pb--10",
                "src": "../../images/services/icon-inspection.svg"
              },
              "text": [
                {
                  "textClass": "g-font--light g-font--13 ",
                  "text": "Examenes medicos.pdf (3 mb)"
                }
              ]
            },
            {
              "contentClass": "g-max-w--14 w-px--14 mx-auto text-center g-mb--20 g-mb-md--0",
              "img": {
                "srcClass": "g-pb--10",
                "src": "../../images/services/icon-inspection.svg"
              },
              "text": [
                {
                  "textClass": "g-font--light g-font--13",
                  "text": "auditoria medica.pdf (574 kb)"
                }
              ]
            }
          ]
        }
      }
    ],
    "footer": {
      "footerClass": "w-10 justify-content-center",
      "btn": [
        {
          "boxClass": "w-50 g-pr--5",
          "textClass": "g-btn-outline d-block w-100 g-max-w--24 mx-auto",
          "text": "Regresar"
        },
        {
          "boxClass": "w-50 g-pl--5",
          "textClass": "g-btn-outline d-block w-100 g-max-w--24 mx-auto disabled",
          "text": "Continuar"
        }
      ]
    }
  }
}