{
  "iconFile": "icon-mapfre_044_logo_landing ",
  "addClass": "g-font--45",
  "acordion": [
    {
      "classAccordion": "g-bg-c--gray8 g-c--gray10 g-pt--5",
      "dataGroup": "true",
      "item": [
        {
          "dataOpen": "true",
          "itemClass": "",
          "titleClass": "",
          "boxClass": "",
          "clickClass": "g-pl--20 g-pr--15 g-py--10",
          "icon": {
            "iconFile": "icon-mapfre_022_car2",
            "iconClass": "g-px--15 g-font--20 "
          },
          "arrow": {
            "clickOn": {
              "iconFile": "icon-mapfre_101_ico-dow",
              "iconClass": "g-font--10 g-c-pointer g-c--white1"
            },
            "clickOff": {
              "iconFile": "icon-mapfre_102_ico-up",
              "iconClass": "g-c--pointer g-font--10"
            }
          },
          "textClass": "g-text--uppercase g-font--bold",
          "text": "VEHÍCULOS",
          "contentClass": "",
          "content": false,
          "list": [
            {
              "iconFile": "",
              "text": "Seguro Vehicular"
            },
            {
              "iconFile": "",
              "text": "SOAT"
            },
            {
              "iconFile": "",
              "text": "Accidentes"
            },
            {
              "text": "Robo"
            },
            {
              "text": "Talleres"
            },
            {
              "text": "Cotización"
            }
          ],
          "classContent": "g-hover-nav g-font--12"
        },
        {
          "dataOpen": "",
          "itemClass": "",
          "titleClass": "",
          "boxClass": "",
          "clickClass": "g-pl--20 g-pr--15 g-py--10",
          "icon": {
            "iconFile": "icon-mapfre_023_cross2",
            "iconClass": "g-px--15 g-font--20 "
          },
          "arrow": {
            "clickOn": {
              "iconFile": "icon-mapfre_101_ico-dow",
              "iconClass": "g-font--10 g-c-pointer g-c--white1"
            },
            "clickOff": {
              "iconFile": "icon-mapfre_102_ico-up",
              "iconClass": "g-c--pointer g-font--10"
            }
          },
          "textClass": "g-text--uppercase g-font--bold",
          "text": "SALUD",
          "contentClass": "",
          "content": false,
          "list": [
            {
              "iconFile": "",
              "text": "Seguro Vehicular"
            },
            {
              "iconFile": "",
              "text": "SOAT"
            },
            {
              "iconFile": "",
              "text": "Accidentes"
            },
            {
              "text": "Robo"
            },
            {
              "text": "Talleres"
            },
            {
              "text": "Cotización"
            }
          ],
          "classContent": "g-hover-nav"
        },
        {
          "dataOpen": "",
          "itemClass": "",
          "titleClass": "",
          "boxClass": "",
          "clickClass": "g-pl--20 g-pr--15 g-py--10",
          "icon": {
            "iconFile": "icon-mapfre_024_house2",
            "iconClass": "g-px--15 g-font--20 "
          },
          "arrow": {
            "clickOn": {
              "iconFile": "icon-mapfre_101_ico-dow",
              "iconClass": "g-font--10 g-c-pointer g-c--white1"
            },
            "clickOff": {
              "iconFile": "icon-mapfre_102_ico-up",
              "iconClass": "g-c--pointer"
            }
          },
          "textClass": "g-text--uppercase g-font--bold",
          "text": "HOGAR",
          "contentClass": "",
          "content": false,
          "list": [
            {
              "iconFile": "",
              "text": "Seguro Vehicular"
            },
            {
              "iconFile": "",
              "text": "SOAT"
            },
            {
              "iconFile": "",
              "text": "Accidentes"
            },
            {
              "text": "Robo"
            },
            {
              "text": "Talleres"
            },
            {
              "text": "Cotización"
            }
          ],
          "classContent": "g-hover-nav"
        },
        {
          "dataOpen": "",
          "itemClass": "",
          "titleClass": "",
          "boxClass": "",
          "clickClass": "g-pl--20 g-pr--15 g-py--10",
          "icon": {
            "iconFile": "icon-mapfre_025_heart2",
            "iconClass": "g-px--15 g-font--20 "
          },
          "arrow": {
            "clickOn": {
              "iconFile": "icon-mapfre_101_ico-dow",
              "iconClass": "g-font--10 g-c-pointer g-c--white1"
            },
            "clickOff": {
              "iconFile": "icon-mapfre_102_ico-up",
              "iconClass": "g-c--pointer"
            }
          },
          "textClass": "g-text--uppercase g-font--bold",
          "text": "VIDA Y AHORROS",
          "contentClass": "",
          "content": false,
          "list": [
            {
              "iconFile": "",
              "text": "Seguro Vehicular"
            },
            {
              "iconFile": "",
              "text": "SOAT"
            },
            {
              "iconFile": "",
              "text": "Accidentes"
            },
            {
              "text": "Robo"
            },
            {
              "text": "Talleres"
            },
            {
              "text": "Cotización"
            }
          ],
          "classContent": "g-hover-nav"
        },
        {
          "dataOpen": "",
          "itemClass": "",
          "titleClass": "",
          "boxClass": "",
          "clickClass": "g-pl--20 g-pr--15 g-py--10",
          "icon": {
            "iconFile": "icon-mapfre_026_decesos",
            "iconClass": "g-px--15 g-font--20 "
          },
          "arrow": false,
          "textClass": "g-text--uppercase g-font--bold",
          "text": "DECESOS",
          "contentClass": "",
          "content": false,
          "classContent": "g-hover-nav"
        },
        {
          "dataOpen": "",
          "itemClass": "",
          "titleClass": "",
          "boxClass": "",
          "clickClass": "g-pl--20 g-pr--15 g-py--10",
          "icon": {
            "iconFile": "icon-mapfre_027_box",
            "iconClass": "g-px--15 g-font--20 "
          },
          "arrow": false,
          "textClass": "g-text--uppercase g-font--bold",
          "text": "SERVICIOS MAPFRE",
          "contentClass": "",
          "content": false,
          "classContent": "g-hover-nav"
        },
        {
          "dataOpen": "",
          "itemClass": "",
          "titleClass": "",
          "boxClass": "",
          "clickClass": "g-pl--20 g-pr--15 g-py--10",
          "icon": {
            "iconFile": "icon-mapfre_028_pagos",
            "iconClass": "g-px--15 g-font--20 "
          },
          "arrow": false,
          "textClass": "g-text--uppercase g-font--bold",
          "text": "Mis Pagos",
          "contentClass": "",
          "content": false,
          "classContent": "g-hover-nav"
        },
        {
          "dataOpen": "",
          "itemClass": "",
          "titleClass": "",
          "boxClass": "",
          "clickClass": "g-pl--20 g-pr--15 g-py--10",
          "icon": {
            "iconFile": "icon-mapfre_029_location-pin2",
            "iconClass": "g-px--15 g-font--20 "
          },
          "arrow": false,
          "textClass": "g-text--uppercase g-font--bold",
          "text": "Red de Oficinas",
          "contentClass": "",
          "content": false,
          "classContent": "g-hover-nav"
        }
      ]
    }
  ],
  "list-btn": [
    {
      "iconFile": "icon-mapfre_030_call",
      "addClass": "g-font--30"
    },
    {
      "iconFile": "icon-mapfre_031_qanda",
      "addClass": "g-font--30"
    }
  ],
  "boxClass": "",
  "headerOIM": {
    "icoNav": {
      "iconFile": "icon-mapfre_047_bars",
      "addClass": "g-font--30",
      "iconFileOIM": "icon-mapfre_044_logo_landing",
      "addClassOIM": "g-font--30"
    },
    "headOimMobile": {
      "llamadaClass": "g-font--light",
      "llamada": "SOLICITUD DE REEMBOLSO",
      "bajada": "NUEVA SOLICITUD",
      "iconFile": "",
      "addClass": "",
      "icoBack": {
        "icon": "icon-mapfre_010_arrow-left",
        "addClass": "g-items-icon g-c--gray3 g-font--25 g-font-md--21"
      }
    },
    "datos": {
      "icoCircle": "icon-mapfre_066_circle",
      "sizeCircle": "g-font--40 g-c--gray1",
      "icoUser": "icon-mapfre_037_user",
      "addClass": "g-c--white1 g-ico--center g-font--20",
      "tittle": "MIS NOTIFICACIONES",
      "icoAlert": "icon-mapfre_036_notification",
      "icoClose": "icon-mapfre_049_close2",
      "sizeClose": "g-font--40",
      "nameUser": "Hola <b>Gonzalo!</b>",
      "numb": 3,
      "alertBadge": {
        "icoCircle": "icon-mapfre_066_circle",
        "addClass": "g-font--30 g-c--green1",
        "addClassNum": "g-ico--center g-font--11 g-c--white1"
      },
      "list": [
        {
          "tipo": "Mi prefil"
        },
        {
          "tipo": "Cerrar sesión"
        }
      ]
    },
    "alert": {
      "ico": "icon-mapfre_014_perfil",
      "icoCircle": "icon-mapfre_066_circle",
      "sizeCircle": "g-font--40 g-c--gray1",
      "addClass": "g-c--white1 g-ico--center g-font--20",
      "tittle": "MIS NOTIFICACIONES",
      "icoAlert": "icon-mapfre_036_notification",
      "icoClose": "icon-mapfre_049_close2",
      "sizeClose": "g-font--40",
      "numb": 3,
      "alertBadge": {
        "icoCircle": "icon-mapfre_066_circle",
        "addClass": "g-font--30 g-c--green1",
        "addClassNum": "g-ico--center g-font--11 g-c--white1"
      },
      "list": [
        {
          "ico-drow": "icon-mapfre_057_circle-check",
          "fech": "HOY 10:23am",
          "tipo": "Solicitud de chofer de reemplazo confirmada",
          "desc": "Lunes 1 NOV - 9:30am"
        },
        {
          "ico-drow": "icon-mapfre_049_close2",
          "fech": "24/02  10:23am",
          "tipo": "Solicitud de chofer de reemplazo cancelada",
          "desc": "Servicio cancelado"
        },
        {
          "ico-drow": "icon-mapfre_057_circle-check",
          "fech": "24/02 10:23am",
          "tipo": "Pago automático emitido",
          "desc": "Fondo universitario"
        },
        {
          "ico-drow": "icon-mapfre_049_close2",
          "fech": "24/02 10:23am",
          "tipo": "Pago fallido",
          "desc": "Seguro SCTR"
        },
        {
          "ico-drow": "icon-mapfre_057_circle-check",
          "fech": "24/02 10:23am",
          "tipo": "Pago pendiente",
          "desc": "Seguro vehicular - Vence 17/05/18"
        },
        {
          "ico-drow": "icon-mapfre_049_close2",
          "fech": "24/02 10:23am",
          "tipo": "Póliza sin cobertura por inpago",
          "desc": "Salud - Venció 12/05/18"
        }
      ]
    }
  },
  "setContainerClass": "g-shadow--line g-mx-n--15 g-mx-md--0 ",
  "titleHeader": {
    "classTitle": "mx-auto g-font--16 g-font-lg--30 g-font--bold g-text--uppercase g-pt--20 g-pt-lg--30 g-pb--20 g-pb-lg--30",
    "title": "DETALLE DE TU SOLICITUD",
    "classDes": "",
    "description": ""
  },
  "timelineContentClass": "g-px--15 g-px-lg--0",
  "itemTime": [
    {
      "position": "",
      "contentClass": "g-bg-c--white1 g-b-radius--5 g-mb--30",
      "dateClass": "g-bg-c--green1",
      "dateDayClass": "g-font--bold g-font--12 g-font-md--16",
      "dateDay": "07",
      "dateMonthClass": "g-font--12 g-font-md--13",
      "dateMonth": "NOV",
      "dateYearClass": "g-font--light g-font--11 g-font-md--13",
      "dateYear": "2018",
      "header": {
        "headerClass": "g-p--15 g-bb--1 g-bc--gray5",
        "textClass": "g-font-lg--18 g-font--medium",
        "text": "Solicitaste un reembolso"
      },
      "section": {
        "sectionClass": "g-p--15",
        "titleClass": "g-font--light g-pb--10",
        "title": "DIRECCIÓN",
        "textDescription": [
          {
            "textClass": "g-line--10 g-pb--10 g-font--light d-flex align-items-center",
            "icon": {
              "iconClass": "g-pr--5 g-font--20 g-c--gray18",
              "icon": "icon-mapfre_014_perfil"
            },
            "text": "<span class='g-font--medium g-pr--5'>Paciente:</span>  Claire Redfield"
          },
          {
            "textClass": "g-line--10 g-pb--10 g-font--light d-flex align-items-center",
            "icon": {
              "iconClass": "g-pr--5 g-font--20 g-c--gray18",
              "icon": "icon-mapfre_120_cobertura"
            },
            "text": "<span class='g-font--medium'>Hospitalización</span> "
          }
        ]
      },
      "footer": {
        "footerClass": "g-p--10 g-bt--1 g-bc--gray5",
        "btnSection1": {
          "sectionClass": "d-flex justify-content-between",
          "btnLeft": {
            "contentBtn": "d-flex align-items-center flex-wrap",
            "btn": false,
            "link": {
              "linkClass": "g-c--green1 g-link--green1 g-c--pointer g-pl--5 g-font--mediums",
              "link": "Ver informe"
            }
          },
          "btnRight": {
            "contentBtnRight": "d-flex align-items-center justify-content-center justify-content-lg-end text-center g-pt-lg--5",
            "btn": [
              {
                "iconClass": "g-c-pointer g-font--28 g-px--15 g-c--pointer g-c--green1",
                "icon": "icon-mapfre_060_mail"
              },
              {
                "iconClass": "g-c-pointer g-font--28 g-px--15 g-c--pointer g-c--green1",
                "icon": "icon-mapfre_059_download"
              }
            ]
          }
        }
      }
    },
    {
      "position": "g-timeline--inverted",
      "contentClass": "g-bg-c--white1 g-b-radius--5 g-mb--30",
      "dateClass": "g-bg-c--green1",
      "dateDayClass": "g-font--bold g-font--12 g-font-md--16",
      "dateDay": "07",
      "dateMonthClass": "g-font--12 g-font-md--13",
      "dateMonth": "NOV",
      "dateYearClass": "g-font--light g-font--11 g-font-md--13",
      "dateYear": "2018",
      "header": {
        "headerClass": "g-p--15",
        "textClass": "g-font-lg--18 g-font--medium",
        "text": "La solicitud se encuentra en revisión"
      },
      "section": false,
      "footer": false
    },
    {
      "position": "",
      "contentClass": "g-bg-c--white1 g-b-radius--5 g-mb--30",
      "dateClass": "g-bg-c--green1",
      "dateDayClass": "g-font--bold g-font--12 g-font-md--16",
      "dateDay": "13",
      "dateMonthClass": "g-font--12 g-font-md--13",
      "dateMonth": "NOV",
      "dateYearClass": "g-font--light g-font--11 g-font-md--13",
      "dateYear": "2018",
      "header": {
        "headerClass": "g-px--15 g-pt--15 g-pt--10",
        "textClass": "g-font-lg--18 g-font--medium",
        "text": "Reembolso aprobado"
      },
      "section": {
        "sectionClass": "g-p--15 d-flex flex-wrap",
        "titleClass": "",
        "title": "",
        "textDescription": [
          {
            "textClass": "g-line--14 g-pb--10 g-font--light flex-fill",
            "icon": false,
            "text": "<span class='g-font--bold'>Reembolso:</span><br> S/ 456."
          },
          {
            "textClass": "g-line--14 g-pb--10 g-font--light flex-fill",
            "icon": false,
            "text": "<span class='g-font--bold'>Nro. de cuenta</span><br> 19321217984362"
          }
        ]
      },
      "footer": false
    },
    {
      "position": "g-timeline--inverted",
      "contentClass": "g-bg-c--gray11 g-b-radius--5 g-mb--30 g-b--1 g-bc--gray21",
      "dateClass": "g-bg-c--gray11 g-b--1 g-bc--gray21 g-c--gray18",
      "dateDayClass": "g-font--bold g-font--12 g-font-md--16",
      "dateDay": "14",
      "dateMonthClass": "g-font--12 g-font-md--13",
      "dateMonth": "MAR",
      "dateYearClass": "g-font--light g-font--11 g-font-md--13",
      "dateYear": "2019",
      "header": {
        "headerClass": "g-timeline--items-pending g-p--15",
        "textClass": "g-font-lg--18 g-font--medium",
        "text": "La solicitud se encuentra en revisión"
      },
      "section": false,
      "footer": false
    }
  ],
  "openClick": {
    "click": "data-attached"
  },
  "formModal": {
    "addClass": "",
    "data": "data-attached",
    "modalContainer": "",
    "modalWrapper": "g-full-modal--medium",
    "page": "DATOS DEL VEHÍCULO",
    "title": "ARCHIVOS ADJUNTOS",
    "contentClass": "g-pb--50",
    "formContent": {
      "addClass": "",
      "error": false,
      "address": false,
      "attached": [
        {
          "title": [
            {
              "textClass": "text-left g-font--medium g-pt-lg--40 g-pb--20",
              "text": "Has adjuntado los siguientes archivos:"
            }
          ],
          "uploadImage": [
            {
              "uploadImageClass": "d-flex flex-md-row flex-column flex-wrap g-pb--20",
              "imgUploaded": [
                {
                  "imgUploadedClass": "d-flex align-items-center w-10 w-md-50 g-bt--1 g-bb--1 g-bc--gray21 g-py--10 g-px--15 g-mt-minus--1 g-mh--8",
                  "icon": {
                    "iconClass": "g-font--19 g-pl-10 g-c--green1",
                    "iconFile": "icon-mapfre_059_download"
                  },
                  "content": [
                    {
                      "contentTextClass": "g-px--15 d-flex text-truncate",
                      "text": [
                        {
                          "textClass": "g-font--light w-10 text-truncate",
                          "text": "Archivo.pdf "
                        }
                      ],
                      "iconClose": false
                    },
                    {
                      "contentTextClass": "ml-auto g-line--10",
                      "text": {
                        "textClass": "g-font--light",
                        "text": "(2 mb)"
                      },
                      "iconClose": false
                    }
                  ]
                },
                {
                  "imgUploadedClass": "d-flex align-items-center w-10 w-md-50 g-bt--1 g-bb--1 g-bc--gray21 g-py--10 g-px--15 g-mt-minus--1 g-mh--8",
                  "icon": {
                    "iconClass": "g-font--19 g-pl-10 g-c--green1",
                    "iconFile": "icon-mapfre_059_download"
                  },
                  "content": [
                    {
                      "contentTextClass": "g-px--15 d-flex text-truncate",
                      "text": [
                        {
                          "textClass": "g-font--light w-10 text-truncate",
                          "text": "Archivo.pdf "
                        }
                      ],
                      "iconClose": false
                    },
                    {
                      "contentTextClass": "ml-auto g-line--10",
                      "text": {
                        "textClass": "g-font--light",
                        "text": "(2 mb)"
                      },
                      "iconClose": false
                    }
                  ]
                },
                {
                  "imgUploadedClass": "d-flex align-items-center w-10 w-md-50 g-bt--1 g-bb--1 g-bc--gray21 g-py--10 g-px--15 g-mt-minus--1 g-mh--8",
                  "icon": {
                    "iconClass": "g-font--19 g-pl-10 g-c--green1",
                    "iconFile": "icon-mapfre_059_download"
                  },
                  "content": [
                    {
                      "contentTextClass": "g-px--15 d-flex text-truncate",
                      "text": [
                        {
                          "textClass": "g-font--light w-10 text-truncate",
                          "text": "Archivo.pdf "
                        }
                      ],
                      "iconClose": false
                    },
                    {
                      "contentTextClass": "ml-auto g-line--10",
                      "text": {
                        "textClass": "g-font--light",
                        "text": "(2 mb)"
                      },
                      "iconClose": false
                    }
                  ]
                },
                {
                  "imgUploadedClass": "d-flex align-items-center w-10 w-md-50 g-bt--1 g-bb--1 g-bc--gray21 g-py--10 g-px--15 g-mt-minus--1 g-mh--8",
                  "icon": {
                    "iconClass": "g-font--19 g-pl-10 g-c--green1",
                    "iconFile": "icon-mapfre_059_download"
                  },
                  "content": [
                    {
                      "contentTextClass": "g-px--15 d-flex text-truncate",
                      "text": [
                        {
                          "textClass": "g-font--light w-10 text-truncate",
                          "text": "Archivo.pdf "
                        }
                      ],
                      "iconClose": false
                    },
                    {
                      "contentTextClass": "ml-auto g-line--10",
                      "text": {
                        "textClass": "g-font--light",
                        "text": "(2 mb)"
                      },
                      "iconClose": false
                    }
                  ]
                },
                {
                  "imgUploadedClass": "d-flex align-items-center w-10 w-md-50 g-bt--1 g-bb--1 g-bc--gray21 g-py--10 g-px--15 g-mt-minus--1 g-mh--8",
                  "icon": {
                    "iconClass": "g-font--19 g-pl-10 g-c--green1",
                    "iconFile": "icon-mapfre_059_download"
                  },
                  "content": [
                    {
                      "contentTextClass": "g-px--15 d-flex text-truncate",
                      "text": [
                        {
                          "textClass": "g-font--light w-10 text-truncate",
                          "text": "Archivo.pdf "
                        }
                      ],
                      "iconClose": false
                    },
                    {
                      "contentTextClass": "ml-auto g-line--10",
                      "text": {
                        "textClass": "g-font--light",
                        "text": "(2 mb)"
                      },
                      "iconClose": false
                    }
                  ]
                },
                {
                  "imgUploadedClass": "d-flex align-items-center w-10 w-md-50 g-bt--1 g-bb--1 g-bc--gray21 g-py--10 g-px--15 g-mt-minus--1 g-mh--8",
                  "icon": {
                    "iconClass": "g-font--19 g-pl-10 g-c--green1",
                    "iconFile": "icon-mapfre_059_download"
                  },
                  "content": [
                    {
                      "contentTextClass": "g-px--15 d-flex text-truncate",
                      "text": [
                        {
                          "textClass": "g-font--light w-10 text-truncate",
                          "text": "Archivo.pdf "
                        }
                      ],
                      "iconClose": false
                    },
                    {
                      "contentTextClass": "ml-auto g-line--10",
                      "text": {
                        "textClass": "g-font--light",
                        "text": "(2 mb)"
                      },
                      "iconClose": false
                    }
                  ]
                }
              ]
            }
          ],
          "inputUpload": false
        }
      ],
      "itemInputs": false
    },
    "itemSelects": false,
    "btnOne": false,
    "btnTwo": {
      "addClass": "g-btn--default g-btn-outline",
      "text": "CERRAR"
    }
  }
}