{
  "addClass": "",
  "list": [
    {
      "header": {
        "title": {
          "textClass": "g-font--medium g-font--20",
          "text": "1. Lugar y fecha"
        },
        "icon": {
          "iconFile": "icon-mapfre_035_edit",
          "iconClass": "g-c--green1 g-c--pointer"
        }
      },
      "content": [
       {
        "item": [
          {
            "infoClass": "g-font--light g-font--13 g-bc--gray18",
            "info": "Dirección",
            "text": "Av. Aepete Este 432, San Isidro, Lima, Lima"
          },
          {
            "infoClass": "g-font--light g-font--13 g-bc--gray18 w-px-lg--8",
            "info": "Fecha",
            "text": "12/05/2018"
          },
          {
            "infoClass": "g-font--light g-font--13 g-bc--gray18 w-px-lg--5",
            "info": "Hora",
            "text": "9:30"
          }
        ]
       }
      ]
    },
    {
      "header": {
        "title": {
          "textClass": "g-font--medium g-font--20",
          "text": "2. Tipo de incidente"
        },
        "icon": {
          "iconFile": "icon-mapfre_035_edit",
          "iconClass": "g-c--green1 g-c--pointer"
        }
      },
      "content": [
       {
        "item": [
          {
            "infoClass": "g-font--light g-font--13 g-bc--gray18",
            "info": "Tipo de incidente",
            "text": "Rotura de vidrios - Rotura de vidrios y cristales"
          }
        ]
       }
      ]
    }
  ]
}