{
  "lugar": [
    {
      "radio": {
        "addClass": "g-pl--30 g-py--20 align-items-start align-items-lg-center",
        "classRadio": "d-flex align-items-center g-m--0",
        "idradio": "radioCard",
        "label": false
      },
      "left1": {
        "icon": {
          "addClass": "g-pr--5 g-pr-lg--15  g-pt--0  g-pt-lg--10  g-pt-lg--0 float-left",
          "iconClass": "g-items-icon g-font--16 g-font-lg--45 g-c--gray9",
          "icon": "icon-mapfre_017_house"
        },
        "textClass": "g-font--medium  g-pt-lg--20",
        "title1": "Dirección",
        "text2Class": "text-truncate g-font--light g-font--13",
        "text2": "Av. Aepete Este 432, San Isidro, Lima, Lima"
      },
      "right1": {
        "addClass": "w-px-lg--17",
        "textClass": "g-font--14 g-font--medium",
        "title1": "Seguro",
        "text2Class": "g-font--light g-font--13",
        "text2": "   Hogar Smart 24 Horas"
      }
    },
    {
      "radio": {
        "addClass": "g-pl--30 g-py--20 align-items-start align-items-lg-center",
        "classRadio": "d-flex align-items-center g-m--0",
        "idradio": "radioCard",
        "label": false
      },
      "left1": {
        "icon": {
          "addClass": "g-pr--5 g-pr-lg--15  g-pt--0  g-pt-lg--20  g-pt-lg--0 float-left",
          "iconClass": "g-items-icon g-font--16 g-font-lg--45 g-c--gray9",
          "icon": "icon-mapfre_017_house"
        },
        "textClass": "g-font--medium  g-pt-lg--20",
        "title1": "Dirección",
        "text2Class": "text-truncate g-font--light g-font--13",
        "text2": "Av. Aepete Este 432, San Isidro, Lima, Lima"
      },
      "right1": {
        "addClass": "w-px-lg--17",
        "textClass": "g-font--14 g-font--medium",
        "title1": "Seguro",
        "text2Class": "g-font--light g-font--13",
        "text2": "   Hogar Smart 24 Horas"
      }
    }
  ],
  "formCase": {
    "textClass": "",
    "text": "FECHA Y HORA DEL INCIDENTE",
    "inputForm": {
      "fecha": {
        "addClass": "g-form-focus",
        "currency": "",
        "type": "text",
        "value": "",
        "iconFile": "icon-mapfre_050_agendar",
        "iconColor": "g-c--green1",
        "label": "Fecha",
        "requerid": false,
        "error": ""
      },
      "hora": {
        "addClass": "g-form-focus g-pl--30",
        "currency": "",
        "type": "text",
        "value": "",
        "iconFile": "icon-mapfre_062_reloj",
        "iconColor": "g-c--green1",
        "label": "Hora",
        "requerid": false,
        "error": ""
      }
    }
  }
}
