{
  "addClass": "",
  "icon": {
    "iconFile": "icon-mapfre_019_car",
    "iconClass": "g-font--42"
  },
  "addClassHeader": "",
  "contentClass": "g-w-lg--50",
  "title": {
    "textClass": "g-px--10 g-px-lg--0",
    "text": "DATOS DEL VEHÍCULO"
  },
  "contentClass2": "g-w-lg--50 align-self-center",
  "textClass2": "g-c--green1 g-font--14 g-font--medium text-nowrap",
  "icon2Class": "g-pr--0 g-pr-lg--10 g-c--pointer",
  "icon2": "icon-mapfre_035_edit",
  "text2": "Placa: AAA 123",
  "step1": {
    "formCase": [
      {
        "addContentClass": "g-w-lg-50 g-w-100 g-pr-lg--15 g-pb--25",
        "addClass": "g-form-focus",
        "label": "Marca",
        "disabled": false,
        "listOption": [
          {
            "value": "TOYOTA"
          }
        ],
        "error": ""
      },
      {
        "addContentClass": "g-w-lg-50 g-w-100 g-pl--0 g-pl-lg--15 g-pb--25",
        "addClass": "g-form-focus",
        "label": "Modelo",
        "disabled": false,
        "listOption": [
          {
            "value": "YARIS"
          }
        ],
        "error": ""
      },
      {
        "addContentClass": "g-w-lg-50 g-w-100 g-pr-lg--15 g-pb--25",
        "addClass": "g-form-focus",
        "label": "Año de fabricación",
        "disabled": false,
        "listOption": [
          {
            "value": "2017"
          }
        ],
        "error": ""
      },
      {
        "addContentClass": "g-w-lg-50 g-w-100 g-pl--0 g-pl-lg--15 g-pb--25",
        "addClass": "g-form-focus",
        "label": "Tipo de vehículo",
        "disabled": false,
        "listOption": [
          {
            "value": "AUTOMOVIL"
          }
        ],
        "error": ""
      },
      {
        "addContentClass": "g-w-lg-50 g-w-100 g-pr-lg--15 g-pb--25",
        "addClass": "g-form-focus",
        "label": "Valor sugerido del vehículo",
        "disabled": false,
        "listOption": [
          {
            "value": "$ 20,000"
          }
        ],
        "error": ""
      },
      {
        "addContentClass": "g-w-lg-50 g-w-100 g-pl--0 g-pl-lg--15 g-pb--25",
        "addClass": "g-form-focus",
        "label": "Uso del vehículo",
        "disabled": false,
        "listOption": [
          {
            "value": "PARTICULAR"
          }
        ],
        "error": ""
      }
    ]
  },
  "footer": {
    "footerClass": "",
    "btn": [
      {
        "boxClass": "g-pr--10",
        "textClass": "g-btn-outline",
        "text": "Cancelar"
      },
      {
        "boxClass": "g-pl--10",
        "textClass": "",
        "text": "Continuar"
      }
    ]
  }
}