{
  "boxClass": "g-b--1 ",
  "contentHeadClass": "d-flex flex-column flex-md-row ",
  "headContent": [
    {
      "headClass": "g-p--10 text-center flex-fill",
      "title": [
        {
          "textClass": "g-font--13 g-font--light ",
          "text": "Código de pago bancario:"
        },
        {
          "textClass": "g-font--bold",
          "text": "430940983"
        }
      ]
    },
    {
      "headClass": "g-p--10 text-center g-bl-md--1 g-bt--1 g-bt-md--0 flex-fill",
      "title": [
        {
          "textClass": "g-font--13 g-font--light ",
          "text": "Documento"
        },
        {
          "textClass": "g-font--bold",
          "text": "D.N.I. 430940983"
        }
      ]
    }
  ],
  "contentClass": "g-p--20 g-bt--1 ",
  "title": {
    "textClass": "g-font--13 g-font--light text-center",
    "text": "Bancos afiliados:"
  },
  "brands": {
    "addClass": "justify-content-lg-around flex-wrap g-mt--5",
    "img": [
      {
        "imgClass": "g-w-50 g-w-md-33 text-lg-center g-pb-lg--20",
        "img": "/../../../images/banner/vehiculo/bbva.svg"
      },
      {
        "imgClass": "g-w-50 g-w-md-33 text-lg-center g-pb-lg--20",
        "img": "/../../../images/banner/vehiculo/bcp.svg"
      },
      {
        "imgClass": "g-w-50 g-w-md-33 text-lg-center g-pb-lg--20",
        "img": "/../../../images/banner/vehiculo/banbif.svg"
      },
      {
        "imgClass": "g-w-50 g-w-md-33 text-lg-center",
        "img": "/../../../images/banner/vehiculo/scotiabank.svg"
      },
      {
        "imgClass": "g-w-50 g-w-md-33 text-lg-center",
        "img": "/../../../images/banner/vehiculo/interbank.svg"
      }
    ]
  }
}