{
  "header":
  {
    "title": "modificar chofer de reemplazo"
  },
  "content":
  {
    "datepicker":
    {
      "addClass": "g-form-focus",
      "currency": "",
      "type" : "text",
      "value": "",
      "iconFile": "icon-mapfre_050_agendar",
      "iconColor": "g-c--green1",
      "label" : "Fecha",
      "requerid": false,
      "error" : ""
    },  
    "hour": 
    {
      "addClass": "g-form-focus",
      "currency": "",
      "type" : "text",
      "value": "",
      "iconFile": "icon-mapfre_062_reloj",
      "iconColor": "g-c--green1",
      "label" : "Hora",
      "requerid": false,
      "error" : ""
    },
    "point":
    {
      "addClass": "g-form-focus",
      "currency": "",
      "type": "text",
      "value": "Av. Javier Prado Este 499",
      "iconFile": "icon-mapfre_100_mask",
      "iconColor": "",
      "label": "Punto de partida",
      "requerid": false,
      "error": ""
    },
    "pointofarrival":
    {
      "addClass": "g-form-focus",
      "currency": "",
      "type": "text",
      "value": "Av. Javier Prado Este 499",
      "iconFile": "icon-mapfre_100_mask",
      "iconColor": "",
      "label": "Punto de partida",
      "requerid": false,
      "error": ""
    },
    "datecar":
    {
      "label" : "TOYOTA Tercel - 2013",
      "type" : "text",
      "value" : "Placa:DE450",
      "error" : "",
      "addClass": "g-form-focus",
      "requerid": true,
      "tooltip": false,
      "title": ""
    },
    "num": 
    {
      "label" : "Teléfono de contacto",
      "type" : "text",
      "value" : "953 543 343",
      "error" : "",
      "addClass": "g-form-focus",
      "requerid": true,
      "tooltip": false,
      "title": ""
    },
    "summaryPrice":
    {
      "list": [
        {
          "description": "Precio:",
          "price": "S/. 50",
          "style1": "g-font--bold",
          "style2": "g-text--linethrough"  
        },
        {
          "description": "Con descuento Mapfre:",
          "price": "S/. 20",
          "style1": "g-font--bold",
          "style2": "g-c--green1" 
        },
        {
          "description": "Pago en efectivo al chofer.",
          "price": "",
          "style1": "g-c--gray3" 
        }
      ]
    }
  },
  "footer":
  {
    "btncancel": 
    {
      "text" : "cancelar",
      "addClass" : "g-btn-outline g-text--uppercase w-lg-8"
    },
    "btnconfirmation":
    {
      "addClass" : "g-text--uppercase w-lg-8",
      "data" : "",
      "text" : "confirmar",
      "onclick" : ""
    }
  } 
}