{
  "boxHead" : {
    "addClass" : "",
    "blockClass" : "align-items-center",
    "dateList": {
      "addClass" : "",
      "list" : [
        {
          "itemClass" : "",
          "iconFile" : "",
          "iconClass" : "",
          "textClass" : "g-font--14 g-font-md--18 g-text--uppercase",
          "text" : "Mis Direcciones"
        }
      ]
    },
    "btnAdd": {
      "addClass": "g-btn-outline",
      "text": "Agregar Dirección"
    },
    "btnIconAdd": false
  },
  "cardboxCheck" : false,
  "cardboxDirection": [
    {
      "addClass" : "g-mb--20",
      "icon" : {
        "addClass" : "g-c--gray9 g-font--25 g-font-md--21",
        "iconFile" : "icon-mapfre_042_home"
      },
      "text": "Calle Germán Schreiber 8329",
      "secondText": "San Isidro - Lima",
      "second": {
        "text": "Pólizas",
        "secondText": "Auto - Salud - Hogar"
      },
      "thrid": {
        "text": "Correspondencia",
        "icon" : {
          "addClass" : "g-c--gray9 g-font--25 g-font-md--21",
          "iconFile" : "icon-mapfre_043_cartel"
        }
      },
      "icoEdit": {
        "href": "#",
        "addClass" : "g-c--green1 g-font--25 g-font-md--21 text-right",
        "iconFile" : "icon-mapfre_035_edit"
      }
    },
    {
      "addClass" : "",
      "icon" : {
        "addClass" : "g-c--gray9 g-font--25 g-font-md--21",
        "iconFile" : "icon-mapfre_042_home"
      },
      "text": "Calle Germán Schreiber 8329",
      "secondText": "San Isidro - Lima",
      "second": {
        "text": "Pólizas",
        "secondText": "Auto - Salud - Hogar"
      },
      "thrid": {
        "text": "Correspondencia",
        "icon" : {
          "addClass" : "g-c--gray9 g-font--25 g-font-md--21",
          "iconFile" : "icon-mapfre_043_cartel"
        }
      },
      "icoEdit": {
        "href": "#",
        "addClass" : "g-c--green1 g-font--25 g-font-md--21 text-right",
        "iconFile" : "icon-mapfre_035_edit"
      },
      "icoDelete": {
        "href": "#",
        "addClass" : "g-c--red1 g-font--25 g-font-md--21 text-right",
        "iconFile" : "icon-mapfre_053_eliminar"
      }
    }
  ],
  "cardboxPayments" : false,
  "btnVerTodos": false
}