{
	"value": "#open-modal",
	"addClass": "block g-text--uppercase g-modal--link",
	"data": "modal01",
	"text": "modal01",
	"title-modal": {
		"title": "AGREGAR DIRECCIÓN"
	},
	"cont-add-adress": true,
	"btns": {
		"btnsClass": "d-flex flex-column-reverse flex-md-row justify-content-center",
		"btn": [
			{
				"addClass": "g-p--10 text-center w-10",
				"textClass": "g-btn g-text--uppercase g-px--60 w-px-lg--24 g-c--pointer",
				"text": "ACEPTAR"
			}
		]
	}
}