{
  "iconFile": "icon-mapfre_044_logo_landing ",
  "addClass": "g-font--40",
  "acordion": [
    {
      "classAccordion": "g-bg-c--gray8 g-c--gray10 g-pt--5",
      "dataGroup": "true",
      "item": [
        {
          "dataOpen": "true",
          "itemClass": "",
          "titleClass": "",
          "boxClass": "",
          "clickClass": " g-pl--20   g-pr--15   g-py--10 ",
          "icon": {
            "iconFile": "icon-mapfre_022_car2",
            "iconClass": "g-px--15 g-font--20 "
          },
          "arrow": {
            "clickOn": {
              "iconFile": "icon-mapfre_101_ico-dow",
              "iconClass": "g-font--10 g-c-pointer g-c--white1"
            },
            "clickOff": {
              "iconFile": "icon-mapfre_102_ico-up",
              "iconClass": "g-c--pointer"
            }
          },
          "textClass": "g-text--uppercase g-font--bold",
          "text": "VEHÍCULOS",
          "contentClass": "",
          "content": false,
          "list": [
            {
              "iconFile": "",
              "text": "Seguro Vehicular"
            },
            {
              "iconFile": "",
              "text": "SOAT"
            },
            {
              "iconFile": "",
              "text": "Accidentes"
            },
            {
              "text": "Robo"
            },
            {
              "text": "Talleres"
            },
            {
              "text": "Cotización"
            }
          ],
          "classContent": "g-hover-nav g-font--12"
        },
        {
          "dataOpen": "",
          "itemClass": "",
          "titleClass": "",
          "boxClass": "",
          "clickClass": " g-pl--20   g-pr--15   g-py--10 ",
          "icon": {
            "iconFile": "icon-mapfre_023_cross2",
            "iconClass": "g-px--15 g-font--20 "
          },
          "arrow": {
            "clickOn": {
              "iconFile": "icon-mapfre_101_ico-dow",
              "iconClass": "g-font--10 g-c-pointer g-c--white1"
            },
            "clickOff": {
              "iconFile": "icon-mapfre_102_ico-up",
              "iconClass": "g-c--pointer g-font--10"
            }
          },
          "textClass": "g-text--uppercase g-font--bold",
          "text": "SALUD",
          "contentClass": "",
          "content": false,
          "list": [
            {
              "iconFile": "",
              "text": "Seguro Vehicular"
            },
            {
              "iconFile": "",
              "text": "SOAT"
            },
            {
              "iconFile": "",
              "text": "Accidentes"
            },
            {
              "text": "Robo"
            },
            {
              "text": "Talleres"
            },
            {
              "text": "Cotización"
            }
          ],
          "classContent": "g-hover-nav"
        },
        {
          "dataOpen": "",
          "itemClass": "",
          "titleClass": "",
          "boxClass": "",
          "clickClass": " g-pl--20   g-pr--15   g-py--10 ",
          "icon": {
            "iconFile": "icon-mapfre_024_house2",
            "iconClass": "g-px--15 g-font--20 "
          },
          "arrow": {
            "clickOn": {
              "iconFile": "icon-mapfre_101_ico-dow",
              "iconClass": "g-font--10 g-c-pointer g-c--white1"
            },
            "clickOff": {
              "iconFile": "icon-mapfre_102_ico-up",
              "iconClass": "g-c--pointer"
            }
          },
          "textClass": "g-text--uppercase g-font--bold",
          "text": "HOGAR",
          "contentClass": "",
          "content": false,
          "list": [
            {
              "iconFile": "",
              "text": "Seguro Vehicular"
            },
            {
              "iconFile": "",
              "text": "SOAT"
            },
            {
              "iconFile": "",
              "text": "Accidentes"
            },
            {
              "text": "Robo"
            },
            {
              "text": "Talleres"
            },
            {
              "text": "Cotización"
            }
          ],
          "classContent": "g-hover-nav"
        },
        {
          "dataOpen": "",
          "itemClass": "",
          "titleClass": "",
          "boxClass": "",
          "clickClass": " g-pl--20   g-pr--15   g-py--10 ",
          "icon": {
            "iconFile": "icon-mapfre_025_heart2",
            "iconClass": "g-px--15 g-font--20 "
          },
          "arrow": {
            "clickOn": {
              "iconFile": "icon-mapfre_101_ico-dow",
              "iconClass": "g-font--10 g-c-pointer g-c--white1"
            },
            "clickOff": {
              "iconFile": "icon-mapfre_102_ico-up",
              "iconClass": "g-c--pointer"
            }
          },
          "textClass": "g-text--uppercase g-font--bold",
          "text": "VIDA Y AHORROS",
          "contentClass": "",
          "content": false,
          "list": [
            {
              "iconFile": "",
              "text": "Seguro Vehicular"
            },
            {
              "iconFile": "",
              "text": "SOAT"
            },
            {
              "iconFile": "",
              "text": "Accidentes"
            },
            {
              "text": "Robo"
            },
            {
              "text": "Talleres"
            },
            {
              "text": "Cotización"
            }
          ],
          "classContent": "g-hover-nav"
        },
        {
          "dataOpen": "",
          "itemClass": "",
          "titleClass": "",
          "boxClass": "",
          "clickClass": " g-pl--20   g-pr--15   g-py--10 ",
          "icon": {
            "iconFile": "icon-mapfre_026_decesos",
            "iconClass": "g-px--15 g-font--20 "
          },
          "arrow": false,
          "textClass": "g-text--uppercase g-font--bold",
          "text": "DECESOS",
          "contentClass": "",
          "content": false,
          "classContent": "g-hover-nav"
        },
        {
          "dataOpen": "",
          "itemClass": "",
          "titleClass": "",
          "boxClass": "",
          "clickClass": " g-pl--20   g-pr--15   g-py--10 ",
          "icon": {
            "iconFile": "icon-mapfre_027_box",
            "iconClass": "g-px--15 g-font--20 "
          },
          "arrow": false,
          "textClass": "g-text--uppercase g-font--bold",
          "text": "SERVICIOS MAPFRE",
          "contentClass": "",
          "content": false,
          "classContent": "g-hover-nav"
        },
        {
          "dataOpen": "",
          "itemClass": "",
          "titleClass": "",
          "boxClass": "",
          "clickClass": " g-pl--20   g-pr--15   g-py--10 ",
          "icon": {
            "iconFile": "icon-mapfre_028_pagos",
            "iconClass": "g-px--15 g-font--20 "
          },
          "arrow": false,
          "textClass": "g-text--uppercase g-font--bold",
          "text": "Mis Pagos",
          "contentClass": "",
          "content": false,
          "classContent": "g-hover-nav"
        },
        {
          "dataOpen": "",
          "itemClass": "",
          "titleClass": "",
          "boxClass": "",
          "clickClass": " g-pl--20   g-pr--15   g-py--10 ",
          "icon": {
            "iconFile": "icon-mapfre_029_location-pin2",
            "iconClass": "g-px--15 g-font--20 "
          },
          "arrow": false,
          "textClass": "g-text--uppercase g-font--bold",
          "text": "Red de Oficinas",
          "contentClass": "",
          "content": false,
          "classContent": "g-hover-nav"
        }
      ]
    }
  ],
  "list-btn": [
    {
      "iconFile": "icon-mapfre_030_call",
      "addClass": "g-font--30"
    },
    {
      "iconFile": "icon-mapfre_031_qanda",
      "addClass": "g-font--30"
    }
  ],
  "headerOIM": {
    "icoNav": {
      "iconFile": "icon-mapfre_047_bars",
      "addClass": "g-font--30",
      "iconFileOIM": "icon-mapfre_044_logo_landing ",
      "addClassOIM": "g-font--30 g-c--white1 d-xl-none d-block"
    },
    "headOimMobile": {
      "llamadaClass": "g-font--light g-c--gray2",
      "llamada": "MI MAPFRE",
      "bajada": "CONFIGURAR PAGO",
      "iconFile": "icon-mapfre_044_logo_landing ",
      "addClass": "g-font--30",
      "icoBack": false
    },
    "datos": {
      "icoCircle": "icon-mapfre_066_circle",
      "sizeCircle": "g-font--40 g-c--gray1",
      "icoUser": "icon-mapfre_037_user",
      "addClass": "g-c--white1 g-ico--center g-font--20",
      "tittle": "MIS NOTIFICACIONES",
      "icoAlert": "icon-mapfre_036_notification",
      "icoClose": "icon-mapfre_049_close2",
      "sizeClose": "g-font--40",
      "nameUser": "Hola <b>Gonzalo!</b>",
      "numb": 3,
      "alertBadge": {
        "icoCircle": "icon-mapfre_066_circle",
        "addClass": "g-font--30 g-c--green1",
        "addClassNum": "g-ico--center g-font--11 g-c--white1"
      },
      "list": [
        {
          "tipo": "Mi prefil"
        },
        {
          "tipo": "Cerrar sesión"
        }
      ]
    },
    "alert": {
      "ico": "icon-mapfre_014_perfil",
      "icoCircle": "icon-mapfre_066_circle",
      "sizeCircle": "g-font--40 g-c--gray1",
      "addClass": "g-c--white1 g-ico--center g-font--20",
      "tittle": "MIS NOTIFICACIONES",
      "icoAlert": "icon-mapfre_036_notification",
      "icoClose": "icon-mapfre_049_close2",
      "sizeClose": "g-font--40",
      "numb": 3,
      "alertBadge": {
        "icoCircle": "icon-mapfre_066_circle",
        "addClass": "g-font--30 g-c--green1",
        "addClassNum": "g-ico--center g-font--11 g-c--white1"
      },
      "list": [
        {
          "ico-drow": "icon-mapfre_057_circle-check",
          "fech": "HOY 10:23am",
          "tipo": "Solicitud de chofer de reemplazo confirmada",
          "desc": "Lunes 1 NOV - 9:30am"
        },
        {
          "ico-drow": "icon-mapfre_049_close2",
          "fech": "24/02  10:23am",
          "tipo": "Solicitud de chofer de reemplazo cancelada",
          "desc": "Servicio cancelado"
        },
        {
          "ico-drow": "icon-mapfre_057_circle-check",
          "fech": "24/02 10:23am",
          "tipo": "Pago automático emitido",
          "desc": "Fondo universitario"
        },
        {
          "ico-drow": "icon-mapfre_049_close2",
          "fech": "24/02 10:23am",
          "tipo": "Pago fallido",
          "desc": "Seguro SCTR"
        },
        {
          "ico-drow": "icon-mapfre_057_circle-check",
          "fech": "24/02 10:23am",
          "tipo": "Pago pendiente",
          "desc": "Seguro vehicular - Vence 17/05/18"
        },
        {
          "ico-drow": "icon-mapfre_049_close2",
          "fech": "24/02 10:23am",
          "tipo": "Póliza sin cobertura por inpago",
          "desc": "Salud - Venció 12/05/18"
        }
      ]
    }
  },
  "tabs": {
    "listTab": [
      {
        "addActive": "g-tablist__tab--active",
        "text": "Reportar"
      },
      {
        "addActive": false,
        "text": "Mis asistencias"
      }
    ]
  },
  "driverTittle": false,
  "cardbox": {
    "icon": {
      "addClass": "g-px-lg--25 g-px--15 g-pt--15 g-pt-lg--0 ",
      "iconClass": "g-items-icon  g-font--30 g-c--gray9",
      "icon": "icon-mapfre_019_car"
    },
    "left": {
      "addClass": "w-100  g-mb--10   g-mb-lg--0  g-o--hidden",
      "textClass": "g-font--medium g-font--16 g-c--gray2",
      "title1": "Póliza Full Cobertura",
      "text2Class": "text-truncate g-font--light g-font--16",
      "text2": "Seat Ibiza 2016 - CGG 5463"
    },
    "right": [
      {
        "addClass": "g-px-lg--15 g-font--13 w-px-lg--20",
        "content": [
          {
            "iconClass": " g-pr--5 ",
            "icon": "icon-mapfre_055_card",
            "textClass": "g-font--light ",
            "title": "Débito automático "
          },
          {
            "iconClass": " g-pr--5 ",
            "icon": "icon-mapfre_096_porcentage",
            "textClass": "g-font--light",
            "title": "4 cuotas "
          }
        ]
      },
      {
        "addClass": "g-px-lg--15 g-font--13 w-px-lg--20",
        "content": [
          {
            "iconClass": " g-pr--5 ",
            "icon": "icon-mapfre_063_agendar",
            "textClass": "g-font--light ",
            "title": "Renovación: 12/11/2019"
          },
          {
            "iconClass": " g-pr--5 ",
            "icon": "icon-mapfre_097_refresh",
            "textClass": "g-font--light",
            "title": "Automática "
          }
        ]
      }
    ],
    "btn": {
      "addClass": "d-flex flex-row flex-lg-column justify-content-between justify-content-lg-center align-items-center flex-grow-1 g-bl-lg--1 g-bc--gray11  g-bt--1 g-bt-lg--0 g-px--15 g-px-lg--0 g-py--15 g-py-lg--0 w-100 w-px-lg--19",
      "icon": false,
      "text": [
        {
          "textClass": "g-font--medium d-flex flex-row-reverse flex-lg-row aling-items-center g-ie-flex--0-1-auto",
          "text": "<span>Prima de Seguro</span> <span class='icon-mapfre_048_tooltip g-c--green1 g-font--25 g-font-md--21 g-c--pointer g-pr--10 g-pr-lg--0 g-pl-lg--5'></span>"
        },
        {
          "textClass": "",
          "text": "S/ 450.32"
        }
      ]
    }
  },
  "banner": false,
  "contentTabs": "g-px-lg--15",
  "leftClass": "g-pt-lg--20",
  "titleTabs": "",
  "tabVertical": {
    "listTab": [
      {
        "addActive": "g-font--18 ",
        "link": "#1",
        "text": "RENOVACIÓN"
      },
      {
        "addActive": "g-font--18 ",
        "link": "#2",
        "text": "MIS CUOTAS"
      },
      {
        "addActive": "g-font--18 g-tablist-vertical__tab--active active g-font--bold",
        "link": "#3",
        "text": "TIPO DE PAGO"
      },
      {
        "addActive": "g-font--18",
        "link": "#3",
        "text": "MIS TARJETAS"
      }
    ]
  },
  "mfselect": {
    "addClass": "g-form-focus",
    "label": "Seleccione",
    "disabled": false,
    "listOption": [
      {
        "value": "RENOVACIÓN"
      },
      {
        "value": "MIS CUOTAS"
      },
      {
        "value": "TIPO DE PAGO"
      }
    ]
  },
  "addClassContent": "g-pb-lg--50 g-mt--30 g-mt-lg--0",
  "section": false,
  "contentPayments": false,
  "tabsAlternative": {
    "tabsClass": " ",
    "title": {
      "textClass": "g-c--gray2 g-font--16 g-font--bold g-mb--20",
      "text": "Tipo de pago"
    },
    "headerTabs": [
      {
        "addClass": "on flex-column flex-lg-row align-items-center align-items-lg-start justify-content-center justify-content-lg-start",
        "idTabs": "t1",
        "iconsContent": {
          "iconsClass": "d-flex flex-column g-ie-flex--0-1-auto",
          "icons": [
            {
              "iconFile": "icon-mapfre_217_shopping",
              "iconClass": "g-font--18 g-c--gray18 g-mr--10"
            },
            {
              "iconFile": "icon-mapfre_003_check",
              "iconClass": "g-font--12 text-center  g-pt--10 g-c--green1 g-mr--10  d-none d-lg-block"
            }
          ]
        },
        "contentText": "d-flex flex-column g-ie-flex--0-1-auto",
        "textContent": [
          {
            "textClass": "g-line--11 d-none d-lg-block  g-c--gray2 g-font--medium",
            "text": "Pago manual"
          },
          {
            "textClass": "g-font--13 g-font--light d-none d-lg-block ",
            "text": "Paga cuando quieres y cómo quieras"
          }
        ]
      },
      {
        "addClass": "flex-column flex-lg-row align-items-center align-items-lg-start justify-content-center justify-content-lg-start",
        "idTabs": "t2",
        "iconsContent": {
          "iconsClass": "d-flex flex-column g-ie-flex--0-1-auto",
          "icons": [
            {
              "iconFile": "icon-mapfre_055_card",
              "iconClass": "g-font--18 g-c--gray18 g-mr--10"
            }
          ]
        },
        "textContent": [
          {
            "textClass": "g-line--11 d-none d-lg-block g-ie-flex--0-1-auto g-c--gray2 g-font--medium",
            "text": "Débito automático"
          },
          {
            "textClass": "g-font--13 g-font--light d-none d-lg-block",
            "text": "Despreocupate y paga tus cuotas automáticamente"
          }
        ]
      },
      {
        "addClass": "flex-column flex-lg-row align-items-center align-items-lg-start justify-content-center justify-content-lg-start",
        "idTabs": "t3",
        "iconsContent": {
          "iconsClass": "d-flex flex-column g-ie-flex--0-1-auto",
          "icons": [
            {
              "iconFile": " icon-mapfre_056_wallet",
              "iconClass": "g-font--18 g-c--gray18 g-mr--10"
            }
          ]
        },
        "textContent": [
          {
            "textClass": "g-line--11 d-none d-lg-block g-ie-flex--0-1-auto g-c--gray2 g-font--medium",
            "text": "Cargo a cuenta"
          },
          {
            "textClass": "g-font--13 g-font--light d-none d-lg-block",
            "text": "Despreocupate y paga tus cuotas automáticamente"
          }
        ]
      }
    ],
    "tabContent": [
      {
        "active": "on g-pt--40",
        "content": {
          "content": "d-flex w-10 g-pr-lg--20 flex-column flex-lg-row",
          "leftClass": "w-10 g-max-w-lg--83 g-ie-flex--0-1-auto ",
          "contentLeft": [
            {
              "text": [
                {
                  "textClass": "g-font--16 g-font--bold g-c--gray2 g-line--11 text-center",
                  "text": "Puedes realizar tu pago de las siguientes formas:"
                }
              ],
              "list": false
            }
          ],
          "contetFull": {
            "contetFullClass": "d-flex flex-column flex-md-row g-mt--30  g-mt-lg--40 g-ie-flex--0-1-auto",
            "container": [
              {
                "containerClass": " w-10 g-max-w--19 mx-auto",
                "boxBrandBanks": [
                  {
                    "addClass": "text-center g-p--5",
                    "srcClass": "",
                    "src": "../../images/cards/banbif.svg"
                  },
                  {
                    "addClass": "text-center g-p--5",
                    "srcClass": "",
                    "src": "../../images/cards/bbva.svg"
                  },
                  {
                    "addClass": "text-center g-p--5",
                    "srcClass": "",
                    "src": "../../images/cards/bcp.svg"
                  },
                  {
                    "addClass": "text-center g-p--5",
                    "srcClass": "",
                    "src": "../../images/cards/interbank.svg"
                  },
                  {
                    "addClass": "text-center g-p--5",
                    "srcClass": "",
                    "src": "../../images/cards/scotiabank.svg"
                  }
                ],
                "text": {
                  "textClass": "text-center w-10 g-font--16  g-font--medium g-c--gray2 g-py--10 g-line--11",
                  "text": " A través de tu banco (BanBif, BBVA, BCP, Interbank y ScotiaBank)"
                },
                "list": {
                  "listClass": "w-10 g-pl--10",
                  "addClass": "green",
                  "ico-font": "icon-mapfre_003_check",
                  "list": [
                    {
                      "addClass": "w-10",
                      "text": "Banca online | <span class='g-c--green1 g-font--medium g-c--pointer'>más info</span></span>"
                    },
                    {
                      "addClass": "w-10",
                      "text": "Ventanilla | <span class='g-c--green1 g-font--medium g-c--pointer'>más info</span></span>"
                    }
                  ]
                }
              },
              {
                "containerClass": " w-10 g-max-w--19 mx-auto g-pt--30 g-pt-lg--0",
                "boxBrandBanks": [
                  {
                    "addClass": "text-center g-pb--20 g-mt--10",
                    "srcClass": "",
                    "src": "../../images/cards/mapfre.svg"
                  }
                ],
                "text": [
                  {
                    "textClass": "text-center w-10 g-font--16 g-font--medium g-c--gray2 g-py--10 g-line--11",
                    "text": " Oficinas de MAPFRE"
                  },
                  {
                    "textClass": "text-center w-10 g-pt--10",
                    "text": " Acércate con tu documento"
                  },
                  {
                    "textClass": "text-center g-font--medium w-10 g-c--green1 g-c--pointer  g-pt--10",
                    "text": " Red de oficinas"
                  }
                ],
                "list": false
              },
              {
                "containerClass": " w-10 g-max-w--19 mx-auto g-pt--30 g-pt-lg--0",
                "maxWidthClass": "g-max-w--15 mx-auto",
                "boxBrandBanks": [
                  {
                    "addClass": "text-center g-p--5",
                    "srcClass": "",
                    "src": "../../images/cards/visa.svg"
                  },
                  {
                    "addClass": "text-center g-p--5",
                    "srcClass": "",
                    "src": "../../images/cards/mastercard.svg"
                  },
                  {
                    "addClass": "text-center g-p--5",
                    "srcClass": "",
                    "src": "../../images/cards/amex.svg"
                  },
                  {
                    "addClass": "text-center g-p--5",
                    "srcClass": "",
                    "src": "../../images/cards/diners.svg"
                  }
                ],
                "text": [
                  {
                    "textClass": "text-center w-10 g-font--16 g-font--medium g-c--gray2 g-pt--10 g-line--11",
                    "text": " Área privada de MAPFRE"
                  },
                  {
                    "textClass": "text-center w-10 g-pt--10",
                    "text": " Paga con un click"
                  },
                  {
                    "textClass": "text-center w-10 g-c--green1 g-c--pointer g-font--medium g-pt--10",
                    "text": " Añadir mi tarjeta"
                  }
                ],
                "list": false
              }
            ],
            "btns": {
              "btnClass": "d-flex ",
              "btn": {
                "addClass": "g-text--uppercase g-mt-lg--60 g-px-lg--50 g-mt--30  g-mb--30 mx-auto",
                "text": "SELECCIONAR COMO TIPO DE PAGO"
              }
            }
          },
          "rightClass": false
        }
      },
      {
        "active": "g-pt--40",
        "content": {
          "content": "d-flex w-10 g-pr-lg--20 flex-column flex-lg-row",
          "leftClass": "g-max-w-lg--31 g-pr--20 ",
          "contentLeft": {
            "text": [
              {
                "textClass": "g-font--16 g-font--bold g-pb--20 g-c--gray2 g-line--11",
                "text": "Te cobraremos automáticamente a tu tarjeta de crédito o débito. "
              },
              {
                "textClass": "g-font--16 g-font--medium g-pb--10 g-c--gray2 g-line--11",
                "text": "Recibes los siguientes beneficios:"
              }
            ],
            "list": {
              "addClass": "green",
              "ico-font": "icon-mapfre_003_check",
              "list": [
                {
                  "addClass": "g-font--light",
                  "text": "Tienes mayor seguridad"
                },
                {
                  "addClass": "g-font--light",
                  "text": "Evitas las colas y ahorras tiempo "
                },
                {
                  "addClass": "g-font--light g-mb--20",
                  "text": "Mantienes tus pagos siempre al día"
                }
              ]
            }
          },
          "textFooter": [
            {
              "textClass": " g-font--medium g-pb--20 g-line--11 g-c--green1 g-c--pointer",
              "text": "¿Cómo funciona el débito automático?"
            }
          ],
          "rightClass": {
            "rightClass": "w-10 g-max-w-lg--50",
            "typeCards": [
              {
                "titleContent": {
                  "textClass": "g-font--18 g-c--gray2 g-pb--20 g-font--medium",
                  "text": "DATOS DE TU TARJETA"
                },
                "formCase": [
                  {
                    "addContentClass": "g-w-100 g-pr-lg--15 g-pb--10",
                    "input": {
                      "addClass": "g-form-focus",
                      "contentIcon": "align-items-center g-font--18 ",
                      "currency": false,
                      "image": false,
                      "imageRight": {
                        "src": "../../images/banks/visa.svg",
                        "imageRightClass": " g-box--shadow1 g-b-radius--5"
                      },
                      "type": "text",
                      "value": "3232 3232 2344 2324",
                      "label": "Número en la tarjeta",
                      "requerid": false,
                      "error": ""
                    }
                  }
                ]
              },
              {
                "titleContent": false,
                "formCase": [
                  {
                    "addContentClass": "g-w-50 g-pr--15 g-pb--10",
                    "inputTooltip": {
                      "mfInput": {
                        "inputClass": "",
                        "label": "MM / AA",
                        "type": "text",
                        "value": "04 / 21",
                        "error": "",
                        "addClass": "g-form-focus",
                        "requerid": false,
                        "title": "",
                        "tooltip": {
                          "iconClassTooltip":"g-pt--30",
                          "iconTooltip": true,
                          "icon": "icon-mapfre_048_tooltip",
                          "iconClass": "g-font--25 g-font-md--21 g-c--green1 g-c--pointer g-mb--10",
                          "textArea": false,
                          "text": "",
                          "alignTooltip": "",
                          "addClass": "g-py--15 g-px--5 g-w-px--30",
                          "addClassTitle": "g-pb--10 g-font--medium text-center g-font--14",
                          "title": "¿Dónde encontrar la Fecha Vcto.?",
                          "description": {
                            "descriptionClass": "d-flex flex-column justify-content-center text-center",
                            "description": "<div class='g-font--13 g-font--light g-line--11 g-mb--20 g-c--gray2'>Encontrarás la fecha de vencimiento al frente de tu tarjeta, debajo del número de tarjeta.</div> <img class='w-px--20 mx-auto' src='../../images/payments/card-front.png'>"
                          },
                          "link": false
                        }
                      }
                    }
                  },
                  {
                    "addContentClass": "g-w-50 g-pr--15 g-pb--10",
                    "inputTooltip": {
                      "mfInput": {
                        "inputClass": "",
                        "label": "CVV",
                        "type": "text",
                        "value": "124",
                        "error": "",
                        "addClass": "g-form-focus",
                        "requerid": false,
                        "title": "",
                        "tooltip": {
                          "iconClassTooltip":"g-pt--30",
                          "iconTooltip": true,
                          "icon": "icon-mapfre_048_tooltip",
                          "iconClass": "g-font--25 g-font-md--21 g-c--green1 g-c--pointer g-mb--10",
                          "textArea": false,
                          "text": "",
                          "alignTooltip": "",
                          "addClass": "g-py--15 g-px--5 g-w-px--30",
                          "addClassTitle": "g-pb--10 g-font--medium text-center g-font--14",
                          "title": "¿Qué es el CVV?",
                          "description": {
                            "descriptionClass": "d-flex flex-column justify-content-center text-center",
                            "description": "<div class='g-font--13 g-font--light g-line--11 g-mb--20 g-c--gray2'>Un código de tres dígitos ubicado al reverso de tu tarjeta de crédito.</div> <img class='w-px--20 mx-auto' src='../../images/payments/card-back.png'>"
                          },
                          "link": false
                        }
                      }
                    }
                  },
                  {
                    "addContentClass": "g-w-100 g-pr-lg--15 g-pb--10",
                    "input": {
                      "label": "Nombre del titular",
                      "type": "text",
                      "value": "Courtney Barnett",
                      "error": "",
                      "addClass": "g-form-focus",
                      "requerid": false,
                      "tooltip": false,
                      "title": ""
                    }
                  },
                  {
                    "addContentClass": "g-w-100 g-pr-lg--15 g-pb--10",
                    "input": {
                      "label": "Correo electrónico",
                      "type": "text",
                      "value": "maryoliver@wildgeese.com",
                      "error": "",
                      "addClass": "g-form-focus",
                      "requerid": false,
                      "tooltip": false,
                      "title": ""
                    }
                  },
                  {
                    "addContentClass": "g-w-100 g-pr-lg--15 g-pb--10",
                    "check": {
                      "addClass": "g-mt-lg--10",
                      "labelClass": "g-font--13",
                      "label": "Acepto el cargo automático bajo las <span class='g-c--green1 g-font--medium'>siguientes condiciones</span>"
                    }
                  }
                ]
              }
            ],
            "btns": {
              "btnClass": "d-flex ",
              "btn": {
                "addClass": "g-text--uppercase g-px-lg--35 g-mt--15 g-mb--30 mx-auto g-btn-outline disabled",
                "text": "GUARDAR Y SELECCIONAR "
              }
            }
          }
        }
      },
      {
        "active": "g-pt--40",
        "content": {
          "content": "d-flex w-10 g-pr-lg--20 flex-column flex-lg-row",
          "leftClass": "g-max-w-lg--31 g-pr--20 g-pr-lg--40 ",
          "contentLeft": [
            {
              "text": [
                {
                  "textClass": "g-font--16 g-font--bold g-pb--20 g-c--gray2 g-line--11",
                  "text": "Te cobraremos automáticamente a cuenta bancaria (BBVA, BCP, Interbank y ScotiaBank). "
                },
                {
                  "textClass": "g-font--16 g-font--medium g-pb--10 g-c--gray2 g-line--11",
                  "text": "Recibes los siguientes beneficios:"
                }
              ],
              "list": {
                "addClass": "green",
                "ico-font": "icon-mapfre_003_check",
                "list": [
                  {
                    "addClass": "g-font--light",
                    "text": "No tienes que pagar intereses"
                  },
                  {
                    "addClass": "g-font--light",
                    "text": "Puedes unificar todas tus pólizas en un solo pago"
                  },
                  {
                    "addClass": "g-font--light",
                    "text": "Te regalamos un SOAT"
                  }
                ]
              },
              "textFooter": false
            },
            {
              "text": [
                {
                  "textClass": "g-font--16 g-font--bold g-pt--20 g-c--gray2 g-line--11",
                  "text": "Primer cobro:"
                },
                {
                  "textClass": " g-font--light g-py--10 g-c--gray2 g-line--11",
                  "text": "Jueves 08 de marzo de 2019"
                }
              ],
              "list": false
            }
          ],
          "textFooter": [
            {
              "textClass": " g-font--medium g-pb--20 g-line--11 g-c--green1 g-c--pointer",
              "text": "¿Cómo funciona el cargo a cuenta?"
            }
          ],
          "rightClass": {
            "rightClass": "w-10 g-max-w-lg--50",
            "typeCards": [
              {
                "titleContent": {
                  "textClass": "g-font--18 g-c--gray2 g-pb--20 g-font--medium",
                  "text": "TU CUENTA FUE GUARDADA CON ÉXITO "
                },
                "formCase": false
              },
              {
                "titleContent": false,
                "cardBoxMin": [
                  {
                    "addClass": "g-box--shadow1 g-mb--10 g-b--1 g-bc--gray11 g-py--15 g-px--15 d-flex justify-content-between align-items-center w-10",
                    "content": [
                      {
                        "contentClass": "",
                        "text": {
                          "textClass": "g-font--medium g-c--gray2 g-font--14",
                          "text": "<div class='g-font--13 g-font--ligth g-line--11'><img class='g-mr--5 g-mb--10 g-box--shadow1' src='../../images/banks/master-card.svg'> Mastercard</div> XXXX XXXX XXXXX543"
                        }
                      },
                      {
                        "contentClass": "g-pr-lg--10",
                        "text": {
                          "textClass": "icon-mapfre_035_edit g-font--25 g-font-md--21 g-c--green1 g-c--pointer",
                          "text": ""
                        }
                      }
                    ]
                  }
                ],
                "formCase": false
              }
            ],
            "btns": false
          }
        }
      }
    ]
  }
}