{
  "iconFile": "icon-mapfre_044_logo_landing ",
  "addClass": "g-font--45",
  "acordion": [
    {
      "classAccordion": "g-bg-c--gray8 g-c--gray10 g-pt--5",
      "dataGroup": "true",
      "item": [
        {
          "dataOpen": "true",
          "itemClass": "",
          "titleClass": "",
          "boxClass": "",
          "clickClass": " g-pl--20   g-pr--15   g-py--10 ",
          "icon": {
            "iconFile": "icon-mapfre_022_car2",
            "iconClass": " g-px--15  g-font--20 "
          },
          "arrow": {
            "clickOn": {
              "iconFile": "icon-mapfre_101_ico-dow",
              "iconClass": "g-font--10 g-c-pointer g-c--white1"
            },
            "clickOff": {
              "iconFile": "icon-mapfre_102_ico-up",
              "iconClass": "g-c--pointer g-font--10"
            }
          },
          "textClass": "g-text--uppercase g-font--bold",
          "text": "VEHÍCULOS",
          "contentClass": "",
          "content": false,
          "list": [
            {
              "iconFile": "",
              "text": "Seguro Vehicular"
            },
            {
              "iconFile": "",
              "text": "SOAT"
            },
            {
              "iconFile": "",
              "text": "Accidentes"
            },
            {
              "text": "Robo"
            },
            {
              "text": "Talleres"
            },
            {
              "text": "Cotización"
            }
          ],
          "classContent": "g-hover-nav g-font--12"
        },
        {
          "dataOpen": "",
          "itemClass": "",
          "titleClass": "",
          "boxClass": "",
          "clickClass": " g-pl--20   g-pr--15   g-py--10 ",
          "icon": {
            "iconFile": "icon-mapfre_023_cross2",
            "iconClass": " g-px--15  g-font--20 "
          },
          "arrow": {
            "clickOn": {
              "iconFile": "icon-mapfre_101_ico-dow",
              "iconClass": "g-font--10 g-c-pointer g-c--white1"
            },
            "clickOff": {
              "iconFile": "icon-mapfre_102_ico-up",
              "iconClass": "g-c--pointer g-font--10"
            }
          },
          "textClass": "g-text--uppercase g-font--bold",
          "text": "SALUD",
          "contentClass": "",
          "content": false,
          "list": [
            {
              "iconFile": "",
              "text": "Seguro Vehicular"
            },
            {
              "iconFile": "",
              "text": "SOAT"
            },
            {
              "iconFile": "",
              "text": "Accidentes"
            },
            {
              "text": "Robo"
            },
            {
              "text": "Talleres"
            },
            {
              "text": "Cotización"
            }
          ],
          "classContent": "g-hover-nav"
        },
        {
          "dataOpen": "",
          "itemClass": "",
          "titleClass": "",
          "boxClass": "",
          "clickClass": " g-pl--20   g-pr--15   g-py--10 ",
          "icon": {
            "iconFile": "icon-mapfre_024_house2",
            "iconClass": " g-px--15  g-font--20 "
          },
          "arrow": {
            "clickOn": {
              "iconFile": "icon-mapfre_101_ico-dow",
              "iconClass": "g-font--10 g-c-pointer g-c--white1"
            },
            "clickOff": {
              "iconFile": "icon-mapfre_102_ico-up",
              "iconClass": "g-c--pointer"
            }
          },
          "textClass": "g-text--uppercase g-font--bold",
          "text": "HOGAR",
          "contentClass": "",
          "content": false,
          "list": [
            {
              "iconFile": "",
              "text": "Seguro Vehicular"
            },
            {
              "iconFile": "",
              "text": "SOAT"
            },
            {
              "iconFile": "",
              "text": "Accidentes"
            },
            {
              "text": "Robo"
            },
            {
              "text": "Talleres"
            },
            {
              "text": "Cotización"
            }
          ],
          "classContent": "g-hover-nav"
        },
        {
          "dataOpen": "",
          "itemClass": "",
          "titleClass": "",
          "boxClass": "",
          "clickClass": " g-pl--20   g-pr--15   g-py--10 ",
          "icon": {
            "iconFile": "icon-mapfre_025_heart2",
            "iconClass": " g-px--15  g-font--20 "
          },
          "arrow": {
            "clickOn": {
              "iconFile": "icon-mapfre_101_ico-dow",
              "iconClass": "g-font--10 g-c-pointer g-c--white1"
            },
            "clickOff": {
              "iconFile": "icon-mapfre_102_ico-up",
              "iconClass": "g-c--pointer"
            }
          },
          "textClass": "g-text--uppercase g-font--bold",
          "text": "VIDA Y AHORROS",
          "contentClass": "",
          "content": false,
          "list": [
            {
              "iconFile": "",
              "text": "Seguro Vehicular"
            },
            {
              "iconFile": "",
              "text": "SOAT"
            },
            {
              "iconFile": "",
              "text": "Accidentes"
            },
            {
              "text": "Robo"
            },
            {
              "text": "Talleres"
            },
            {
              "text": "Cotización"
            }
          ],
          "classContent": "g-hover-nav"
        },
        {
          "dataOpen": "",
          "itemClass": "",
          "titleClass": "",
          "boxClass": "",
          "clickClass": " g-pl--20   g-pr--15   g-py--10 ",
          "icon": {
            "iconFile": "icon-mapfre_026_decesos",
            "iconClass": " g-px--15  g-font--20 "
          },
          "arrow": false,
          "textClass": "g-text--uppercase g-font--bold",
          "text": "DECESOS",
          "contentClass": "",
          "content": false,
          "classContent": "g-hover-nav"
        },
        {
          "dataOpen": "",
          "itemClass": "",
          "titleClass": "",
          "boxClass": "",
          "clickClass": " g-pl--20   g-pr--15   g-py--10 ",
          "icon": {
            "iconFile": "icon-mapfre_027_box",
            "iconClass": " g-px--15  g-font--20 "
          },
          "arrow": false,
          "textClass": "g-text--uppercase g-font--bold",
          "text": "SERVICIOS MAPFRE",
          "contentClass": "",
          "content": false,
          "classContent": "g-hover-nav"
        },
        {
          "dataOpen": "",
          "itemClass": "",
          "titleClass": "",
          "boxClass": "",
          "clickClass": " g-pl--20   g-pr--15   g-py--10 ",
          "icon": {
            "iconFile": "icon-mapfre_028_pagos",
            "iconClass": " g-px--15  g-font--20 "
          },
          "arrow": false,
          "textClass": "g-text--uppercase g-font--bold",
          "text": "Mis Pagos",
          "contentClass": "",
          "content": false,
          "classContent": "g-hover-nav"
        },
        {
          "dataOpen": "",
          "itemClass": "",
          "titleClass": "",
          "boxClass": "",
          "clickClass": " g-pl--20   g-pr--15   g-py--10 ",
          "icon": {
            "iconFile": "icon-mapfre_029_location-pin2",
            "iconClass": " g-px--15  g-font--20 "
          },
          "arrow": false,
          "textClass": "g-text--uppercase g-font--bold",
          "text": "Red de Oficinas",
          "contentClass": "",
          "content": false,
          "classContent": "g-hover-nav"
        }
      ]
    }
  ],
  "list-btn": [
    {
      "iconFile": "icon-mapfre_030_call",
      "addClass": "g-font--30"
    },
    {
      "iconFile": "icon-mapfre_031_qanda",
      "addClass": "g-font--30"
    }
  ],
  "headerOIM": {
    "icoNav": {
      "iconFile": "icon-mapfre_047_bars",
      "addClass": "g-font--30",
      "iconFileOIM": "icon-mapfre_044_logo_landing ",
      "addClassOIM": "g-font--30"
    },
    "headOimMobile": {
      "llamada": "MIS PAGOS",
      "bajada": "RENOVACIÓN DE SOAT",
      "iconFile": "icon-mapfre_044_logo_landing ",
      "addClass": "g-font--30",
      "icoBack": {
        "icon": "icon-mapfre_010_arrow-left",
        "addClass": "g-items-icon g-c--gray3 g-font--25 g-font-md--21"
      }
    },
    "datos": {
      "icoCircle": "icon-mapfre_066_circle",
      "sizeCircle": "g-font--40 g-c--gray1",
      "icoUser": "icon-mapfre_037_user",
      "addClass": "g-c--white1 g-ico--center g-font--20",
      "tittle": "NOTIFICACIONES",
      "icoAlert": "icon-mapfre_036_notification",
      "icoClose": "icon-mapfre_049_close2",
      "sizeClose": "g-font--40",
      "nameUser": "Hola <b>Gonzalo!</b>",
      "numb": 3,
      "alertBadge": {
        "icoCircle": "icon-mapfre_066_circle",
        "addClass": "g-font--30 g-c--green1",
        "addClassNum": "g-ico--center g-font--11 g-c--white1"
      },
      "list": [
        {
          "tipo": "Mi prefil"
        },
        {
          "tipo": "Cerrar sesión"
        }
      ]
    },
    "alert": {
      "ico": "icon-mapfre_014_perfil",
      "icoCircle": "icon-mapfre_066_circle",
      "sizeCircle": "g-font--40 g-c--gray1",
      "addClass": "g-c--white1 g-ico--center g-font--20",
      "tittle": "NOTIFICACIONES",
      "icoAlert": "icon-mapfre_036_notification",
      "icoClose": "icon-mapfre_049_close2",
      "sizeClose": "g-font--40",
      "numb": 3,
      "alertBadge": {
        "icoCircle": "icon-mapfre_066_circle",
        "addClass": "g-font--30 g-c--green1",
        "addClassNum": "g-ico--center g-font--11 g-c--white1"
      },
      "list": [
        {
          "ico-drow": "icon-mapfre_057_circle-check",
          "fech": "HOY 10:23am",
          "tipo": "Solicitud de chofer de reemplazo confirmada",
          "desc": "Seguro vehicular"
        },
        {
          "ico-drow": "icon-mapfre_049_close2",
          "fech": "HOY 10:23am",
          "tipo": "Solicitud de auxilio mecánico cancelada",
          "desc": "Seguro vehicular"
        },
        {
          "ico-drow": "icon-mapfre_057_circle-check",
          "fech": "HOY 10:23am",
          "tipo": "Solicitud de auxilio mecánico cancelada",
          "desc": "Seguro vehicular"
        },
        {
          "ico-drow": "icon-mapfre_049_close2",
          "fech": "HOY 10:23am",
          "tipo": "Solicitud de auxilio mecánico cancelada",
          "desc": "Seguro vehicular"
        },
        {
          "ico-drow": "icon-mapfre_057_circle-check",
          "fech": "HOY 10:23am",
          "tipo": "Solicitud de auxilio mecánico cancelada",
          "desc": "Seguro vehicular"
        },
        {
          "ico-drow": "icon-mapfre_062_reloj",
          "fech": "HOY 10:23am",
          "tipo": "Solicitud de auxilio mecánico cancelada",
          "desc": "Seguro vehicular"
        },
        {
          "ico-drow": "icon-mapfre_049_close2",
          "fech": "HOY 10:23am",
          "tipo": "Solicitud de auxilio mecánico cancelada",
          "desc": "Seguro vehicular"
        }
      ]
    }
  },
  "messagesProfile": {
    "addClass": "container g-my-lg--40 g-mt-md--10 w-100 g-max-w-lg--570 mx-auto g-px-lg--0 ",
    "contentClass": "g-p-md--40",
    "messages": false,
    "messagesAltern": {
      "icon": false,
      "image": {
        "imageClass": "g-mb--20 g-pt--40 g-pt-lg--0",
        "src": "/../../../images/services/icon-payment.svg"
      },
      "boxClass": "w-10 ",
      "mPrimary": [
        {
          "primaryClass": "g-text--uppercase g-font--medium g-c--gray2 g-font--20  text-center",
          "text-primary": "¡Gracias por tu solicitud!"
        },
        {
          "primaryClass": "g-c--gray18 g-pt--15 g-font--14 g-px-lg--70",
          "text-primary": "Acercate con tu documento de identidad y pide realizar un pago a MAPFRE en dólares"
        },
        {
          "primaryClass": "g-c--gray18 g-font--light g-pt--30 g-font--13  text-center",
          "text-primary": "Monto de la primera cuota:"
        },
        {
          "primaryClass": "g-c--gray2 g-font--medium g-pt--5 g-font--18  text-center",
          "text-primary": "S/ 210.00"
        },
        {
          "primaryClass": "d-flex justify-content-between g-mt--20 g-px-lg--60 g-pb--10",
          "text-primary": "<div class='g-font--medium g-c--gray2 g-font--13'>Detalle de pago</div>"
        },
        {
          "primaryClass": "d-flex justify-content-between g-px-lg--60 g-pb--10",
          "text-primary": "<div class='g-font--light g-c--gray2 g-font--13'>Precio póliza A</div> <div class='g-font--light g-c--gray2 g-font--13'>S/ 330.00</div>"
        },
        {
          "primaryClass": "d-flex justify-content-between g-px-lg--60 g-pb--10",
          "text-primary": "<div class='g-font--light g-c--gray2 g-font--13'>Ahorro con MAPFRE dólares</div> <div class='g-font--light g-c--gray2 g-font--13'>-S/ 120.00</div>"
        },
        {
          "primaryClass": "d-flex justify-content-between g-px-lg--60",
          "text-primary": "<div class='g-font--light g-c--gray2 g-font--13'>Total a pagar</div> <div class='g-font--medium g-c--gray2 g-font--13'>S/ 210.00</div>"
        }
      ],
      "alert": {
        "addClass": "g-bg-c--red7 g-b--1 g-bc--orange1 g-p--10 g-mt--20",
        "icon": {
          "iconFile": "icon-mapfre_051_alerta",
          "iconClass": "g-font--30 g-c--orange1"
        },
        "textClass": "g-font--13",
        "titleClass": "g-c--orange1 text-left",
        "titleText": "Esta orden expira en 24 horas.",
        "subTitle": false,
        "btnDetalle": false
      },
      "mSecondary": false,
      "secondaryClass": "",
      "text-secondary": "Lorem ipsum dolor sit amet, consectetuer adipiscing elit. Aenean commodo ligula eget dolor.",
      "thirdyClass": " g-mt--10 ",
      "text-thirdy": "Lorem ipsum dolor sit amet, consectetuer adipiscing elit. Aenean commodo ligula eget dolor.",
      "table": {
        "boxClass": "g-b--1 g-bc--gray11 w-10",
        "contentHeadClass": "d-flex flex-column",
        "headContent": [
          {
            "headClass": "g-p--10 text-center g-bb--1 g-bc--gray11 w-10 ",
            "title": [
              {
                "textClass": "g-font--13 g-font--light ",
                "text": "Documento de pago:"
              },
              {
                "textClass": "g-font--bold g-font--16",
                "text": "DNI 430940983"
              }
            ]
          },
          {
            "headClass": "g-pt--10 g-px--10 text-center w-10 ",
            "title": [
              {
                "textClass": "g-font--13 g-font--light ",
                "text": "Número de recibo:"
              },
              {
                "textClass": "",
                "text": "430940983"
              }
            ]
          }
        ],
        "contentClass": "g-p--20 ",
        "title": {
          "textClass": "g-font--13 g-font--light text-center",
          "text": "Bancos afiliados:"
        },
        "brands": {
          "addClass": "justify-content-around text-center flex-wrap g-mt--5",
          "img": [
            {
              "imgClass": "g-w-50 g-w-md-33 text-md-center g-pb-lg--20",
              "img": "/../../../images/banner/vehiculo/bbva.svg"
            },
            {
              "imgClass": "g-w-50 g-w-md-33 text-md-center g-pb-lg--20",
              "img": "/../../../images/banner/vehiculo/bcp.svg"
            },
            {
              "imgClass": "g-w-50 g-w-md-33 text-md-center g-pb-lg--20",
              "img": "/../../../images/banner/vehiculo/banbif.svg"
            },
            {
              "imgClass": "g-w-50 g-w-md-33 text-md-center",
              "img": "/../../../images/banner/vehiculo/scotiabank.svg"
            },
            {
              "imgClass": "g-w-50 g-w-md-33 text-md-center",
              "img": "/../../../images/banner/vehiculo/interbank.svg"
            }
          ]
        }
      }
    },
    "formContent": false,
    "btns": {
      "btnsClass": "d-flex flex-row justify-content-center",
      "btn": [
        {
          "addClass": "g-p--10 text-center w-10",
          "textClass": "g-btn g-text--uppercase w-10 w-px-md--24 g-c--pointer",
          "text": "Ir a inicio"
        }
      ]
    }
  }
}