{
  "addClass": "col-12 col-md-6 col-lg-4 d-flex",
  "itemClass": "g-bg-c--white1 g-c--gray8 g-b--1 text-center d-flex flex-column g-b-radius--3 g-box--shadow1 w-10 g-mb--15 g-mb-lg--20",
  "contentClass": " g-p--20 ",
  "icon": {
    "iconFile": "icon-mapfre_001_cliente",
    "iconClass": "g-font--55"
  },
  "title": {
    "text": "Auxilio mecánico"
  },
  "description": {
    "text": "Detección y reparación de fugas de agua, limpieza"
  },
  "footer": {
    "text": "LLAMAR AL 2212 PARA SOLICITARLO"
  }
}